<?xml version="1.0" encoding="UTF-8" standalone="no"?>
<svg
   xmlns:dc="http://purl.org/dc/elements/1.1/"
   xmlns:cc="http://creativecommons.org/ns#"
   xmlns:rdf="http://www.w3.org/1999/02/22-rdf-syntax-ns#"
   xmlns:svg="http://www.w3.org/2000/svg"
   xmlns="http://www.w3.org/2000/svg"
   id="svg11202"
   version="1.1"
   viewBox="0 0 48.176823 115.60955"
   height="115.60955mm"
   width="48.176823mm">
  <defs
     id="defs11196" />
  <metadata
     id="metadata11199">
    <rdf:RDF>
      <cc:Work
         rdf:about="">
        <dc:format>image/svg+xml</dc:format>
        <dc:type
           rdf:resource="http://purl.org/dc/dcmitype/StillImage" />
        <dc:title></dc:title>
      </cc:Work>
    </rdf:RDF>
  </metadata>
  <g
     transform="translate(-46.784547,-70.101294)"
     id="layer1">
    <path
       id="path11809"
       d="m 64.317307,185.43833 c -0.73747,-0.14277 -1.5024,-0.42113 -1.69983,-0.61856 -0.55174,-0.55174 0.55629,-2.84922 1.60446,-3.32679 0.49142,-0.22391 0.98219,-0.68658 1.09061,-1.02817 0.10841,-0.34158 0.66709,-1.21244 1.2415,-1.93525 0.57441,-0.7228 1.04439,-1.48056 1.04439,-1.68391 0,-0.20335 0.32743,-0.71826 0.72762,-1.14425 0.78395,-0.83448 1.71231,-4.14676 1.72373,-6.15012 0.004,-0.6791 -0.32262,-2.74285 -0.72554,-4.58611 -0.48602,-2.22342 -0.72202,-4.5138 -0.70121,-6.80513 0.0212,-2.33189 -0.14013,-3.86419 -0.49661,-4.71738 -0.2904,-0.69501 -0.52799,-1.93926 -0.52799,-2.76499 0,-0.82573 -0.23813,-2.07125 -0.52917,-2.76781 -0.29104,-0.69656 -0.52916,-1.83012 -0.52916,-2.51901 0,-1.81112 -2.61284,-11.47179 -3.10175,-11.46838 -0.1373,0.001 -0.29333,0.74958 -0.34671,1.66361 -0.10003,1.71251 -0.68676,4.11696 -1.62998,6.67971 -0.29673,0.80624 -0.64616,2.55249 -0.77651,3.88055 -0.13035,1.32807 -0.3833,2.60035 -0.5621,2.8273 -0.20109,0.25525 -0.15482,1.23703 0.12131,2.57392 0.3933,1.90416 0.36822,2.46359 -0.21083,4.70263 -0.36147,1.39775 -0.74496,3.01762 -0.8522,3.5997 -0.27423,1.48846 -0.19675,6.47457 0.12227,7.86906 0.4046,1.76856 -0.7876,2.89066 -3.07125,2.89066 -0.94495,0 -2.70321,0.24725 -3.90725,0.54944 -1.85368,0.46524 -2.40015,0.47875 -3.56586,0.0882 -2.7616,-0.92524 -2.60256,-2.41913 0.38622,-3.62782 5.02952,-2.03399 5.9021,-3.77301 4.69504,-9.35704 -0.54209,-2.50781 -0.66415,-3.92857 -0.48491,-5.64444 0.39982,-3.8274 0.12612,-8.00198 -0.65707,-10.02208 -0.42925,-1.10717 -0.50012,-2.52174 -0.35949,-7.17553 0.13054,-4.31981 0.0601,-6.01153 -0.27656,-6.64055 -0.37641,-0.70334 -0.35837,-1.06561 0.1082,-2.17308 0.8603,-2.04202 1.02265,-3.15755 1.00926,-6.93474 -0.009,-2.44891 0.14713,-3.79747 0.52266,-4.52367 0.60325,-1.16654 0.44546,-2.49281 -0.55765,-4.6873 -0.35477,-0.77611 -0.83338,-2.01574 -1.06359,-2.75473 -0.23021,-0.73899 -1.0157,-2.24711 -1.74554,-3.35138 -0.97202,-1.47071 -1.38382,-2.52679 -1.53949,-3.94805 -0.11689,-1.067157 -0.61736,-2.721247 -1.11215,-3.675757 -0.4948,-0.95452 -0.89963,-2.16499 -0.89963,-2.68993 0,-1.729 0.44388,-3.21671 1.0203,-3.41965 0.31196,-0.10982 0.80532,-0.38442 1.09637,-0.6102 0.29104,-0.22578 1.69397,-0.85612 3.11762,-1.40075 4.7374,-1.81235 6.58091,-5.02617 5.17265,-9.0176 -0.64341,-1.82363 -0.68961,-5.014172 -0.0882,-6.090206 0.81994,-1.466999 2.15658,-2.72925 2.88822,-2.727489 0.64975,0.0016 0.61432,0.09882 -0.33058,0.907463 -0.58209,0.49814 -0.84215,0.794513 -0.57792,0.658607 0.26423,-0.135907 0.6335,-0.02833 0.82061,0.239065 0.23,0.328696 0.39303,0.35867 0.50334,0.09254 0.27569,-0.66516 2.40598,-0.03097 2.55436,0.760436 0.0713,0.380341 0.35007,0.81848 0.61949,0.973642 0.26941,0.155162 0.48984,0.61024 0.48984,1.011282 0,0.5627 0.16601,0.68576 0.72714,0.53902 0.9383,-0.24537 1.18146,0.41392 0.63539,1.72272 -0.40509,0.9709 -0.43819,0.98472 -0.5681,0.23722 -0.0759,-0.43656 -0.36005,-0.79375 -0.6315,-0.79375 -0.29379,0 -0.41137,0.21419 -0.2905,0.52917 0.14281,0.37217 -0.0287,0.52917 -0.57798,0.52917 -0.56728,0 -0.72244,0.15273 -0.56692,0.55802 0.11778,0.30691 0.21414,0.78316 0.21414,1.05833 0,0.27517 0.25511,0.50031 0.56691,0.50031 0.36043,0 0.49252,0.19385 0.36267,0.53223 -0.40483,1.05497 0.42307,2.23112 2.08933,2.96819 1.8647,0.82484 2.4125,0.68092 2.17319,-0.57096 -0.10279,-0.53771 0.0189,-0.93935 0.31956,-1.05473 0.66392,-0.25477 0.61369,-0.81639 -0.073,-0.81639 -0.30721,0 -0.48814,-0.19844 -0.40208,-0.44098 0.0861,-0.24253 0.51507,-0.3998 0.95335,-0.34949 0.67011,0.0769 0.76289,-0.0353 0.58329,-0.70556 -0.11747,-0.43836 -0.21575,-0.9333 -0.2184,-1.09986 -0.003,-0.16655 -0.39196,-0.20566 -0.86514,-0.0869 -1.20117,0.30148 -1.42644,-0.29961 -0.37137,-0.99092 0.69283,-0.45396 0.87892,-0.87293 0.87892,-1.97887 0,-1.261323 -0.0891,-1.402976 -0.88194,-1.402976 -0.97525,0 -1.10827,-0.316183 -0.44098,-1.048161 0.24254,-0.266044 -0.017,-0.139044 -0.57674,0.282222 -1.26663,0.953277 -2.03582,0.97111 -2.60458,0.06038 -0.24235,-0.388055 -0.67741,-0.705555 -0.96681,-0.705555 -0.63344,0 -0.7146,-0.69517 -0.0852,-0.729862 0.24253,-0.01337 0.87753,-0.08191 1.41111,-0.152323 0.72306,-0.09541 0.97152,0.02309 0.97554,0.465279 0.003,0.380658 0.0983,0.4502 0.26458,0.194036 0.34937,-0.53819 1.80124,-0.42281 2.1686,0.172339 0.17814,0.288596 0.38108,0.340076 0.51113,0.129659 0.11862,-0.191937 -0.0997,-0.749863 -0.48507,-1.239835 -0.92141,-1.171384 -0.89577,-1.593764 0.0453,-0.746053 1.05421,0.949637 1.33971,1.899431 1.39226,4.63175 0.0253,1.31466 0.2204,3.00483 0.43359,3.75594 0.33068,1.16505 0.29981,1.42986 -0.21019,1.80278 -0.88863,0.64978 -0.7255,1.50992 0.39638,2.09006 1.53272,0.79261 6.39975,0.81919 7.58675,0.0414 0.772,-0.50583 1.36001,-0.57695 3.15143,-0.38119 1.21129,0.13238 4.67812,0.22459 7.70405,0.20493 4.44505,-0.0289 5.58447,0.064 5.93263,0.48349 0.34422,0.41476 0.31154,0.70146 -0.16241,1.42479 -0.32634,0.49806 -0.81718,0.90556 -1.09075,0.90556 -0.27358,0 -1.40052,0.31742 -2.50433,0.70538 -1.92435,0.67635 -3.19323,0.64706 -3.66371,-0.0846 -0.13385,-0.20815 -0.54889,-0.13521 -1.05834,0.18598 -1.70123,1.0726 -5.24096,2.07806 -6.5861,1.87078 -0.83582,-0.1288 -1.97829,0.0331 -3.1666,0.44888 -2.32007,0.81169 -2.63487,1.10689 -1.18039,1.10689 0.96525,0 1.21285,0.186 1.6544,1.24278 0.67215,1.60868 0.15226,2.84618 -1.02644,2.44327 -0.41995,-0.14355 -1.75454,-0.33075 -2.96574,-0.41601 -2.14372,-0.15089 -2.21213,-0.12887 -2.57642,0.82929 -0.40787,1.07277 -0.22343,2.77081 0.62764,5.778447 0.53677,1.89692 0.64797,5.06635 0.28009,7.98346 -0.13112,1.03974 -0.0325,1.58258 0.34426,1.89528 0.29041,0.24101 0.53191,0.69658 0.53668,1.01237 0.005,0.31579 0.31674,1.49483 0.69325,2.62009 0.41419,1.23785 0.6012,2.46278 0.47348,3.10137 -0.12694,0.63471 0.0145,1.577 0.35487,2.3638 0.93461,2.16056 1.54365,6.76995 1.85095,14.00835 0.16764,3.9487 0.0858,5.05192 -0.58875,7.9375 -1.04621,4.4754 -1.03054,9.8453 0.0392,13.43734 0.793,2.66276 1.02143,8.2159 0.38752,9.4208 -0.49773,0.94606 -0.88231,6.17552 -0.81803,11.12341 0.0442,3.39852 -0.0712,4.77603 -0.46363,5.53483 -0.64198,1.24145 -1.83229,2.1114 -2.88893,2.1114 -0.52565,0 -0.97932,0.35762 -1.34105,1.05712 -0.31291,0.6051 -1.08944,1.28391 -1.81603,1.5875 -1.36569,0.57062 -1.70304,0.58765 -3.75878,0.18965 z m 3.36107,-1.09191 c 0.73214,-0.19715 1.33117,-0.4989 1.33117,-0.67056 0,-0.72729 1.86721,-2.49767 2.4419,-2.31527 0.78983,0.25068 2.61031,-1.64019 2.42043,-2.51401 -0.0802,-0.3691 -0.36235,-0.58679 -0.64995,-0.50145 -0.27952,0.0829 -1.20314,0.21959 -2.0525,0.30368 -2.02766,0.20075 -1.64777,-0.46884 0.44395,-0.78251 1.50704,-0.226 1.56074,-0.27805 1.77042,-1.7164 0.11893,-0.81584 0.13736,-3.57036 0.0409,-6.12116 -0.144,-3.81003 -0.0854,-4.67234 0.32863,-4.8312 0.8908,-0.34183 1.77474,-5.17126 0.9465,-5.17126 -0.16879,0 -0.40192,-0.67469 -0.51806,-1.4993 -0.11614,-0.82462 -0.31855,-1.95947 -0.44981,-2.52188 -0.15338,-0.65727 -0.11062,-0.94345 0.11972,-0.80109 0.1971,0.12181 0.45935,0.72639 0.58277,1.3435 0.12342,0.61711 0.31538,1.03104 0.42657,0.91985 0.32447,-0.32447 -0.85895,-4.49336 -1.44065,-5.07506 -0.61321,-0.61321 -0.71407,-2.47652 -0.14434,-2.66643 0.43321,-0.14441 0.0721,-3.45792 -0.37688,-3.45792 -0.14497,0 -0.36085,0.82128 -0.47974,1.82507 -0.21227,1.79231 -0.70196,2.76435 -1.16124,2.30507 -0.12789,-0.12789 -0.0175,-0.49168 0.24539,-0.8084 0.40725,-0.49071 0.3886,-0.64119 -0.12612,-1.01756 -0.74486,-0.54465 -0.77407,-0.89307 -0.0749,-0.89307 0.33317,0 0.52916,-0.33598 0.52916,-0.90714 0,-0.49893 -0.23812,-1.14527 -0.52916,-1.43631 -0.57116,-0.57116 -0.71637,-1.53711 -0.23107,-1.53711 0.16396,0 0.58493,0.31694 0.93549,0.70431 1.05992,1.1712 1.53366,0.47095 2.12706,-3.14406 0.10879,-0.66277 0.28838,-1.35159 0.39908,-1.53071 0.25256,-0.40866 0.21719,-11.22021 -0.0376,-11.47495 -0.10296,-0.10296 -0.78414,0.0593 -1.51372,0.36055 -0.72959,0.30127 -1.99454,0.72736 -2.81102,0.94687 -1.37182,0.36882 -2.96823,1.61942 -4.38447,3.43473 -0.31752,0.40699 -0.76869,0.80378 -1.00261,0.88175 -0.47243,0.15748 0.22349,2.84408 1.40182,5.41179 0.35616,0.77611 0.76274,2.68111 0.90349,4.23333 0.24801,2.73492 0.96249,4.60735 1.60625,4.20949 0.1728,-0.1068 0.31419,0.45019 0.31419,1.23775 0,0.78756 -0.15875,1.43193 -0.35278,1.43193 -0.19403,0 -0.35278,0.2475 -0.35278,0.54999 0,0.30249 0.15905,0.45169 0.35344,0.33155 0.35048,-0.21661 0.52404,0.12127 1.81228,3.52818 1.42044,3.75651 1.74519,14.53595 0.51169,16.98428 -1.54579,3.06818 -2.27077,5.23333 -1.90136,5.67844 0.51374,0.61901 0.0757,1.00475 -0.55063,0.48491 -0.40164,-0.33333 -0.65322,-0.15654 -1.30903,0.91987 -0.44651,0.73288 -0.775,1.53212 -0.72999,1.7761 0.045,0.24397 -0.28257,0.58379 -0.72797,0.75515 -1.02676,0.39501 -2.61568,2.50595 -2.11644,2.81177 0.62888,0.38522 2.64798,0.39768 4.0324,0.0249 z m 4.50617,-9.70068 c 0,-0.3025 0.16134,-0.45027 0.35853,-0.3284 0.19719,0.12187 0.2672,0.36936 0.15557,0.54998 -0.30241,0.48932 -0.5141,0.39808 -0.5141,-0.22158 z m -0.35278,-21.8514 c 0,-0.48507 0.14177,-0.88195 0.31504,-0.88195 0.41143,0 0.8022,1.03039 0.54723,1.44295 -0.38427,0.62177 -0.86227,0.31078 -0.86227,-0.561 z m -2.58594,-13.31736 c -0.11485,-0.63059 -0.31845,-1.52497 -0.45244,-1.98751 -0.17044,-0.5884 -0.11364,-0.79766 0.18912,-0.69674 0.238,0.0793 0.41761,0.261 0.39913,0.40371 -0.0185,0.1427 0.1797,0.69435 0.44041,1.2259 0.47884,0.97626 0.43061,2.20116 -0.0867,2.20116 -0.15442,0 -0.37472,-0.51593 -0.48957,-1.14652 z m -16.46976,30.60548 c 0.83228,-0.29365 2.06299,-0.44719 2.77838,-0.34662 1.67797,0.23588 3.31683,-0.99017 2.99068,-2.23738 -0.15301,-0.5851 -0.36983,-0.73909 -0.78264,-0.55587 -1.32962,0.59015 -3.10264,0.55582 -3.73069,-0.0722 -0.58768,-0.58768 -0.68647,-0.5905 -1.55613,-0.0444 -0.51074,0.3207 -1.80175,0.99673 -2.8689,1.50228 l -1.94028,0.91918 0.83284,0.68111 c 0.99958,0.81749 2.26679,0.86311 4.27674,0.15396 z m 18.24095,-5.91104 c -0.26654,-3.62522 -0.93512,-6.96736 -1.39377,-6.96736 -0.52189,0 -0.0725,5.85249 0.61627,8.02569 0.32285,1.01865 0.678,1.85209 0.78924,1.85209 0.11124,0 0.10596,-1.30969 -0.0117,-2.91042 z m -13.84553,1.77359 c 0.30204,-0.43123 0.54917,-1.21331 0.54917,-1.73796 0,-1.04904 1.16394,-7.08663 1.78454,-9.25676 0.39251,-1.37255 0.18726,-3.74345 -0.32408,-3.74345 -0.14929,0 -0.53641,0.55562 -0.86025,1.23472 -0.61871,1.29746 -1.39433,1.66942 -1.28732,0.61736 0.14031,-1.3793 -0.04,-1.85208 -0.70647,-1.85208 -0.37842,0 -0.84478,-0.27782 -1.03636,-0.61736 -0.61426,-1.08865 -1.06192,-0.0392 -1.21794,2.85536 -0.10116,1.8766 0.003,3.06565 0.32643,3.71324 0.69582,1.39481 0.98612,4.61927 0.55608,6.17673 -0.32592,1.18037 -0.27708,1.48544 0.3801,2.37432 0.90638,1.22594 1.12313,1.25378 1.8361,0.23588 z m 0.22119,-5.83053 c -0.0136,-0.82462 0.13395,-1.49931 0.32798,-1.49931 0.42276,0 0.42276,1.30924 0,2.29306 -0.23481,0.54643 -0.30878,0.36743 -0.32798,-0.79375 z m -0.67305,-3.80748 c -0.49745,-1.09178 -0.52917,-1.92516 -0.0733,-1.92516 0.35094,0 0.92735,2.38123 0.64481,2.66377 -0.0888,0.0888 -0.34597,-0.24358 -0.57152,-0.73861 z m 12.8145,-2.28681 c -0.79216,-1.53188 -0.99468,-1.14534 -0.25496,0.48666 0.32993,0.7279 0.652,1.16707 0.71572,0.97592 0.0637,-0.19115 -0.14363,-0.84931 -0.46076,-1.46258 z m -10.46345,-4.90663 c -0.0459,-0.30391 0.11339,-0.90974 0.354,-1.34631 0.5163,-0.93677 0.15998,-1.06551 -0.48976,-0.17694 -0.24806,0.33924 -0.56551,0.50231 -0.70544,0.36238 -0.13994,-0.13994 0.16458,-0.80378 0.67671,-1.47521 0.97196,-1.27431 1.18728,-1.82059 0.56634,-1.43683 -0.62213,0.3845 -0.12393,-1.29042 1.03554,-3.48142 1.08352,-2.04751 2.15148,-5.47039 2.15148,-6.89567 0,-0.61543 -0.21429,-0.74283 -1.24943,-0.74283 -0.68719,0 -2.28424,-0.48381 -3.549,-1.07514 -1.26477,-0.59132 -2.6869,-1.22239 -3.16029,-1.40238 -0.4734,-0.17998 -0.86073,-0.48992 -0.86073,-0.68875 0,-0.19883 -0.11906,-0.36139 -0.26458,-0.36124 -0.43297,3.5e-4 -0.49527,7.04846 -0.0745,8.42812 0.64044,2.09993 1.12692,2.99567 2.07948,3.82888 0.87925,0.76909 0.88333,0.79205 0.14111,0.79375 -0.4246,0.001 -1.08604,-0.42945 -1.48813,-0.96838 -0.8481,-1.13674 -0.98311,-0.51138 -0.21166,0.98043 0.35642,0.68925 0.4614,1.49066 0.31511,2.40554 -0.18412,1.15142 -0.0962,1.45819 0.54666,1.9085 0.42133,0.29511 1.07328,0.45622 1.44878,0.35802 0.3755,-0.0982 0.68273,-0.012 0.68273,0.19162 0,0.57581 -1.30763,0.85067 -2.08014,0.43724 -0.88595,-0.47415 -1.19895,-0.47338 -0.90502,0.002 0.42242,0.68349 1.97205,1.08544 2.49891,0.64819 0.64986,-0.53934 1.58604,0.21078 1.28741,1.03154 -0.1814,0.49857 -0.0932,0.48433 0.56133,-0.0906 0.42712,-0.37519 0.73901,-0.93082 0.69309,-1.23472 z m -3.2315,-2.02247 c -0.12935,-0.12934 -0.21357,-0.80403 -0.18714,-1.4993 0.0366,-0.96371 0.0856,-1.05453 0.20626,-0.38218 0.087,0.48507 0.30352,1.03276 0.48112,1.21709 0.62296,0.64656 0.13286,1.29749 -0.50024,0.66439 z m 5.76204,-14.39603 c 0,-0.092 -0.47625,-0.4136 -1.05834,-0.71461 -1.32675,-0.6861 -1.40703,-0.3881 -0.0882,0.32739 1.10862,0.60143 1.14653,0.61423 1.14653,0.38722 z m -0.35278,-2.12572 c -0.24154,-0.29105 -0.61817,-0.52412 -0.83695,-0.51795 -0.21877,0.006 -0.0896,0.2443 0.28701,0.52916 0.87971,0.66539 1.10761,0.66074 0.54994,-0.0112 z m -6.26181,-1.62809 c -0.65406,-0.41887 -1.14653,-1.03137 -1.14653,-1.42599 0,-0.38045 -0.15875,-0.59362 -0.35277,-0.4737 -0.66646,0.41189 -0.35118,1.16646 0.79375,1.89969 0.63059,0.40384 1.30527,0.73426 1.4993,0.73426 0.19403,0 -0.16316,-0.33042 -0.79375,-0.73426 z m 3.43959,0.26809 c 0,-0.0689 -0.9525,-0.79342 -2.11667,-1.61003 -1.16417,-0.81662 -2.11667,-1.33837 -2.11667,-1.15946 0,0.17891 0.82586,0.90342 1.83523,1.61003 1.6531,1.15724 2.39811,1.51744 2.39811,1.15946 z m 6.87916,-0.2275 c 0.11992,-0.19403 0.0499,-0.35278 -0.15557,-0.35278 -0.20547,0 -0.37359,0.15875 -0.37359,0.35278 0,0.19402 0.07,0.35277 0.15557,0.35277 0.0856,0 0.25368,-0.15875 0.37359,-0.35277 z m -2.64583,-0.52917 c -0.36369,-0.43822 -0.32564,-0.53009 0.22139,-0.53457 0.52503,-0.004 0.55834,-0.0701 0.16237,-0.32076 -0.32645,-0.20665 -0.6806,-0.13295 -1.02735,0.2138 -0.45246,0.45246 -0.45695,0.57489 -0.031,0.84453 0.78019,0.49388 1.15845,0.38005 0.67457,-0.203 z m 3.92967,-0.18813 c -0.88107,-0.734 -1.46023,-0.89065 -1.46023,-0.39494 0,0.31412 1.33675,1.05586 1.94028,1.07662 0.19403,0.007 -0.022,-0.30008 -0.48005,-0.68168 z m -6.04634,0.22264 c 0,-0.078 -0.49395,-0.31407 -1.09768,-0.52453 -0.95619,-0.33333 -1.04157,-0.31504 -0.66236,0.14188 0.3825,0.46088 1.76004,0.76038 1.76004,0.38265 z m 10.58334,-0.56368 c -0.69502,-0.44915 -1.51232,-0.44915 -1.23473,0 0.11992,0.19403 0.56585,0.35035 0.99096,0.34738 0.62838,-0.004 0.67397,-0.0694 0.24377,-0.34738 z m -10.43652,-0.73823 c -0.36745,-0.40603 -0.98737,-0.90538 -1.37759,-1.10966 l -0.70951,-0.37144 0.70556,0.84508 c 0.83191,0.99643 1.29334,1.36146 1.73037,1.36885 0.17559,0.003 0.0186,-0.3268 -0.34883,-0.73283 z m -3.17811,-0.35622 c -0.36917,-0.40792 -1.14783,-0.97198 -1.73037,-1.25347 l -1.05917,-0.51181 1.05833,0.9076 c 0.58209,0.49918 1.21709,1.05531 1.41111,1.23584 0.70658,0.65742 0.97273,0.34299 0.3201,-0.37816 z m 7.26463,0.54587 c 0,-0.24645 -3.92338,-1.99564 -4.09384,-1.82517 -0.0691,0.0691 0.62535,0.54304 1.54316,1.05327 1.61101,0.89561 2.55068,1.17998 2.55068,0.7719 z m 9.87777,-0.46656 c 0,-0.41695 -0.57164,-0.8555 -2.53733,-1.94657 -1.80835,-1.00374 -2.04878,-1.07473 -2.04878,-0.60492 0,0.17266 0.69404,0.64017 1.5423,1.0389 0.84826,0.39873 1.63703,0.97183 1.75282,1.27357 0.22081,0.57544 1.29099,0.77358 1.29099,0.23902 z m -3.01938,-0.56114 c -0.37663,-0.28487 -1.00228,-0.51737 -1.39034,-0.51666 -0.62368,10e-4 -0.60321,0.0598 0.17639,0.50544 1.20764,0.69035 2.12303,0.69881 1.21395,0.0112 z m -5.25013,-0.72799 c -0.69403,-0.52494 -1.25549,-0.6726 -1.25549,-0.33019 0,0.17143 1.34715,0.81067 1.76389,0.83699 0.097,0.006 -0.13176,-0.22193 -0.5084,-0.5068 z m -8.31812,-0.35009 c -0.24543,-0.29573 -0.53808,-0.44584 -0.65034,-0.33359 -0.11225,0.11225 0.0294,0.35178 0.31486,0.53229 0.74682,0.4723 0.8444,0.41451 0.33548,-0.1987 z m 9.1793,-0.16786 c 0,-0.19403 -0.16812,-0.35278 -0.3736,-0.35278 -0.20548,0 -0.27548,0.15875 -0.15557,0.35278 0.11992,0.19403 0.28804,0.35278 0.3736,0.35278 0.0856,0 0.15557,-0.15875 0.15557,-0.35278 z m -2.64583,-0.35278 c -0.11992,-0.19402 -0.37678,-0.35277 -0.57081,-0.35277 -0.19403,0 -0.25466,0.15875 -0.13475,0.35277 0.11992,0.19403 0.37678,0.35278 0.57081,0.35278 0.19403,0 0.25466,-0.15875 0.13475,-0.35278 z m -1.5875,-1.14319 c 0,-0.41042 -0.62998,-0.31827 -0.77379,0.11318 -0.14324,0.4297 -2.0162,-0.27786 -2.09253,-0.7905 -0.0243,-0.16288 -0.0639,-0.44697 -0.0882,-0.63129 -0.0243,-0.18433 -0.23013,-0.52117 -0.4575,-0.74855 -0.22737,-0.22737 -0.33146,-0.67187 -0.2313,-0.98778 0.13434,-0.42373 0.0966,-0.45558 -0.14397,-0.12145 -0.17934,0.24911 -0.57513,0.35735 -0.87954,0.24054 -0.30441,-0.11682 -0.64901,-0.0578 -0.76578,0.13113 -0.11677,0.18893 0.77439,1.13231 1.98035,2.0964 1.82681,1.46041 2.29773,1.68725 2.82245,1.35956 0.3464,-0.21633 0.62981,-0.51389 0.62981,-0.66124 z m 3.175,0.79042 c 0,-0.19403 -0.15875,-0.35278 -0.35278,-0.35278 -0.19403,0 -0.35278,0.15875 -0.35278,0.35278 0,0.19402 0.15875,0.35277 0.35278,0.35277 0.19403,0 0.35278,-0.15875 0.35278,-0.35277 z m 7.58317,-0.002 c -0.31689,-0.51273 -2.32017,-1.49754 -2.55947,-1.25823 -0.11133,0.11132 -0.13626,0.24209 -0.0554,0.2906 1.96885,1.18131 2.97767,1.55461 2.61489,0.96763 z m -6.01074,-0.3259 c 0.11163,-0.18062 0.0416,-0.42811 -0.15557,-0.54998 -0.19719,-0.12191 -0.35853,0.0259 -0.35853,0.32836 0,0.61966 0.21169,0.7109 0.5141,0.22158 z m 1.77896,-0.37719 c -0.11992,-0.19403 -0.37678,-0.35278 -0.57081,-0.35278 -0.19403,0 -0.25467,0.15875 -0.13475,0.35278 0.11992,0.19403 0.37678,0.35278 0.57081,0.35278 0.19402,0 0.25466,-0.15875 0.13475,-0.35278 z m -2.64584,-0.35278 c 0,-0.19403 -0.15875,-0.35278 -0.35277,-0.35278 -0.19403,0 -0.35278,0.15875 -0.35278,0.35278 0,0.19403 0.15875,0.35278 0.35278,0.35278 0.19402,0 0.35277,-0.15875 0.35277,-0.35278 z m -8.62284,-0.91079 c -1.04568,-0.76462 -1.54601,-0.57236 -0.5876,0.22579 0.46405,0.38646 0.94005,0.60632 1.05778,0.48859 0.11773,-0.11773 -0.0938,-0.4392 -0.47018,-0.71438 z m 14.97415,0.0302 c -0.45498,-0.48431 -0.90501,-0.80278 -1.00007,-0.70772 -0.2342,0.23419 1.0171,1.58827 1.46771,1.58827 0.19778,0 -0.0127,-0.39625 -0.46764,-0.88055 z m -7.77364,0.26319 c -0.0227,-0.5349 -0.88265,-1.38082 -1.2707,-1.24995 -0.21998,0.0742 -1.11613,-0.34844 -1.99144,-0.93918 -1.64522,-1.11035 -2.37108,-1.33115 -2.37108,-0.72129 0,0.19403 0.15346,0.35278 0.34102,0.35278 0.18756,0 0.89451,0.55349 1.571,1.22998 0.71539,0.71539 1.44334,1.14811 1.73996,1.03429 0.28049,-0.10764 0.61478,-0.0261 0.74288,0.18113 0.26385,0.42692 1.25552,0.5168 1.23836,0.11224 z m 3.18622,-0.45204 c 0,-0.45471 -1.00509,-0.86532 -1.32791,-0.5425 -0.13154,0.13154 -0.006,0.38684 0.27979,0.56735 0.6829,0.43187 1.04812,0.42321 1.04812,-0.0249 z m 0.54367,-1.02379 c -0.12789,-0.20694 -0.50097,-0.3712 -0.82907,-0.36503 -0.52375,0.01 -0.51359,0.074 0.0833,0.52552 0.72498,0.54848 1.13011,0.4613 0.74581,-0.16049 z m -2.66033,-0.0235 c 0,-0.19403 -0.16812,-0.35278 -0.3736,-0.35278 -0.20548,0 -0.27549,0.15875 -0.15557,0.35278 0.11991,0.19402 0.28803,0.35277 0.3736,0.35277 0.0856,0 0.15557,-0.15875 0.15557,-0.35277 z m 5.28044,-1.81857 c 0.0167,-0.34305 -3.18723,-2.15613 -3.41232,-1.93104 -0.10624,0.10624 0.42014,0.55501 1.16972,0.99728 0.99723,0.58838 1.19846,0.83578 0.75002,0.92214 -0.77263,0.1488 -0.77453,0.39947 -0.007,0.96048 0.49896,0.36485 0.68331,0.34064 1.04712,-0.13749 0.24285,-0.31917 0.44659,-0.68428 0.45276,-0.81137 z m -13.7084,-0.42784 c -0.49187,-0.59267 -1.8026,-0.99554 -1.8026,-0.55406 0,0.34228 1.85942,1.40711 2.07874,1.19043 0.0762,-0.0752 -0.0481,-0.36161 -0.27614,-0.63637 z m 10.6315,0.18898 c 0.56054,-0.22196 0.54798,-0.28645 -0.13934,-0.71569 -0.65449,-0.40874 -0.72764,-0.39945 -0.54767,0.0696 0.11424,0.29772 0.0182,0.6184 -0.21344,0.71263 -0.23163,0.0942 -0.2624,0.17271 -0.0684,0.17439 0.19403,0.002 0.63,-0.10672 0.96882,-0.24089 z m -4.12305,-0.59963 c -0.37664,-0.28487 -0.85289,-0.51232 -1.05834,-0.50544 -0.20545,0.007 0.0233,0.23937 0.5084,0.51666 1.14274,0.65325 1.42094,0.64757 0.54994,-0.0112 z m -5.65071,-0.49447 c -0.1279,-0.20694 -0.50098,-0.3712 -0.82908,-0.36503 -0.52375,0.01 -0.51359,0.074 0.0833,0.52552 0.72499,0.54848 1.13011,0.4613 0.74582,-0.16049 z m 6.68827,-0.23693 c -1.27172,-0.98016 -2.14215,-1.25659 -1.05833,-0.33611 0.58208,0.49436 1.21708,0.89458 1.41111,0.88937 0.19403,-0.005 0.0353,-0.25417 -0.35278,-0.55326 z m 6.43865,-0.0525 c 0.073,-0.21903 -0.38633,-0.66665 -1.02075,-0.99472 -0.78652,-0.40673 -1.19554,-0.47033 -1.28568,-0.1999 -0.0934,0.28015 -0.33099,0.29019 -0.80929,0.0342 -1.30441,-0.6981 -0.66245,-0.016 0.82221,0.87364 1.53613,0.92047 2.06042,0.98602 2.29351,0.28677 z m -1.47899,-0.27445 c -0.37664,-0.28487 -0.53539,-0.5129 -0.35278,-0.50673 0.18261,0.006 0.64016,0.2443 1.0168,0.52917 0.37663,0.28487 0.53538,0.5129 0.35277,0.50673 -0.1826,-0.006 -0.64016,-0.2443 -1.01679,-0.52917 z m -3.37216,-0.16517 c 0,-0.19403 -0.24749,-0.35278 -0.54999,-0.35278 -0.30249,0 -0.45187,0.15875 -0.33195,0.35278 0.11991,0.19403 0.36741,0.35278 0.54998,0.35278 0.18258,0 0.33196,-0.15875 0.33196,-0.35278 z m -5.46806,-0.35278 c -0.11991,-0.19403 -0.3674,-0.35278 -0.54998,-0.35278 -0.18258,0 -0.33196,0.15875 -0.33196,0.35278 0,0.19403 0.24749,0.35278 0.54999,0.35278 0.30249,0 0.45187,-0.15875 0.33195,-0.35278 z m -2.46944,-0.56623 c -1.32436,-1.02074 -1.94028,-1.26004 -1.94028,-0.75386 0,0.25775 0.51594,0.63789 1.14653,0.84476 1.58408,0.51966 1.5857,0.51948 0.79375,-0.0909 z m 12.52361,-0.66849 c -0.24154,-0.29104 -0.60882,-0.52917 -0.81618,-0.52917 -0.20735,0 -0.0688,0.23308 0.30778,0.51795 0.88493,0.66933 1.05775,0.67314 0.5084,0.0112 z m -10.05417,-0.17639 c -0.11991,-0.19403 -0.37677,-0.35278 -0.5708,-0.35278 -0.19403,0 -0.25467,0.15875 -0.13475,0.35278 0.11992,0.19403 0.37678,0.35278 0.57081,0.35278 0.19402,0 0.25466,-0.15875 0.13474,-0.35278 z m 5.97598,0.0344 c 0.31426,-0.50848 -1.91216,-1.73401 -2.75145,-1.51453 -0.67887,0.17754 -0.64426,0.23896 0.36722,0.65169 0.61421,0.25062 1.21764,0.61893 1.34096,0.81846 0.27679,0.44785 0.78067,0.46929 1.04327,0.0444 z m -12.43769,-0.81635 c -0.25314,-0.25314 -0.41745,-0.27397 -0.41745,-0.0529 0,0.47088 0.4172,0.88808 0.65264,0.65264 0.10024,-0.10024 -0.006,-0.37012 -0.23519,-0.59972 z m 15.9379,-0.45273 c -0.11168,-0.29104 -0.46389,-0.52412 -0.78268,-0.51795 -0.49197,0.01 -0.47607,0.0895 0.10517,0.52917 0.85591,0.64738 0.92977,0.64616 0.67751,-0.0112 z m -6.57486,-1.11528 c 1.04214,-0.43437 1.10755,-0.55273 0.78064,-1.41255 -0.24191,-0.63628 -0.2404,-1.05484 0.005,-1.29993 0.24679,-0.24679 0.43284,-0.005 0.58638,0.763 0.28785,1.43925 1.38242,1.52653 1.99634,0.15918 0.23838,-0.53091 0.71123,-1.24529 1.05077,-1.5875 0.33955,-0.34221 0.61737,-0.85534 0.61737,-1.1403 0,-0.31559 0.20682,-0.43872 0.52916,-0.31503 0.42939,0.16478 0.54081,-0.18653 0.59092,-1.86315 0.0862,-2.88441 -0.0466,-4.6594 -0.47006,-6.28443 -0.29962,-1.149747 -0.42325,-1.289767 -0.70083,-0.793747 -0.45641,0.815557 -1.13866,0.800867 -0.70195,-0.0151 0.18172,-0.33955 0.35299,-0.77611 0.3806,-0.97014 0.0276,-0.19403 0.13614,-0.69518 0.24118,-1.11367 0.10503,-0.41849 0.002,-1.11337 -0.22823,-1.54417 -0.33218,-0.62069 -0.32222,-0.84321 0.048,-1.07201 0.25695,-0.1588 0.36213,-0.39378 0.23374,-0.52217 -0.12839,-0.12839 -1.09561,0.25986 -2.14939,0.86277 -1.05377,0.6029 -2.32382,1.09619 -2.82233,1.09619 -0.49851,0 -1.00449,0.15875 -1.12441,0.35278 -0.4066,0.65791 -1.5875,0.39549 -1.5875,-0.35278 0,-0.77435 -1.1641,-0.96837 -2.11666,-0.35277 -0.41236,0.26648 -0.31501,0.34316 0.44097,0.34737 0.61918,0.003 0.97014,0.1944 0.97014,0.52785 0,0.88896 -1.20841,1.03085 -7.76111,0.9113 -0.87313,-0.0159 -1.96831,0.0122 -2.43374,0.0624 -0.46544,0.0503 -0.90994,-0.0912 -0.98778,-0.31433 -0.20138,-0.57721 3.03345,-0.73635 5.93318,-0.29188 1.07194,0.1643 1.71296,0.11513 1.87291,-0.14367 0.16435,-0.26593 -0.24958,-0.39523 -1.27695,-0.39888 -1.41228,-0.005 -2.7743,-0.46707 -2.39185,-0.81141 0.0914,-0.0823 1.19043,-0.0251 2.44231,0.12716 1.7103,0.20797 2.36804,0.16321 2.64583,-0.18003 0.52309,-0.64634 2.29321,-0.99452 2.82257,-0.55518 0.32545,0.2701 0.80359,0.0845 1.77865,-0.69037 1.96459,-1.56126 2.77906,-1.40981 0.97195,0.18073 -0.84402,0.74287 -0.88223,0.85532 -0.29388,0.86502 0.37194,0.006 1.68709,-0.54448 2.92256,-1.22357 1.23547,-0.6791 2.49382,-1.23473 2.79635,-1.23473 0.30253,0 0.63308,-0.3175 0.73456,-0.70555 0.21752,-0.8318 0.74618,-0.92376 1.03179,-0.17948 0.27663,0.72088 2.42443,0.53607 2.9169,-0.25099 0.61961,-0.99025 -0.57102,-1.31824 -4.59844,-1.26677 -2.01176,0.0257 -4.79538,-0.0518 -6.1858,-0.1722 -2.17045,-0.18797 -2.65039,-0.12271 -3.39293,0.46138 -0.69786,0.54894 -1.20764,0.63972 -2.63985,0.47009 -1.32993,-0.15751 -1.98047,-0.0663 -2.59459,0.36388 -1.24559,0.87244 -1.59628,0.68614 -0.63594,-0.33783 l 0.85524,-0.91191 -0.79131,-0.64197 c -0.76686,-0.62212 -0.87739,-0.6193 -3.57616,0.0913 -3.02856,0.79748 -3.9283,1.63893 -3.9174,3.66361 0.009,1.64348 0.46707,2.00036 2.78363,2.16792 2.54325,0.18396 2.52389,0.77626 -0.0254,0.77626 -1.55327,0 -1.7498,0.0789 -1.53815,0.61736 0.34345,0.87376 1.07421,3.184357 1.55045,4.902387 0.22302,0.80453 0.64217,1.55361 0.93143,1.66462 0.28927,0.111 0.52595,0.49255 0.52595,0.84789 0,0.35534 0.17131,0.81739 0.3807,1.02677 0.20938,0.20939 0.52508,1.02331 0.70155,1.80871 0.17647,0.78541 0.87876,2.37994 1.56065,3.54341 1.22453,2.08935 1.79997,2.49227 4.23626,2.96625 1.19604,0.23269 4.87756,-0.17773 6.07633,-0.6774 z m -5.01799,-0.47222 c -0.11992,-0.19403 -0.0499,-0.35278 0.15557,-0.35278 0.20548,0 0.37359,0.15875 0.37359,0.35278 0,0.19403 -0.07,0.35278 -0.15556,0.35278 -0.0856,0 -0.25369,-0.15875 -0.3736,-0.35278 z m -0.88195,-2.49027 c 0,-0.20548 0.15875,-0.27548 0.35278,-0.15556 0.19403,0.11991 0.35278,0.28803 0.35278,0.37359 0,0.0856 -0.15875,0.15557 -0.35278,0.15557 -0.19403,0 -0.35278,-0.16812 -0.35278,-0.3736 z m 1.05834,0.0446 c 0,-0.18096 0.3175,-0.41908 0.70555,-0.52917 0.38806,-0.11009 1.02306,-0.29023 1.41111,-0.40032 1.1605,-0.32923 0.79692,0.45207 -0.40542,0.8712 -1.35736,0.47318 -1.71124,0.48524 -1.71124,0.0583 z m -5.05648,-0.25896 c -0.49174,-0.49173 -0.17956,-0.64929 1.44225,-0.72789 1.6171,-0.0784 1.644,-0.0638 0.792,0.42847 -0.95502,0.55183 -1.8605,0.67318 -2.23425,0.29942 z m 12.00403,-0.69597 c -0.42693,-0.42693 0.15158,-0.83273 1.18716,-0.83273 1.11364,0 1.39385,0.49333 0.47949,0.8442 -0.72187,0.277 -1.38272,0.27246 -1.66665,-0.0115 z m -2.15887,-1.77367 c -0.12414,-0.32349 -0.0617,-0.75211 0.13864,-0.9525 0.25061,-0.2506 0.36434,-0.067 0.36434,0.58816 0,1.08826 -0.17621,1.21591 -0.50298,0.36434 z m -10.9768,-0.49365 c -0.30592,-0.49498 -0.21878,-0.54622 1.33742,-0.78636 1.41872,-0.21892 1.75572,0.2006 0.64056,0.79742 -0.87816,0.46997 -1.68347,0.46547 -1.97798,-0.0111 z m 5.83534,-1.37523 c 0,-0.1872 0.3175,-0.51028 0.70555,-0.71796 0.38806,-0.20768 0.70556,-0.61014 0.70556,-0.89436 0,-0.28421 0.16945,-0.51675 0.37655,-0.51675 0.22517,0 0.28176,0.31909 0.14077,0.79375 -0.34729,1.16912 -1.92843,2.26397 -1.92843,1.33532 z m 5.20829,-0.36518 c -0.40449,-1.37332 -0.34151,-2.68267 0.10744,-2.23372 0.20727,0.20727 0.32633,0.99308 0.26459,1.74625 -0.0998,1.21715 -0.14115,1.27135 -0.37203,0.48747 z m 3.9054,0.0882 c -0.3363,-0.39877 -0.44669,-0.99209 -0.31177,-1.67569 0.2427,-1.22972 0.55671,-0.89281 0.9067,0.97282 0.27651,1.47389 0.16572,1.60479 -0.59493,0.70287 z m -13.69,-0.4017 c 0.0199,-0.43797 2.04213,-2.19288 2.20651,-1.91483 0.35727,0.60433 -0.43392,1.78977 -1.30576,1.95643 -0.50081,0.0957 -0.90614,0.077 -0.90075,-0.0416 z m 11.63187,-1.94181 c 0,-0.50129 1.01602,-1.07959 1.33548,-0.76012 0.2252,0.22519 -0.61611,1.25155 -1.0259,1.25155 -0.17027,0 -0.30958,-0.22115 -0.30958,-0.49143 z m -8.99584,-1.27246 c -0.11991,-0.19403 -0.0499,-0.35278 0.15557,-0.35278 0.20548,0 0.3736,0.15875 0.3736,0.35278 0,0.19403 -0.07,0.35278 -0.15557,0.35278 -0.0856,0 -0.25368,-0.15875 -0.3736,-0.35278 z m 0.73026,-2.076697 c -0.23044,-0.37286 0.7807,-1.29243 1.08574,-0.9874 0.29393,0.29394 -0.13125,1.300207 -0.54938,1.300207 -0.18867,0 -0.43003,-0.140757 -0.53636,-0.312807 z m 5.44335,-1.0983 c 0,-0.58209 0.15875,-1.05834 0.35278,-1.05834 0.19403,0 0.35278,0.47625 0.35278,1.05834 0,0.58208 -0.15875,1.05833 -0.35278,1.05833 -0.19403,0 -0.35278,-0.47625 -0.35278,-1.05833 z m -10.93611,0.42333 c 0,-0.36654 0.76436,-1.12889 1.13188,-1.12889 0.15687,0 0.0869,0.3175 -0.15542,0.70556 -0.44512,0.71276 -0.97646,0.94311 -0.97646,0.42333 z m 13.95236,-6.37545 c 0.18433,-0.16922 1.04952,-0.39865 1.92264,-0.50985 1.5791,-0.20111 1.5819,-0.19956 0.52917,0.29176 -1.17628,0.54898 -2.98776,0.71012 -2.45181,0.21809 z m 3.89214,17.329017 c -0.27961,-0.2796 -1.96076,1.05183 -1.75286,1.38822 0.11661,0.18867 0.5869,-0.0128 1.05391,-0.45156 0.46384,-0.43575 0.77836,-0.85725 0.69895,-0.93666 z m 5.43884,-17.374117 c 0,-0.19403 -0.16812,-0.35278 -0.3736,-0.35278 -0.20548,0 -0.27549,0.15875 -0.15557,0.35278 0.11991,0.19402 0.28803,0.35277 0.3736,0.35277 0.0856,0 0.15557,-0.15875 0.15557,-0.35277 z m -15.77764,-2.38125 c 0.74021,-0.66997 4.24117,-0.78548 7.92833,-0.26159 l 1.85208,0.26316 0.0117,-1.3678 c 0.007,-0.80619 0.28362,-1.69371 0.67391,-2.16155 0.95981,-1.15054 1.15315,-0.97476 0.48014,0.43654 -0.6452,1.353 -0.47661,1.82951 0.49469,1.39818 0.81759,-0.36306 4.47534,-1.17087 4.63665,-1.02399 0.39588,0.36044 -0.518,0.86496 -1.56678,0.86496 -1.4341,0 -3.67201,0.85456 -3.67201,1.40217 0,0.24476 0.34499,0.20589 0.97014,-0.10932 0.53357,-0.26904 1.66149,-0.59516 2.50647,-0.72471 0.84499,-0.12955 2.01521,-0.48318 2.6005,-0.78584 0.69957,-0.36176 1.47602,-0.47303 2.26631,-0.32477 1.38595,0.26001 5.72187,-1.04432 6.01553,-1.80958 0.25421,-0.66246 2.23548,-0.58604 2.74133,0.10574 0.3595,0.49165 0.60624,0.51482 1.68636,0.15835 1.60634,-0.53014 2.46867,-1.43982 1.36488,-1.43982 -1.0932,0 -0.91622,-0.63522 0.22139,-0.7946 0.53358,-0.0747 -0.45861,-0.14125 -2.20486,-0.14777 -1.74625,-0.007 -3.44557,0.12518 -3.77628,0.29268 -0.37685,0.19086 -1.16689,0.10751 -2.11666,-0.22331 -2.1459,-0.74746 -4.3853,-0.69649 -5.08066,0.11564 -0.48651,0.56819 -0.97634,0.63576 -3.74311,0.5163 -1.86961,-0.0807 -3.60262,-0.35425 -4.19929,-0.6628 -0.55877,-0.28895 -1.01594,-0.37388 -1.01594,-0.18873 0,0.62351 -1.10221,1.44537 -1.93841,1.44537 -1.05401,0 -2.73528,1.40431 -3.47288,2.90077 -0.42391,0.86005 -0.57159,0.97546 -0.57658,0.45062 -0.0102,-1.07583 1.29255,-2.97455 2.30509,-3.35952 0.96197,-0.36574 0.87066,-1.0502 -0.1401,-1.0502 -0.33344,0 -0.93821,-0.23252 -1.34395,-0.51671 -0.40574,-0.28419 -0.85766,-0.40326 -1.00427,-0.26459 -0.1466,0.13867 -0.15402,-0.11367 -0.0165,-0.56077 0.16351,-0.53152 -0.007,-1.35962 -0.49239,-2.3924 l -0.74246,-1.5795 -0.84967,0.62851 c -0.84317,0.62371 -0.84477,0.63692 -0.20954,1.72706 0.35207,0.6042 0.75527,2.11233 0.89601,3.35139 0.14074,1.23906 0.4164,2.45128 0.61257,2.69381 0.24415,0.30185 0.23387,0.44098 -0.0326,0.44098 -0.21409,0 -0.49515,-0.42193 -0.62458,-0.93762 -0.22624,-0.9014 -0.25528,-0.91162 -0.75178,-0.26459 -0.46414,0.60487 -0.49295,0.45097 -0.28442,-1.51961 0.17973,-1.69846 0.10663,-2.38402 -0.32434,-3.04176 -0.306,-0.46701 -0.61715,-1.30595 -0.69145,-1.8643 -0.0743,-0.55835 -0.255,-1.33268 -0.40154,-1.72073 -0.26282,-0.69597 -0.25604,-0.69643 0.49893,-0.0335 0.42095,0.36962 0.76537,0.50812 0.76537,0.30778 0,-0.20035 -0.2287,-0.55407 -0.50822,-0.78605 -0.27953,-0.23199 -0.55734,-0.84674 -0.61736,-1.36611 -0.0859,-0.74299 -0.29717,-0.94433 -0.99108,-0.94433 -0.75489,0 -0.89546,0.17789 -0.97577,1.23473 -0.0762,1.00335 -0.0234,1.11903 0.28212,0.61736 0.46,-0.75543 1.3992,-0.81463 1.3992,-0.0882 0,0.29104 -0.13222,0.52917 -0.29382,0.52917 -0.33582,0 -0.28183,0.94164 0.10619,1.85208 0.14472,0.33955 0.17174,0.85549 0.0601,1.14653 -0.11169,0.29104 -0.0386,0.52917 0.16242,0.52917 0.45756,0 0.0293,1.44917 -0.57304,1.93892 -0.23953,0.19477 -0.54631,0.83038 -0.68172,1.41247 -0.31677,1.36171 -1.57608,3.40924 -1.95338,3.17605 -0.46795,-0.28921 -1.41282,0.20719 -1.41282,0.74224 0,0.27029 0.18594,0.49143 0.41319,0.49143 0.22726,0 0.67178,0.23401 0.98782,0.52003 0.31605,0.28601 1.20167,0.66694 1.96806,0.8465 0.76639,0.17957 1.46031,0.34243 1.54204,0.36192 0.0817,0.0195 0.45555,-0.24238 0.8307,-0.58192 z m 2.37208,-4.55672 c 0,-1.51193 0.16364,-1.46072 0.46967,0.14699 0.12541,0.6588 0.0719,1.14653 -0.12571,1.14653 -0.18918,0 -0.34396,-0.58208 -0.34396,-1.29352 z m 7.05556,0.94074 c 0,-0.19402 0.15875,-0.35277 0.35277,-0.35277 0.19403,0 0.35278,0.15875 0.35278,0.35277 0,0.19403 -0.15875,0.35278 -0.35278,0.35278 -0.19402,0 -0.35277,-0.15875 -0.35277,-0.35278 z m 8.46666,-0.35277 c 0.37287,-0.69672 1.05834,-0.9709 1.05834,-0.42334 0,0.37101 -0.76622,1.12889 -1.1413,1.12889 -0.16205,0 -0.12472,-0.3175 0.083,-0.70555 z m -15.88955,-10.08135 c -0.2748,-0.51348 -0.84355,-1.064352 -1.26388,-1.224162 -0.42033,-0.15981 -0.83244,-0.495166 -0.9158,-0.745235 -0.0855,-0.256518 -0.24319,-0.104267 -0.36181,0.349343 -0.15869,0.606837 -0.0225,0.882824 0.55553,1.125374 0.86162,0.36157 2.00051,1.20968 2.00051,1.48974 0,0.1015 -0.33347,0.27176 -0.74105,0.37834 -0.45146,0.11806 -0.64152,0.35484 -0.48635,0.60589 0.17932,0.29016 0.47038,0.19642 0.9836,-0.31679 0.66144,-0.66145 0.68266,-0.81531 0.22925,-1.6625 z m -3.97779,-3.037578 c -0.11262,-0.281423 -0.19621,-0.19783 -0.21314,0.213136 -0.0153,0.371887 0.0681,0.580246 0.18528,0.463021 0.11723,-0.117225 0.12976,-0.421496 0.0279,-0.676157 z m 3.35496,-2.435278 c 0.20266,-0.612733 4.78303,-0.902368 5.34727,-0.33813 0.2583,0.258294 -0.33525,0.370109 -1.96465,0.370109 -1.28411,0 -2.60753,0.104672 -2.94091,0.232604 -0.42554,0.163295 -0.55716,0.08446 -0.44171,-0.264583 z"
       style="fill:#000000;stroke-width:0.35277778" />
  </g>
</svg>
