<?xml version="1.0" encoding="UTF-8" standalone="no"?>
<svg
   xmlns:dc="http://purl.org/dc/elements/1.1/"
   xmlns:cc="http://creativecommons.org/ns#"
   xmlns:rdf="http://www.w3.org/1999/02/22-rdf-syntax-ns#"
   xmlns:svg="http://www.w3.org/2000/svg"
   xmlns="http://www.w3.org/2000/svg"
   id="svg8"
   version="1.1"
   viewBox="0 0 71.613803 87.224661"
   height="87.224663mm"
   width="71.6138mm">
  <defs
     id="defs2" />
  <metadata
     id="metadata5">
    <rdf:RDF>
      <cc:Work
         rdf:about="">
        <dc:format>image/svg+xml</dc:format>
        <dc:type
           rdf:resource="http://purl.org/dc/dcmitype/StillImage" />
        <dc:title></dc:title>
      </cc:Work>
    </rdf:RDF>
  </metadata>
  <g
     transform="translate(-41.462288,1.0607387)"
     id="layer1">
    <path
       id="path5223"
       d="m 57.500747,85.965914 c -0.158886,-0.257084 -2.511302,-0.308431 -7.458823,-0.1628 -6.820761,0.200766 -8.579767,0.106965 -8.579636,-0.457507 3.1e-5,-0.132444 3.577364,-0.221756 7.949627,-0.198466 7.326057,0.03902 7.97629,-0.0076 8.290222,-0.594169 0.187357,-0.350083 0.34065,-0.72214 0.34065,-0.826799 0,-0.104658 -3.651341,-0.154781 -8.114092,-0.111386 -5.288262,0.05142 -8.072474,-0.04396 -7.994588,-0.273879 0.07234,-0.21354 2.335051,-0.365562 5.732842,-0.385166 7.038721,-0.04061 8.078496,-0.08949 7.801256,-0.36673 -0.268605,-0.268605 0.681873,-1.699398 1.170265,-1.761645 0.190291,-0.02424 0.66212,-0.06394 1.048508,-0.08819 0.682552,-0.04284 0.676589,-0.111795 -0.209771,-2.425347 -0.931235,-2.430688 -2.125648,-6.141311 -3.094392,-9.613194 -0.314849,-1.128388 -0.458254,-2.542138 -0.342713,-3.378617 0.143359,-1.037865 0.0049,-1.823653 -0.497457,-2.822222 -0.807121,-1.604528 -1.226298,-3.480717 -1.334421,-5.972729 -0.04216,-0.971641 -0.334128,-2.525003 -0.648822,-3.451913 -0.747268,-2.201026 -0.723358,-3.851236 0.07989,-5.513768 l 0.65206,-1.349608 -1.045485,-0.617583 c -1.74326,-1.029769 -5.296845,-4.669674 -5.010795,-5.132511 0.175616,-0.284156 0.540136,-0.06056 1.129976,0.693117 0.634752,0.81106 1.056943,1.053482 1.557831,0.894506 0.377905,-0.119941 0.94808,-0.0065 1.267056,0.252042 0.41546,0.336776 0.504813,0.345042 0.315029,0.02914 -0.151471,-0.252123 -0.08877,-0.440972 0.146414,-0.440972 0.226237,0 0.329669,0.212834 0.229847,0.472962 -0.09982,0.260131 -0.04227,0.696694 0.127882,0.970139 0.253424,0.40726 0.438921,0.416884 1.025694,0.05322 0.953317,-0.59085 0.915828,0.05422 -0.05576,0.959383 -1.088699,1.014278 -0.09168,0.915137 1.129356,-0.1123 0.962914,-0.810239 0.971018,-0.846391 0.315509,-1.407657 -0.370034,-0.316834 -0.670358,-0.934801 -0.667387,-1.373262 0.0042,-0.621831 0.0767,-0.684502 0.3295,-0.284882 0.178254,0.281778 0.24583,0.638965 0.150167,0.79375 -0.09566,0.154785 0.135953,0.281428 0.514701,0.281428 1.308429,0 1.259948,1.154374 -0.09638,2.29495 -1.215083,1.021797 -1.235125,1.076251 -0.552919,1.502294 1.086741,0.678681 1.958117,-0.08758 2.835264,-2.493236 0.724489,-1.986978 0.745051,-2.459799 0.167936,-3.861646 -0.143275,-0.348026 -0.09884,-0.617362 0.101855,-0.617362 0.942709,0 1.250728,3.313607 0.409909,4.409723 -0.148837,0.194027 -0.325385,0.649841 -0.392328,1.01292 -0.09265,0.502482 0.122406,0.687631 0.90046,0.775233 0.769048,0.08659 0.921929,0.01485 0.617361,-0.289726 -0.65025,-0.650244 -0.46643,-1.027053 0.30074,-0.616476 0.388056,0.20768 0.705556,0.650974 0.705556,0.985093 0,0.505989 -0.272762,0.585798 -1.632485,0.477654 -1.172906,-0.09329 -1.561366,-0.01475 -1.379859,0.278921 0.138945,0.224818 0.516375,0.382883 0.838735,0.351257 1.36515,-0.133939 2.526387,0.04972 2.526387,0.399577 0,0.413653 -2.717822,0.301135 -3.435181,-0.142219 -0.236937,-0.146434 -0.757571,-0.09136 -1.156965,0.12239 -0.399395,0.213751 -1.026859,0.293204 -1.394365,0.176561 -1.400214,-0.444412 -1.389346,4.876754 0.01467,7.185484 0.558205,0.917892 0.621352,1.276357 0.294268,1.67047 -0.56274,0.67806 -0.215443,3.366731 0.773405,5.987475 0.432999,1.147579 0.760444,2.721504 0.727655,3.497615 -0.0797,1.886468 0.827408,6.026929 2.125411,9.701389 0.582593,1.649236 1.300278,3.681902 1.594855,4.517037 0.294577,0.835134 0.469735,1.584282 0.38924,1.664779 -0.08049,0.08049 -0.666991,0.186023 -1.303325,0.234509 -0.661724,0.05042 -1.295598,0.347187 -1.480823,0.693279 -0.451794,0.844187 -0.471449,0.827895 0.998834,0.827895 1.244694,0 1.318704,0.06122 1.248196,1.032493 -0.06623,0.912343 -0.01409,0.971635 0.448028,0.50951 0.28764,-0.287638 0.588082,-0.861021 0.667649,-1.274181 0.07957,-0.413159 0.333753,-1.104508 0.564857,-1.536329 0.320309,-0.598502 0.324579,-1.211905 0.01796,-2.580534 -0.878692,-3.922198 -0.961291,-4.702359 -0.731661,-6.910681 0.294443,-2.83162 -0.159115,-5.586229 -1.327868,-8.064598 -0.675421,-1.432246 -0.936305,-2.673185 -1.075396,-5.115278 -0.135499,-2.379056 -0.331386,-3.33695 -0.747241,-3.654044 -0.382961,-0.292012 -0.419466,-0.433349 -0.113896,-0.440972 0.53918,-0.01344 1.169586,-1.485456 1.36454,-3.186219 0.181261,-1.581301 0.377832,-2.116666 0.777183,-2.116666 0.176283,0 0.237314,0.738159 0.135623,1.640356 -0.139961,1.241736 -0.07956,1.575259 0.248559,1.372472 0.238398,-0.147338 1.675862,-0.07462 3.194365,0.161607 2.835004,0.441018 5.295303,0.08322 5.295303,-0.770092 0,-0.19974 0.238125,-0.271787 0.529167,-0.160102 0.308872,0.118523 0.529167,0.0054 0.529167,-0.27184 0,-0.575803 0.988612,-1.45416 1.293518,-1.149254 0.119974,0.119976 0.01414,0.463934 -0.235185,0.764353 -0.249326,0.300418 -0.384317,0.61522 -0.29998,0.699558 0.277057,0.277058 3.636282,-1.464543 4.330951,-2.245395 0.420037,-0.472147 0.767294,-0.621976 0.909242,-0.3923 0.146143,0.236467 0.57374,0.100941 1.17586,-0.372688 0.520414,-0.409356 0.870401,-0.866934 0.777755,-1.01684 -0.09265,-0.149906 0.05954,-0.573758 0.338197,-0.941892 0.724609,-0.957283 0.703594,-2.752062 -0.02893,-2.470965 -0.306909,0.117775 -0.735534,0.214133 -0.9525,0.214133 -0.289854,0 -0.289437,0.105043 0.0014,0.396053 0.428755,0.4286 -0.09826,2.073391 -0.664191,2.073391 -0.407507,0 -0.371606,-0.488992 0.06819,-0.928786 0.200389,-0.200388 0.271658,-0.605878 0.158376,-0.901083 -0.263056,-0.685514 -5.295949,-1.458612 -6.232525,-0.957371 -0.346065,0.185208 -1.273068,0.391329 -2.060007,0.458046 -1.914093,0.162282 -1.661246,-0.575592 0.312711,-0.912572 0.81581,-0.13927 1.896307,-0.578094 2.401105,-0.97517 0.943078,-0.741824 1.880997,-0.952786 1.880997,-0.423083 0,0.164377 -0.357187,0.471132 -0.79375,0.68168 -0.756731,0.364956 -0.742692,0.383924 0.301029,0.406686 0.602128,0.01312 2.070566,0.125867 3.263194,0.250521 1.522939,0.159177 2.168416,0.106673 2.168416,-0.176389 0,-0.221668 -0.47625,-0.403034 -1.058333,-0.403034 -0.582083,0 -1.058333,-0.176417 -1.058333,-0.392039 0,-0.46864 2.530651,-0.07973 2.850684,0.43809 0.264858,0.428555 1.96016,-0.191089 2.159578,-0.78934 0.09137,-0.274098 0.677715,0.04484 1.578367,0.85852 1.44073,1.301613 3.770719,2.354213 5.211189,2.354213 1.45368,0 7.01369,2.997147 7.92964,4.274506 0.93775,1.307769 1.70121,1.898135 2.45822,1.900901 0.72761,0.0028 1.3478,1.12189 0.88056,1.589126 -0.26564,0.265638 -1.038,-0.277668 -2.6379,-1.855586 -2.55536,-2.520252 -6.30735,-4.742501 -8.53052,-5.052498 -0.82108,-0.11449 -1.91708,-0.368169 -2.435546,-0.563728 -0.849683,-0.320491 -1.067833,-0.217022 -2.211578,1.048967 -1.210366,1.33973 -2.940445,2.068446 -4.460113,1.878609 -0.307347,-0.0384 -1.497972,0.555851 -2.645834,1.320546 -1.147864,0.764695 -3.039525,1.654147 -4.203692,1.976561 -1.164166,0.322414 -2.837905,0.833078 -3.719418,1.134805 -1.324477,0.453351 -2.082974,0.484431 -4.368643,0.179006 -1.685059,-0.225167 -3.092119,-0.245561 -3.60072,-0.05219 -0.790863,0.300683 -0.834609,0.480427 -0.830642,3.412938 0.0044,3.21726 0.570702,6.064829 1.498163,7.532656 0.692486,1.095947 1.405489,5.310064 1.147003,6.779221 -0.486106,2.762875 -0.446899,3.787338 0.257205,6.720717 0.595446,2.480691 0.663574,3.257162 0.332328,3.787574 -0.229165,0.366952 -0.416664,0.73449 -0.416664,0.816754 0,0.08226 11.826874,0.0833 26.281941,0.0025 17.505912,-0.09809 26.281942,-0.02865 26.281942,0.207994 0,0.22932 -3.28281,0.357357 -9.26042,0.361177 -5.093222,0.0032 -16.918002,0.0071 -26.277262,0.0085 l -17.016855,0.0025 -0.497302,0.961655 -0.497301,0.961658 26.774568,-0.113358 c 18.873592,-0.07991 26.774572,-0.0018 26.774572,0.264583 0,0.265042 -7.98259,0.390419 -26.722912,0.419718 -14.697604,0.02296 -26.848409,0.02085 -27.00179,-0.0048 -0.153381,-0.02561 -0.580309,0.114783 -0.94873,0.311954 -0.460649,0.246532 -0.742337,0.241216 -0.901936,-0.017 z M 77.798342,47.686579 c 0,-0.377292 0.207148,-0.487193 0.652106,-0.345969 0.358659,0.113834 1.112722,-0.04799 1.675695,-0.359614 l 1.023588,-0.566586 -1.003797,0.222169 c -0.776397,0.171838 -1.168471,0.03891 -1.7307,-0.586751 -0.510176,-0.567743 -0.662502,-0.628223 -0.510914,-0.202858 0.118791,0.333336 0.06502,0.699365 -0.119489,0.8134 -0.18451,0.114032 -0.500662,0.51599 -0.702561,0.89324 -0.289482,0.540911 -0.252596,0.68591 0.174495,0.68591 0.297868,0 0.541577,-0.248822 0.541577,-0.552941 z m 3.307782,-2.198726 c 0.09593,-0.155222 -0.370946,-0.282222 -1.037512,-0.282222 -0.666567,0 -1.211936,0.127 -1.211936,0.282222 0,0.155222 0.46688,0.282222 1.037512,0.282222 0.570632,0 1.116005,-0.127 1.211936,-0.282222 z m -0.630745,-1.325598 c -0.527654,-0.386334 -3.131817,-0.253809 -2.884343,0.146781 0.0769,0.124474 0.871989,0.226317 1.766866,0.226317 1.229808,0 1.502639,-0.09109 1.117477,-0.373098 z M 50.321364,43.199207 c -0.288102,-0.288103 -0.392465,-0.248623 -0.392465,0.14846 0,0.701273 0.474381,1.175653 0.649699,0.6497 0.07438,-0.223132 -0.04138,-0.582306 -0.257234,-0.79816 z m 7.095054,31.707949 c -0.637722,-1.399646 -0.914062,-3.384303 -0.471225,-3.384303 0.215621,0 0.392039,0.465917 0.392039,1.035367 0,0.569454 0.163191,1.464596 0.362647,1.989205 0.459724,1.209163 0.234054,1.495555 -0.283461,0.359731 z M 55.758791,63.779261 c -0.609789,-1.179202 -0.655447,-1.42863 -0.26151,-1.42863 0.271569,0 1.487173,1.846728 1.487173,2.259291 0,0.592716 -0.753779,0.08186 -1.225663,-0.830661 z M 98.788618,52.283168 c -0.77611,-0.480272 -1.64923,-0.847796 -1.94028,-0.816719 -0.83831,0.08952 -1.76389,-0.432802 -1.76389,-0.995391 0,-0.630654 0.90764,-0.401708 3.175,0.800883 l 1.5875,0.841992 -1.22139,-1.05526 c -0.67177,-0.580397 -1.34646,-1.055264 -1.49931,-1.055264 -0.15285,0 -0.27791,-0.16812 -0.27791,-0.373599 0,-0.205479 0.18328,-0.260325 0.40729,-0.121881 0.24879,0.153758 0.31166,0.097 0.16158,-0.145846 -0.13514,-0.218658 -0.86569,-0.583311 -1.62345,-0.810341 -0.80523,-0.241254 -2.61139,-1.475422 -4.3465,-2.970015 -3.33735,-2.874726 -3.83708,-3.187513 -6.22603,-3.896956 -0.93164,-0.276669 -1.891108,-0.740657 -2.132143,-1.031088 -0.290742,-0.350319 -1.106449,-0.533224 -2.42352,-0.543416 -1.091904,-0.0084 -2.699653,-0.167611 -3.572778,-0.353691 -0.873125,-0.186076 -2.460625,-0.491744 -3.527778,-0.67926 -1.067153,-0.187515 -2.687791,-0.687422 -3.601418,-1.110907 -1.626334,-0.753841 -1.695157,-0.75698 -3.284628,-0.149956 -1.66306,0.635127 -2.715008,0.498715 -1.190866,-0.154428 0.75611,-0.324016 0.726319,-0.340836 -0.283291,-0.15995 -1.753983,0.314255 -6.276926,2.651235 -5.755198,2.973681 0.243686,0.150608 0.375975,0.4751 0.293976,0.721095 -0.245762,0.737288 -4.83957,-3.779386 -4.635933,-4.55809 0.117868,-0.450733 -0.06531,-0.71078 -0.598972,-0.850335 -0.708135,-0.185184 -0.750852,-0.105544 -0.541622,1.009748 0.17913,0.954846 0.111908,1.21079 -0.318006,1.21079 -0.299834,0 -0.545153,-0.133269 -0.545153,-0.29615 0,-0.162884 -0.405826,-0.481062 -0.901836,-0.707058 -0.496011,-0.225997 -0.833375,-0.52929 -0.7497,-0.673986 0.08368,-0.144695 0.02441,-0.580584 -0.131701,-0.968639 -0.252088,-0.626629 -0.286613,-0.634168 -0.308634,-0.06737 -0.01364,0.351 -0.184128,0.539708 -0.378868,0.419351 -0.19474,-0.120354 -0.261274,-0.645661 -0.147855,-1.167349 0.159499,-0.733629 0.121055,-0.828632 -0.169692,-0.41935 -0.20675,0.291041 -0.37834,0.886354 -0.381311,1.322916 -0.003,0.436563 -0.164152,0.79375 -0.35818,0.79375 -0.444303,0 -0.4511,-0.753798 -0.01709,-1.895334 l 0.33569,-0.882928 -1.22675,0.723801 c -0.674711,0.398089 -1.402942,1.062884 -1.618289,1.477324 -0.383321,0.737708 -0.373394,0.736861 0.472824,-0.04022 0.97859,-0.898641 1.668093,-1.075273 0.985138,-0.252363 -0.247122,0.297766 -0.435928,1.012141 -0.419569,1.5875 0.01636,0.575363 -0.118388,1.046113 -0.299439,1.046113 -0.18105,0 -0.329183,-0.247495 -0.329183,-0.549987 0,-0.313694 -0.168509,-0.445841 -0.392219,-0.30758 -0.215721,0.133322 -0.546587,0.02364 -0.735257,-0.243763 C 46.09328,36.56935 46.048943,36.770207 46.18621,37.568 c 0.133205,0.774181 0.05692,1.150172 -0.234882,1.157746 -0.246615,0.0064 -0.158036,0.21905 0.206319,0.4953 0.423853,0.321359 0.507597,0.564967 0.24913,0.724708 -0.720746,0.445445 -1.416768,-0.577109 -1.416768,-2.081435 0,-1.28791 0.20694,-1.671606 1.675694,-3.106967 0.921632,-0.90068 2.336034,-1.898394 3.143116,-2.217146 1.3451,-0.53124 1.55778,-0.532824 2.551384,-0.01901 0.59618,0.308297 1.424317,1.020892 1.840306,1.583547 0.415989,0.562656 1.032293,1.095171 1.369564,1.183372 0.366893,0.09594 0.705042,0.649806 0.841804,1.378818 0.125721,0.670151 0.676132,1.647232 1.223136,2.171294 l 0.994551,0.952843 2.886444,-1.596606 c 2.570782,-1.421997 3.130929,-1.596601 5.122024,-1.596601 1.229569,0 2.76208,0.18354 3.405579,0.407864 1.091219,0.3804 1.226522,0.338833 2.009436,-0.617361 1.673986,-2.044481 3.81718,-4.032919 4.901273,-4.547354 0.609371,-0.289166 1.85692,-0.554086 2.772333,-0.588711 1.54021,-0.05826 1.731066,-0.170449 2.55827,-1.503835 0.491638,-0.792485 1.830183,-2.58309 2.974545,-3.979124 1.72573,-2.105263 2.14488,-2.885665 2.45716,-4.57492 0.20707,-1.120171 0.7006,-2.676712 1.09672,-3.458978 0.9558,-1.887517 3.84936,-5.510675 5.36794,-6.721435 1.52131,-1.2129373 1.72654,-1.7415993 1.24387,-3.2041013 -0.55371,-1.6777836 0.0253,-2.4874159 2.6606,-3.7206494 1.2299,-0.5755368 2.490152,-1.4340473 2.800572,-1.9078014 0.31041,-0.4737541 0.75917,-0.8613641 0.99723,-0.8613556 0.23806,8.8e-6 0.92217,-0.58281198 1.52023,-1.29515688 1.15936,-1.38088182 2.264,-1.45713772 2.264,-0.1562888 0,1.0459659 -1.30384,3.86368078 -2.6637,5.75651558 -0.66927,0.9315739 -1.21686,1.7885365 -1.21686,1.9043625 0,0.115827 -0.55317,1.107647 -1.22928,2.204045 -0.676112,1.0963983 -1.772482,3.6076473 -2.436382,5.5805533 -0.6639,1.972906 -1.60114,4.371635 -2.08276,5.330509 -0.48162,0.958874 -0.98763,2.406124 -1.12448,3.216112 -0.13684,0.809989 -0.59111,1.90376 -1.00948,2.430603 -0.82701,1.041426 -1.3461,2.03867 -3.16125,6.073174 -0.65471,1.455208 -1.61272,3.145 -2.12893,3.755093 -0.5162,0.610091 -0.93855,1.42674 -0.93855,1.814774 0,0.388034 -0.48092,1.220343 -1.06871,1.849575 -0.58779,0.629232 -1.02435,1.165126 -0.97014,1.190876 0.0542,0.02575 0.81295,0.382887 1.68607,0.793647 0.87313,0.410757 2.78832,1.776176 4.25598,3.034263 1.46766,1.258087 3.37266,2.610206 4.23333,3.004711 0.86067,0.394504 2.12639,1.248417 2.81271,1.897588 0.68632,0.649167 1.689132,1.468741 2.228472,1.821268 0.79251,0.518008 0.90013,0.737944 0.56104,1.146528 -0.57149,0.688597 -0.98227,0.627648 -2.626252,-0.389675 z M 84.765708,40.340102 c -0.33955,-0.257753 -0.617366,-0.697205 -0.617366,-0.976556 0,-0.279354 -0.187854,-0.695769 -0.417452,-0.925368 -0.608433,-0.608432 -0.11714,-0.90412 0.740018,-0.445385 0.40467,0.216577 0.73577,0.321797 0.73577,0.233825 0,-0.08797 0.0964,-0.411057 0.21413,-0.717967 0.1523,-0.396896 0.006,-0.55802 -0.50835,-0.55802 -0.39736,0 -0.820589,-0.15875 -0.940505,-0.352778 -0.119916,-0.194028 -0.376777,-0.352778 -0.570805,-0.352778 -0.194028,0 -0.255788,0.156934 -0.137248,0.348739 0.120015,0.194183 -0.0097,0.262301 -0.292724,0.153698 -0.994111,-0.381476 -0.415929,1.893097 0.769076,3.025553 0.608976,0.581967 1.227726,1.053073 1.375016,1.046903 0.14729,-0.0062 -0.01,-0.222109 -0.34956,-0.479866 z M 81.948963,39.28578 c -0.336532,-0.255549 -0.495282,-0.593295 -0.352778,-0.750545 0.142505,-0.157251 -0.0038,-0.191947 -0.325112,-0.0771 -0.342576,0.122443 -0.839414,-0.07318 -1.201205,-0.472958 -0.339344,-0.374971 -0.443004,-0.681764 -0.230354,-0.681764 0.212648,0 0.484745,0.15875 0.604662,0.352777 0.119916,0.194028 0.404861,0.352778 0.633214,0.352778 0.22835,0 -0.09578,-0.357187 -0.72028,-0.79375 -0.624505,-0.436562 -1.14064,-1.031875 -1.146962,-1.322916 -0.0096,-0.442955 -0.06229,-0.448949 -0.323271,-0.03679 -0.180375,0.284868 -0.563206,0.395891 -0.908378,0.263437 -0.328133,-0.125917 -0.780719,-0.110388 -1.005741,0.0345 -0.240443,0.154824 0.0884,0.337118 0.797542,0.442119 1.208976,0.179014 1.989815,1.060619 0.939384,1.060619 -0.30721,0 -0.558564,-0.15875 -0.558564,-0.352777 0,-0.194028 -0.387505,-0.352778 -0.861123,-0.352778 -0.473619,0 -0.959238,-0.15875 -1.079155,-0.352778 -0.119916,-0.194028 -0.645223,-0.339132 -1.167347,-0.322456 l -0.949319,0.03034 0.992693,0.297978 c 1.316244,0.395097 2.05422,1.038832 1.757926,1.533433 -0.132123,0.22055 0.02836,0.183123 0.356661,-0.08317 0.67684,-0.549025 0.821338,-0.05778 0.173553,0.589999 -0.329258,0.329258 -0.329258,0.423334 0,0.423334 0.232833,0 0.423333,-0.15875 0.423333,-0.352778 0,-0.194028 0.357188,-0.340244 0.79375,-0.324926 0.436563,0.01531 0.594325,0.10825 0.35058,0.20652 -0.564398,0.227541 -0.213469,0.823961 0.484809,0.823961 0.291041,0 0.431055,-0.15875 0.311139,-0.352777 -0.339153,-0.54876 0.446606,-0.414846 0.956229,0.162969 0.250186,0.283661 0.772382,0.516738 1.160438,0.517948 0.658092,0.0021 0.664393,-0.02907 0.09368,-0.462435 z m -5.561732,-0.924038 c 0,-0.194028 -0.04073,-0.352778 -0.09052,-0.352778 -0.04979,0 -0.605412,-0.147669 -1.234722,-0.32815 -1.389063,-0.398378 -1.535529,0.126428 -0.17406,0.623679 1.283003,0.468595 1.499305,0.476853 1.499305,0.05725 z m 4.938889,-2.04924 c 0,-0.471632 -0.840511,-1.365543 -1.499306,-1.594559 -0.807067,-0.280561 -0.77918,-0.128524 0.176389,0.961623 0.798569,0.911034 1.322917,1.161905 1.322917,0.632936 z m 4.586108,-0.09889 c 0,-0.623292 -3.018367,-3.372131 -3.519393,-3.205123 -0.252652,0.08422 -0.359646,-0.0082 -0.237761,-0.205449 0.121888,-0.197214 -0.03767,-0.573752 -0.35456,-0.83675 -0.514526,-0.42702 -0.546766,-0.384119 -0.301342,0.401 0.151151,0.483548 0.451862,0.99581 0.668245,1.138361 0.216384,0.14255 0.254925,0.261613 0.08565,0.264583 -0.414038,0.0073 0.480769,1.063734 0.900959,1.063734 0.181723,0 0.211187,-0.198437 0.06547,-0.440972 -0.180015,-0.299635 -0.07362,-0.285789 0.331957,0.04319 0.328288,0.266294 0.596886,0.622487 0.596886,0.791538 0,0.349451 -1.014437,0.252469 -1.675694,-0.160203 -0.281891,-0.175916 -0.440973,-0.07679 -0.440973,0.274789 0,0.363492 0.328966,0.551818 0.970139,0.555389 0.533577,0.0028 1.208264,0.159289 1.499307,0.347376 0.70849,0.457857 1.41111,0.44219 1.41111,-0.03147 z m 2.60748,-1.321104 c 0.44825,-0.711295 1.50593,-2.801387 2.35041,-4.644651 0.84447,-1.843264 1.90004,-3.800131 2.3457,-4.348594 0.44567,-0.548464 0.8103,-1.311512 0.8103,-1.695664 0,-0.384152 0.5358,-1.999159 1.19067,-3.588906 0.65486,-1.589746 1.63798,-4.30248 2.18471,-6.028299 0.54673,-1.725819 1.35849,-3.674887 1.80392,-4.331263 0.879022,-1.2953113 1.876262,-3.1335289 1.876262,-3.4585359 0,-0.111632 -0.46837,0.03923 -1.04082,0.335259 -1.174212,0.6072096 -1.781412,0.6850076 -1.781412,0.2282466 0,-0.3541926 1.55393,-1.0399596 2.738822,-1.2086706 1.04235,-0.148416 1.2133,-0.3454306 2.70403,-3.116257 1.89041,-3.51371788 1.60858,-3.86676828 -1.01383,-1.2700356 -1.45963,1.4453312 -2.799362,2.4249623 -3.741662,2.7359483 -1.56216,0.5155603 -2.0932,1.1987053 -1.43975,1.8521513 0.90616,0.90616 0.35097,2.2020706 -2.66177,6.2130629 -1.68376,2.241667 -3.12753,3.877319 -3.20837,3.634781 -0.0809,-0.242537 0.52867,-1.34842 1.35448,-2.457517 1.11985,-1.504005 1.25124,-1.79238 0.51694,-1.134596 -1.49146,1.336047 -4.38487,5.956343 -4.62279,7.381839 -0.38218,2.289753 -0.88088,3.486833 -1.94733,4.674322 -2.51257,2.797739 -2.36555,3.062002 0.26005,0.46745 3.05238,-3.016289 3.73439,-3.995772 3.63653,-5.222737 -0.13379,-1.677373 0.0335,-3.06754 0.3691,-3.06754 0.20579,0 0.35278,1.175926 0.35278,2.822222 0,1.552222 -0.12747,2.822222 -0.28326,2.822222 -0.48001,0 -6.41773,6.009647 -7.391342,7.48087 l -0.918626,1.388139 1.608158,1.563153 c 0.88449,0.859733 1.80452,2.037188 2.0445,2.616566 0.50607,1.22175 0.78862,1.126314 1.9036,-0.642966 z m -4.01859,-4.041734 c 0,-0.615461 2.0986,-3.560804 2.35467,-3.304734 0.10231,0.102318 -0.22688,0.727381 -0.73154,1.389029 -0.50467,0.661649 -0.91757,1.377081 -0.91757,1.589851 0,0.212769 -0.15875,0.484966 -0.35278,0.604882 -0.19403,0.119915 -0.35278,-0.0056 -0.35278,-0.279028 z m -31.044442,3.995605 c 0,-1.01171 -1.205097,-1.567656 -1.812273,-0.836055 -0.421146,0.50745 -0.382385,0.543165 0.34049,0.313736 0.649669,-0.206199 0.854985,-0.108829 1.008517,0.478278 0.242676,0.927996 0.463266,0.948965 0.463266,0.04404 z m 24.341666,0.51157 c 0,-0.09986 -0.515937,-0.496147 -1.146527,-0.880625 -0.676875,-0.412697 -0.911331,-0.699594 -0.572361,-0.70037 0.315789,-7.05e-4 0.771789,0.236806 1.013333,0.527848 0.495268,0.596762 1.579358,0.734021 1.221274,0.154629 -0.127314,-0.205997 -0.647241,-0.532613 -1.155393,-0.725812 -0.729301,-0.27728 -0.817122,-0.417276 -0.416923,-0.664613 0.278849,-0.172338 0.421904,-0.398434 0.317902,-0.502436 -0.104003,-0.104002 -0.806433,0.443116 -1.560954,1.215817 l -1.37186,1.404913 1.483906,-0.05815 c 0.816148,-0.03196 1.58932,0.04727 1.718162,0.17611 0.280338,0.280339 0.469441,0.301562 0.469441,0.05268 z m -2.53559,-0.764967 c 0.25466,-0.101907 0.558931,-0.08938 0.676159,0.02783 0.117224,0.117228 -0.09114,0.200604 -0.463021,0.185286 -0.410967,-0.01693 -0.49456,-0.10052 -0.213138,-0.213134 z m 5.290192,-0.794529 c -0.234506,-0.375504 -0.561061,-0.599497 -0.725674,-0.497759 -0.336342,0.207871 0.355317,1.180496 0.83948,1.180496 0.171912,0 0.120703,-0.30723 -0.113806,-0.682737 z M 79.209453,32.89369 c 0,-0.291169 -0.312349,-0.529166 -0.694485,-0.529166 -0.47238,0 -0.629543,0.169231 -0.491423,0.529166 0.111686,0.291042 0.424201,0.529167 0.694485,0.529167 0.270281,0 0.491423,-0.238125 0.491423,-0.529167 z m 4.587201,-3.792361 c 0.519374,-0.709472 0.604564,-0.95587 0.223471,-0.646375 -0.578478,0.469795 -1.453162,1.792903 -1.185259,1.792903 0.06735,0 0.500158,-0.515937 0.961788,-1.146528 z M 97.188618,7.9346587 c -0.007,-0.242535 -0.22237,-0.8196066 -0.47889,-1.2823826 -0.59148,-1.0670821 -1.04856,-0.425332 -0.5782,0.8118066 0.35594,0.936176 1.07942,1.258243 1.05709,0.470576 z M 63.625252,51.13663 c -1.634648,-0.962682 -3.366651,-2.761072 -3.006248,-3.121477 0.102965,-0.102962 0.846753,0.472338 1.652863,1.278446 0.80611,0.806111 2.129027,1.760625 2.939815,2.121146 0.945283,0.420325 1.221032,0.662274 0.768605,0.674395 -0.388056,0.01041 -1.447821,-0.418232 -2.355035,-0.95251 z m 2.01039,-1.662388 c -0.295515,-0.48507 -0.775424,-1.273235 -1.066466,-1.751478 -0.579861,-0.952832 -0.682481,-1.599911 -0.253731,-1.599911 0.15149,0 0.456027,0.436563 0.67675,0.970139 0.220723,0.533576 0.747367,1.486076 1.170319,2.116667 0.422952,0.63059 0.598324,1.146527 0.389715,1.146527 -0.208608,0 -0.621073,-0.396875 -0.916587,-0.881944 z m 3.537717,-0.795394 c 0.09333,-1.924562 0.52363,-3.64822 0.859,-3.440952 0.270756,0.167336 0.171171,2.143718 -0.200128,3.971763 -0.261,1.285007 -0.728661,0.90824 -0.658872,-0.530811 z m -13.247238,-0.08655 c -0.207681,-0.388055 -0.245017,-0.705555 -0.08297,-0.705555 0.375085,0 1.141301,0.757883 1.141301,1.128889 0,0.547567 -0.685463,0.273381 -1.058333,-0.423334 z m -2.116667,-3.133361 c 0,-0.194028 0.15875,-0.450889 0.352778,-0.570805 0.194028,-0.119916 0.352778,-0.05928 0.352778,0.13475 0,0.194028 -0.15875,0.450889 -0.352778,0.570805 -0.194028,0.119917 -0.352778,0.05928 -0.352778,-0.13475 z m 6.562065,-0.689469 c -0.104205,-0.168607 0.03853,-0.607759 0.317183,-0.975893 0.489989,-0.647326 0.507015,-0.643921 0.517866,0.103597 0.01198,0.825024 -0.520499,1.381248 -0.835049,0.872296 z m 3.844879,-0.410503 c -0.119916,-0.194028 0.03883,-0.352778 0.352778,-0.352778 0.313944,0 0.472694,0.15875 0.352778,0.352778 -0.119916,0.194028 -0.278666,0.352778 -0.352778,0.352778 -0.07411,0 -0.232862,-0.15875 -0.352778,-0.352778 z m -1.5875,-0.680356 c 0,-0.374199 -0.249464,-0.929824 -0.554365,-1.234723 -0.435373,-0.435373 -0.450517,-0.554365 -0.07056,-0.554365 0.266096,0 0.67431,0.1905 0.907143,0.423333 0.511852,0.511852 0.564758,2.046111 0.07056,2.046111 -0.194028,0 -0.352778,-0.306162 -0.352778,-0.680356 z M 57.337232,42.98645 c 0,-0.333763 2.459087,-0.75051 2.916171,-0.494209 0.148685,0.08337 0.179004,0.299367 0.06737,0.479989 -0.259399,0.419717 -2.983545,0.4327 -2.983545,0.01422 z m 8.422735,-0.217184 c -1.000659,-0.543754 -1.554103,-1.892268 -1.002848,-2.443522 0.219779,-0.21978 0.341224,-0.0679 0.341224,0.426755 0,1.107631 1.46406,1.9573 2.896079,1.680743 1.094173,-0.21131 1.121524,-0.192835 0.476077,0.321599 -0.837502,0.667505 -1.502169,0.671044 -2.710532,0.01443 z m -5.235323,-0.503777 c -0.442624,-0.827049 -0.458868,-1.081525 -0.06904,-1.081525 0.162884,0 0.47698,0.396875 0.697993,0.881945 0.472223,1.036415 -0.08625,1.213633 -0.628953,0.19958 z m 2.280643,-0.320029 c -0.582083,-0.321808 -1.124479,-0.624794 -1.205324,-0.673301 -0.08084,-0.04851 -0.05591,-0.179275 0.05541,-0.290598 0.278068,-0.278066 2.384635,0.843658 2.384635,1.269796 0,0.189046 -0.03969,0.329205 -0.08819,0.311464 -0.04851,-0.01774 -0.564445,-0.29555 -1.146528,-0.617361 z m -10.759722,-0.0177 c 0,-0.172995 -0.396875,-0.414143 -0.881944,-0.535887 -0.48507,-0.121747 -0.881945,-0.352478 -0.881945,-0.512734 0,-0.454427 1.388839,-1.598933 1.637967,-1.349805 0.251934,0.251936 0.499608,2.71296 0.273027,2.71296 -0.08091,0 -0.147105,-0.141542 -0.147105,-0.314534 z m 9.172222,-1.884641 c 0.624803,-0.632223 2.469445,-1.131221 2.469445,-0.668013 0,0.176689 -0.382128,0.417164 -0.849172,0.534385 -0.467044,0.117221 -1.141731,0.315718 -1.499305,0.441106 -0.578863,0.202985 -0.592124,0.169277 -0.120968,-0.307478 z M 46.770069,38.391957 c -0.273042,-0.510183 -0.278411,-0.735771 -0.01751,-0.735771 0.427676,0 0.893452,0.989369 0.602671,1.28015 -0.105263,0.105265 -0.368586,-0.139707 -0.585161,-0.544379 z M 50.516862,37.421 c -0.129352,-0.129349 -0.235186,-0.399224 -0.235186,-0.599722 0,-0.221051 0.164314,-0.200223 0.417454,0.05292 0.2296,0.229601 0.335433,0.499476 0.235185,0.599722 -0.100248,0.100249 -0.288102,0.07644 -0.417453,-0.05292 z"
       style="fill:#000000;stroke-width:0.35277778" />
  </g>
</svg>
