<?xml version="1.0" encoding="UTF-8" standalone="no"?>
<!-- Created with Inkscape (http://www.inkscape.org/) -->

<svg
   xmlns:dc="http://purl.org/dc/elements/1.1/"
   xmlns:cc="http://creativecommons.org/ns#"
   xmlns:rdf="http://www.w3.org/1999/02/22-rdf-syntax-ns#"
   xmlns:svg="http://www.w3.org/2000/svg"
   xmlns="http://www.w3.org/2000/svg"
   xmlns:sodipodi="http://sodipodi.sourceforge.net/DTD/sodipodi-0.dtd"
   xmlns:inkscape="http://www.inkscape.org/namespaces/inkscape"
   width="231.58333mm"
   height="113.37947mm"
   viewBox="0 0 231.58334 113.37946"
   version="1.1"
   id="svg8"
   inkscape:version="0.92.2 5c3e80d, 2017-08-06"
   sodipodi:docname="Figure_114.svg">
  <defs
     id="defs2" />
  <sodipodi:namedview
     id="base"
     pagecolor="#ffffff"
     bordercolor="#666666"
     borderopacity="1.0"
     inkscape:pageopacity="0.0"
     inkscape:pageshadow="2"
     inkscape:zoom="0.98994949"
     inkscape:cx="416.21017"
     inkscape:cy="227.72187"
     inkscape:document-units="mm"
     inkscape:current-layer="layer1"
     showgrid="false"
     fit-margin-top="0"
     fit-margin-left="0"
     fit-margin-right="0"
     fit-margin-bottom="0"
     inkscape:window-width="1440"
     inkscape:window-height="807"
     inkscape:window-x="0"
     inkscape:window-y="1"
     inkscape:window-maximized="1" />
  <metadata
     id="metadata5">
    <rdf:RDF>
      <cc:Work
         rdf:about="">
        <dc:format>image/svg+xml</dc:format>
        <dc:type
           rdf:resource="http://purl.org/dc/dcmitype/StillImage" />
        <dc:title></dc:title>
      </cc:Work>
    </rdf:RDF>
  </metadata>
  <g
     inkscape:label="Layer 1"
     inkscape:groupmode="layer"
     id="layer1"
     transform="translate(73.618842,115.43993)">
    <path
       style="fill:#000000;stroke-width:0.35277778"
       d="m 94.993701,-2.7507313 c -1.067152,-0.3679014 -2.416527,-0.6772134 -2.998611,-0.6873593 -1.990926,-0.034678 -20.458498,0.4027064 -21.935056,0.5195323 -0.810673,0.064142 -2.636298,-0.1089731 -4.056945,-0.3847007 -2.092727,-0.4061636 -3.419997,-0.4288155 -6.992723,-0.1193376 -5.87376,0.5087973 -9.676264,0.52197 -11.818056,0.040947 -5.686986,-1.277239 -10.554049,-1.5537286 -12.548771,-0.7128687 -0.899429,0.3791444 -2.656816,0.5005212 -6.854007,0.473382 -4.789089,-0.030974 -5.988551,-0.1522167 -7.915191,-0.8001178 -1.248914,-0.419989 -2.863303,-0.8583718 -3.587538,-0.9741817 -1.448375,-0.2316022 -7.3235719,0.3635727 -10.8638523,1.1005432 -1.6514517,0.3437784 -2.4808813,0.3686528 -3.0868053,0.092576 -1.30385,-0.5940742 -0.999004,-1.2585912 0.670747,-1.4621122 12.7161646,-1.5499362 13.6171656,-1.5707713 17.6307856,-0.4076665 3.447419,0.9990208 8.568726,1.4393898 10.042342,0.8635189 0.544537,-0.2128026 1.466317,-0.4579832 2.048401,-0.5448512 0.582083,-0.086865 1.852083,-0.286265 2.822222,-0.4431136 1.924696,-0.3111711 3.380828,-0.2821093 5.820834,0.1161768 0.873125,0.1425187 2.06375,0.3305387 2.645833,0.4178159 0.582084,0.087281 1.931459,0.3124694 2.998611,0.5004188 3.415754,0.601599 7.14628,0.7435039 9.514636,0.3619218 3.371974,-0.5432778 7.791867,-0.6703131 9.006199,-0.2588507 0.644906,0.2185176 6.846323,0.3698275 15.875,0.387343 13.921215,0.027023 14.891287,0.069716 16.05139,0.7066633 3.211574,1.7633068 1.526494,2.5919219 -2.469445,1.214321 z M 107.51731,-13.625039 c -1.55222,-0.545296 -3.29847,-1.246742 -3.88055,-1.558767 -0.58209,-0.312025 -1.30082,-0.568296 -1.5972,-0.569492 -0.29638,-0.0011 -0.852,-0.221093 -1.23472,-0.488658 -0.38272,-0.267567 -1.585058,-0.670796 -2.671857,-0.896062 -1.389613,-0.288033 -2.272873,-0.719452 -2.976418,-1.453794 -0.550231,-0.574319 -1.330149,-1.044215 -1.733152,-1.044215 -0.402999,0 -1.601371,-0.3175 -2.663045,-0.705556 -1.061674,-0.388055 -2.399252,-0.705555 -2.972396,-0.705555 -0.573141,0 -1.92476,-0.149575 -3.003589,-0.332391 -1.078834,-0.182813 -3.787141,-0.568875 -6.01846,-0.857917 -6.523758,-0.845075 -11.956613,-2.951303 -14.632454,-5.672762 -1.358769,-1.381936 -3.578253,-2.895501 -5.552243,-3.786329 -0.527067,-0.237853 -1.003317,-0.605109 -1.058333,-0.816119 -0.09198,-0.352796 -4.875915,0.312282 -8.213916,1.141924 -1.027832,0.255464 -6.872238,0.245339 -7.9375,-0.01376 -0.291042,-0.07079 -1.402292,-0.373631 -2.469445,-0.672991 -4.896358,-1.37353 -7.21299,-1.709212 -10.230556,-1.482418 -2.494964,0.187519 -3.3245,0.107569 -4.938889,-0.476003 -1.067152,-0.385756 -2.495903,-0.901139 -3.175,-1.1453 -0.679097,-0.244158 -1.472847,-0.582514 -1.763889,-0.751904 -0.291041,-0.169386 -0.767291,-0.394077 -1.058333,-0.499311 -3.205685,-1.15909 -6.750752,-3.479472 -7.295583,-4.775235 -0.6456851,-1.535631 0.292041,-1.790513 1.463859,-0.397888 0.89112,1.059036 1.160011,1.212483 5.655335,3.227268 1.358194,0.608735 2.745102,1.26027 3.082018,1.447849 0.336917,0.187579 0.942665,0.341052 1.346109,0.341052 0.403444,0 1.0509,0.169848 1.438793,0.377444 0.828777,0.443547 1.736379,0.662777 3.62289,0.875111 1.336249,0.150396 1.358297,0.135389 0.76472,-0.520506 -0.584775,-0.646169 -0.575627,-0.680995 0.211579,-0.805512 0.452529,-0.07158 1.537155,0.218204 2.41028,0.643964 1.665489,0.812144 8.59753,2.359318 9.963902,2.223866 0.437702,-0.04339 1.257244,0.109396 1.821208,0.339531 0.563961,0.230134 1.675212,0.484265 2.469445,0.564733 1.628532,0.165001 5.900741,-0.374579 7.320471,-0.924574 0.972061,-0.376573 6.489107,-0.672701 7.264559,-0.389929 0.242535,0.08844 0.440972,0.374728 0.440972,0.636189 0,0.426177 1.812523,2.520195 2.028472,2.34351 0.417224,-0.341365 1.380497,0.19364 2.978916,1.654503 2.86191,2.615625 4.31697,3.425194 8.277035,4.605193 2.669166,0.795341 5.481084,1.316634 8.6233,1.598641 1.047627,0.09402 3.412903,0.404551 5.256167,0.690069 1.843264,0.285513 4.497296,0.582199 5.897845,0.659299 2.619968,0.14423 3.627156,0.596537 3.627156,1.628884 0,0.881557 0.720284,1.438473 1.860437,1.438473 1.117956,0 6.23344,1.618502 6.76498,2.140391 0.18433,0.180978 0.64308,0.329053 1.01944,0.329053 0.37637,0 0.86056,0.214652 1.07598,0.477002 0.5374,0.654491 4.12594,1.594273 5.37132,1.406669 2.29329,-0.345464 3.6634,-0.936625 3.6634,-1.580638 0,-0.39497 0.34777,-0.729654 0.90299,-0.869005 0.54087,-0.135749 0.83274,-0.409677 0.72783,-0.68308 -0.0963,-0.251043 0.0529,-0.543976 0.33174,-0.650959 0.27879,-0.10698 0.50689,-0.353262 0.50689,-0.547289 0,-0.194028 -0.26028,-0.2529 -0.57839,-0.130828 -0.48027,0.184295 -0.51466,0.108063 -0.2027,-0.449372 0.20663,-0.369228 0.58597,-0.683666 0.84297,-0.69875 1.34735,-0.07909 3.4659,-0.637579 3.4659,-0.913681 0,-0.554831 -1.87284,-1.130621 -4.05695,-1.247281 -2.27944,-0.12175 -6.22914,-0.376378 -9.34861,-0.602682 -4.10108,-0.297511 -8.21433,-1.222079 -9.525005,-2.141012 -1.730805,-1.213492 -3.106776,-1.660987 -3.862927,-1.256305 -0.480547,0.257182 -0.924991,0.289052 -1.186706,0.0851 -0.578693,-0.450974 -2.683337,-1.177093 -3.893182,-1.343181 -1.401445,-0.19239 -8.331719,-2.258451 -9.40163,-2.802826 -1.264162,-0.643206 -2.586306,-2.157949 -2.294993,-2.629306 0.180051,-0.291324 0.408563,-0.265991 0.830711,0.0921 1.682521,1.427202 6.116895,3.399275 9.401782,4.181204 0.776111,0.184742 1.688924,0.42007 2.028472,0.52295 0.339549,0.102878 0.617362,0.03023 0.617362,-0.161469 0,-0.191686 -0.465283,-0.450713 -1.033957,-0.575614 -0.568678,-0.124904 -1.223116,-0.455016 -1.454309,-0.733587 -0.231193,-0.278561 -0.568357,-0.50648 -0.749254,-0.50648 -0.467533,0 -4.506976,-2.505519 -5.708491,-3.54077 -0.55468,-0.477923 -1.614029,-1.392326 -2.354104,-2.032004 -1.819194,-1.572405 -4.503854,-2.890619 -5.890663,-2.892414 -0.626664,-7.06e-4 -1.737914,-0.226074 -2.469444,-0.500578 -0.731531,-0.274507 -1.796624,-0.602562 -2.366875,-0.729012 -0.570247,-0.126453 -1.467876,-0.536857 -1.994736,-0.912011 -0.526856,-0.375155 -1.201857,-0.6821 -1.5,-0.6821 -0.691307,0 -1.115131,-0.668037 -0.692165,-1.091004 0.196776,-0.196776 1.424323,0.0011 3.126624,0.503714 1.541456,0.455224 3.834525,1.036218 5.095706,1.291089 2.88271,0.582567 6.001114,2.120614 8.328311,4.107656 0.991059,0.846201 1.910652,1.538545 2.043536,1.538545 0.132888,0 1.120535,0.649298 2.194772,1.442883 1.074236,0.793584 2.774019,1.834589 3.777298,2.31334 1.003275,0.478755 2.379764,1.15715 3.058862,1.50755 0.679097,0.350397 2.107847,0.837212 3.175,1.081807 1.067153,0.244595 2.257778,0.718912 2.645833,1.054033 1.386642,1.197497 1.508522,1.140862 1.323482,-0.61505 -0.246419,-2.338529 -1.89205,-4.831144 -8.647537,-13.098322 -0.729756,-0.893057 -1.975266,-2.470975 -2.767803,-3.506484 -0.792536,-1.035505 -2.576713,-2.987425 -3.964837,-4.33759 -1.930771,-1.877977 -2.698133,-2.411123 -3.265463,-2.268767 -0.407879,0.102348 -1.360379,0.281669 -2.116667,0.398487 -0.756285,0.116819 -2.468394,0.512477 -3.804681,0.879239 -1.33629,0.366762 -2.566603,0.582179 -2.734027,0.478705 -0.642804,-0.397273 -0.261744,-1.200725 0.665727,-1.403664 0.533576,-0.116751 1.43039,-0.357903 1.992919,-0.53589 0.562532,-0.177984 1.534876,-0.32361 2.160764,-0.32361 2.623855,0 4.224623,-0.730921 2.676719,-1.22221 -0.903284,-0.286688 -2.130795,-2.24065 -3.66461,-5.833346 -0.969102,-2.269952 -1.331203,-3.684408 -1.490137,-5.820833 -0.223403,-3.003042 -0.813523,-5.820834 -1.219038,-5.820834 -0.426585,0 -1.637721,1.533571 -2.391695,3.028435 -1.778085,3.525301 -4.9871,7.132186 -10.784696,12.121833 -0.350425,0.30159 -0.985425,0.868398 -1.411111,1.259579 -0.425687,0.391177 -1.488352,1.170076 -2.361477,1.730883 -0.873125,0.560804 -1.987445,1.289992 -2.476268,1.620414 -0.488823,0.330422 -1.242885,0.713161 -1.675694,0.85053 -1.073708,0.340783 -0.989119,0.850593 0.183211,1.10418 0.533577,0.115418 2.240139,0.625923 3.792362,1.134459 2.176836,0.713169 3.144915,1.254076 4.233333,2.365344 0.776111,0.792402 1.856098,1.72285 2.399969,2.067658 0.563989,0.357562 0.946707,0.883416 0.89075,1.223889 -0.05396,0.32833 0.03288,0.805963 0.192994,1.061406 0.460329,0.734434 0.08839,0.830287 -2.211906,0.570036 -1.470565,-0.166374 -2.153751,-0.397069 -2.153751,-0.727269 0,-0.306617 0.41959,-0.490372 1.146528,-0.502102 l 1.146527,-0.01849 -0.881944,-0.598858 c -0.485069,-0.329371 -1.450964,-1.173759 -2.146431,-1.876415 -0.931873,-0.941507 -2.045412,-1.534375 -4.233333,-2.253904 -3.700583,-1.216988 -5.954748,-1.518045 -11.700098,-1.562612 -2.169883,-0.01683 -2.734028,-0.129007 -2.734028,-0.543651 0,-0.750898 1.481268,-1.052403 5.203473,-1.059145 3.252336,-0.0059 3.975894,-0.262449 2.469444,-0.875619 -0.436562,-0.177694 -1.27,-0.64897 -1.852083,-1.047277 -0.582084,-0.398308 -1.339145,-0.725245 -1.682362,-0.726522 -0.343214,-0.0014 -1.516497,-0.478574 -2.607296,-1.060658 -1.0908,-0.582083 -2.227468,-1.058333 -2.525928,-1.058333 -0.298461,0 -1.047676,-0.182619 -1.664928,-0.405818 -0.829589,-0.299985 -1.940161,-0.30728 -4.258381,-0.02798 -3.90839,0.470894 -8.257367,1.410698 -8.866159,1.91595 -0.253337,0.210248 -0.551134,0.291747 -0.661773,0.181105 -0.263306,-0.263302 -4.974702,2.270612 -7.892242,4.244654 -2.129472,1.440816 -6.000655,5.192064 -6.000655,5.814738 0,0.541817 -1.3169122,0.255027 -1.9276094,-0.419784 -0.3442194,-0.380358 -0.9908999,-1.47948 -1.4370721,-2.442496 -1.0761169,-2.322686 -2.1529993,-3.010087 -4.3139711,-2.753717 -0.918479,0.108966 -2.38433402,0.282205 -3.25745902,0.384973 -0.87312498,0.102771 -2.30187498,0.281075 -3.17499998,0.396236 -4.966494,0.655045 -13.8210404,0.913134 -17.6258304,0.513743 -1.642057,-0.172363 -3.026862,-0.272087 -3.077344,-0.221601 -0.05048,0.05048 0.377553,0.605653 0.951198,1.233714 0.985446,1.078925 3.524198,5.879758 3.524198,6.664332 0,0.617456 2.254017,1.508146 7.584722,2.997158 0.776111,0.216789 1.569861,0.480649 1.763889,0.586352 0.194028,0.105702 0.559107,0.223453 0.8112874,0.261662 0.252179,0.03821 0.675393,0.24947 0.940474,0.46947 1.370072,1.137055 6.75543,3.599208 8.55610998,3.911794 3.24830702,0.56389 5.11111512,1.391824 6.62546322,2.944721 0.7761111,0.795866 1.9667362,1.879173 2.6458334,2.407345 0.6790973,0.528175 1.981052,1.638702 2.893229,2.467842 l 1.658511,1.507529 -0.333283,1.763889 c -0.418987,2.217455 -0.857818,3.107376 -2.565887,5.203472 -1.3147252,1.613394 -2.4077085,2.098898 -2.9068714,1.291234 -0.1415556,-0.229041 -0.709295,-0.29597 -1.4044225,-0.165562 -0.6812034,0.127794 -1.2631209,0.06306 -1.3982207,-0.155533 -0.1324716,-0.214344 -0.7116057,-0.284342 -1.3545679,-0.16372 -0.7439911,0.139573 -1.6874601,-0.03119 -2.79471312,-0.505806 -1.590886,-0.681934 -1.671553,-0.783823 -1.671553,-2.111308 0,-1.73561 0.283955,-2.510832 0.919689,-2.510832 0.27028,0 0.484416,-0.277813 0.475854,-0.617361 -0.0206,-0.816854 -0.797856,-3.678404 -1.146506,-4.220997 -0.201881,-0.314181 -1.94397498,-0.410524 -6.52403998,-0.360804 -6.5736194,0.07137 -6.6797874,0.05518 -12.7749974,-1.947435 -2.778059,-0.912749 -5.980731,-2.727138 -5.990266,-3.393631 -0.0085,-0.596533 -1.98869,-0.342283 -4.504782,0.578411 -2.506165,0.91706 -10.497136,0.761224 -14.526719,-0.283295 -2.61286,-0.677284 -3.27029,-0.724658 -5.466506,-0.393918 -3.669913,0.552672 -10.949899,1.097537 -16.84739,1.260926 -5.447693,0.150929 -6.647897,-0.107544 -6.178564,-1.330604 0.188102,-0.490188 0.86732,-0.585381 4.378847,-0.613702 5.312469,-0.04284 7.072922,-0.154969 10.329822,-0.65791 1.455209,-0.224719 3.280834,-0.463373 4.056945,-0.530341 3.541611,-0.305594 5.540449,-0.545218 5.779306,-0.692842 0.142702,-0.08819 2.211304,0.306515 4.596894,0.877129 2.979579,0.712696 5.246268,1.037485 7.240532,1.037485 2.985777,0 6.615052,-0.509278 7.681129,-1.077849 0.331876,-0.177003 0.847813,-0.228036 1.146528,-0.113411 0.657229,0.252204 0.698892,-0.06398 0.10214,-0.775145 -0.590296,-0.703471 -5.081909,-5.100331 -6.558355,-6.420009 -0.648169,-0.579346 -1.441919,-1.446981 -1.763889,-1.928075 -1.482365,-2.21499 -4.037337,-5.374319 -4.621064,-5.714143 -2.286742,-1.331246 -4.172405,-2.558584 -4.762102,-3.099555 -0.376135,-0.345052 -0.804035,-0.627369 -0.950889,-0.627369 -0.296981,0 -0.79455,-0.852827 -2.469874,-4.233334 -0.981597,-1.980688 -1.17184,-2.817033 -1.396559,-6.139533 -0.247668,-3.661812 -0.220312,-3.909596 0.569815,-5.161237 0.502693,-0.796319 1.460804,-1.620143 2.429747,-2.0892 0.879876,-0.42594 2.143511,-1.143427 2.808078,-1.594414 0.664568,-0.450988 1.542176,-0.925943 1.95024,-1.055459 0.408064,-0.129515 0.741934,-0.455019 0.741934,-0.723346 0,-0.268323 0.218492,-0.614814 0.485537,-0.769976 0.99455,-0.577868 0.254448,-2.516562 -1.460634,-3.826122 -1.387853,-1.059706 -1.857364,-1.218491 -3.602948,-1.218491 -1.103927,0 -2.113239,-0.106098 -2.242915,-0.235776 -0.129676,-0.129674 -0.830822,-0.262244 -1.558102,-0.294594 -2.23692,-0.0995 -6.084827,-2.674207 -6.084827,-4.071468 0,-0.356503 -0.15875,-0.746301 -0.352778,-0.866218 -0.541365,-0.334582 -0.418584,-1.5875 0.155569,-1.5875 0.279591,0 0.60646,0.15875 0.726376,0.352778 0.119915,0.194028 0.386847,0.352778 0.593182,0.352778 0.236568,0 0.21292,-0.195479 -0.06402,-0.529167 -0.241543,-0.291041 -0.630184,-0.529166 -0.863646,-0.529166 -0.233462,0 -0.76245,-0.359757 -1.175529,-0.799459 -0.918905,-0.97813 -1.793385,-5.739648 -1.168823,-6.364211 0.212177,-0.212176 0.39808,-0.790588 0.413118,-1.285358 0.06551,-2.155325 1.181032,-4.225255 3.145516,-5.836716 2.036134,-1.670238 2.688866,-1.958768 2.332941,-1.031237 -0.117773,0.306911 -0.214132,0.767631 -0.214132,1.023822 0,0.256192 -0.467201,0.628671 -1.038226,0.827731 -1.597477,0.556884 -3.197124,4.16704 -2.136774,4.822372 0.194027,0.119916 0.352777,0.81538 0.352777,1.545476 0,0.730096 0.246044,2.049546 0.546764,2.93211 0.524714,1.539953 0.601038,1.603238 1.892698,1.569369 1.193076,-0.03128 1.301885,-0.105826 0.958074,-0.656355 -0.213323,-0.341585 -0.628475,-0.58296 -0.922559,-0.536388 -0.367792,0.05824 -0.743667,-0.558882 -1.204144,-1.977013 -0.543459,-1.673691 -0.60985,-2.437186 -0.352777,-4.056945 0.232356,-1.464031 0.457554,-1.973246 0.845833,-1.912593 0.33087,0.05169 0.772579,-0.507667 1.178725,-1.492661 0.839576,-2.036162 1.794264,-3.229916 3.13935,-3.925486 0.996694,-0.51541 1.1067,-0.51257 1.414007,0.0366 0.307014,0.5486 0.392998,0.53969 1.092936,-0.11326 0.475722,-0.44378 1.155317,-0.67779 1.818038,-0.62601 1.703056,0.13305 6.057192,2.32707 6.486025,3.268264 0.321267,0.705101 0.635007,0.829654 2.089855,0.829654 1.42027,0 1.780703,0.135197 2.116124,0.79375 0.222356,0.436562 0.368247,1.104499 0.324196,1.484303 -0.0522,0.450095 0.26,0.857121 0.896581,1.168908 0.537171,0.263095 1.225,0.857353 1.528516,1.320574 0.605476,0.924075 0.518466,2.162534 -0.142226,2.024325 -0.229546,-0.04802 -0.775745,0.465953 -1.213771,1.14216 -1.440946,2.224478 -2.302736,1.488484 -1.565014,-1.336566 0.383981,-1.470426 0.400794,-2.018957 0.07551,-2.46381 -0.379275,-0.518689 -0.489892,-0.500813 -1.181671,0.190969 -0.600887,0.600887 -0.854841,0.671613 -1.193941,0.332512 -0.339101,-0.339101 -0.302416,-0.647906 0.172469,-1.451823 0.882276,-1.493573 0.777272,-1.6802 -1.084276,-1.927143 -1.123834,-0.149082 -1.860279,-0.466968 -2.204862,-0.95173 -0.375878,-0.528785 -4.928741,-3.148657 -5.471798,-3.148657 -0.03182,0 -0.449787,0.36323 -0.928817,0.80719 -0.479029,0.443946 -1.323157,1.162874 -1.87584,1.597614 -0.767902,0.604032 -0.907431,0.887884 -0.591662,1.203653 0.647473,0.647473 0.48686,1.03225 -0.380535,0.91164 -0.686472,-0.09545 -0.808548,0.06843 -0.90324,1.212548 -0.06443,0.778537 -0.294284,1.322916 -0.558565,1.322916 -0.907711,0 -0.907826,-0.215083 -0.0022,-4.021181 0.174449,-0.73311 0.127475,-0.95097 -0.165944,-0.769627 -0.667668,0.412641 -1.506994,2.779364 -1.290942,3.640183 0.237088,0.944634 -0.319022,1.059759 -0.87184,0.180486 -0.295345,-0.469755 -0.355651,0.07861 -0.25223,2.293541 0.07475,1.600995 0.227937,3.00292 0.340405,3.115387 0.373513,0.373504 1.676036,-0.572602 1.676036,-1.217404 0,-0.348891 0.100248,-0.734595 0.222773,-0.857121 0.406766,-0.406766 1.541116,0.471239 1.541116,1.192848 0,0.390535 0.436563,1.096467 0.970139,1.568738 0.820521,0.726245 0.888529,0.913226 0.440972,1.212398 -0.46578,0.311355 -0.274385,0.507661 0.407137,0.417585 0.126911,-0.01677 0.418391,0.195598 0.647732,0.471937 0.494289,0.595582 0.129344,1.362688 -0.52824,1.11035 -0.546493,-0.20971 -1.742645,0.999118 -1.452763,1.468158 0.383478,0.620481 3.296296,0.786723 4.335743,0.247451 1.176499,-0.610375 1.911818,-0.159252 1.310335,0.803898 -0.611034,0.978442 -1.890714,1.474797 -2.856039,1.107781 -1.084712,-0.412408 -2.922238,-0.420021 -2.922238,-0.01211 0,0.171397 0.3175,0.394659 0.705555,0.496139 0.388056,0.10148 0.705556,0.04062 0.705556,-0.135244 0,-0.175864 0.238125,-0.319751 0.529167,-0.319751 0.291041,0 0.529166,0.233144 0.529166,0.518097 0,0.317528 0.206589,0.438816 0.53366,0.313309 0.745753,-0.286174 1.459819,0.404734 1.709727,1.654277 0.116462,0.582313 0.492782,1.145963 0.836265,1.252562 0.343483,0.106599 0.908785,0.346354 1.256226,0.532793 0.347442,0.186436 0.756837,0.261645 0.909768,0.167125 0.386048,-0.23859 2.868244,1.858712 2.868244,2.423492 0,0.253157 -0.238125,0.657913 -0.529167,0.899456 -0.291042,0.241544 -0.529167,0.578482 -0.529167,0.74875 0,0.647203 0.563386,0.246122 1.484786,-1.057032 1.090372,-1.542132 5.27565,-4.510669 7.03575,-4.990324 0.649471,-0.176992 2.007236,-0.395104 3.01726,-0.484702 1.500423,-0.133096 1.870759,-0.05462 2.024182,0.428953 0.149052,0.469805 0.606961,0.584316 2.220539,0.5553 2.27499,-0.04091 4.873029,0.608962 5.686485,1.422422 0.950588,0.950588 0.125194,1.03216 -2.51454,0.24851 -2.52573,-0.749804 -4.14074,-0.748721 -5.61569,0.0038 -0.826724,0.421778 -1.262913,-0.39085 -0.506628,-0.94386 0.489529,-0.357953 0.299315,-0.402241 -1.09263,-0.254413 -0.926941,0.09845 -1.935971,0.396935 -2.242291,0.66331 -0.306321,0.266376 -0.810077,0.484318 -1.119463,0.484318 -0.309382,0 -1.034175,0.396875 -1.610646,0.881945 -0.576474,0.485069 -1.270405,0.881944 -1.542076,0.881944 -0.271671,0 -1.099266,0.79375 -1.839105,1.763889 -0.739835,0.970139 -1.535066,1.763889 -1.767177,1.763889 -0.527801,0 -2.621727,2.135099 -3.167474,3.229758 -0.27708,0.55577 -0.831536,0.886735 -1.730239,1.032814 -0.727374,0.11823 -1.676233,0.54138 -2.108576,0.940325 -0.432343,0.39895 -1.274184,1.177442 -1.870759,1.72998 -1.195418,1.107186 -1.625808,2.211518 -1.175495,3.016183 0.162413,0.290216 0.132268,1.107835 -0.06752,1.831421 -0.879754,3.186208 0.829084,6.467768 4.9342,9.475365 2.546351,1.865566 7.094889,6.245616 7.094889,6.832071 0,0.248609 0.198438,0.578968 0.440972,0.73413 0.242535,0.155163 1.032715,1.018851 1.755959,1.919306 0.72324,0.900454 3.085479,3.378937 5.249418,5.507736 l 3.934436,3.870547 3.040856,0.265931 c 1.672474,0.146262 3.437735,0.30637 3.922804,0.355801 0.48507,0.04943 1.874133,0.110338 3.086806,0.135357 2.194518,0.04528 2.204861,0.05036 2.204861,1.083003 0,1.252792 -0.652868,1.758157 -1.237833,0.95817 -0.341024,-0.466376 -1.259026,-0.613372 -4.635222,-0.742217 -2.315489,-0.08837 -4.520985,-0.279594 -4.901099,-0.424949 -0.659504,-0.25219 -0.664958,-0.224737 -0.119172,0.600128 0.429828,0.649612 1.306456,1.062874 3.527778,1.663083 1.625706,0.439268 3.4446,0.955657 4.041986,1.147533 2.007063,0.644645 6.6431634,1.076385 10.8179464,1.007428 3.491999,-0.05768 4.340087,0.03748 5.39730598,0.605634 0.925579,0.497403 1.20860202,0.849507 1.07989902,1.34347 -0.22373202,0.858657 1.136487,3.234789 2.167995,3.787221 0.436563,0.233807 0.7937505,0.61322 0.7937505,0.843143 0,0.504408 -1.2590955,1.884457 -2.4701355,2.707424 -0.82383502,0.559838 -0.83368102,0.600061 -0.151123,0.617362 0.401574,0.01019 1.07521,-0.378372 1.496973,-0.863442 0.421764,-0.485069 0.917272,-0.881944 1.1011327,-0.881944 0.6820006,0 0.7785524,0.77131 0.1794228,1.433339 -0.3401201,0.375832 -0.4747331,0.682872 -0.2991415,0.682311 0.1755952,-7.05e-4 0.6367604,-0.487436 1.024816,-1.081955 0.8915154,-1.365836 1.8738463,-1.946793 2.4007975,-1.419842 0.2778443,0.277844 0.053439,0.726623 -0.8075083,1.614896 -1.1881556,1.225868 -1.2616604,1.880137 -0.1639006,1.458885 0.3178316,-0.121963 0.6606928,-0.538448 0.7619154,-0.925527 0.1012225,-0.387075 0.3639643,-0.707527 0.5838684,-0.712114 0.219904,-0.0046 0.8571124,-0.626649 1.4160183,-1.382366 0.59696,-0.80717 1.2142749,-1.298018 1.4963319,-1.189782 0.601655,0.230879 0.980002,-0.695371 0.711493,-1.74183 -0.111909,-0.436129 -1.5515277,-1.983585 -3.1991587,-3.438793 -1.6476275,-1.455208 -3.001938,-2.805518 -3.0095791,-3.000689 -0.019262,-0.492362 -1.7420838,-1.206581 -4.34362282,-1.800716 -2.98176898,-0.680974 -3.62092198,-0.931216 -8.89943298,-3.484312 -2.5223624,-1.220008 -5.2211124,-2.327052 -5.9972234,-2.460099 -1.912923,-0.327932 -6.513001,-2.563887 -6.788926,-3.299891 -0.122598,-0.327014 -0.409836,-0.753321 -0.638309,-0.947349 -0.228473,-0.194028 -0.774302,-1.067153 -1.212949,-1.940278 -0.438648,-0.873125 -0.975928,-1.929356 -1.193956,-2.347179 -0.574516,-1.10098 -5.404217,-6.030658 -7.723498,-7.883377 -1.092997,-0.873125 -1.994979,-1.769734 -2.004402,-1.992464 -0.0094,-0.22273 -0.41209,-1.095855 -0.894821,-1.940278 -1.065068,-1.863075 -1.127943,-3.435844 -0.178114,-4.455364 1.203442,-1.291746 1.775721,-0.672201 1.5321,1.658637 -0.207751,1.98766 -0.188355,2.044485 1.162389,3.40529 0.755516,0.761147 2.045264,1.974282 2.866104,2.695854 0.82084,0.721575 1.492437,1.462881 1.492437,1.647345 0,0.867597 6.46308,1.971633 11.465278,1.958517 2.433416,-0.0064 9.7992334,-0.526923 10.1017544,-0.713888 0.443889,-0.274342 5.50925598,-0.657889 8.821424,-0.667957 l 2.6953984,-0.0082 0.437448,-1.210706 c 0.2405979,-0.665885 0.5792893,-1.38026 0.7526514,-1.5875 0.723385,-0.864743 3.1206018,-4.484461 3.1219141,-4.713989 0.00318,-0.581177 7.4418017,-7.832792 8.0361477,-7.834263 0.138991,-3.46e-4 1.12032,-0.774104 2.180738,-1.719464 l 1.928026,-1.718836 -1.888836,-1.014568 c -2.8073,-1.507906 -3.27588,-1.798524 -3.514182,-2.179531 -0.541443,-0.865678 -4.194221,-3.264024 -5.282067,-3.468106 -2.1330502,-0.400163 -4.5894596,-1.446664 -6.3109376,-2.688646 -0.9221859,-0.665321 -1.914825,-1.316267 -2.205867,-1.446544 -1.63442602,-0.731609 -4.09872,-2.39067 -5.475714,-3.68647 -1.089406,-1.025174 -2.090664,-1.600065 -3.252573,-1.86753 -0.923262,-0.21253 -2.252701,-0.529778 -2.954309,-0.704994 -2.6312464,-0.657117 -6.5425224,-0.353803 -14.2465724,1.104799 -2.540765,0.481042 -4.409722,1.306396 -4.409722,1.94739 0,0.257484 -0.157325,0.565381 -0.349606,0.684221 -0.452667,0.27976 -2.040125,-0.87322 -2.313133,-1.68004 -0.177009,-0.523124 -0.49622,-0.344404 -1.980085,1.108618 -1.853889,1.815352 -2.750739,2.160873 -5.608863,2.160873 -2.230533,0 -3.593865,-0.525198 -3.436758,-1.323943 0.105228,-0.534998 0.473139,-0.6001 2.787855,-0.493303 1.916835,0.08844 2.807501,-0.01284 3.167637,-0.360171 0.275555,-0.265761 1.334446,-1.012362 2.353092,-1.659113 1.018646,-0.64675 1.852083,-1.414329 1.852083,-1.705729 0,-0.291401 0.488223,-1.146251 1.08494,-1.899667 1.262571,-1.594126 1.249814,-2.609141 -0.03291,-2.618909 -1.258687,-0.0096 -1.228454,-1.363409 0.03372,-1.510205 2.163971,-0.251678 3.381922,2.529871 1.862593,4.253773 -0.383364,0.434983 -0.885109,1.232793 -1.114986,1.772912 -0.58124,1.365674 0.06083,1.533824 2.24989,0.589219 2.196761,-0.947928 7.368784,-2.189792 8.901903,-2.137452 0.6419,0.02191 1.43565,-0.100258 1.763889,-0.271494 0.713176,-0.372052 8.0891774,0.124475 10.1217954,0.681362 2.190164,0.600053 4.430691,1.801477 5.61942898,3.013271 0.595842,0.607399 1.638974,1.383608 2.31807102,1.724906 0.679097,0.341302 2.0107134,1.172062 2.959146,1.846136 1.4975064,1.064309 1.8375489,1.174044 2.5840761,0.833903 0.4728069,-0.215424 0.9908858,-0.310571 1.1512904,-0.211437 0.160401,0.09913 1.4581929,-0.04608 2.8839791,-0.32269 3.146521,-0.610446 7.504244,-1.416219 11.764565,-2.175348 3.125893,-0.556988 4.939178,-1.002166 8.513113,-2.090048 l 1.810336,-0.551054 4.716054,1.553992 c 2.59383,0.854696 5.404711,1.764359 6.246407,2.021474 1.057578,0.323063 1.915333,0.937303 2.776523,1.98827 0.685394,0.836436 1.454097,1.52079 1.708228,1.52079 0.433366,0 2.373267,-0.836835 7.390451,-3.188103 1.164167,-0.545577 2.592917,-1.107683 3.175,-1.249122 0.582084,-0.141443 1.611609,-0.550304 2.287831,-0.908582 0.676226,-0.358279 1.579669,-0.651416 2.007652,-0.651416 0.427986,0 0.864489,-0.139688 0.970005,-0.310418 0.105515,-0.17073 1.016254,-0.580068 2.023858,-0.909639 1.007607,-0.329571 2.478454,-0.889761 3.268556,-1.244867 2.429754,-1.092039 7.363059,-2.412045 8.747457,-2.340558 0.753943,0.03893 1.730986,0.40632 2.293056,0.862237 0.538649,0.43692 1.376239,1.04731 1.861309,1.356422 0.970851,0.618678 2.696683,3.198527 3.03113,4.53107 0.117203,0.466968 0.435645,1.033734 0.707648,1.25948 0.272005,0.225743 0.494555,0.754525 0.494555,1.175075 0,1.105115 0.952631,4.596264 1.723157,6.314941 0.364222,0.812401 0.780885,1.864772 0.925922,2.338609 0.145038,0.473834 0.838641,1.823209 1.541343,2.998612 0.702698,1.175399 1.783937,3.168967 2.402755,4.430148 3.57982,7.295861 4.265461,8.793907 4.692157,10.251828 0.430861,1.472149 0.593936,1.637326 1.920301,1.945058 1.53074,0.355152 2.2993,0.263056 6.54992,-0.784874 2.65476,-0.654491 8.39769,-0.834313 11.99445,-0.375571 0.87312,0.111361 4.38857,0.316844 7.8121,0.456625 5.58449,0.228014 6.4189,0.186179 8.11389,-0.406816 1.68623,-0.589926 2.89706,-0.653616 11.26584,-0.592575 9.64071,0.07032 12.14289,0.378989 12.14289,1.497947 0,0.863276 -3.07486,1.097037 -8.81944,0.670479 -5.55509,-0.412485 -10.10108,-0.300358 -14.81667,0.36545 -2.56562,0.362246 -8.21838,0.272782 -11.99445,-0.189834 -5.50597,-0.674553 -10.56927,-0.87329 -12.34722,-0.484642 -0.97014,0.212065 -2.63701,0.540385 -3.70417,0.729601 -1.06715,0.189212 -2.46095,0.511891 -3.09734,0.717066 -0.81758,0.263589 -1.47638,0.261726 -2.24538,-0.0063 -1.470033,-0.512455 -1.759215,-0.236442 -1.111857,1.06122 0.591937,1.186564 2.669667,4.46629 3.262957,5.150633 0.20317,0.234347 0.3694,0.576964 0.3694,0.761375 0,0.184408 0.67469,1.024982 1.49931,1.867938 1.5444,1.578754 2.73788,2.002077 7.32014,2.59643 3.43838,0.445985 8.66728,1.770408 9.45907,2.395876 0.32817,0.259232 0.97542,0.181762 2.2197,-0.265673 2.34606,-0.84363 5.2115,-0.919343 5.70822,-0.150823 0.83343,1.289491 -1.18627,3.917773 -3.01668,3.925669 -0.48987,0.0021 -1.05551,0.414252 -1.49392,1.088502 -0.88437,1.360103 -3.68286,3.115487 -5.20044,3.262034 -2.94841,0.284713 -4.07485,0.484759 -5.39043,0.957309 -1.57071,0.564187 -3.84292,2.003026 -3.96899,2.513302 -0.0448,0.181528 1.45521,0.361643 3.35885,0.403306 3.78247,0.08278 6.35301,0.432435 6.64432,0.903778 0.10373,0.167844 0.82467,0.305173 1.60209,0.305173 1.86385,0 2.77821,0.525071 2.77821,1.595403 0,0.644782 -0.65119,1.40178 -2.55764,2.9732 -1.4067,1.159496 -2.86391,2.571645 -3.23824,3.138107 -0.37433,0.566462 -1.48558,1.44792 -2.46945,1.958795 -2.44201,1.268021 -5.34061,1.228079 -9.19717,-0.126739 z M 9.3162311,-15.667277 c 1.4402719,-2.315753 1.4377039,-2.414852 -0.021802,-0.841372 -0.7855832,0.846935 -1.3415045,1.680373 -1.2353819,1.852084 0.2938392,0.475442 0.3719124,0.412676 1.2571801,-1.010712 z m -7.1030887,-3.065985 c 0,-0.08556 -0.15875,-0.253682 -0.352778,-0.373598 -0.194028,-0.119917 -0.352778,-0.04991 -0.352778,0.155567 0,0.205479 0.15875,0.373599 0.352778,0.373599 0.194028,0 0.352778,-0.07001 0.352778,-0.155568 z M 107.76962,-25.9152 c 1.06778,-0.909937 3.7158,-2.068527 7.6852,-3.362509 2.11854,-0.690626 2.84395,-0.776185 3.8131,-0.449738 1.21802,0.410277 3.10553,-0.647923 4.21783,-2.364663 0.52693,-0.813251 1.11834,-1.586833 1.31425,-1.719068 2.23222,-1.506693 2.08241,-1.97811 -0.3646,-1.147329 -1.87632,0.637025 -3.12305,0.536967 -6.60965,-0.530472 -5.05027,-1.546158 -6.25776,-1.824877 -8.40449,-1.939981 -1.2412,-0.06655 -2.76249,-0.383173 -3.38066,-0.703601 -1.09099,-0.565521 -3.73154,-3.856394 -5.39773,-6.727078 -0.45046,-0.776111 -1.324332,-2.204861 -1.941929,-3.175 -0.617601,-0.970139 -1.223151,-2.041701 -1.345671,-2.38125 -0.151303,-0.419329 -0.598597,-0.617361 -1.394435,-0.617361 -0.644419,0 -2.085898,-0.238125 -3.203283,-0.529167 -2.13862,-0.557039 -7.641629,-0.731968 -7.641629,-0.242908 0,0.157441 0.287602,0.594963 0.639121,0.972269 0.351515,0.37731 1.787204,2.240513 3.19042,4.140458 1.403219,1.899941 2.78196,3.542951 3.063868,3.651127 0.281908,0.108179 1.283906,1.251472 2.226663,2.540649 0.942756,1.28918 2.378417,3.058336 3.190356,3.931461 2.537718,2.728948 3.398069,4.31818 4.069309,7.516714 l 0.62898,2.997228 1.8144,0.535404 c 2.47231,0.729552 2.51604,0.72504 3.83058,-0.395185 z m -0.78147,-1.547139 c 0,-0.998622 1.21847,-2.157172 3.3088,-3.146069 2.27737,-1.077386 3.21049,-1.251578 3.57191,-0.666795 0.24492,0.396285 -0.10995,0.549102 -2.00427,0.863123 -0.8495,0.140819 -1.9148,0.770329 -3.08681,1.824066 -0.9843,0.884971 -1.78963,1.391525 -1.78963,1.125675 z M 10.686886,-45.220943 c 0.697209,-0.840084 0.185776,-0.968428 -0.7508525,-0.188419 -0.6526037,0.543476 -0.7136624,0.705298 -0.2695575,0.714375 0.315789,0.0065 0.774975,-0.230223 1.02041,-0.525956 z m -1.4181882,-1.931751 c 0,-0.194028 -0.15875,-0.352778 -0.3527778,-0.352778 -0.1940277,0 -0.3527778,0.15875 -0.3527778,0.352778 0,0.194027 0.1587501,0.352777 0.3527778,0.352777 0.1940278,0 0.3527778,-0.15875 0.3527778,-0.352777 z m 3.2609862,-0.679729 c 0.818758,0.106726 1.325125,-0.02353 1.325125,-0.340861 0,-0.604792 -1.044077,-0.708833 -2.017561,-0.201048 -0.539577,0.281457 -1.170118,0.512713 -1.401201,0.513909 -0.231084,0.0011 -0.5106568,0.148611 -0.6212738,0.327596 -0.1191472,0.192783 0.3028318,0.186271 1.0353038,-0.01598 0.680032,-0.187766 1.435855,-0.315398 1.679607,-0.283623 z m 1.633601,-2.473459 c 3.236934,-0.688795 8.101881,-2.665162 7.65658,-3.11046 -0.08539,-0.08539 -1.03934,0.175515 -2.119881,0.579798 -1.08054,0.404283 -1.964619,0.648935 -1.964619,0.543676 0,-0.105262 -0.436563,0.04183 -0.970139,0.326863 -0.533576,0.285034 -2.517952,0.963306 -4.409723,1.507268 -1.89177,0.543962 -3.439583,1.109546 -3.439583,1.256855 0,0.14731 0.3571876,0.134402 0.7937501,-0.02868 0.4365629,-0.163089 2.4406899,-0.64698 4.4536149,-1.075312 z M 9.7527619,-50.51576 c 0.8979321,-0.134652 1.6326031,-0.403574 1.6326031,-0.597602 0,-0.219633 -0.616169,-0.260378 -1.6326031,-0.107954 -2.0262816,0.303862 -2.6007308,0.517917 -2.6007308,0.969109 0,0.194028 0.2178297,0.269187 0.484064,0.167023 0.2662344,-0.102165 1.2187344,-0.295921 2.1166668,-0.430576 z m 43.2997131,-1.764697 c 0.366423,-0.116297 0.666225,-0.334021 0.666225,-0.483828 0,-0.14981 0.415237,-0.461574 0.92275,-0.692813 2.68714,-1.224343 12.089162,-10.110714 14.070306,-13.298625 2.340098,-3.765519 4.021783,-5.796972 4.798864,-5.796972 0.56055,0 0.644977,-0.173503 0.472081,-0.970139 -0.115807,-0.533576 -0.385498,-1.330533 -0.599317,-1.771018 -0.60639,-1.249215 0.163922,-1.762926 1.114129,-0.743 0.989178,1.061759 1.305352,2.416003 1.801781,7.717491 0.673636,7.193872 2.167008,11.104601 5.280522,13.828229 l 1.810999,1.584216 4.302136,-0.153272 c 3.207798,-0.114286 4.833888,-0.01139 6.392573,0.404499 1.149739,0.306775 2.176851,0.471357 2.282469,0.365739 0.105622,-0.105618 -0.160828,-0.858259 -0.592106,-1.67253 -0.431281,-0.814271 -0.783706,-1.764944 -0.783166,-2.112603 7.05e-4,-0.347663 -0.322721,-0.979569 -0.718358,-1.404236 -0.395637,-0.424663 -0.97125,-1.638656 -1.279141,-2.697755 -0.307887,-1.059102 -0.851274,-2.411571 -1.207526,-3.00549 -0.356253,-0.593919 -1.169702,-2.111728 -1.807669,-3.372908 -0.637967,-1.261181 -1.248325,-2.372431 -1.356353,-2.469445 -0.108031,-0.09701 -0.405102,-0.692326 -0.66016,-1.322917 -0.255059,-0.63059 -0.583974,-1.146527 -0.730924,-1.146527 -0.441223,0 -0.998382,-1.74177 -1.749129,-5.468056 -0.971257,-4.820765 -2.171456,-7.224166 -4.229146,-8.468874 -0.883546,-0.534464 -2.414926,-1.23899 -3.403067,-1.565615 -1.500167,-0.495872 -1.965855,-0.5209 -2.822223,-0.151683 -0.564081,0.243199 -2.692477,1.078834 -4.729769,1.856967 -8.180822,3.124621 -11.470641,4.453754 -14.993056,6.057411 -0.970139,0.441678 -1.843264,0.830164 -1.940278,0.8633 -1.337727,0.456936 -3.613761,1.751246 -3.762876,2.13983 -0.106243,0.276864 -0.537214,0.503386 -0.957714,0.503386 -0.420505,0 -2.018115,0.714375 -3.55025,1.5875 -1.532139,0.873125 -2.983502,1.5875 -3.225257,1.5875 -0.241752,0 -0.492467,0.123049 -0.557146,0.273442 -0.299303,0.695977 -6.125309,4.387356 -7.199595,4.561688 -1.396908,0.226688 -1.430323,0.390084 -0.56333,2.754574 1.150529,3.137739 1.878013,4.404741 2.529107,4.404741 0.34332,0 0.707034,0.316699 0.808256,0.703774 0.101223,0.387078 0.476924,0.792275 0.834895,0.900444 1.259748,0.380651 3.649465,1.672325 3.649465,1.972582 0,0.167065 0.224014,0.303755 0.497808,0.303755 0.273791,0 0.87327,0.446215 1.33217,0.991588 0.4589,0.545374 2.16184,1.696311 3.784304,2.557639 1.622467,0.861328 3.10793,1.816647 3.301026,2.122929 0.309824,0.491423 0.453838,0.461652 1.225279,-0.253295 0.480804,-0.445593 1.173988,-0.905323 1.540411,-1.021623 z m -41.541423,-1.215531 c 2.166694,-0.445798 4.664418,-1.380317 3.75254,-1.40401 -0.292322,-0.0076 -1.086072,0.148513 -1.763889,0.346901 -0.677817,0.198391 -1.901949,0.377172 -2.720291,0.397291 -1.166075,0.02868 -1.6102398,0.223294 -2.0535228,0.89983 -0.5337951,0.814677 -0.5294736,0.844169 0.076786,0.524154 0.3533282,-0.186503 1.5720978,-0.530377 2.7083768,-0.764166 z m 7.988202,-0.399415 c 1.649236,-0.391481 3.236736,-0.811386 3.527778,-0.933126 0.291041,-0.121736 0.687916,-0.245759 0.881944,-0.2756 0.194028,-0.02985 0.632612,-0.17574 0.97463,-0.324214 0.351652,-0.152654 0.829493,-0.09763 1.099724,0.126644 0.359523,0.298376 0.579935,0.273608 0.89002,-0.100019 0.516894,-0.622819 3.341113,-1.284291 5.766876,-1.350684 1.378772,-0.03774 1.209386,-0.633116 -0.176389,-0.619986 -2.227058,0.0211 -15.852909,3.161979 -18.25625,4.208226 -0.749279,0.326182 -0.643146,0.353596 0.705555,0.182238 0.873126,-0.110934 2.936876,-0.522002 4.586112,-0.913479 z m -1.411111,-1.403124 c 0.470369,-0.266115 0.470369,-0.299181 0,-0.297607 -0.291042,0.0011 -0.926042,0.240898 -1.411112,0.533156 l -0.881944,0.531382 0.881944,-0.233778 c 0.48507,-0.128577 1.12007,-0.368498 1.411112,-0.533153 z m -2.998612,-0.320834 1.058334,-0.2693 -1.058334,-0.0066 c -0.582083,-0.0036 -1.455208,0.12053 -1.940277,0.275876 l -0.881945,0.282448 0.881945,-0.0066 c 0.485069,-0.0036 1.358194,-0.127762 1.940277,-0.275875 z m 5.162783,-0.281252 c -0.458939,-0.07219 -0.979865,0.01418 -1.157608,0.191911 -0.195714,0.195714 0.133389,0.247484 0.834436,0.131265 0.979635,-0.162405 1.029324,-0.212094 0.323172,-0.323176 z m -8.514172,-0.797902 c 0,-0.182577 -0.15875,-0.331957 -0.352777,-0.331957 -0.194028,0 -0.352778,0.247494 -0.352778,0.549987 0,0.302493 0.15875,0.451873 0.352778,0.331957 0.194027,-0.119916 0.352777,-0.367411 0.352777,-0.549987 z m 6.092131,0.494975 c -0.238841,-0.09663 -0.715092,-0.102514 -1.058334,-0.01309 -0.343242,0.08944 -0.147824,0.168508 0.434259,0.175697 0.582084,0.0072 0.862916,-0.06599 0.624075,-0.162627 z m 1.573438,-0.334514 c -0.117225,-0.117225 -0.421499,-0.129756 -0.676159,-0.02784 -0.281421,0.112614 -0.19783,0.196208 0.213138,0.213135 0.371884,0.01531 0.580246,-0.06806 0.463021,-0.185286 z m 5.644444,-0.352778 c -0.117224,-0.117225 -0.421499,-0.129755 -0.676158,-0.02783 -0.281422,0.112613 -0.197831,0.196208 0.213138,0.213134 0.371884,0.01531 0.580245,-0.06806 0.46302,-0.185286 z m -11.898901,-0.278285 c 0,-0.07626 -0.238125,-0.230022 -0.529167,-0.341708 -0.291042,-0.111682 -0.529167,-0.04929 -0.529167,0.138645 0,0.187939 0.238125,0.341708 0.529167,0.341708 0.291042,0 0.529167,-0.06239 0.529167,-0.138645 z m 1.763888,-0.214133 c 0.427906,-0.276532 0.377275,-0.343006 -0.264583,-0.347377 -0.436562,-0.003 -0.79375,0.153349 -0.79375,0.347377 0,0.442002 0.374382,0.442002 1.058333,0 z m 5.967826,-0.927146 c 0.509503,-0.454723 -0.503918,-0.446077 -1.961818,0.01676 l -1.712952,0.543789 1.763889,-0.214672 c 0.970139,-0.118071 1.830035,-0.273706 1.910881,-0.34586 z m 12.291244,-0.280998 c 0.321303,-0.321303 -1.77944,-0.187254 -2.560458,0.163378 -0.510568,0.229221 -0.282303,0.278458 0.825969,0.178174 0.842338,-0.07622 1.622859,-0.229919 1.734489,-0.341552 z m -14.217019,-0.594081 c 0.394049,-0.373112 -2.533075,-0.117271 -4.394828,0.384125 -0.939511,0.253023 -0.602125,0.285101 1.411111,0.134165 1.455208,-0.1091 2.797881,-0.342332 2.983717,-0.51829 z m 2.572533,-0.309626 c 0.242535,-0.0028 0.440972,-0.166589 0.440972,-0.364314 0,-0.424201 -1.76894,-0.07471 -2.293055,0.453037 -0.236478,0.238118 -0.06203,0.28284 0.529166,0.135661 0.48507,-0.120763 1.080382,-0.221735 1.322917,-0.224384 z m 6.35,-0.229207 c 1.600729,-0.317744 2.910417,-0.733249 2.910417,-0.923343 0,-0.190098 -0.357188,-0.262463 -0.79375,-0.160821 -0.436563,0.101646 -1.980791,0.447298 -3.431621,0.768117 -4.564186,1.009269 -3.484577,1.268751 1.314954,0.316047 z m -11.30233,-1.40607 c 1.197275,-0.232043 1.640614,-0.414454 1.071774,-0.440972 -0.533576,-0.02488 -0.970139,-0.203983 -0.970139,-0.398011 0,-0.37447 0.09046,-0.394995 2.293056,-0.520249 2.171944,-0.123507 10.541893,-1.648428 10.912401,-1.988128 0.397288,-0.36425 -5.108974,-0.02367 -6.855456,0.424039 -0.679097,0.174081 -1.801756,0.317401 -2.494795,0.31848 -1.888187,0.0028 -4.561276,1.001258 -4.325582,1.615461 0.122587,0.319462 -0.03596,0.503175 -0.434241,0.503175 -0.717,0 -1.920261,0.97785 -1.912204,1.553982 0.0028,0.212461 0.155674,0.14817 0.339341,-0.142871 0.183663,-0.291042 1.252795,-0.707249 2.375845,-0.924906 z m 6.451636,0.924906 c 0,-0.194028 -0.07,-0.352778 -0.155568,-0.352778 -0.08556,0 -0.253683,0.15875 -0.373599,0.352778 -0.119916,0.194027 -0.04991,0.352777 0.155568,0.352777 0.205479,0 0.373599,-0.15875 0.373599,-0.352777 z M 21.1676,-60.771388 c -0.117225,-0.117224 -0.421499,-0.129755 -0.676159,-0.02783 -0.281421,0.112614 -0.19783,0.196208 0.213138,0.213134 0.371884,0.01531 0.580246,-0.06806 0.463021,-0.185286 z m 12.361919,-0.426272 c 0.0768,-0.23041 -0.11171,-0.418923 -0.418923,-0.418923 -0.30721,0 -0.558564,0.251354 -0.558564,0.558563 0,0.622981 0.759446,0.514488 0.977487,-0.13964 z m -9.091376,-0.283661 c 0,-0.07439 -0.396875,-0.135262 -0.881945,-0.135262 -0.485069,0 -0.881944,0.136736 -0.881944,0.303858 0,0.167121 0.396875,0.227989 0.881944,0.135262 0.48507,-0.09273 0.881945,-0.229461 0.881945,-0.303858 z m -3.175,-3.170929 c 0,-0.07663 -0.635,-0.139334 -1.411111,-0.139334 -0.776112,0 -1.411112,0.123257 -1.411112,0.273908 0,0.150646 0.635,0.213346 1.411112,0.139333 0.776111,-0.07401 1.411111,-0.19727 1.411111,-0.273907 z m 1.153241,-1.429068 c -0.238841,-0.09663 -0.715091,-0.102514 -1.058333,-0.01309 -0.343243,0.08944 -0.147825,0.168508 0.434258,0.175697 0.582084,0.0072 0.862916,-0.06599 0.624075,-0.162627 z m 1.668981,-0.121377 c -0.683952,-0.442002 -1.058333,-0.442002 -1.058333,0 0,0.194028 0.357187,0.350347 0.793749,0.347377 0.641858,-0.0044 0.692489,-0.07084 0.264584,-0.347377 z m 3.527778,-0.217515 c 0,-0.07439 -0.674688,-0.124104 -1.499306,-0.110466 -1.060693,0.01753 -1.299993,0.102856 -0.817993,0.291631 0.637399,0.24964 2.317299,0.118304 2.317299,-0.181165 z m 1.740122,-0.502726 c -0.483775,-0.298994 -1.387344,-0.06694 -1.387344,0.356288 0,0.14636 0.411472,0.187455 0.914382,0.09132 0.61305,-0.117189 0.768914,-0.2647 0.472962,-0.447604 z m -2.798456,-0.75921 c 0.344301,-0.212997 -0.255358,-0.26864 -1.716496,-0.159265 -1.235114,0.09245 -2.408668,0.331103 -2.607892,0.530327 -0.454205,0.454205 3.545102,0.111041 4.324388,-0.371062 z m 2.302577,-0.269032 c -0.114677,-0.185554 -0.441547,-0.247943 -0.726376,-0.138645 -0.729231,0.279834 -0.643297,0.476017 0.208509,0.476017 0.399507,0 0.632548,-0.151818 0.517867,-0.337372 z m -4.970176,-1.280019 c 0.309054,-0.422659 1.261318,-0.599634 3.902992,-0.725357 3.212892,-0.152908 3.538128,-0.108221 4.039821,0.555047 0.506056,0.669036 0.618892,0.683263 1.556085,0.19619 0.555755,-0.288837 1.194273,-0.525156 1.418925,-0.525156 0.224656,0 0.960572,-0.451883 1.635372,-1.004185 0.674797,-0.552302 1.592298,-1.197278 2.03889,-1.433283 0.803515,-0.424621 0.794311,-0.44298 -0.881944,-1.759391 -0.931662,-0.731665 -1.978911,-1.43383 -2.327219,-1.560372 -0.348312,-0.126538 -0.86638,-0.787929 -1.151262,-1.469753 -0.284886,-0.681824 -0.575984,-1.239682 -0.646889,-1.239682 -0.206417,0 -4.065686,2.358767 -4.642471,2.837455 -0.288653,0.239561 -2.515186,1.100864 -4.947853,1.914003 -4.509227,1.50725 -4.838471,1.819137 -2.618514,2.480486 1.300543,0.387445 1.712859,0.824484 1.509935,1.600472 -0.220137,0.841802 0.53045,0.93176 1.114132,0.133526 z m -1.894378,-5.074525 c 1.777396,-0.576107 3.981418,-1.528607 4.897829,-2.116666 0.916407,-0.588056 1.773802,-1.069196 1.905321,-1.069196 0.131519,0 1.070123,-0.544703 2.085781,-1.210447 2.514939,-1.648496 3.786936,-1.803859 3.786936,-0.462549 0,0.559908 0.831102,1.502851 2.798417,3.175001 1.539127,1.308202 2.967877,2.378551 3.175,2.378551 0.759054,0 0.341453,-1.21714 -1.049871,-3.059935 -1.168149,-1.547202 -1.325474,-1.928071 -0.868807,-2.103314 0.306709,-0.117693 0.842049,0.04339 1.189652,0.357964 0.74949,0.678282 2.867014,0.774756 2.874899,0.130979 0.0038,-0.315203 0.09432,-0.300542 0.317175,0.05141 0.173941,0.274701 0.565415,0.395044 0.885511,0.272214 0.361753,-0.138818 0.846071,0.09304 1.31081,0.627542 0.405387,0.466238 0.956977,0.76332 1.225755,0.660181 0.626794,-0.240523 0.640386,-1.523149 0.01616,-1.523149 -0.259899,0 -0.662718,-0.417389 -0.895156,-0.927534 -0.232435,-0.510142 -0.516897,-0.833247 -0.632132,-0.718009 -0.115239,0.115238 -0.541493,-0.023 -0.947233,-0.307192 -0.405755,-0.28419 -0.985704,-0.51671 -1.288793,-0.51671 -0.303085,0 -2.555917,-0.638214 -5.006287,-1.418251 -4.678306,-1.489264 -5.68131,-1.55928 -8.220375,-0.573832 -1.327443,0.515197 -2.255958,0.72439 -7.9375,1.788315 -1.261181,0.236171 -2.870892,0.705926 -3.577139,1.043908 -0.71954,0.34434 -2.348071,0.662443 -3.704167,0.723537 -3.274049,0.1475 -6.1464791,0.584394 -5.9484861,0.904759 0.089281,0.144462 0.6815738,0.365234 1.3161999,0.490611 1.6101552,0.3181 4.9630222,1.713082 5.3872022,2.241385 0.534723,0.66598 2.765475,2.17099 3.246946,2.190601 0.233599,0.0095 1.878958,-0.45406 3.656355,-1.030171 z m 21.553365,-0.922828 c 1.237946,-0.640164 1.034722,-0.98691 -0.881814,-1.504544 -1.210769,-0.327018 -1.327034,-0.302662 -1.106506,0.2318 0.135534,0.328464 0.326306,0.875023 0.423934,1.214571 0.216252,0.752098 0.222066,0.752317 1.564386,0.05817 z m -90.721947,-3.674145 c 0,-0.194028 -0.15875,-0.352778 -0.352777,-0.352778 -0.194028,0 -0.352778,0.15875 -0.352778,0.352778 0,0.194028 0.15875,0.352778 0.352778,0.352778 0.194027,0 0.352777,-0.15875 0.352777,-0.352778 z m -2.469444,-0.684735 c 0,-0.182576 -0.15875,-0.430071 -0.352778,-0.549987 -0.194028,-0.119916 -0.352778,0.02946 -0.352778,0.331957 0,0.302493 0.15875,0.549987 0.352778,0.549987 0.194028,0 0.352778,-0.14938 0.352778,-0.331957 z m -2.839663,-5.699451 c -0.405535,-0.794913 -0.81244,-1.370193 -0.904235,-1.278399 -0.237463,0.237464 0.992064,2.723696 1.346962,2.723696 0.162035,0 -0.03719,-0.650384 -0.442727,-1.445297 z m -1.746449,0.43016 c 0,-0.451116 -1.037299,-1.240156 -1.293518,-0.983937 -0.256219,0.256219 0.532821,1.293519 0.983937,1.293519 0.17027,0 0.309581,-0.139312 0.309581,-0.309582 z m 2.865998,-1.195604 c -0.348409,-0.345816 -0.38893,-0.305295 -0.197483,0.197483 0.132479,0.347917 0.329739,0.543709 0.438354,0.435093 0.108616,-0.108616 2.24e-4,-0.393275 -0.240871,-0.632576 z m 120.45061,52.117579 c -0.437272,-0.330736 -1.504852,-0.517948 -2.953611,-0.517948 -1.976738,0 -2.212287,-0.06813 -1.829658,-0.529167 0.496764,-0.598561 2.607194,-0.684967 4.725914,-0.193484 1.255804,0.29131 1.957469,0.831014 1.971463,1.516401 0.0091,0.445251 -1.189037,0.272612 -1.914108,-0.275802 z m -9.124605,-0.390765 c -0.450127,-0.45013 0.176364,-0.832739 1.363546,-0.832739 0.843837,0 1.213901,0.161319 1.213901,0.529167 0,0.364536 -0.365844,0.529167 -1.175924,0.529167 -0.646762,0 -1.277444,-0.101519 -1.401523,-0.225595 z m 10.514948,-1.070306 c -2.99876,-1.328152 -5.182133,-3.058284 -4.873721,-3.861996 0.276903,-0.721593 0.947202,-0.592314 1.836382,0.354171 0.434396,0.462396 1.85113,1.352074 3.148298,1.977058 1.297167,0.624989 2.59661,1.256154 2.887652,1.402592 0.597489,0.300627 0.712791,1.139638 0.176389,1.283515 -0.194028,0.05205 -1.622778,-0.467858 -3.175,-1.15534 z m -8.511015,-1.691072 c -0.300136,-0.782137 0.377024,-2.465846 1.043721,-2.595143 0.678385,-0.131569 0.780909,0.795796 0.24408,2.207761 -0.381247,1.002753 -0.982285,1.183552 -1.287801,0.387382 z m -99.036742,-24.704383 c -0.124224,-0.323716 -0.225859,-0.645238 -0.225859,-0.714491 0,-0.06926 0.674687,-0.211343 1.499305,-0.315747 0.824618,-0.104405 2.974704,-0.375754 4.777966,-0.602996 2.708237,-0.341288 3.388865,-0.553272 3.912073,-1.218424 0.537602,-0.683447 2.27578,-1.792372 6.150212,-3.923715 0.726796,-0.399817 1.467873,-1.381227 2.410545,-3.1923 0.408089,-0.784027 1.495851,-1.074512 1.853949,-0.495095 0.239526,0.387561 -1.774903,4.279512 -2.629972,5.081206 -0.362155,0.339549 -0.823853,0.617362 -1.025995,0.617362 -0.202138,0 -0.367527,0.155313 -0.367527,0.34514 0,0.189829 -1.156621,0.886654 -2.570272,1.5485 -1.413648,0.661847 -2.781515,1.457897 -3.039703,1.768994 -0.6855,0.825976 -2.629274,1.24908 -6.812771,1.482958 -3.254114,0.181917 -3.733641,0.135403 -3.931951,-0.381392 z m 35.9489034,-1.007696 c -3.534092,-1.842403 -6.250873,-4.324307 -5.958282,-5.44317 0.26882,-1.02797 1.459886,-1.020925 1.854623,0.01097 0.416373,1.088454 2.643879,2.808697 5.07952698,3.922787 1.115738,0.510349 2.16942902,0.927908 2.34153802,0.927908 0.42242,0 0.645467,0.743902 0.449549,1.499305 -0.218557,0.842691 -0.540392,0.764279 -3.766955,-0.9178 z m -28.7664294,-2.879347 c 0,-0.09965 0.149162,-0.456833 0.33147,-0.79375 0.182309,-0.336917 0.414645,-1.014032 0.516308,-1.504707 0.254385,-1.22779 1.757359,-1.354631 2.506356,-0.211522 0.662707,1.011421 0.419333,1.760404 -0.744305,2.290593 -0.891935,0.406393 -2.609829,0.550803 -2.609829,0.219386 z m 41.975132,-1.516169 c -1.546542,-1.252315 7.06e-4,-2.51975 1.613694,-1.321928 0.537799,0.399355 0.603656,0.640947 0.306808,1.12553 -0.549085,0.896334 -0.999261,0.942372 -1.920502,0.196398 z M -15.86672,-73.16462 c -0.841654,-0.420687 -0.970139,-0.694072 -0.970139,-2.064229 0,-1.845452 0.607317,-2.286621 1.943001,-1.411447 0.715091,0.468546 0.879221,0.863872 0.879221,2.117711 0,1.756848 -0.427274,2.070128 -1.852083,1.357965 z m -1.761166,-5.941137 c -0.129501,-0.129502 -1.55231,-0.315796 -3.161799,-0.413989 -3.271358,-0.199577 -4.645036,-0.584083 -4.419999,-1.237202 0.111213,-0.32277 1.165744,-0.410598 3.987924,-0.33214 3.92581,0.109135 5.619623,0.556909 5.619623,1.485589 0,0.537711 -1.594101,0.92939 -2.025749,0.497742 z m 6.435471,-0.326105 c -1.006552,-1.212818 1.4866624,-2.363011 5.2651354,-2.428959 2.097416,-0.03661 2.319588,0.02706 2.319588,0.664626 0,0.602065 -0.328059,0.745589 -2.244891,0.98213 -1.23469,0.152361 -2.801888,0.509746 -3.482665,0.794194 -1.4988824,0.626273 -1.3265324,0.627384 -1.8571674,-0.01199 z m -26.241189,-6.189509 c -1.041428,-1.237668 -1.827459,-3.542255 -1.499588,-4.396677 0.382041,-0.995581 1.024276,-0.392437 1.700506,1.597 0.356312,1.04826 0.80489,2.062972 0.996833,2.254917 0.438207,0.438207 0.458319,1.618992 0.02759,1.618992 -0.176776,0 -0.728175,-0.483405 -1.225324,-1.074232 z m -7.727179,-7.611728 c -0.138092,-0.138093 -0.251078,-0.657316 -0.251078,-1.153831 0,-1.012729 2.573094,-3.56444 3.595153,-3.565277 1.151034,-9.53e-4 0.98701,0.661998 -0.407995,1.649003 -0.774512,0.547988 -1.415123,1.155092 -1.423581,1.34912 -0.02608,0.598327 -1.246505,1.986979 -1.512499,1.720985 z m 1.512811,0.0075 c 0,-0.116472 0.692036,-0.913718 1.537857,-1.771658 1.182412,-1.199353 1.621478,-1.456174 1.899649,-1.11115 0.501562,0.622099 -0.01062,1.790059 -1.097223,2.502023 -0.875514,0.573659 -2.340283,0.81199 -2.340283,0.380785 z m 83.431949,-3.173831 c -2.989489,-0.771961 -4.227552,-0.903723 -8.11389,-0.863532 -2.522361,0.02608 -5.776736,0.258724 -7.231944,0.516974 -1.455208,0.258251 -2.764896,0.400515 -2.910417,0.316142 -0.553551,-0.320945 -0.233532,-1.170098 0.440972,-1.170098 0.388056,0 0.705556,-0.175734 0.705556,-0.390521 0,-0.214786 0.247428,-0.295573 0.549839,-0.179527 0.302412,0.116046 1.294599,0.03643 2.204861,-0.17692 2.644659,-0.619869 10.557603,-0.693783 12.042049,-0.112483 1.827812,0.715758 7.18233,1.56865 9.679323,1.541765 1.18726,-0.01278 3.587401,-0.250538 5.333651,-0.528345 8.924432,-1.419764 12.401586,-1.440363 24.165279,-0.143153 4.552125,0.501974 13.31171,0.393945 16.404168,-0.202307 2.836457,-0.546893 15.802356,-0.814732 18.520836,-0.382588 0.6791,0.107954 3.18355,0.217381 5.56544,0.243174 3.20662,0.03472 4.45984,0.176025 4.8282,0.544384 0.31258,0.312576 0.57926,0.365173 0.7175,0.141506 0.31249,-0.505616 5.1706,-0.03061 5.80708,0.567788 0.37429,0.351899 0.40839,0.588951 0.12545,0.871897 -0.28295,0.282946 -1.28593,0.229553 -3.68905,-0.196384 -3.43341,-0.608549 -15.85202,-1.315334 -22.03821,-1.25427 -1.96257,0.01937 -5.534444,0.331727 -7.937499,0.694121 -5.208687,0.785499 -17.942776,0.787369 -20.949748,0.0031 -1.206006,-0.314556 -4.243303,-0.454606 -9.60319,-0.442805 -6.580961,0.01449 -8.039457,0.112241 -9.086255,0.60898 -0.938844,0.44551 -2.575726,0.63031 -6.624588,0.747902 -4.928327,0.143141 -5.672385,0.08008 -8.905413,-0.754769 z M 4.6137948,-111.89742 c -0.095564,-0.0956 -1.4903344,-0.24653 -3.0994844,-0.33549 -1.60915002,-0.089 -3.816767,-0.4315 -4.905809,-0.7612 -2.751177,-0.83289 -9.8706314,-0.83095 -13.4453604,0.004 -5.020635,1.1722 -10.583334,0.7206 -10.583334,-0.85921 0,-0.61439 0.191389,-0.65302 2.204861,-0.4451 1.212674,0.12523 2.363611,0.23907 2.557639,0.25298 0.646254,0.0463 4.553331,-0.52569 7.173475,-1.05025 2.980479,-0.59669 9.1103184,-0.39824 11.7001374,0.3788 4.39296598,1.31803 13.3072547,1.4943 16.9369886,0.33489 1.282482,-0.40965 4.122569,-0.49643 14.640278,-0.44735 7.177018,0.0335 14.279437,-0.0666 15.783152,-0.22251 2.59745,-0.26925 2.734028,-0.24798 2.734028,0.42575 0,0.44303 -0.368381,0.86173 -0.981678,1.11577 -1.11772,0.46297 -9.84678,0.61887 -21.948879,0.392 -6.677265,-0.12518 -8.277814,-0.0546 -10.080935,0.44477 -2.065426,0.57197 -8.3285302,1.12903 -8.6850792,0.77248 z"
       id="path9004"
       inkscape:connector-curvature="0"
       sodipodi:nodetypes="scccssccccscscccccccccccsccccscssscssccccccsccccsccsccscccscccscssccssscsccssccscccsscsscscccccsccscsccccsccssssccsccsccccscscscssscsccsssscscccscccsssscssccscccccscssccccssscccccccccscccccsscscscssssccssccsccsscccssscsscsccscsscscscsscsscsscsscscsscssccccscccccsscccsscscssccscsssccscscccscssssssssscssccscsscccscscscsscscscsccsccsccscsccsccccccscccscccscccsscccsccccssccsscccccsccsccccccccccccscccscssccsscscssscsscsccsscccccsscsccscccscsscssccscccsscssscsssssccccccscscsccccccscsscsccccccccscsssccsccscsccccssscccccccccscscssccccssssscsccccccccsscssccccssscccsssscscsscssccccccsccsscssssccscscccsscsssscscscccccscccccccscsccccccccccsccccccccssscscccccccccccccccscsssccscccccccccsccssccscccsscssscscccccsccssscssccccccsscssscsssscsccccccsccsccscssccccscccsccsscscccccscsscccsssscsscccccccscccsscccsscscccccccccssssssssssccscsssssscscssscccssscccccsccccsccsccccscssscsccscsssssscscsscccccssscccscscscsccsccccscccscsccssccsccscssccscsssscccccscacsccccccccsccccaccscsccc" />
  </g>
</svg>
