<?xml version="1.0" encoding="UTF-8" standalone="no"?>
<!-- Created with Inkscape (http://www.inkscape.org/) -->

<svg
   xmlns:dc="http://purl.org/dc/elements/1.1/"
   xmlns:cc="http://creativecommons.org/ns#"
   xmlns:rdf="http://www.w3.org/1999/02/22-rdf-syntax-ns#"
   xmlns:svg="http://www.w3.org/2000/svg"
   xmlns="http://www.w3.org/2000/svg"
   xmlns:sodipodi="http://sodipodi.sourceforge.net/DTD/sodipodi-0.dtd"
   xmlns:inkscape="http://www.inkscape.org/namespaces/inkscape"
   width="321.34726mm"
   height="69.334801mm"
   viewBox="0 0 321.34727 69.3348"
   version="1.1"
   id="svg8"
   inkscape:version="0.92.2 5c3e80d, 2017-08-06"
   sodipodi:docname="Figure_123.svg">
  <defs
     id="defs2" />
  <sodipodi:namedview
     id="base"
     pagecolor="#ffffff"
     bordercolor="#666666"
     borderopacity="1.0"
     inkscape:pageopacity="0.0"
     inkscape:pageshadow="2"
     inkscape:zoom="0.98994949"
     inkscape:cx="760.41715"
     inkscape:cy="211.16874"
     inkscape:document-units="mm"
     inkscape:current-layer="layer1"
     showgrid="false"
     fit-margin-top="0"
     fit-margin-left="0"
     fit-margin-right="0"
     fit-margin-bottom="0"
     inkscape:window-width="1440"
     inkscape:window-height="807"
     inkscape:window-x="0"
     inkscape:window-y="1"
     inkscape:window-maximized="1" />
  <metadata
     id="metadata5">
    <rdf:RDF>
      <cc:Work
         rdf:about="">
        <dc:format>image/svg+xml</dc:format>
        <dc:type
           rdf:resource="http://purl.org/dc/dcmitype/StillImage" />
        <dc:title></dc:title>
      </cc:Work>
    </rdf:RDF>
  </metadata>
  <g
     inkscape:label="Layer 1"
     inkscape:groupmode="layer"
     id="layer1"
     transform="translate(122.54331,178.57538)">
    <path
       style="fill:#000000;stroke-width:0.35277778"
       d="m 111.42775,-110.21072 c -0.33954,-0.53358 -0.77977,-1.08677 -0.97828,-1.22932 -0.54817,-0.39364 -3.28791,-0.31976 -4.78595,0.12906 -0.73254,0.21947 -1.74026,0.29655 -2.23937,0.17128 -1.09123,-0.27389 -1.97866,-1.84692 -1.97866,-3.50732 0,-0.66448 -0.0963,-1.68983 -0.21408,-2.27856 -0.20662,-1.03312 -0.29671,-1.07871 -2.585763,-1.30859 -2.291895,-0.23016 -5.120753,0.20177 -5.374915,0.82069 -0.143351,0.34908 -4.69011,2.17568 -5.415679,2.17568 -0.291634,0 -0.805899,0.14822 -1.142816,0.32938 -3.557485,1.91283 -18.673738,2.65902 -26.279857,1.29726 -1.699228,-0.30423 -3.762978,-0.84898 -4.586111,-1.21057 -2.929974,-1.28709 -3.64962,-1.4796 -6.650792,-1.77912 -2.269384,-0.22649 -3.518348,-0.56018 -4.938889,-1.31952 -2.325737,-1.24321 -5.252759,-3.28142 -5.252759,-3.65772 0,-0.15229 -0.515938,-0.48485 -1.146528,-0.73903 -0.63059,-0.25417 -1.637764,-0.82906 -2.23816,-1.27752 -0.600399,-0.44846 -1.277729,-0.81538 -1.505182,-0.81538 -0.766308,0 -7.977664,-3.82009 -8.941263,-4.73648 -1.11797,-1.0632 -1.215245,-1.08143 -1.934199,-0.36248 -0.453976,0.45398 -1.204355,0.51029 -4.472718,0.33564 -5.254015,-0.28075 -5.946465,-0.40935 -7.35657,-1.36627 -0.803649,-0.54537 -1.9654172,-0.89327 -3.4750662,-1.04063 -5.0231887,-0.49032 -8.68421423,-1.09813 -13.2039256,-2.19214 -1.3581944,-0.32875 -3.1044444,-0.63784 -3.8805556,-0.68687 -0.7761111,-0.049 -1.9842866,-0.34089 -2.6848366,-0.64858 -0.700546,-0.3077 -1.653046,-0.63888 -2.116666,-0.73596 -3.175731,-0.66501 -6.474951,-1.65678 -6.965548,-2.09389 -0.319095,-0.28431 -1.929547,-1.03217 -3.578783,-1.66192 -1.649236,-0.62974 -3.077986,-1.24391 -3.175,-1.36481 -0.295299,-0.36801 -3.24528,-1.68645 -5.115278,-2.28618 -1.069784,-0.34309 -2.983032,-0.56502 -4.862025,-0.56396 -3.386364,0.002 -4.558358,-0.34918 -7.463289,-2.23572 -1.734831,-1.12666 -6.983025,-3.0542 -8.315766,-3.0542 -0.363185,0 -0.747579,-0.14116 -0.854209,-0.3137 -0.106635,-0.17253 -0.631938,-0.41981 -1.167349,-0.54951 -1.023899,-0.24804 -4.590803,-1.5772 -6.959265,-2.59327 -0.769828,-0.33025 -1.484203,-0.6023 -1.5875,-0.60454 -0.228318,-0.005 -2.250384,-0.78204 -3.768912,-1.44839 -0.611406,-0.2683 -1.34608,-0.48781 -1.632613,-0.48781 -0.28653,0 -1.114507,-0.248 -1.839948,-0.55111 -0.725442,-0.30311 -1.538581,-0.46684 -1.80697,-0.36385 -0.268394,0.10299 -0.487987,0.015 -0.487987,-0.19559 0,-0.21402 -0.323434,-0.29827 -0.733422,-0.19106 -0.533513,0.13952 -0.681143,0.0556 -0.541619,-0.30803 0.128471,-0.33479 -0.124418,-0.56084 -0.765885,-0.6846 -0.785653,-0.15158 -3.125163,-0.83391 -7.484074,-2.18278 -1.635873,-0.50622 -7.24553,-1.10973 -9.525,-1.02474 -1.455209,0.0543 -5.503334,0.60424 -8.995837,1.22218 -4.35978,0.77139 -8.50098,1.24012 -13.21293,1.49552 -6.41057,0.34746 -6.89306,0.33077 -7.32014,-0.25329 -0.59177,-0.8093 -0.5776,-1.63607 0.054,-3.14759 0.42591,-1.01935 0.6918,-1.22339 1.59422,-1.22339 0.95307,0 1.05868,-0.0971 0.88,-0.80902 -0.22732,-0.90573 0.96756,-2.71876 1.79182,-2.71876 1.4923,0 8.57831,-2.85475 8.91408,-3.59123 0.0601,-0.13191 1.09077,-0.75061 2.29029,-1.3749 1.19952,-0.62428 3.0352,-1.78635 4.07929,-2.58238 4.20075,-3.2027 6.0234,-4.201 8.810337,-4.82556 1.347692,-0.30203 1.782354,-0.22934 3.530763,0.5904 1.096628,0.51415 2.41372,1.43652 2.926874,2.0497 1.595431,1.90644 6.321672,2.6256 18.822551,2.86409 9.909672,0.18906 13.024005,0.42232 14.993055,1.12296 2.512233,0.89392 6.118751,2.57793 6.762394,3.15761 0.323829,0.29165 1.557069,0.9882 2.74053,1.54788 1.183463,0.55969 2.245183,1.2611 2.359377,1.55869 0.114198,0.29759 0.458026,0.54107 0.764061,0.54107 0.306038,0 1.201868,0.3071 1.990732,0.68244 4.747334,2.25877 12.207677,3.42261 23.659296,3.69093 6.3847128,0.1496 7.4779499,0.31685 13.3483133,2.04216 1.32670908,0.38992 2.75545911,0.75202 3.1750001,0.80466 0.4195374,0.0526 1.7946723,0.42376 3.0558528,0.82472 4.3970682,1.39794 5.9152578,1.32485 9.4241238,-0.45367 0.749907,-0.3801 2.123651,-0.58813 4.056944,-0.61435 2.728059,-0.037 3.193743,0.0723 6.979275,1.63851 2.865162,1.1854 4.729713,2.22544 6.35,3.542 1.261604,1.02511 2.770448,2.10593 3.35299,2.40182 0.582542,0.2959 1.361797,0.87239 1.731677,1.28111 1.733995,1.91604 7.216345,3.60415 13.260546,4.08315 0.873125,0.0692 3.175,0.40446 5.115278,0.74504 4.025251,0.70655 4.185321,0.70863 17.991667,0.23482 7.100616,-0.24369 10.986019,-0.52694 12.69987,-0.92583 2.722961,-0.63377 8.36096,-0.75155 10.583464,-0.22111 2.128287,0.50796 8.780259,1.10547 12.232799,1.0988 2.89495,-0.006 3.22978,0.0764 6.18693,1.51571 3.05058,1.48475 3.19328,1.51733 5.88866,1.34435 2.8139,-0.18058 7.18007,0.38599 8.54956,1.10943 1.02092,0.5393 3.29906,3.32305 3.31299,4.04827 0.026,1.35535 0.85916,1.81871 3.27005,1.81871 1.27684,0 2.41965,-0.15875 2.53956,-0.35278 0.27566,-0.44602 4.77967,-0.46291 5.93864,-0.0223 0.9879,0.3756 8.73824,1.61987 14.52247,2.33149 4.59429,0.56524 8.47661,1.12444 9.70139,1.39738 0.48507,0.10809 3.42195,0.50443 6.52639,0.88075 3.10445,0.37633 6.98964,0.93804 8.63375,1.24826 1.64413,0.31022 4.73975,0.70745 6.87917,0.88272 3.73046,0.30562 7.55513,0.8863 7.86255,1.19372 0.30128,0.30128 0.77329,2.90101 0.78139,4.30379 0.0113,1.94883 -0.58895,2.40093 -2.83447,2.13498 -1.63632,-0.1938 -1.79665,-0.14511 -2.09352,0.63571 -0.57916,1.52331 -1.51122,1.7199 -8.64553,1.82353 -3.68653,0.0535 -7.19666,0.18561 -7.80029,0.29349 -1.36576,0.24409 -4.34014,-0.37206 -6.6636,-1.38038 -1.93975,-0.84179 -2.58865,-0.85005 -5.88218,-0.0748 -2.6072,0.61368 -4.82026,0.91867 -8.18988,1.12869 -1.33671,0.0833 -2.63086,0.31785 -2.87588,0.52121 -0.29142,0.24185 -2.92811,0.31996 -7.62378,0.22583 -3.94806,-0.0791 -7.52756,-0.0133 -7.95444,0.14644 -0.7307,0.27332 -3.28506,-0.31219 -4.7319,-1.08464 -0.88028,-0.46997 -3.56522,-0.0104 -3.34173,0.572 0.10117,0.26363 -0.13242,1.01552 -0.51909,1.67086 -0.53243,0.9024 -1.19309,1.368 -2.72262,1.91878 -2.03989,0.73455 -6.24048,1.52793 -8.58567,1.6216 -0.76237,0.0305 -1.75455,0.41594 -2.46945,0.95945 -1.14946,0.87388 -3.25319,2.07144 -3.63884,2.07144 -0.10218,0 -0.46358,-0.43656 -0.80312,-0.97013 z m 3.47238,-2.10283 c 0.79479,-0.52596 1.27949,-1.01149 1.07712,-1.07894 -0.57468,-0.19156 -3.29298,1.31598 -3.05812,1.69599 0.29379,0.47537 0.36266,0.45392 1.981,-0.61705 z m -9.01248,-0.31471 c 0.94454,-0.39465 2.0498,-0.51991 3.65906,-0.41466 1.91901,0.12549 2.566,0.0133 3.85758,-0.66927 0.85351,-0.45103 1.76633,-0.82006 2.02847,-0.82006 0.26214,0 0.47662,-0.32248 0.47662,-0.71662 0,-1.11298 1.04511,-1.29203 1.80119,-0.30858 0.35891,0.46685 0.6561,1.09405 0.66041,1.39378 0.007,0.46463 0.64488,0.39071 4.32937,-0.50141 2.37684,-0.57551 4.36838,-1.07926 4.42563,-1.11944 0.0573,-0.0402 0.13663,-0.51009 0.17639,-1.04425 l 0.0723,-0.97119 -2.82222,0.0632 c -3.26098,0.0731 -8.78513,-0.69994 -12.3461,-1.72762 -1.35758,-0.39179 -3.24416,-0.71234 -4.19241,-0.71234 -1.8308,0 -2.90369,-0.23602 -7.53164,-1.65686 -2.021315,-0.62056 -3.307518,-0.82584 -4.233327,-0.67561 -0.731421,0.11868 -2.123606,0.31524 -3.093745,0.4368 -0.970138,0.12156 -1.965649,0.38189 -2.212241,0.5785 -0.246595,0.19661 -0.80222,0.4092 -1.234722,0.47242 -0.432506,0.0632 -1.964436,0.29116 -3.404299,0.50654 -1.88209,0.28154 -3.041519,0.28495 -4.124967,0.0121 -0.828869,-0.20871 -2.190803,-0.38296 -3.026516,-0.38723 -1.598033,-0.008 -3.79996,-0.89033 -5.135449,-2.05748 -0.949569,-0.82988 -1.055106,-1.63158 -0.176389,-1.33994 0.339549,0.1127 1.786548,0.61739 3.215559,1.12156 3.780292,1.3337 8.868297,1.5762 12.218469,0.58234 1.358194,-0.40291 3.337401,-0.84499 4.398236,-0.98239 l 1.928787,-0.24981 -1.135037,-0.53754 c -1.125552,-0.53306 -1.505176,-1.55026 -0.752232,-2.0156 0.210541,-0.13013 0.885229,-3.1e-4 1.499306,0.28848 7.194367,3.38344 7.306187,3.42243 10.465107,3.64917 2.6254,0.18844 6.21018,0.88928 8.34178,1.63084 0.87724,0.30519 1.35783,0.27175 2.29306,-0.15956 0.66747,-0.30783 2.79777,-0.6511 4.88738,-0.78753 2.03729,-0.13302 4.41854,-0.39941 5.29166,-0.59197 3.35624,-0.7402 3.42019,-0.74316 3.64076,-0.16836 0.12757,0.33244 -0.0297,0.68365 -0.3907,0.87245 -1.16395,0.60872 -4.36792,1.10586 -7.12715,1.10586 -1.53122,0 -2.87586,0.14856 -2.98808,0.33014 -0.33333,0.53935 2.75303,0.82584 7.10294,0.65934 3.3418,-0.12791 4.1318,-0.26228 4.40422,-0.74906 0.4351,-0.7775 1.08288,-0.74876 2.49324,0.11061 1.07213,0.65329 1.73755,0.70056 9.26894,0.65841 9.95462,-0.0557 20.38722,-0.75458 22.86359,-1.5316 1.1501,-0.36087 2.48671,-0.50967 3.59475,-0.40019 0.97013,0.0959 1.88295,0.18385 2.02847,0.19554 0.14552,0.0117 0.26458,0.25938 0.26458,0.55042 0,0.30559 0.33538,0.54057 0.79375,0.55616 0.43656,0.0148 1.11125,0.0972 1.49931,0.1831 1.67865,0.37141 9.33126,0.24348 9.82249,-0.16421 0.35754,-0.29673 1.35487,-0.35092 3.36841,-0.18299 1.92335,0.1604 2.86049,0.11652 2.86049,-0.13394 0,-0.20487 -0.67469,-0.47432 -1.49931,-0.59877 -3.00711,-0.45385 -3.43958,-0.5987 -3.43958,-1.1521 0,-0.48292 0.491,-0.52792 3.79236,-0.34755 3.72379,0.20344 3.76047,0.19802 2.02847,-0.30011 -0.97014,-0.27902 -2.58998,-0.65611 -3.59964,-0.83799 -1.00966,-0.18187 -2.12091,-0.47634 -2.46944,-0.65437 -0.69852,-0.35679 -7.09192,-1.01056 -12.70606,-1.29927 -2.28807,-0.11767 -4.2218,-0.42644 -5.29167,-0.84496 -0.92728,-0.36273 -3.59097,-0.85235 -5.9193,-1.08802 -2.32833,-0.23567 -4.94771,-0.57269 -5.82083,-0.74894 -0.87313,-0.17624 -3.01625,-0.55988 -4.7625,-0.85253 -1.74625,-0.29266 -3.94118,-0.69023 -4.87761,-0.8835 -2.53476,-0.52314 -3.0599,-0.45983 -3.0599,0.36891 0,1.17242 -1.19251,2.11154 -3.39831,2.67622 -2.85286,0.73032 -3.48085,0.75459 -3.48085,0.13456 0,-0.57609 2.05258,-1.7158 3.175,-1.76294 0.91273,-0.0383 3.08692,-1.76386 2.22568,-1.76639 -0.3281,-0.001 -0.69465,0.15699 -0.81457,0.35102 -0.11992,0.19403 -0.74485,0.35278 -1.38874,0.35278 -0.64389,0 -1.35675,0.22418 -1.58415,0.49817 -1.04327,1.25707 -5.25254,1.53822 -9.9035,0.66149 -1.45521,-0.27432 -3.28664,-0.61715 -4.06985,-0.76185 -0.7832,-0.14471 -1.64409,-0.39912 -1.91308,-0.56537 -0.269,-0.16625 -1.05694,-0.42218 -1.751,-0.56874 -0.69404,-0.14656 -1.97524,-0.52963 -2.8471,-0.85127 -0.87185,-0.32165 -2.43601,-0.74209 -3.4759,-0.93432 -2.11487,-0.39096 -4.00533,-1.28026 -6.49769,-3.05662 -1.24743,-0.88907 -1.90443,-1.14201 -2.54724,-0.98068 -1.54202,0.38702 -6.698241,-1.25353 -7.264337,-2.31129 -0.467995,-0.87445 0.434026,-1.25671 1.653907,-0.7009 0.481827,0.21954 1.62264,0.40304 2.53514,0.40778 2.74775,0.0143 4.58743,0.62457 6.52743,2.1654 2.09766,1.66603 4.26191,2.74585 5.52601,2.75712 0.82583,0.007 0.83864,-0.023 0.25591,-0.6057 -0.3374,-0.33739 -0.88476,-0.6152 -1.21636,-0.61736 -0.74384,-0.005 -0.99981,-1.09094 -0.42138,-1.78791 0.23525,-0.28346 1.04211,-0.61362 1.79302,-0.7337 0.75091,-0.12007 1.3653,-0.3607 1.3653,-0.53474 0,-0.17403 0.39687,-0.46731 0.88194,-0.65173 1.02504,-0.38972 1.15107,-0.99635 0.26459,-1.27347 -0.33955,-0.10615 -1.33174,-0.49686 -2.20487,-0.86824 -2.41494,-1.0272 -4.28156,-1.3149 -10.05416,-1.5496 -2.91042,-0.11833 -6.32354,-0.45557 -7.58472,-0.74942 -2.902779,-0.67633 -6.879125,-0.5537 -10.054167,0.31009 -3.683596,1.00214 -6.359684,1.26555 -13.758334,1.35425 -11.569721,0.1387 -14.998001,0.007 -19.226389,-0.73965 -2.231319,-0.39391 -5.813185,-0.93278 -7.959704,-1.19749 -3.163069,-0.39007 -4.500312,-0.75065 -7.055555,-1.90252 -3.066948,-1.38254 -3.180423,-1.40547 -4.167343,-0.84218 -0.558003,0.31849 -1.376179,0.77885 -1.818167,1.02303 -0.441992,0.24418 -1.255445,0.98266 -1.807676,1.64106 -2.731611,3.25679 -3.346612,4.1703 -3.407445,5.06137 -0.06511,0.95363 -0.03351,0.96869 2.204699,1.05102 2.523613,0.0928 3.397175,0.56794 2.39946,1.30502 -0.673128,0.49728 -3.154941,0.20994 -4.526435,-0.52406 -1.112407,-0.59534 -1.601442,-0.20273 -2.275576,1.8269 l -0.617714,1.85975 1.984411,1.84709 c 1.391348,1.29506 3.448981,2.58309 6.884927,4.30981 2.695282,1.3545 5.93712,3.17241 7.204086,4.03981 3.52256,2.41164 6.454793,3.68517 9.606643,4.17238 1.552223,0.23993 3.662589,0.79818 4.689698,1.24054 2.399492,1.03343 5.51712,1.78864 9.068636,2.19676 4.099299,0.47109 17.629614,0.52082 18.475865,0.0679 0.382115,-0.2045 1.298197,-0.46772 2.035736,-0.58493 0.737542,-0.11722 1.901027,-0.42232 2.585526,-0.678 0.684498,-0.25569 1.72079,-0.56729 2.302873,-0.69245 0.582083,-0.12516 2.140303,-0.78332 3.462708,-1.46259 2.382862,-1.22397 2.439674,-1.23404 6.35,-1.12542 3.871317,0.10754 4.779307,0.37594 4.088337,1.20851 -0.56679,0.68294 0.0227,4.92985 0.80005,5.76427 0.80411,0.86311 0.60532,0.84941 2.26467,0.15609 z m -39.457797,-8.46222 c -0.666771,-0.66677 -0.202575,-1.20399 1.060782,-1.22767 0.727604,-0.0136 1.640417,-0.17073 2.028472,-0.34908 0.511588,-0.23514 0.174551,-0.30106 -1.22597,-0.23979 -1.59827,0.0699 -1.952713,-0.022 -2.054338,-0.53287 -0.106796,-0.53683 0.173909,-0.61736 2.152012,-0.61736 2.938212,0 4.479685,0.31866 4.479685,0.92605 0,0.31663 -0.417258,0.48506 -1.201695,0.48506 -1.028012,0 -1.175029,0.10198 -1.017189,0.70556 0.154143,0.58944 0.01083,0.70556 -0.870874,0.70556 -0.580461,0 -1.512891,0.0915 -2.072065,0.20333 -0.559178,0.11184 -1.134647,0.0854 -1.27882,-0.0588 z m 86.369567,-0.0629 c -0.0532,-0.0521 -1.23697,-0.11584 -2.63057,-0.14158 -2.43394,-0.0449 -3.28563,-0.36972 -2.63748,-1.00576 0.51606,-0.5064 17.16812,-0.35618 17.68384,0.15953 0.11683,0.11683 0.0158,0.40821 -0.22443,0.64751 -0.31101,0.30976 -2.11596,0.43509 -6.26573,0.43509 -3.20589,0 -5.87242,-0.0427 -5.92563,-0.0948 z M 133.5526,-122.638 c -0.2976,-0.55606 -0.22412,-0.84663 0.36241,-1.43316 0.90827,-0.90827 1.60425,-0.71767 1.48115,0.40563 -0.20391,1.86079 -1.12335,2.37325 -1.84356,1.02753 z m -66.088258,-2.61982 c -0.242873,-0.63291 0.319631,-1.10048 1.701987,-1.41473 0.582084,-0.13232 1.415521,-0.33088 1.852084,-0.44124 0.57502,-0.14537 0.79375,-0.0457 0.79375,0.3615 0,1.19877 -3.941417,2.55355 -4.347821,1.49447 z m -17.87718,-0.91339 c -0.291041,-0.18663 -0.767291,-0.27002 -1.058333,-0.18532 -0.756475,0.22015 -1.893365,-0.73497 -1.645059,-1.38205 0.180661,-0.47079 0.489137,-0.43894 2.398525,0.24764 2.273131,0.81737 3.126109,1.67409 1.657181,1.66445 -0.45273,-0.003 -1.061272,-0.15809 -1.352314,-0.34472 z m 49.933124,-0.33105 c -0.274133,-0.44356 0.337528,-0.77971 1.687624,-0.92748 3.97338,-0.4349 5.66844,-0.8613 6.94741,-1.74762 1.45843,-1.01069 2.6005,-0.97278 2.39783,0.0796 -0.19126,0.99313 -2.25109,2.11912 -4.63652,2.53453 -2.72791,0.47504 -6.120446,0.50737 -6.396344,0.061 z m -25.110871,-0.90571 c -0.121821,-0.31747 -0.05631,-0.74239 0.145584,-0.94428 0.506953,-0.50696 4.722566,-0.76153 5.368103,-0.32418 0.883363,0.59849 -0.177316,1.26567 -2.043161,1.28519 -0.911931,0.01 -2.016027,0.13954 -2.453545,0.2889 -0.584161,0.19943 -0.854329,0.11823 -1.016981,-0.30563 z m -33.11253,-1.23534 c -0.314308,-0.50855 0.118004,-1.05833 0.832209,-1.05833 0.636976,0 1.460846,0.63665 1.460846,1.12889 0,0.40961 -2.034998,0.34699 -2.293055,-0.0706 z m 41.870545,-0.26053 c 0.06496,-0.33732 0.43379,-0.66994 0.819616,-0.73915 0.38583,-0.0692 1.177756,-0.56628 1.759839,-1.10459 1.593152,-1.47337 4.105152,-2.76656 5.262616,-2.70922 1.502519,0.0744 1.475034,0.71595 -0.05399,1.26017 -0.73044,0.25998 -2.511347,1.24521 -3.95757,2.1894 -2.762589,1.80359 -4.035997,2.1704 -3.830511,1.10339 z m -46.983869,-1.14693 c -0.206608,-0.38605 -0.831864,-0.93782 -1.389465,-1.22617 -1.161146,-0.60045 -2.493045,-2.56103 -2.493045,-3.66981 0,-0.56707 0.216987,-0.75211 0.881945,-0.75211 0.485069,0 0.881944,0.15377 0.881944,0.34171 0,0.18793 0.221255,0.2568 0.491677,0.15303 0.302313,-0.11601 0.709919,0.22792 1.058333,0.89301 0.311662,0.59493 0.816409,1.55794 1.121661,2.14003 0.305251,0.58208 0.771169,1.05833 1.035367,1.05833 0.264199,0 0.90483,0.16138 1.423617,0.35862 0.782525,0.29752 0.869245,0.4478 0.508939,0.88195 -0.667798,0.80464 -3.059691,0.68332 -3.520973,-0.17859 z m 60.675824,0.1456 c 0,-0.67804 1.881198,-2.62078 2.530503,-2.61329 0.789892,0.009 1.384222,0.55361 1.180082,1.08114 -0.26041,0.67293 -2.37174,2.08846 -3.115054,2.08846 -0.327543,0 -0.595531,-0.25034 -0.595531,-0.55631 z m -46.404015,-1.58259 c -0.338984,-0.54848 0.777981,-1.62992 1.919206,-1.85817 0.543105,-0.10862 1.874192,-0.60309 2.957975,-1.09882 3.25422,-1.48852 3.858069,-1.13001 1.997124,1.18569 -0.647897,0.80622 -1.632387,1.52342 -2.471198,1.80025 -1.568319,0.51759 -2.273568,0.19499 -1.234584,-0.56473 1.046328,-0.76509 0.163484,-0.59056 -1.038119,0.20523 -1.18998,0.78809 -1.790083,0.88121 -2.130404,0.33055 z m 14.456703,-1.42273 c -0.450293,-0.72859 0.921406,-1.54628 3.292958,-1.963 4.273074,-0.75083 6.511318,-0.50702 5.215805,0.56817 -0.47456,0.39385 -6.404402,1.76697 -7.673269,1.77682 -0.328098,0.002 -0.70407,-0.16935 -0.835494,-0.38199 z m 17.614452,-3.66131 c -0.23361,-0.60877 1.072804,-2.34486 2.338416,-3.10752 0.775532,-0.46733 4.969682,-1.31121 6.516842,-1.31121 0.753146,0 1.119001,1.05058 0.501926,1.44131 -0.27081,0.17148 -1.460747,0.31421 -2.64431,0.31718 -1.799004,0.005 -2.377577,0.16933 -3.527778,1.00492 -0.756715,0.54973 -1.593723,1.26411 -1.860013,1.5875 -0.598118,0.72636 -1.063241,0.75017 -1.325083,0.0678 z m 26.252465,-1.14108 c -0.31983,-0.3475 -0.96655,-1.05269 -1.43715,-1.56709 -0.73037,-0.79833 -1.26341,-0.97459 -3.64058,-1.20384 -1.53172,-0.14772 -3.25826,-0.28247 -3.836776,-0.29945 -0.72928,-0.0214 -1.091085,-0.23201 -1.179809,-0.68674 -0.116791,-0.59859 0.05209,-0.6365 1.933785,-0.43413 1.13397,0.12195 3.06097,0.28964 4.28224,0.37264 2.05787,0.13985 2.35499,0.27182 4.05694,1.80203 1.01006,0.90812 1.83646,1.82932 1.83646,2.04712 0,0.66295 -1.39631,0.64179 -2.01511,-0.0306 z m 82.09567,12.43599 c 0.58208,-0.0595 1.60073,-0.12696 2.26366,-0.14984 2.23181,-0.077 0.8946,-0.37749 -3.32655,-0.74753 -2.30644,-0.2022 -5.21037,-0.6817 -6.45318,-1.06556 -1.27372,-0.39341 -3.26465,-0.69793 -4.56306,-0.69793 -1.26687,0 -3.27421,-0.16308 -4.46075,-0.36239 -3.121,-0.52426 -7.87903,-1.37749 -9.91845,-1.77861 -0.97014,-0.19082 -4.06577,-0.59223 -6.87917,-0.89203 -7.64597,-0.81478 -9.79087,-1.08414 -12.7,-1.59489 -3.03849,-0.53346 -4.69441,-0.55325 -8.63766,-0.10326 l -2.81682,0.32146 -0.21929,1.35266 -0.21928,1.35267 1.27222,-0.23224 c 0.69972,-0.12772 1.58972,-0.43425 1.97777,-0.68115 1.38442,-0.88085 4.26241,-1.5683 6.17361,-1.47466 2.88846,0.14152 17.307,2.41135 26.24824,4.13212 1.92174,0.36984 5.41424,0.83478 7.76111,1.03321 4.97958,0.42102 8.3562,0.96143 10.08788,1.61451 0.67909,0.25612 1.71097,0.37927 2.29305,0.27368 0.58209,-0.10558 1.53459,-0.24069 2.11667,-0.30022 z m -59.09028,-4.56767 c 0,-0.9466 -4.48851,-6.77505 -4.90034,-6.36322 -0.1176,0.1176 0.0327,0.39928 0.33395,0.62596 0.72227,0.5434 2.8025,4.21989 2.8025,4.95298 0,0.92498 -0.65925,0.66371 -1.4436,-0.57211 -0.50944,-0.80266 -0.65946,-0.90847 -0.50021,-0.35277 0.3217,1.12255 -0.49208,1.02355 -1.44992,-0.17639 l -0.77441,-0.97014 0.18492,0.97014 c 0.11685,0.61304 0.0323,0.97014 -0.2298,0.97014 -0.2281,0 -0.31662,0.15875 -0.1967,0.35277 0.11992,0.19403 0.80397,0.36861 1.52013,0.38795 0.71615,0.0193 1.69897,0.14703 2.18404,0.28377 0.71916,0.20272 2.46944,0.12541 2.46944,-0.10908 z M 15.80869,-131.8869 c -0.425782,-0.42579 -0.897375,-0.65093 -1.047979,-0.50032 -0.150605,0.1506 0.03408,0.49897 0.410404,0.77414 1.062803,0.77714 1.50054,0.58914 0.637575,-0.27382 z m 2.010932,-0.0196 c -0.490753,-0.43656 -1.280142,-1.11125 -1.754205,-1.4993 l -0.861928,-0.70556 0.511747,0.70556 c 0.688396,0.94911 2.215765,2.26468 2.647487,2.28037 0.192046,0.007 -0.05235,-0.3445 -0.543101,-0.78107 z m 103.144348,-1.68307 c -1.36694,-2.29467 -1.87959,-2.82434 -1.87959,-1.94197 0,1.15993 1.75846,4.06603 2.46033,4.06603 0.61324,0 0.55275,-0.22124 -0.58074,-2.12405 z m -99.246252,1.44253 c 0,-0.36712 -1.231145,-1.26788 -3.351389,-2.45204 l -1.411111,-0.7881 1.026131,0.81431 c 0.564374,0.44786 1.482658,1.25087 2.040636,1.78444 1.030302,0.98525 1.695733,1.23694 1.695733,0.64139 z m -8.606833,-0.55311 c -0.368134,-0.27866 -0.807286,-0.42139 -0.975892,-0.31718 -0.508953,0.31455 0.04727,0.84702 0.872296,0.83505 0.747518,-0.0109 0.750922,-0.0279 0.103596,-0.51787 z m -2.313047,-1.2348 c 1.018783,-2.03686 1.459473,-3.60056 1.262165,-4.47853 -0.31804,-1.4152 -0.362575,-6.64715 -0.06074,-7.13553 0.139806,-0.22621 0.09009,-0.60903 -0.110483,-0.8507 -0.325215,-0.39187 -0.750722,-1.79487 -1.355231,-4.46858 -0.344629,-1.52425 -0.7195402,-1.75507 -1.8967772,-1.16779 -0.5814307,0.29005 -1.2892017,0.43832 -1.5728244,0.32949 -0.6775274,-0.25999 -0.6667818,-1.27836 0.01349,-1.27836 1.1767326,0 0.4337473,-0.70933 -0.79375,-0.75779 -2.1988004,-0.0868 -2.3529008,-0.11461 -3.1518084,-0.56841 -0.4238061,-0.24073 -1.2372834,-0.43769 -1.8077286,-0.43769 -0.57044519,0 -1.67487605,-0.225 -2.4542892,-0.49999 -2.872045,-1.01332 -9.2247472,-1.43992 -21.7785352,-1.46249 -8.54704,-0.0154 -12.726525,-0.15109 -13.579616,-0.44097 -0.677817,-0.23033 -2.185942,-0.42052 -3.351389,-0.42266 -1.165447,-0.002 -2.722453,-0.1036 -3.460013,-0.22548 -1.10032,-0.18183 -1.321939,-0.35267 -1.234722,-0.9518 0.06288,-0.43196 0.451372,-0.81106 0.951191,-0.9282 0.735415,-0.17235 0.55256,-0.34065 -1.411111,-1.29883 -1.240804,-0.60546 -2.558422,-1.43567 -2.928045,-1.84493 -0.369619,-0.40925 -0.85199,-0.7441 -1.071936,-0.7441 -0.219943,0 -1.022654,-0.3175 -1.783803,-0.70555 -0.76115,-0.38806 -1.609415,-0.70556 -1.885037,-0.70556 -0.275621,0 -1.009399,-0.31413 -1.63062,-0.69806 -2.055724,-1.27051 -8.994115,-2.3381 -17.121844,-2.6345 -3.069269,-0.11193 -6.299835,-0.46921 -12.523611,-1.38502 -3.436916,-0.50574 -5.970771,-0.54174 -6.421274,-0.0912 -0.122489,0.12249 -0.532264,0.22271 -0.910612,0.22271 -0.498703,0 -0.640374,-0.18175 -0.515092,-0.66083 0.136439,-0.52174 0.02287,-0.62162 -0.539591,-0.47454 -0.606549,0.15862 -0.686548,0.0511 -0.538397,-0.72395 0.116054,-0.6071 -0.08593,-1.23624 -0.606481,-1.88908 -1.514217,-1.899 -3.894442,-1.09552 -7.383663,2.49247 -0.76609,0.78778 -1.36347,1.54518 -1.32751,1.68312 0.0788,0.30225 -2.60727,2.1941 -5.04072,3.5503 -2.78982,1.55481 -4.81311,2.39976 -6.52638,2.72552 -2.25436,0.42863 -3.39872,0.91848 -3.64499,1.56025 -0.11738,0.3059 -0.49622,0.56181 -0.84186,0.56869 -0.34564,0.007 -1.02531,0.25163 -1.51038,0.54391 -0.86334,0.52021 -0.85218,0.52696 0.52917,0.32025 0.77611,-0.11614 1.88736,-0.18001 2.46944,-0.14194 4.94348,0.32334 9.23974,0.053 11.22089,-0.70598 1.67819,-0.64294 10.118766,-1.71397 13.591613,-1.72464 1.811179,-0.006 3.378301,-0.0954 3.482494,-0.19956 0.104196,-0.10419 -0.546939,-0.37487 -1.446964,-0.60149 -0.900024,-0.22663 -1.714544,-0.53848 -1.810043,-0.693 -0.28406,-0.45962 0.917981,-1.43383 1.545717,-1.25275 0.319104,0.0921 1.247658,0.33974 2.063453,0.55042 0.815796,0.21068 1.949962,0.77575 2.520372,1.25572 0.570406,0.47997 1.252312,0.87275 1.515346,0.87284 0.538396,2.1e-4 4.168363,1.33414 4.711573,1.73141 0.194028,0.1419 1.067153,0.46394 1.940278,0.71565 4.860361,1.40119 6.915612,2.10416 9.446243,3.23097 0.829807,0.36949 1.794192,0.6718 2.143072,0.6718 0.348879,0 1.801188,0.39687 3.227352,0.88194 1.426164,0.48507 2.869491,0.88195 3.207392,0.88195 0.337901,0 0.667283,0.15467 0.731961,0.34372 0.06468,0.18905 1.308216,0.75862 2.763425,1.26571 1.455208,0.5071 3.146076,1.14617 3.757482,1.42017 0.611406,0.27399 1.356099,0.49817 1.654873,0.49817 0.298775,0 0.64134,0.15875 0.761256,0.35278 0.119916,0.19403 0.586352,0.35278 1.036521,0.35278 0.756486,0 4.735195,1.61605 5.13709,2.08655 0.999896,1.1706 1.99916,1.56433 4.667769,1.83921 5.904893,0.60824 7.906752,0.98511 10.148898,1.91064 1.261181,0.52061 2.534303,1.15815 2.829161,1.41677 0.294859,0.25862 1.723609,0.9719 3.175,1.58506 1.451392,0.61315 2.889519,1.33601 3.195839,1.60635 0.30632,0.27034 0.78257,0.49378 1.058333,0.49654 0.896003,0.009 7.18233,1.62564 7.974726,2.0509 0.423805,0.22744 1.4137138,0.41353 2.1997979,0.41353 0.7860806,0 2.1062068,0.15971 2.9336083,0.35491 0.8274015,0.19521 2.853743,0.67135 4.50297911,1.0581 1.6492361,0.38676 4.33786139,0.8707 5.97472209,1.07544 1.6368607,0.20473 3.2243607,0.52076 3.5277778,0.70227 0.7582959,0.45364 1.8363748,0.26933 2.1553988,-0.36849 z m -104.742552,-29.9436 c -1.106028,-0.71217 -1.112105,-4.27585 -0.0073,-4.27585 0.460948,0 1.800128,3.04055 1.659895,3.76872 -0.138586,0.71962 -0.940443,0.96568 -1.652603,0.50713 z m 0.667679,-4.9814 c 0,-0.29104 0.153888,-0.76729 0.341974,-1.05834 0.303976,-0.47037 0.341973,-0.47037 0.341973,0 0,0.29105 -0.153888,0.7673 -0.341973,1.05834 -0.303977,0.47037 -0.341974,0.47037 -0.341974,0 z m 209.271765,34.39062 c -0.0933,-0.48794 -0.30757,-0.97244 -0.47621,-1.07666 -0.16864,-0.10422 -0.22906,0.0569 -0.13427,0.35799 0.0948,0.30112 0.24675,0.78562 0.33767,1.07666 0.26724,0.85541 0.45713,0.60622 0.27281,-0.35799 z m -95.212406,-0.6487 c -0.95449,-1.12373 -2.413875,-2.19421 -5.531041,-4.05708 l -1.389581,-0.83044 0.248804,1.00682 c 0.269176,1.08926 0.904434,1.96989 0.904434,1.25378 0,-0.23284 0.15875,-0.42334 0.352778,-0.42334 0.194027,0 0.352777,0.2827 0.352777,0.62822 0,0.3504 0.429013,0.81014 0.970139,1.0396 0.533577,0.22627 1.843264,0.89604 2.910417,1.48838 1.067153,0.59234 1.9956,1.07701 2.063217,1.07706 0.06762,4e-5 -0.329258,-0.5323 -0.881944,-1.183 z m 2.340409,-0.13984 c -0.02124,-0.92226 -8.155693,-6.50789 -8.693842,-5.96974 -0.07894,0.0789 1.295337,1.12904 3.053959,2.33354 1.758622,1.20451 3.612832,2.57493 4.120472,3.0454 0.921467,0.85398 1.530933,1.09096 1.519411,0.5908 z m -8.467648,-0.62589 c -0.245434,-0.29573 -0.518893,-0.46504 -0.607688,-0.37625 -0.244647,0.24466 0.252431,0.91395 0.67878,0.91395 0.233927,0 0.207162,-0.20242 -0.07109,-0.5377 z m 9.179299,-1.28109 c 0,-0.22422 0.371161,-0.89891 0.824802,-1.4993 2.594197,-3.43344 3.486513,-4.94571 3.190681,-5.40748 -0.171224,-0.26727 -1.025691,-0.79451 -1.898816,-1.17165 -1.389373,-0.60012 -1.493658,-0.60868 -0.835575,-0.0686 0.413554,0.33944 1.048554,0.79697 1.411111,1.01675 0.362553,0.21978 0.540343,0.52383 0.395093,0.67567 -0.145252,0.15184 -1.891502,-0.56126 -3.880555,-1.58467 -3.766351,-1.93787 -5.203963,-2.57834 -5.203963,-2.31843 0,0.0843 1.150938,0.72782 2.557639,1.42999 3.582571,1.78829 5.909028,3.32537 5.909028,3.90407 0,0.69032 -0.198512,0.63242 -1.940278,-0.56595 -2.002959,-1.37807 -2.484995,-1.37624 -0.582097,0.002 0.805222,0.5833 1.464042,1.2183 1.464042,1.41111 0,0.51098 -0.30394,0.43829 -1.652613,-0.39523 -1.538023,-0.95055 -1.916469,-0.61783 -0.592952,0.52131 1.275849,1.09811 0.82943,1.62521 -0.675707,0.79783 -1.10442,-0.60711 -1.09927,-0.59352 0.187244,0.49373 2.375408,2.00751 1.377343,2.49268 -1.091068,0.53038 -0.84262,-0.66985 -1.874495,-1.3247 -2.293055,-1.45523 -0.418561,-0.13053 -0.840391,-0.34873 -0.937405,-0.48489 -0.222931,-0.31281 -3.333344,-2.12668 -3.646967,-2.12668 -0.128475,0 -0.231878,0.19843 -0.229786,0.44097 0.0021,0.24253 1.18339,1.06027 2.625104,1.81718 1.441715,0.75691 3.462941,2.0666 4.491613,2.91041 1.947295,1.59736 2.40448,1.81156 2.40448,1.12654 z m 98.370796,0.0959 c 0.34666,-0.21969 0.16442,-0.40928 -0.67456,-0.70175 -1.36839,-0.47702 -1.78133,-0.24065 -0.83299,0.47682 0.80138,0.60628 0.88591,0.6189 1.50755,0.22493 z m -3.1208,-0.94373 c 0,-0.30249 -0.15875,-0.45187 -0.35278,-0.33196 -0.19402,0.11992 -0.35277,0.36742 -0.35277,0.54999 0,0.18258 0.15875,0.33196 0.35277,0.33196 0.19403,0 0.35278,-0.2475 0.35278,-0.54999 z m 7.23195,-0.32696 c -0.38806,-0.27595 -0.97042,-0.76129 -1.29414,-1.07852 -0.32372,-0.31724 -0.86077,-0.52297 -1.19344,-0.45719 -0.45161,0.0893 -0.25778,0.35651 0.76497,1.05462 1.43071,0.97656 3.05876,1.43125 1.72261,0.48109 z M 20.659384,-141.4849 c 0,-0.0778 -0.555625,-0.46937 -1.234722,-0.87005 -0.679097,-0.40067 -1.234722,-0.60391 -1.234722,-0.45162 0,0.15228 0.515937,0.53365 1.146528,0.84748 1.331372,0.6626 1.322916,0.65957 1.322916,0.47419 z m 1.058334,-1.18758 c 0,-0.30553 -5.62797,-3.03828 -5.833636,-2.83261 -0.143101,0.1431 5.131544,3.0708 5.569052,3.09112 0.145521,0.007 0.264584,-0.10958 0.264584,-0.25851 z m -4.233334,-0.6021 c 0,-0.21397 -1.989892,-1.24859 -2.363731,-1.22899 -0.155155,0.008 0.273523,0.31898 0.95262,0.69077 1.390463,0.76125 1.411111,0.76912 1.411111,0.53822 z m 4.392084,-0.85148 c -0.646938,-0.6047 -4.777342,-2.59408 -4.975169,-2.39625 -0.109996,0.11 0.889011,0.74588 2.22002,1.41306 2.467652,1.23696 3.371836,1.55962 2.755149,0.98319 z m 7.942315,-1.25879 c 0.551127,-0.66406 0.36014,-0.92677 -1.280883,-1.76187 -0.74367,-0.37844 -1.620753,-0.91067 -1.949076,-1.18273 -0.32832,-0.27205 -0.77808,-0.43427 -0.999469,-0.36047 -0.221386,0.0738 0.444116,0.67288 1.478894,1.3313 1.034778,0.65841 1.950205,1.25197 2.034282,1.31902 0.08408,0.067 -0.01034,0.2851 -0.209814,0.48458 -0.248398,0.2484 -0.956381,-0.0283 -2.246715,-0.87809 -2.113943,-1.3922 -5.928889,-3.3201 -8.733705,-4.41363 -4.133466,-1.61153 -2.0372,-0.27064 3.805421,2.43417 2.231319,1.03297 4.609733,2.25238 5.285362,2.70978 1.413383,0.95688 2.210714,1.04691 2.815703,0.31794 z m -14.81406,-0.91118 c -0.830421,-0.52517 -1.251366,-0.38901 -0.498736,0.16133 0.376326,0.27518 0.759259,0.4253 0.85096,0.3336 0.0917,-0.0917 -0.0668,-0.31442 -0.352224,-0.49493 z m 8.632504,-0.15139 c -0.376632,-0.28487 -0.804629,-0.52299 -0.951099,-0.52916 -0.146473,-0.006 -1.086803,-0.40704 -2.089623,-0.89081 -1.002816,-0.48378 -1.894819,-0.80808 -1.982223,-0.72068 -0.0874,0.0874 0.45605,0.43726 1.207675,0.77746 0.751628,0.3402 1.604719,0.80686 1.895761,1.03703 0.476814,0.37709 1.366393,0.69153 2.272287,0.80319 0.182605,0.0225 0.02385,-0.19215 -0.352778,-0.47703 z m 9.192991,-1.41433 c 0.776111,-0.66892 1.195902,-1.22219 0.932871,-1.22947 -0.263034,-0.007 -0.9499,-0.41012 -1.526374,-0.89519 -1.287145,-1.08306 -2.509749,-1.26655 -1.577841,-0.23681 0.529883,0.58552 0.838927,2.52986 0.40211,2.52986 -0.09995,0 -1.025602,-0.47625 -2.056998,-1.05833 -1.031391,-0.58208 -2.122092,-1.05833 -2.423773,-1.05833 -0.301682,0 -1.003219,-0.23715 -1.558975,-0.527 -0.555755,-0.28984 -1.327965,-0.51722 -1.71602,-0.50529 -0.760148,0.0234 -0.62701,0.0995 2.293055,1.31112 2.192285,0.90963 4.977219,2.32 5.157678,2.61199 0.290206,0.46956 0.598333,0.32955 2.074267,-0.94255 z m -16.933334,0.52117 c -0.119916,-0.19403 -0.376777,-0.35278 -0.570805,-0.35278 -0.194027,0 -0.254666,0.15875 -0.13475,0.35278 0.119916,0.19403 0.376777,0.35278 0.570805,0.35278 0.194028,0 0.254667,-0.15875 0.13475,-0.35278 z m 0.281496,-1.30678 c -1.117819,-0.40028 -2.745666,-1.80702 -2.701943,-2.33494 0.02695,-0.32539 -0.09211,-0.59161 -0.264583,-0.59161 -0.455376,0 -0.384129,0.83295 0.127391,1.48937 0.587866,0.75439 2.827289,2.06769 3.070469,1.80066 0.105999,-0.11639 0.0018,-0.27996 -0.231334,-0.36348 z m 1.835171,-0.45711 c -0.119916,-0.19403 -0.407098,-0.35034 -0.638182,-0.34737 -0.252451,0.003 -0.20894,0.14189 0.109015,0.34737 0.677729,0.43798 0.799853,0.43798 0.529167,0 z m -1.743121,-0.89316 c -0.376632,-0.28487 -0.852882,-0.51232 -1.058333,-0.50545 -0.205451,0.007 0.02332,0.23938 0.508398,0.51667 1.142736,0.65325 1.420936,0.64757 0.549935,-0.0112 z m 6.858399,0.18761 c -0.291042,-0.18809 -0.687917,-0.34198 -0.881945,-0.34198 -0.194027,0 -0.114652,0.15389 0.176389,0.34198 0.291042,0.18808 0.687917,0.34197 0.881945,0.34197 0.194028,0 0.114653,-0.15389 -0.176389,-0.34197 z m 6.419014,-0.0882 c -0.523896,-0.62412 -3.118591,-1.8477 -6.545552,-3.08667 -0.83922,-0.30341 -0.935588,-0.45244 -0.574167,-0.88792 0.238876,-0.28783 0.348488,-0.52332 0.243586,-0.52332 -0.104902,0 -0.443639,-0.097 -0.75275,-0.21567 -0.4001,-0.15353 -0.503121,-0.0622 -0.357583,0.31709 0.112445,0.29302 0.04584,0.63079 -0.148011,0.75059 -0.400823,0.24772 -0.860831,-0.35986 -1.013016,-1.33802 -0.08733,-0.56127 0.05921,-0.62993 0.959933,-0.44979 1.454627,0.29093 1.337508,0.0228 -0.213649,-0.48915 -1.024364,-0.33807 -1.333045,-0.33006 -1.562082,0.0405 -0.177053,0.28648 -0.06066,0.63276 0.3065,0.91192 0.493818,0.37545 0.503837,0.45192 0.06045,0.46128 -0.292322,0.006 -1.073714,-0.14429 -1.736428,-0.33435 -1.142002,-0.32753 -2.141799,-0.0148 -2.141799,0.66994 0,0.22318 5.723664,3.2034 6.152289,3.2034 0.108741,0 0.197711,-0.14562 0.197711,-0.3236 0,-0.17798 -0.754062,-0.60518 -1.675694,-0.94933 -0.921632,-0.34416 -2.05456,-0.866 -2.517616,-1.15965 -1.610004,-1.021 -0.01168,-0.79681 3.05151,0.42801 1.695143,0.67781 3.875828,1.51903 4.845967,1.86939 0.970139,0.35035 2.160764,0.84062 2.645833,1.08948 1.104922,0.56686 1.239411,0.56961 0.77457,0.0158 z m -0.246955,-1.6782 c -0.32464,-0.52528 -2.145073,-1.40315 -4.13541,-1.99421 -2.063965,-0.61294 -2.701505,-0.39409 -0.738893,0.25363 0.739768,0.24415 2.060092,0.81151 2.934057,1.26081 1.736552,0.89275 2.27827,1.0267 1.940246,0.47977 z m -11.287337,-0.35027 c -0.119916,-0.19403 -0.407098,-0.35035 -0.638182,-0.34738 -0.252451,0.003 -0.20894,0.1419 0.109015,0.34738 0.677729,0.43798 0.799853,0.43798 0.529167,0 z m -1.5875,-0.5143 c 0,-0.29848 -3.204665,-2.04307 -3.397934,-1.8498 -0.105082,0.10508 0.179902,0.40573 0.633299,0.6681 0.453397,0.26237 1.141857,0.6626 1.529913,0.88939 0.754387,0.44088 1.234722,0.5546 1.234722,0.29231 z m -1.058333,-2.83709 c 0.476705,-0.57439 0.36268,-0.64619 -0.500313,-0.31503 -0.306913,0.11777 -0.558021,0.35589 -0.558021,0.52916 0,0.48798 0.571624,0.37232 1.058334,-0.21413 z m -21.2622102,-2.85897 c -0.1172246,-0.11722 -0.4214989,-0.12976 -0.6761586,-0.0279 -0.2814215,0.11262 -0.1978308,0.19621 0.2131377,0.21314 0.3718842,0.0153 0.5802454,-0.0681 0.4630209,-0.18529 z M -21.607751,-158.679 c 6.777186,-0.11885 8.351965,-0.65382 1.941453,-0.65955 -6.34879,-0.006 -12.213382,-0.80762 -16.556105,-2.26397 -2.083802,-0.69881 -4.250954,-1.54606 -4.815893,-1.88278 -2.802262,-1.67024 -5.681634,-3.23528 -7.270376,-3.95169 -0.970139,-0.43746 -2.59285,-1.18453 -3.606024,-1.66015 -1.013178,-0.47562 -2.362553,-1.03064 -2.998611,-1.23338 -0.636062,-0.20274 -6.712726,-0.57617 -13.503698,-0.82984 -11.741101,-0.43857 -17.955331,-1.06395 -19.665175,-1.97903 -0.340751,-0.18236 -0.623078,-0.60379 -0.627392,-0.93652 -0.01234,-0.95149 -1.237331,-2.33161 -1.858097,-2.0934 -0.307294,0.11792 -0.629973,-0.012 -0.739625,-0.29771 -0.200429,-0.52231 -1.274989,-0.72005 -1.274989,-0.23462 0,0.14975 0.674687,1.00023 1.499305,1.88995 1.020214,1.10076 2.129577,1.85093 3.471729,2.34764 1.983733,0.73415 7.096301,1.72269 10.374799,2.00602 10.774003,0.93112 14.872691,1.22678 17.123798,1.23524 3.370961,0.0127 6.245179,0.75872 9.158147,2.37718 1.26118,0.70072 2.729618,1.49826 3.263194,1.77232 0.533577,0.27405 0.970139,0.62819 0.970139,0.78697 0,0.15879 0.36576,0.3805 0.812804,0.4927 0.44704,0.1122 2.100601,1.13398 3.674579,2.27063 l 2.861779,2.06664 3.998334,0.4245 c 3.988333,0.42344 7.009935,0.63823 7.355964,0.52291 0.100446,-0.0335 2.984927,-0.11 6.409961,-0.17006 z m 14.1398205,0.17091 c -0.2388412,-0.0966 -0.7150912,-0.10252 -1.0583334,-0.0131 -0.3432422,0.0894 -0.1478245,0.16851 0.4342589,0.1757 0.5820833,0.007 0.8629156,-0.066 0.6240745,-0.16263 z m -2.2115745,-0.32003 c -1.237513,-0.27315 -3.455024,-0.32181 -3.300896,-0.0724 0.09215,0.14909 0.991606,0.25266 1.9988,0.23015 1.0071949,-0.0225 1.5931376,-0.0935 1.302096,-0.15773 z m -104.805125,-6.00363 c 0.39806,-0.39806 -0.26132,-0.34667 -1.2046,0.0939 l -1.05834,0.49428 1.05761,-0.22022 c 0.58169,-0.12113 1.12409,-0.2867 1.20533,-0.36794 z m 2.69672,-1.01844 c 0.37663,-0.28487 0.52604,-0.51795 0.33201,-0.51795 -0.19403,0 -0.66093,0.23308 -1.03756,0.51795 -0.37664,0.28487 -0.52604,0.51795 -0.33201,0.51795 0.19402,0 0.66093,-0.23308 1.03756,-0.51795 z m 2.97784,-1.79993 c 0,-0.097 -0.3175,-0.006 -0.70555,0.20121 -0.38806,0.20768 -0.70556,0.45698 -0.70556,0.55399 0,0.097 0.3175,0.006 0.70556,-0.20121 0.38805,-0.20768 0.70555,-0.45698 0.70555,-0.55399 z m 2.16043,-1.02495 c 0.84906,-0.48037 2.01999,-1.29137 2.60207,-1.80224 1.04744,-0.9193 0.8119,-0.8052 -1.41111,0.68356 -0.38805,0.25988 -1.26118,0.81174 -1.94027,1.22634 -1.70736,1.04239 -1.13913,0.96074 0.74931,-0.10766 z"
       id="path9751"
       inkscape:connector-curvature="0"
       sodipodi:nodetypes="csccsccsscccccsccssccssccccccccccscccccsscscccccscccscsccccccsscccsssccccsccccccccccccccscccccccscscccccccccscccccscccccccccssccccccccsccscccccccccccccccccccccscscccsccsccccscsccccccscccscsccsscccccccsccccccccccscccsccscssccccccscccssccccccscscccccccccssscsccccccccscccscccccsccccccccccsccccccccccsscccccccccscssscccsccssccsscccccscccccccccsccccccccccccccsccccccscccscccccsscccccsscscccccscccscccccccscccssccsccccscccccscccccsccscccccccccscscsccsccccccsccccscccccccsccsccssscccssscccccsccscccccccssccscssscsccccccsssscscccccccccscccccccccsscsccscccccscscscccccccscssscccccscscssccssccsccccccccccccccccccccccccccccccscscsccccccssscccscccccccccccccscsccccsccccccccccsssccccccccccscccccscscsccsccccccccsccccscaccsssccccscscsccccccccccccccccccsscssscscscsccc" />
  </g>
</svg>
