<?xml version="1.0" encoding="UTF-8" standalone="no"?>
<svg
   xmlns:dc="http://purl.org/dc/elements/1.1/"
   xmlns:cc="http://creativecommons.org/ns#"
   xmlns:rdf="http://www.w3.org/1999/02/22-rdf-syntax-ns#"
   xmlns:svg="http://www.w3.org/2000/svg"
   xmlns="http://www.w3.org/2000/svg"
   id="svg1611"
   version="1.1"
   viewBox="0 0 90.676453 296.64081"
   height="296.64081mm"
   width="90.676453mm">
  <defs
     id="defs1605" />
  <metadata
     id="metadata1608">
    <rdf:RDF>
      <cc:Work
         rdf:about="">
        <dc:format>image/svg+xml</dc:format>
        <dc:type
           rdf:resource="http://purl.org/dc/dcmitype/StillImage" />
        <dc:title></dc:title>
      </cc:Work>
    </rdf:RDF>
  </metadata>
  <g
     transform="translate(-52.40499,-0.95942255)"
     id="layer1">
    <path
       id="path2218"
       d="m 80.272876,296.88157 c -2.697965,-1.35809 -3.530367,-1.86491 -3.974613,-2.42001 -0.822314,-1.02752 -1.497289,-2.93438 -1.682483,-4.75316 -0.169204,-1.66175 -0.05971,-2.00887 1.403078,-4.44824 1.609244,-2.68358 2.626669,-4.6525 3.34552,-6.47421 0.330418,-0.83735 0.543518,-0.9694 1.270126,-0.78703 1.057242,0.26535 1.105464,-0.10931 0.167539,-1.30169 -0.388056,-0.49333 -0.705556,-1.07036 -0.705556,-1.28229 0,-0.21193 -0.177041,-0.38533 -0.393425,-0.38533 -0.270779,0 -0.320803,-0.63237 -0.160467,-2.02847 0.530769,-4.62163 1.035004,-7.69295 1.314726,-8.00806 0.481395,-0.5423 0.340767,-1.96345 -0.215409,-2.17688 -0.628261,-0.24108 -1.952369,-2.42182 -1.967755,-3.24078 -0.0062,-0.32846 -0.227504,-0.88239 -0.491852,-1.23096 -0.264348,-0.34856 -0.398692,-0.9471 -0.298542,-1.33007 0.10633,-0.40661 -0.182014,-1.24376 -0.693029,-2.01208 -0.481317,-0.72366 -1.069119,-2.26825 -1.306226,-3.43242 -0.237107,-1.16417 -0.751166,-3.2173 -1.142352,-4.56252 -0.538089,-1.85039 -0.65684,-2.96692 -0.487766,-4.58611 0.122915,-1.17714 0.298607,-3.75014 0.390426,-5.71777 0.09182,-1.96763 0.335299,-4.34888 0.541066,-5.29166 0.205768,-0.94279 0.456794,-2.74604 0.557838,-4.00722 0.20066,-2.50455 0.777956,-4.54826 1.849526,-6.54758 0.522771,-0.97537 0.611563,-1.50371 0.362715,-2.15823 -0.520931,-1.37015 -1.03452,-2.23034 -1.771939,-2.96776 -0.385419,-0.38542 -0.660847,-1.10532 -0.63089,-1.64899 0.05588,-1.01412 -0.503271,-2.71213 -0.992707,-3.01462 -0.459328,-0.28388 -0.282576,-3.66535 0.223462,-4.27509 0.329237,-0.39671 0.417662,-1.44024 0.311028,-3.67058 -0.1453,-3.03908 -0.184666,-3.15924 -1.589094,-4.85074 -1.361122,-1.63933 -4.345444,-7.94163 -4.345444,-9.17672 0,-0.31328 -0.388202,-1.86255 -0.862671,-3.44283 -0.47447,-1.58028 -0.911032,-3.34657 -0.970139,-3.92508 -0.109028,-1.06711 -0.457553,-1.28556 -2.796446,-1.7528 -1.016163,-0.203 -3.837411,-2.89922 -3.837411,-3.66735 0,-0.26511 -0.405515,-0.801 -0.901145,-1.19086 -1.013663,-0.79735 -1.058855,-2.13673 -0.0784,-2.32357 0.839887,-0.16005 4.507324,3.9864 4.507324,5.09604 0,0.26436 0.3175,0.48066 0.705556,0.48066 1.130696,0 0.861604,-1.35349 -0.626721,-3.1523 -1.432826,-1.73173 -2.195502,-3.19943 -2.195502,-4.22506 0,-0.82532 1.364902,-2.57062 1.800032,-2.30169 0.182833,0.113 0.801627,1.13493 1.375097,2.27097 0.996951,1.97495 2.288051,3.32841 2.846067,2.98354 0.143973,-0.089 0.02402,-1.07223 -0.266563,-2.18499 -0.290583,-1.11276 -0.441895,-2.55586 -0.336249,-3.20688 0.105646,-0.65103 0.05728,-1.4471 -0.10749,-1.76905 -0.417739,-0.81627 -1.302583,-3.14037 -1.834596,-4.81871 -0.246019,-0.77611 -0.673518,-1.68487 -0.949998,-2.01947 -0.422042,-0.51076 -0.428757,-0.78684 -0.04185,-1.72091 0.610767,-1.47452 0.675092,-8.67865 0.08441,-9.45391 -0.582518,-0.76454 -0.558354,-1.84298 0.06111,-2.72739 0.282316,-0.40307 0.754311,-2.54183 1.048876,-4.7528 0.294565,-2.21098 0.854613,-5.21058 1.244553,-6.66579 0.983183,-3.66913 0.929987,-6.1514 -0.170102,-7.9375 -0.679595,-1.10339 -0.869522,-1.89193 -0.870935,-3.61597 -9.88e-4,-1.21268 0.137505,-2.20486 0.307775,-2.20486 0.540129,0 0.997053,0.83918 1.209447,2.22125 0.239473,1.55828 1.567537,6.14098 2.038561,7.03437 0.177631,0.33692 0.322965,1.40848 0.322965,2.38125 0,0.97277 0.15875,1.76868 0.352778,1.76868 0.194028,0 0.352778,-0.762 0.352778,-1.69333 0,-0.93134 0.130695,-1.84415 0.290435,-2.02848 0.44183,-0.50983 1.380927,-3.92127 1.840276,-6.68513 0.22573,-1.3582 0.486902,-2.81081 0.580383,-3.22804 0.321029,-1.43281 2.542321,-1.25422 13.693072,1.10088 5.047216,1.066 13.632676,1.97146 14.435126,1.52239 0.28053,-0.15699 1.59238,-0.37393 2.91524,-0.48209 2.89579,-0.23677 4.37777,-0.6609 6.39974,-1.83159 1.38239,-0.80037 1.78679,-0.86507 4.32153,-0.69133 2.51806,0.17259 2.79642,0.12915 2.79642,-0.43643 0,-0.41567 -0.35794,-0.69969 -1.05833,-0.83977 -0.93634,-0.18726 -1.06545,-0.36518 -1.12008,-1.5434 -0.13089,-2.82292 0.16056,-4.09859 1.53679,-6.72638 2.3614,-4.50891 3.81662,-7.48318 3.81662,-7.80065 0,-0.16514 0.23813,-0.49788 0.52917,-0.73943 0.42217,-0.35037 0.63616,-0.35037 1.05833,0 0.5795,0.48094 0.67171,0.24984 0.53925,-1.35132 -0.0374,-0.45218 0.20394,-1.122666 0.53634,-1.489957 0.4387,-0.484766 0.61126,-1.32304 0.62956,-3.0584 0.0212,-2.011559 -0.15796,-2.768148 -1.13008,-4.771844 -0.63541,-1.309688 -1.33181,-2.38125 -1.54755,-2.38125 -0.21574,0 -1.03769,0.301794 -1.82656,0.670655 -3.8054,1.779344 -5.03846,2.208576 -6.72596,2.341323 -0.58208,0.04579 -1.53458,0.175563 -2.11667,0.288385 -1.47865,0.286603 -5.87077,-0.444423 -6.61458,-1.100928 -0.75582,-0.667106 -0.81215,-1.846657 -0.0882,-1.846657 0.29104,0 0.52956,-0.119063 0.53005,-0.264584 0.001,-0.348809 6.7567,-0.343478 7.29488,0.0058 0.22912,0.148685 0.51631,0.108997 0.63818,-0.0882 0.3704,-0.599323 1.17711,-0.401433 1.41466,0.347024 0.3607,1.136442 1.69825,0.796964 3.70417,-0.940145 0.48507,-0.420063 1.27882,-0.817016 1.76389,-0.882114 0.6351,-0.08523 0.86407,-0.315789 0.81806,-0.823743 -0.0351,-0.387964 0.16416,-1.907963 0.44287,-3.37778 0.30124,-1.58859 0.4429,-3.836532 0.34929,-5.542879 -0.1329,-2.422715 -0.0553,-2.996392 0.4973,-3.677606 l 0.65477,-0.80712 0.9221,0.864824 c 0.77306,0.725029 0.90621,1.124197 0.82372,2.469444 -0.0859,1.401255 -0.009,1.605079 0.60717,1.608247 0.54433,0.0028 0.70869,0.244627 0.71926,1.058333 0.008,0.58009 0.14605,1.439485 0.30782,1.90977 0.20808,0.604957 0.14652,0.966117 -0.21044,1.234722 -0.2775,0.208812 -0.86146,1.122828 -1.2977,2.031142 l -0.79316,1.651487 1.10261,1.522116 c 0.71184,0.982673 1.04818,1.80691 0.94901,2.325687 -0.0845,0.44196 -0.0162,0.88852 0.15185,0.992353 0.16801,0.103837 0.30547,0.745483 0.30547,1.425886 0,0.680402 0.16553,1.546394 0.36785,1.92443 0.25727,0.480706 0.24974,1.242632 -0.0251,2.534447 -0.78297,3.681022 -0.80538,4.157922 -0.21615,4.600562 0.30864,0.23185 0.63768,0.97717 0.7312,1.65627 0.69291,5.03146 2.3822,10.31196 3.84573,12.02123 0.32344,0.37776 0.58808,0.76402 0.58808,0.85837 0,0.0943 0.53433,0.92597 1.18739,1.84805 1.17534,1.65949 1.18564,1.70785 1.0141,4.76332 -0.15066,2.68347 -0.25699,3.0868 -0.8138,3.0868 -0.77543,0 -1.04694,-0.39459 -1.22171,-1.77557 -0.0731,-0.57762 -0.29428,-1.32722 -0.4915,-1.66579 -0.28594,-0.49088 -0.36075,-0.32615 -0.36931,0.81317 -0.006,0.78581 -0.19705,1.61507 -0.42478,1.8428 -0.59617,0.59617 -0.5878,8.25626 0.0116,10.58873 0.2637,1.02621 0.88292,2.69308 1.37605,3.70416 0.76414,1.56675 0.90759,2.38557 0.97102,5.5425 0.0409,2.03729 0.3351,4.89479 0.65371,6.35 0.53703,2.45279 0.53706,2.67699 3.5e-4,3.0729 -0.43156,0.31839 -0.52577,0.7543 -0.3702,1.71294 0.17483,1.07737 0.0969,1.3151 -0.48076,1.46616 -0.44214,0.11563 -0.68942,0.48357 -0.68942,1.02587 0,0.95325 -0.65308,2.27772 -1.33838,2.71428 -0.2651,0.16889 -0.36379,0.58264 -0.23543,0.98707 0.27042,0.85202 -0.39051,1.72078 -1.30912,1.72078 -0.62443,0 -0.66028,0.17981 -0.43957,2.20486 0.13217,1.21267 0.37818,2.47224 0.54668,2.79903 0.16851,0.32679 0.30638,1.08085 0.30638,1.67569 0,0.69924 0.17712,1.08153 0.50109,1.08153 0.36077,0 0.56535,-0.66679 0.73059,-2.38125 0.12622,-1.30969 0.29263,-2.57969 0.36978,-2.82222 0.2089,-0.65667 1.21443,-0.53298 1.43397,0.17638 0.10509,0.33955 0.30927,0.85549 0.45374,1.14653 0.30924,0.62302 0.20286,2.65487 -0.267,5.09976 -0.28346,1.47492 -0.24445,1.81791 0.24938,2.19292 1.00566,0.7637 1.18815,0.58668 2.39127,-2.31957 0.35366,-0.85431 1.24672,-2.2007 1.98457,-2.99198 1.56613,-1.67952 2.20964,-3.58039 1.68195,-4.96832 -0.19641,-0.51661 -0.36217,-1.36552 -0.36834,-1.88647 -0.006,-0.52094 -0.2338,-1.24097 -0.50585,-1.60007 -0.3813,-0.50331 -0.45345,-1.51363 -0.31489,-4.40972 0.0989,-2.06625 0.14853,-3.99495 0.11038,-4.28599 -0.45438,-3.46649 0.35051,-8.28734 1.43082,-8.56985 0.44099,-0.11532 0.72519,-0.61667 0.86922,-1.53338 0.11771,-0.74913 0.36633,-1.93609 0.5525,-2.6377 0.52447,-1.97655 0.43091,-5.86776 -0.14915,-6.20335 -0.41192,-0.23831 -0.41768,-0.93933 -0.0371,-4.51544 0.2478,-2.32833 0.56108,-4.5046 0.69618,-4.83615 0.26878,-0.65962 -0.36172,-2.96599 -1.04072,-3.80691 -0.42159,-0.52212 -1.38777,-8.62926 -1.97401,-16.56363 -0.37454,-5.069321 -0.46578,-5.583441 -1.56059,-8.794343 -1.02785,-3.014511 -1.10834,-4.116877 -0.33232,-4.551157 0.78455,-0.439057 2.3561,1.144919 2.89872,2.921641 0.23703,0.776111 0.60652,2.522361 0.82108,3.880555 0.21456,1.358195 0.44221,2.786944 0.50587,3.175004 0.64411,3.92614 0.85978,7.25339 0.7015,10.82211 -0.17793,4.01186 -0.13974,4.34961 0.66599,5.88914 1.40167,2.6782 1.55343,4.18983 1.20875,12.04013 -0.10649,2.42534 -0.0596,5.29878 0.10425,6.38542 0.31641,2.09869 0.13455,3.43332 -1.05993,7.77865 -0.5231,1.90296 -0.78764,4.11514 -0.8971,7.50191 -0.1296,4.00994 -0.28248,5.06599 -0.92578,6.39488 -0.8542,1.76453 -0.82634,2.78725 0.17549,6.44042 0.70233,2.56104 0.53562,4.04126 -0.65227,5.79172 -0.44999,0.6631 -0.91882,1.6067 -1.04185,2.09689 -0.12304,0.4902 -0.62216,1.28973 -1.10918,1.77675 -0.48702,0.48702 -1.11937,1.44524 -1.40522,2.12938 -0.30207,0.72296 -1.04456,1.55355 -1.77292,1.98329 -0.68925,0.40667 -1.40557,1.14019 -1.59181,1.63004 -0.18624,0.48986 -0.51595,0.89064 -0.73268,0.89064 -0.21673,0 -0.80123,0.32028 -1.29888,0.71174 -0.50596,0.39798 -1.17833,0.62493 -1.52526,0.51481 -0.88148,-0.27977 -1.17409,0.37085 -1.43164,3.18317 -0.25507,2.78534 -1.53345,7.88663 -3.10722,12.39925 -0.68411,1.9616 -0.95432,3.23652 -0.76458,3.60753 0.48938,0.95691 0.72606,6.04092 0.49508,10.63478 -0.23224,4.62055 -0.63301,5.63761 -2.22139,5.63761 -0.84855,0 -0.95991,-1.11362 -0.17638,-1.76389 0.29104,-0.24154 0.52916,-0.73326 0.52916,-1.09271 0,-0.53801 -0.18709,-0.61612 -1.05833,-0.44187 -0.89622,0.17924 -1.05833,0.10262 -1.05833,-0.50024 0,-0.39155 -0.23813,-0.80329 -0.52917,-0.91497 -0.86969,-0.33374 -0.60533,-1.42254 0.70224,-2.89229 1.33281,-1.49812 1.3461,-2.0154 0.0973,-3.78805 -0.49143,-0.69759 -0.63724,-1.31835 -0.4972,-2.11666 0.10899,-0.62128 0.0855,-1.98426 -0.0521,-3.02886 l -0.25027,-1.89926 -0.88355,1.3701 c -0.89072,1.38122 -2.20531,1.95013 -2.90029,1.25514 -0.23292,-0.23292 -0.0285,-0.62885 0.60749,-1.1764 0.52722,-0.45392 1.10903,-1.14281 1.29292,-1.53087 0.18388,-0.38806 0.63557,-1.26118 1.00374,-1.94028 0.36818,-0.67909 0.67704,-1.61622 0.68636,-2.0825 0.009,-0.46628 0.49319,-1.85576 1.07527,-3.08775 0.58209,-1.23198 1.05834,-2.60996 1.05834,-3.06217 0,-0.45221 0.11906,-0.94236 0.26458,-1.08922 0.14552,-0.14687 0.26458,-0.99157 0.26458,-1.87713 0,-2.0266 0.67483,-2.32704 1.38878,-0.61831 0.29519,0.70649 0.68665,1.19186 0.86991,1.0786 0.88765,-0.5486 1.51052,-3.86264 1.52772,-8.12841 0.0126,-3.11119 0.14252,-4.4272 0.44885,-4.54475 0.42351,-0.16252 0.21889,-2.65058 -0.37076,-4.50841 -0.19453,-0.61289 -0.11584,-0.68837 0.5104,-0.48961 0.83193,0.26405 0.9036,0.0933 0.37519,-0.89408 -0.42394,-0.79215 -1.04592,-0.90599 -1.04592,-0.19144 0,0.27001 -0.43143,0.5992 -0.95874,0.73155 -0.52731,0.13234 -1.75762,0.60888 -2.73403,1.05896 -0.97641,0.45009 -2.35462,0.91884 -3.06269,1.04166 -0.70808,0.12283 -1.80103,0.47956 -2.42879,0.79273 -0.91398,0.45595 -2.41461,0.57709 -7.53204,0.60803 -5.93496,0.0359 -6.48171,-0.0152 -7.66767,-0.71613 -1.03869,-0.61391 -1.55425,-0.70408 -2.762412,-0.48315 -1.956643,0.3578 -2.493433,0.89192 -1.586057,1.57816 0.879408,0.66509 1.189521,0.66779 1.440963,0.0126 0.483483,-1.25993 2.160576,-0.17126 2.576396,1.67244 0.2102,0.93197 0.15787,1.47941 -0.18456,1.93083 -0.60427,0.79662 -0.63528,2.29456 -0.0594,2.86942 0.27226,0.27177 0.51813,1.95221 0.64264,4.39208 0.21931,4.29763 0.55593,5.23979 2.98752,8.36162 0.68007,0.87312 1.51072,2.02305 1.84588,2.55541 0.33516,0.53234 0.72844,0.96891 0.87396,0.97013 0.14552,0.001 0.26459,0.22221 0.26459,0.49107 0,0.26887 0.23748,0.94355 0.52773,1.49931 0.46845,0.89697 0.46845,1.05446 0,1.40213 -0.86413,0.64133 -0.63146,1.48981 0.44241,1.61337 1.22756,0.14125 1.57428,1.51582 0.4707,1.86608 -1.43755,0.45626 -2.11377,1.98516 -2.105,4.75928 0.009,2.81188 0.2407,3.41923 2.05827,5.39252 0.98341,1.06766 1.46866,1.32292 2.51495,1.32292 0.71304,0 1.88165,0.24451 2.59692,0.54337 1.02386,0.4278 1.27511,0.70919 1.18123,1.32292 -0.0656,0.42874 -0.30309,0.74346 -0.5278,0.69936 -2.7662,-0.54288 -3.21341,-0.52469 -3.15811,0.12849 0.0589,0.69565 0.0243,0.70134 -1.84681,0.30404 l -1.19689,-0.25414 0.25048,4.06737 c 0.19998,3.24746 0.14029,4.39189 -0.29609,5.67722 -0.40587,1.19545 -0.45442,1.85219 -0.18861,2.55132 0.29746,0.78237 0.22824,1.07955 -0.40963,1.75852 -0.67708,0.72072 -0.73527,1.03679 -0.49354,2.68082 0.15072,1.02507 0.30522,2.34001 0.34333,2.92209 0.14603,2.23025 0.64096,5.3067 0.90806,5.64445 0.15344,0.19402 0.83817,2.0598 1.52162,4.14617 0.8938,2.72851 1.18548,4.1456 1.03904,5.04802 -0.20103,1.23881 0.41021,3.87907 1.05663,4.56414 0.34035,0.3607 0.0191,-7.56228 -0.34516,-8.51141 -0.22959,-0.59832 1.14284,-0.67249 1.50809,-0.0815 0.13697,0.22161 0.32607,2.54996 0.42023,5.1741 0.14418,4.01803 0.0857,4.83368 -0.37029,5.16713 -0.50936,0.37246 -1.12927,5.05957 -1.07453,8.1245 0.0103,0.57936 -0.22305,1.23024 -0.51867,1.4464 -0.77666,0.56791 -0.32282,2.84762 0.80026,4.01987 0.55491,0.57919 0.86543,1.26511 0.80699,1.78255 -0.27119,2.40139 4.88869,0.40121 6.4393,-2.49612 0.27728,-0.5181 0.19022,-1.02208 -0.36428,-2.10901 -0.40075,-0.78552 -0.62723,-1.59228 -0.5033,-1.7928 0.12392,-0.20053 -0.0555,-1.55692 -0.39866,-3.01421 -0.52133,-2.21377 -0.55987,-3.00776 -0.23431,-4.82679 0.21432,-1.19744 0.57857,-3.44717 0.80945,-4.99939 0.24539,-1.64975 0.76762,-3.43455 1.25705,-4.29615 0.4605,-0.81066 0.83727,-1.81328 0.83727,-2.22805 0,-0.41477 0.17147,-1.07453 0.38106,-1.46613 0.20957,-0.39161 0.772,-3.04023 1.24982,-5.88584 0.91873,-5.47128 1.02678,-10.12822 0.27148,-11.70021 -0.59684,-1.24221 -1.26642,-3.89341 -1.24735,-4.93889 0.0607,-3.32502 0.034,-3.22671 0.84497,-3.11005 1.11106,0.15982 3.08613,4.07428 3.08613,6.11651 0,0.84355 0.16016,1.95496 0.3559,2.46981 0.19575,0.51486 0.41631,1.51738 0.49014,2.22783 0.0738,0.71045 0.34353,1.80286 0.59934,2.42756 0.3969,0.96923 0.37501,1.53845 -0.14919,3.88056 -1.38366,6.18215 -2.17481,9.21212 -2.97346,11.38777 -2.0127,5.48298 -2.20241,6.34399 -2.24157,10.17351 -0.0382,3.73371 0.24144,8.53558 0.55735,9.57124 0.2908,0.95336 -0.4351,3.23163 -1.27899,4.0142 l -0.81861,0.75911 1.05385,0.11941 c 1.3913,0.15765 1.80561,0.54287 2.65917,2.47249 0.39334,0.88921 0.84172,1.70167 0.9964,1.80548 0.15468,0.1038 0.86857,1.2206 1.58642,2.48178 0.71786,1.26118 1.65669,2.74201 2.0863,3.29073 0.77194,0.98594 0.77299,1.00362 0.0892,1.5045 -0.51847,0.3798 -0.66727,0.84784 -0.59366,1.86736 0.054,0.74829 -0.13293,1.91379 -0.41547,2.59 -0.5923,1.41755 -3.82541,4.65098 -5.23389,5.23439 -0.55791,0.2311 -1.11251,0.84303 -1.33032,1.46784 -0.34881,1.00057 -0.46128,1.05702 -1.6986,0.85251 -0.72878,-0.12045 -2.3043,-0.22075 -3.50116,-0.22289 -2.01468,-0.004 -2.28556,-0.10202 -3.65152,-1.3268 -2.37188,-2.12673 -2.47509,-2.51102 -2.60768,-9.70959 -0.0886,-4.81024 -0.25908,-6.78546 -0.67677,-7.8411 -0.7224,-1.82574 -0.73194,-3.31463 -0.0262,-4.09443 0.51699,-0.57127 0.50459,-0.77855 -0.15135,-2.53173 -0.56436,-1.50838 -0.64736,-2.19869 -0.39512,-3.28612 0.17562,-0.75714 0.32311,-1.96255 0.32773,-2.6787 0.005,-0.71616 0.14509,-1.38657 0.31214,-1.48981 0.57237,-0.35374 0.72421,-4.88666 0.19779,-5.90464 -0.44695,-0.86431 -1.04668,-3.89256 -1.9323,-9.75687 -0.18486,-1.2241 -0.2373,-2.61931 -0.11654,-3.10047 0.14156,-0.56403 -0.16489,-1.90399 -0.86256,-3.77159 -0.59518,-1.59321 -1.16233,-3.81303 -1.26034,-4.93293 -0.098,-1.11989 -0.26296,-2.1733 -0.36654,-2.3409 -0.10358,-0.1676 0.13176,-1.5532 0.52299,-3.0791 0.39124,-1.52591 0.75064,-3.35019 0.79868,-4.05396 0.048,-0.70378 0.29769,-1.53304 0.55477,-1.84281 0.34977,-0.42144 0.4363,-1.69774 0.34374,-5.07041 -0.11136,-4.05795 -0.2014,-4.59323 -0.90341,-5.3704 -0.42885,-0.47477 -0.92749,-1.26852 -1.10809,-1.76389 -0.58087,-1.59325 -0.94959,-5.84651 -0.65776,-7.58726 0.22359,-1.33365 0.16616,-1.81996 -0.27216,-2.30429 -0.30556,-0.33763 -0.62866,-0.91344 -0.71799,-1.27956 -0.56074,-2.29793 -1.10829,-3.98377 -1.43196,-4.40882 -1.14109,-1.49849 -3.203905,-13.21093 -3.379313,-19.18741 -0.07071,-2.40936 -0.745505,-4.52765 -1.126236,-3.53548 -0.125487,0.32701 -0.228159,2.3697 -0.228159,4.5393 0,3.28745 -0.585446,9.5492 -1.555306,16.63506 -0.106225,0.77612 -0.339817,2.9774 -0.519084,4.89174 -0.341299,3.64456 -0.858016,4.76083 -2.00079,4.3223 -0.476472,-0.18284 -0.562797,-0.52415 -0.413699,-1.63573 0.175024,-1.30491 0.127353,-1.40469 -0.67104,-1.40469 -1.040309,0 -1.460507,-0.89708 -0.866055,-1.84895 0.343355,-0.5498 0.344526,-0.91649 0.0055,-1.73487 -0.308857,-0.74564 -0.325854,-1.25614 -0.0604,-1.81375 0.353928,-0.74345 0.614839,-2.5145 1.517537,-10.30104 0.224938,-1.94028 0.635367,-4.26162 0.912058,-5.15853 0.276694,-0.89691 0.514607,-3.01981 0.528697,-4.71754 0.02254,-2.71777 0.105297,-3.10763 0.692129,-3.26109 0.366586,-0.0959 0.666517,-0.30384 0.666517,-0.46216 0,-0.6201 -1.415559,-0.67523 -4.086736,-0.15915 -3.864176,0.74656 -9.919682,0.6469 -12.464719,-0.20514 -1.083157,-0.36263 -2.249344,-0.66323 -2.591525,-0.668 -0.342182,-0.005 -0.897807,-0.15783 -1.234723,-0.34014 -0.336915,-0.18231 -1.033855,-0.41962 -1.548755,-0.52736 -0.514899,-0.10775 -1.740541,-0.83171 -2.723649,-1.60881 -1.777861,-1.40532 -2.403923,-1.73859 -1.981242,-1.05468 0.121771,0.19703 0.225398,1.58609 0.230283,3.0868 0.0049,1.50072 0.154872,2.90615 0.333304,3.12318 0.286956,0.34904 1.69635,5.17005 1.717793,5.87593 0.0046,0.15031 -0.388572,0.42419 -0.873641,0.60861 -0.48507,0.18442 -0.881945,0.568 -0.881945,0.8524 0,0.64798 0.585339,1.03863 0.868866,0.57988 0.116635,-0.18872 0.422207,-0.26249 0.679049,-0.16393 0.30442,0.11682 0.540508,1.13261 0.678184,2.91796 0.116159,1.50632 0.39241,3.20468 0.613891,3.77414 0.221482,0.56946 0.6327,1.90387 0.91382,2.96534 0.281119,1.06148 0.755176,2.19964 1.053461,2.52924 0.298283,0.3296 0.504835,0.96924 0.459003,1.42143 -0.099,0.97672 0.335361,2.76095 0.822788,3.37979 0.191031,0.24254 0.764454,0.44785 1.274273,0.45625 0.597581,0.01 1.608971,0.62623 2.846416,1.73473 1.657142,1.48447 1.856145,1.79577 1.456109,2.27779 -0.775431,0.93433 -1.802259,0.63279 -3.204284,-0.94099 -1.376314,-1.54492 -2.15854,-1.66292 -1.369579,-0.20661 0.267552,0.49387 0.48447,2.46485 0.541453,4.91979 0.08368,3.60528 0.20265,4.29816 0.99331,5.78518 0.969356,1.82311 1.126334,2.64261 0.506201,2.64261 -0.511416,0 -0.101325,2.24657 0.673937,3.69197 1.198756,2.23498 1.861532,4.37028 2.577003,8.30247 0.194171,1.06716 0.582852,2.40123 0.863735,2.96462 0.609398,1.2223 0.662635,2.54428 0.116069,2.88208 -0.273067,0.16877 -0.320099,1.19661 -0.15268,3.33674 0.166549,2.129 0.119807,3.16833 -0.149991,3.33507 -0.597975,0.36957 -1.492138,-0.56047 -1.288291,-1.33998 0.248881,-0.95172 -0.343366,-5.85364 -1.066898,-8.83052 l -0.599994,-2.4686 -0.434431,1.25482 c -0.238937,0.69015 -0.547659,2.34448 -0.68605,3.67627 -0.138391,1.33179 -0.370172,2.5802 -0.51507,2.77422 -0.144898,0.19403 -0.461423,1.4261 -0.703389,2.73793 -0.481319,2.60949 -0.243133,6.35503 0.519576,8.17049 0.250944,0.59731 0.726946,2.50179 1.057783,4.23218 0.330838,1.73038 0.811242,3.63538 1.067565,4.23333 0.256322,0.59795 0.728015,2.03968 1.048206,3.20385 0.81562,2.96548 1.1543,3.70417 1.698317,3.70417 0.364348,0 0.42033,-0.41433 0.242876,-1.79758 -0.168293,-1.31184 -0.108104,-1.84458 0.22274,-1.97153 0.875034,-0.33578 1.192693,0.3019 1.192693,2.39428 0,1.6819 -0.106941,2.09023 -0.525809,2.00765 -0.436569,-0.0861 -0.544191,0.58581 -0.634142,3.95897 -0.09056,3.39621 -0.243745,4.34235 -0.933835,5.76788 -0.788716,1.62927 -0.800012,1.75871 -0.253509,2.90474 0.46006,0.96475 0.776135,1.19947 1.61521,1.19947 0.573772,0 1.147128,-0.16812 1.274124,-0.37361 0.127,-0.20548 0.587985,-0.32681 1.024421,-0.26962 0.548315,0.0718 1.201963,-0.3291 2.115333,-1.29755 1.728075,-1.83229 2.015822,-2.40361 2.505495,-4.97464 0.373644,-1.96184 0.352725,-2.18873 -0.235709,-2.55621 -0.355162,-0.2218 -0.745246,-0.7997 -0.866852,-1.28422 -0.121606,-0.48451 -0.369874,-0.78899 -0.551702,-0.67662 -0.722091,0.44628 -1.358025,-0.67396 -1.358025,-2.39225 0,-0.95913 -0.157618,-2.03839 -0.350263,-2.39835 -0.308575,-0.57658 -0.695706,-2.55683 -1.311289,-6.70748 -0.100718,-0.6791 -0.410005,-1.49301 -0.68731,-1.8087 -0.402826,-0.45858 -0.476761,-1.62878 -0.367764,-5.82083 0.143034,-5.50098 0.83892,-10.14178 2.188584,-14.59547 0.44099,-1.45521 0.98673,-3.54488 1.212751,-4.64372 0.42211,-2.05215 1.114916,-2.76134 1.98893,-2.03598 0.72868,0.60475 0.622762,5.16559 -0.129745,5.58672 -0.544664,0.30481 -1.134378,4.10909 -2.02873,13.08743 -0.08697,0.87312 -0.342222,3.36142 -0.56722,5.52956 -0.350919,3.38153 -0.328528,4.28446 0.157469,6.35 0.311605,1.32436 0.671805,3.16395 0.800442,4.08797 0.433582,3.11442 0.758973,2.03422 1.013675,-3.3651 0.159241,-3.37569 0.437554,-5.76359 0.74929,-6.42882 0.431705,-0.92124 1.302469,-3.94013 2.271486,-7.8751 0.158779,-0.64478 0.556469,-1.46821 0.883751,-1.82985 0.327283,-0.36165 0.49373,-0.82149 0.369881,-1.02189 -0.219016,-0.35437 -0.679934,-3.84193 -1.123308,-8.49955 -0.120058,-1.26118 -0.363429,-2.676 -0.540823,-3.14405 -0.374929,-0.98922 -0.03186,-3.81538 0.503305,-4.14613 0.639769,-0.3954 1.316887,1.01785 1.316887,2.74853 0,1.97447 0.46294,3.34306 1.522804,4.50185 0.423641,0.46317 0.611502,0.89982 0.417474,0.97031 -0.214069,0.0778 -0.313214,1.61923 -0.252155,3.92036 0.05534,2.0857 0.110141,4.34781 0.121768,5.02691 0.01164,0.67909 -0.311464,2.00194 -0.717984,2.93966 -0.406519,0.93772 -0.739129,2.07929 -0.739129,2.53682 0,0.45753 -0.15875,0.92999 -0.352778,1.0499 -0.194027,0.11992 -0.352777,0.60065 -0.352777,1.06829 0,0.46765 -0.317081,1.4586 -0.704625,2.20211 -0.518167,0.99413 -0.764296,2.37393 -0.930137,5.21434 -0.124033,2.12437 -0.38166,4.0605 -0.572509,4.30251 -0.582457,0.73862 -0.01147,7.15276 0.707475,7.94716 0.878529,0.97077 1.066158,5.40952 0.291948,6.90668 -0.315789,0.61066 -0.728832,1.1103 -0.917878,1.1103 -0.189047,0 -0.343719,0.16945 -0.343719,0.37655 0,0.21196 0.298757,0.28173 0.683489,0.15962 0.82695,-0.26246 2.211896,0.52031 1.834374,1.0368 -1.143038,1.56376 -1.278308,6.77761 -0.250606,9.65932 0.407557,1.1428 0.450183,1.70988 0.168148,2.23687 -0.271113,0.50658 -0.265116,0.97806 0.02124,1.66935 0.357085,0.86208 0.247841,1.20188 -1.038849,3.23119 -0.790847,1.24729 -1.530798,2.54381 -1.644333,2.88117 -0.319129,0.94824 -2.487037,2.13548 -3.533951,1.93535 -0.597284,-0.11418 -1.135013,0.0537 -1.572235,0.49096 -0.9011,0.9011 -3.575063,0.87088 -5.426985,-0.0613 z m 3.951221,-2.20233 c 0.155162,-0.25229 0.959252,-0.65627 1.786865,-0.89774 1.099171,-0.3207 1.743745,-0.80018 2.391445,-1.77893 0.496023,-0.74953 0.792434,-1.58553 0.672751,-1.89742 -0.136448,-0.35558 0.06115,-0.70477 0.545482,-0.96398 0.661688,-0.35412 0.727573,-0.59499 0.51192,-1.87143 -0.13613,-0.80575 -0.505248,-1.85836 -0.820265,-2.33914 -0.315013,-0.48077 -0.553275,-0.96049 -0.529473,-1.06603 0.02381,-0.10555 -0.04094,-0.41137 -0.14387,-0.67961 -0.102934,-0.26824 -0.0032,-0.78202 0.221304,-1.14174 0.224649,-0.35972 0.408453,-1.36023 0.408453,-2.22336 0,-0.86313 0.163192,-1.99855 0.362649,-2.52316 0.478603,-1.25882 0.07124,-1.60203 -0.662979,-0.55855 -0.319888,0.45462 -1.111179,1.36743 -1.758428,2.02847 -0.958737,0.97916 -1.443887,1.20188 -2.618055,1.20188 -0.805258,0 -1.707245,-0.24073 -2.044049,-0.54553 -0.555503,-0.50273 -0.620705,-0.45014 -0.830864,0.6701 -0.12543,0.6686 -0.461979,1.40978 -0.747886,1.64706 -0.285908,0.23728 -0.519832,0.64222 -0.519832,0.89986 0,0.25765 -0.277812,0.62592 -0.617361,0.81838 -0.585097,0.33164 -0.585425,0.37404 -0.0063,0.81128 0.552186,0.41688 0.563594,0.59734 0.118376,1.87246 -0.569496,1.63104 -0.416426,4.86797 0.240389,5.08346 0.647065,0.21229 3.0871,2.95595 3.0871,3.47124 0,0.57741 0.593411,0.56647 0.95261,-0.0176 z m 34.319773,-3.11903 c 0.003,-0.12449 -0.39548,-0.32695 -0.88544,-0.44992 -0.48996,-0.12297 -1.50139,-0.77519 -2.24762,-1.44936 -1.57975,-1.42721 -1.89118,-1.50941 -1.73677,-0.45845 0.0724,0.4927 0.68087,1.06638 1.70023,1.60296 0.87312,0.45961 1.81767,1.06453 2.09898,1.34427 0.39724,0.39501 0.57333,0.41126 0.78835,0.0727 0.15227,-0.23974 0.2793,-0.53774 0.28227,-0.66223 z m -40.588675,-0.74147 c -0.180484,-0.62931 -0.33931,-1.70087 -0.352947,-2.38125 -0.02029,-1.01241 -0.07985,-1.10892 -0.327983,-0.53149 -0.478696,1.11398 -0.400265,2.42104 0.196393,3.27289 0.751737,1.07325 0.870347,0.98509 0.484537,-0.36015 z m 43.904335,-1.12629 c 0.5085,-0.66668 1.47919,-1.41271 2.15709,-1.65785 0.67789,-0.24512 1.31235,-0.69718 1.40992,-1.00457 0.38375,-1.20911 0.23402,-3.43391 -0.3328,-4.94487 -0.32755,-0.87312 -0.72618,-2.1011 -0.88585,-2.72884 -0.15967,-0.62774 -0.65112,-1.81837 -1.09209,-2.64583 -0.44098,-0.82747 -0.97416,-1.86044 -1.18485,-2.29549 -0.4637,-0.95748 -0.91224,-1.03243 -0.91224,-0.15244 0,0.87947 -1.39777,2.12371 -2.66279,2.3703 -0.57833,0.11273 -1.72776,-0.0417 -2.58504,-0.34735 -1.88433,-0.6718 -1.68953,-0.68763 -1.90994,0.15521 -0.10148,0.38806 -0.43353,0.70556 -0.73788,0.70556 -0.4337,0 -0.50639,0.24794 -0.33612,1.14652 0.11949,0.63059 0.34061,1.38954 0.49137,1.68654 0.28712,0.56566 0.88092,5.5122 0.74651,6.21865 -0.1028,0.5403 2.24196,2.45922 3.90709,3.19751 0.7276,0.32261 1.32291,0.79413 1.32291,1.04783 0,0.95389 1.67207,0.47186 2.60471,-0.75088 z m -2.88064,-15.64921 c 0.39179,-0.48233 0.3579,-0.51772 -0.25323,-0.26451 -0.38806,0.16078 -1.1405,0.36704 -1.6721,0.45834 -0.53159,0.0913 -0.89577,0.28051 -0.80928,0.42045 0.26321,0.42589 2.25271,-0.021 2.73461,-0.61428 z m 6.97331,-39.49488 c 0.003,-0.43656 -0.13614,-0.79375 -0.30913,-0.79375 -0.41424,0 -0.83039,1.69117 -0.53411,2.17056 0.31314,0.50668 0.83623,-0.3474 0.84324,-1.37681 z m -19.50889,-34.57222 c -0.10659,-0.33954 -0.42243,-1.41111 -0.70186,-2.38125 -0.27943,-0.97013 -0.93755,-2.55763 -1.46249,-3.52777 -1.08075,-1.99732 -1.08243,-2.00682 0.51214,2.91041 0.64493,1.98879 1.32411,3.61598 1.5093,3.61598 0.18519,0 0.2495,-0.27782 0.14291,-0.61737 z m 16.33929,-7.16457 c 0,-0.3995 -0.15875,-0.62826 -0.35278,-0.50834 -0.19403,0.11991 -0.35278,0.44678 -0.35278,0.72637 0,0.2796 0.15875,0.50835 0.35278,0.50835 0.19403,0 0.35278,-0.32687 0.35278,-0.72638 z m 6.55839,-13.64672 c -0.24466,-0.24464 -0.91395,0.25243 -0.91395,0.67878 0,0.23393 0.20242,0.20717 0.5377,-0.0711 0.29573,-0.24543 0.46504,-0.51889 0.37625,-0.60769 z M 91.208987,168.83419 c 1.940278,-0.14778 3.884965,-0.28552 4.321528,-0.30608 0.461327,-0.0217 0.79375,-0.26363 0.79375,-0.57762 0,-0.66365 -1.138061,-1.16085 -1.331158,-0.58156 -0.209867,0.62959 -2.830135,0.49844 -4.018005,-0.20112 -0.998378,-0.58796 -1.064803,-0.58796 -1.394876,0 -0.538762,0.95971 -2.385878,0.75496 -4.015683,-0.44513 -1.478665,-1.0888 -2.241497,-1.48748 -3.704167,-1.93589 l -0.881944,-0.27038 0.696615,0.77959 c 0.383139,0.42878 1.541506,1.1793 2.57415,1.66782 1.235936,0.58469 1.85801,1.08776 1.8204,1.47215 -0.10384,1.06126 0.01626,1.198 0.817862,0.93115 0.436563,-0.14533 2.38125,-0.38515 4.321528,-0.53293 z m 13.424553,0.33136 c 0.36355,-0.58823 -0.4541,-1.26277 -0.94076,-0.77611 -0.40707,0.40708 -0.1523,1.15962 0.3926,1.15962 0.17112,0 0.4178,-0.17258 0.54816,-0.38351 z m 6.4192,0.16116 c 0.43656,-0.11699 0.79375,-0.31442 0.79375,-0.43872 0,-0.21036 -2.05693,-1.62311 -4.19324,-2.88002 -0.50712,-0.29837 -1.55704,-0.93697 -2.33315,-1.41912 -2.15257,-1.33725 -3.3287,-1.88285 -3.56006,-1.65149 -0.25418,0.25418 2.5054,2.31388 3.73645,2.78881 1.84558,0.71202 4.23333,2.49106 4.23333,3.15412 0,0.72539 0.12479,0.76751 1.32292,0.44642 z m -32.522984,-1.02359 c -0.376633,-0.28487 -0.828377,-0.51794 -1.003875,-0.51794 -0.175498,0 -0.765745,-0.31805 -1.311659,-0.70678 -0.55808,-0.39739 -1.244756,-0.61 -1.568674,-0.4857 -0.884829,0.33954 -0.448409,0.97333 0.892468,1.29608 0.663895,0.1598 1.603958,0.4231 2.089027,0.58511 1.357724,0.45347 1.65394,0.39743 0.902713,-0.17077 z m 35.282764,-0.34913 c -0.37389,-0.28287 -0.76617,-0.42794 -0.87173,-0.32238 -0.22143,0.22144 0.67455,0.85114 1.19875,0.8425 0.19403,-0.003 0.0469,-0.23726 -0.32702,-0.52012 z m -13.870783,-0.78618 c 0.303513,-0.33954 0.605923,-1.16169 0.672043,-1.82699 0.1116,-1.12299 -0.006,-1.28372 -1.643682,-2.24424 -0.970139,-0.56905 -1.863108,-1.1926 -1.984375,-1.38568 -0.139164,-0.22158 -0.315874,-0.19671 -0.479111,0.0674 -0.157917,0.25552 0.39781,1.02977 1.427166,1.98835 1.287569,1.19904 1.588249,1.66742 1.272859,1.98281 -0.473722,0.47372 -0.561828,2.03571 -0.114827,2.03571 0.163957,0 0.546427,-0.27782 0.849927,-0.61737 z m 18.960303,0.32065 c 0,-0.16319 -0.79375,-0.72872 -1.76388,-1.25673 -0.97014,-0.52802 -1.76389,-0.79138 -1.76389,-0.58524 0,0.20614 0.15875,0.3748 0.35277,0.3748 0.19403,0 0.35278,0.30427 0.35278,0.67616 0,0.37188 0.19844,0.75622 0.44097,0.85409 0.73573,0.29687 2.38125,0.25328 2.38125,-0.0631 z m -24.341664,-1.1144 c 0,-0.19402 -0.16812,-0.35277 -0.373599,-0.35277 -0.205479,0 -0.275484,0.15875 -0.155568,0.35277 0.119916,0.19403 0.288036,0.35278 0.373599,0.35278 0.08556,0 0.155568,-0.15875 0.155568,-0.35278 z m 26.811114,-0.28222 c 0,-0.58592 -0.88232,-1.12889 -1.83445,-1.12889 -1.01365,0 -1.40049,0.83301 -0.5468,1.17748 0.7195,0.29032 2.38125,0.25642 2.38125,-0.0486 z m -43.664252,-1.0564 c -0.440962,-0.33091 -1.375604,-1.03822 -2.076981,-1.57179 -1.263832,-0.96147 -2.404176,-1.28904 -2.177751,-0.62558 0.162015,0.47474 3.875378,2.75397 4.527315,2.77883 0.35383,0.0135 0.263511,-0.17917 -0.272583,-0.58146 z m 46.486472,0.0928 c 0,-0.5687 -0.93894,-1.10785 -1.30021,-0.74659 -0.25126,0.25126 0.54595,1.28683 0.99063,1.28683 0.17027,0 0.30958,-0.24311 0.30958,-0.54024 z m -53.124751,-0.9059 c -0.333753,-0.36879 -0.899719,-0.67053 -1.257703,-0.67053 -0.357983,0 -0.650879,-0.15875 -0.650879,-0.35278 0,-0.19402 -0.166639,-0.35277 -0.370308,-0.35277 -0.596495,0 0.13883,1.03349 1.257398,1.76726 1.214047,0.7964 1.86919,0.54552 1.021492,-0.39118 z m 20.669195,0.24916 c 0,-0.0763 -0.24637,-0.23319 -0.54749,-0.34874 -0.313944,-0.12047 -0.455549,-0.0613 -0.331957,0.13865 0.207172,0.33521 0.879447,0.49581 0.879447,0.21009 z m 4.586111,0.0169 c 0,-0.0669 -0.3175,-0.40904 -0.705556,-0.76023 -0.831345,-0.75236 -0.95759,-0.47882 -0.15119,0.32758 0.529622,0.52962 0.856746,0.69482 0.856746,0.43265 z m 17.638895,-0.0306 c 0,-0.29879 -2.16076,-1.68503 -2.34277,-1.50302 -0.28525,0.28525 1.21584,1.65539 1.8136,1.65539 0.29104,0 0.52917,-0.0686 0.52917,-0.15237 z m -27.006129,-1.28888 c -0.113584,-0.18378 -0.356888,-0.24122 -0.540674,-0.12763 -0.183787,0.11358 -0.241223,0.35689 -0.127635,0.54067 0.113583,0.18379 0.356887,0.24123 0.540674,0.12764 0.183786,-0.11359 0.241222,-0.35689 0.127635,-0.54068 z m 12.595146,-2.52102 c -0.999242,-1.01508 -1.816801,-2.04392 -1.816801,-2.28633 0,-0.24241 -0.436563,-0.54672 -0.970139,-0.67626 -0.533576,-0.12954 -1.54861,-0.68818 -2.255626,-1.24144 -0.707019,-0.55326 -1.441644,-1.00593 -1.6325,-1.00593 -0.190856,0 -0.55426,-0.24972 -0.807568,-0.55493 -0.253305,-0.30522 -1.423681,-0.99194 -2.600833,-1.52606 -1.181492,-0.53608 -2.878466,-1.70979 -3.788121,-2.62006 -0.906314,-0.90692 -1.869874,-1.64894 -2.141245,-1.64894 -0.271367,0 -0.850923,-0.4112 -1.287898,-0.91376 -0.743784,-0.85543 -0.749712,-0.89954 -0.09286,-0.69106 0.567905,0.18024 0.667289,0.0913 0.521402,-0.46656 -0.142531,-0.54504 -0.60754,-0.73885 -2.222457,-0.92628 -1.648573,-0.19133 -2.42802,-0.52559 -4.043795,-1.73414 -1.665161,-1.24549 -3.372809,-3.23007 -3.372809,-3.91979 0,-0.29087 1.254655,-0.18193 1.605139,0.13937 0.184326,0.16898 0.771701,0.41013 1.305278,0.53589 1.188517,0.28013 1.299469,-0.37223 0.27175,-1.59779 -0.553814,-0.66042 -0.763615,-0.734 -1.013469,-0.35543 -0.245657,0.3722 -0.480427,0.3889 -1.0655,0.0758 -0.839891,-0.4495 -1.017767,-1.43512 -0.258997,-1.43512 0.270283,0 0.582801,-0.23813 0.694484,-0.52917 0.111683,-0.29104 0.446168,-0.52917 0.743299,-0.52917 0.868867,0 0.626377,-0.59617 -0.596738,-1.46711 -0.660864,-0.47057 -1.510293,-0.76172 -2.028472,-0.69527 -1.194545,0.15319 -1.308024,0.32151 -0.577109,0.85597 0.538007,0.3934 0.565585,0.64903 0.218653,2.02683 -0.218352,0.86715 -0.348237,2.50063 -0.288633,3.62995 l 0.108371,2.0533 1.707147,0.73731 c 0.938931,0.40552 2.14319,1.14751 2.676131,1.64886 0.532942,0.50136 1.615522,1.29148 2.405735,1.75584 0.790213,0.46436 2.030736,1.37273 2.756717,2.0186 0.725982,0.64587 1.851747,1.34982 2.501701,1.56432 0.649954,0.2145 1.181735,0.5199 1.181735,0.67865 0,0.15876 0.833437,0.81425 1.852083,1.45665 1.018646,0.6424 2.487083,1.65991 3.263195,2.26114 0.776111,0.60122 1.847673,1.27939 2.381249,1.50704 0.533577,0.22765 0.970139,0.57908 0.970139,0.78097 0,0.22244 -0.382227,0.27411 -0.970139,0.13113 -0.962518,-0.23408 -0.964981,-0.23011 -0.313238,0.50572 0.469209,0.52974 0.923653,0.6883 1.590513,0.55493 0.647636,-0.12953 1.202845,0.048 1.812544,0.57955 0.483411,0.42146 1.355181,1.01141 1.937265,1.31101 0.582083,0.2996 1.137708,0.6552 1.234727,0.79024 0.24185,0.33661 1.516143,1.04328 1.904983,1.05642 0.17463,0.006 -0.50006,-0.81979 -1.499303,-1.83487 z m 6.297093,1.68162 c 0,-0.0902 -0.35719,-0.3543 -0.79375,-0.58692 -0.71975,-0.38351 -0.74861,-0.36822 -0.30959,0.16398 0.45079,0.54646 1.10334,0.7966 1.10334,0.42294 z m 16.90264,-1.37732 c -0.66222,-0.59169 -1.22388,-1.20133 -1.24813,-1.35475 -0.0242,-0.15343 -0.0639,-0.41359 -0.0882,-0.57815 -0.0242,-0.16456 -0.6791,-0.58555 -1.45521,-0.93552 -0.77611,-0.34998 -1.41111,-0.77097 -1.41111,-0.93552 0,-0.16456 -0.16776,-0.2992 -0.37278,-0.2992 -0.21465,0 -0.15111,0.31648 0.14977,0.74605 0.28741,0.41033 0.44912,0.93744 0.35936,1.17135 -0.0906,0.23616 0.58798,0.83643 1.52592,1.34978 0.92901,0.50846 1.97116,1.25811 2.31587,1.66588 0.34473,0.40777 0.80716,0.62991 1.02765,0.49364 0.25968,-0.16049 -0.0232,-0.62668 -0.80315,-1.32356 z m -45.707482,-0.0207 c -0.552687,-0.66509 -1.217902,-1.22071 -1.478256,-1.23472 -0.553673,-0.0298 -2.185439,-1.20518 -3.586078,-2.58311 -1.129913,-1.1116 -1.408606,-1.19434 -1.408606,-0.4182 0,0.6229 1.26198,1.75678 4.387524,3.94217 2.622849,1.8339 3.463642,1.95238 2.085416,0.29386 z m 49.263202,0.76828 c -0.003,-0.50265 -1.68043,-1.38614 -1.91401,-1.00819 -0.21254,0.34389 0.22444,0.95069 0.85842,1.19203 0.84702,0.32242 1.05851,0.28559 1.05559,-0.18384 z m -10.58059,-0.11984 c 0,-0.28181 -1.51548,-1.52945 -1.87562,-1.54412 -0.56714,-0.0231 -2.71049,-1.86869 -2.71049,-2.33394 0,-0.53743 -2.378,-2.26391 -3.11824,-2.26391 -0.28947,0 -0.40189,0.21665 -0.27883,0.53733 0.17167,0.44737 0.0814,0.47055 -0.53908,0.13847 -0.52273,-0.27975 -0.61833,-0.47731 -0.32016,-0.66159 0.50667,-0.31315 -1.12636,-1.79971 -2.78221,-2.53266 -1.02464,-0.45355 -1.49274,-1.3621 -0.70177,-1.3621 0.20548,0 0.2656,-0.17474 0.13361,-0.38832 -0.13622,-0.2204 -0.67777,-0.30076 -1.25239,-0.18584 -0.67034,0.13407 -0.98367,0.0641 -0.92736,-0.20719 0.0468,-0.22533 -0.47058,-0.51076 -1.14968,-0.63429 -0.679093,-0.12354 -2.04603,-0.72868 -3.037628,-1.34477 -0.991598,-0.61608 -2.059947,-1.12015 -2.37411,-1.12015 -0.314163,0 -1.182292,-0.24451 -1.929179,-0.54335 -1.039414,-0.41589 -1.587994,-0.4559 -2.338536,-0.17054 -0.81468,0.30974 -0.90709,0.46134 -0.546251,0.89613 0.529078,0.6375 1.645112,0.68721 1.848576,0.0824 0.227958,-0.67767 3.004552,0.84289 5.026216,2.75253 0.943218,0.89095 2.321159,1.92918 3.062089,2.30718 0.740943,0.378 1.347163,0.81465 1.347163,0.97034 0,0.15569 0.75406,0.65802 1.67569,1.11629 0.92163,0.45826 2.46945,1.30232 3.43958,1.8757 7.38285,4.36342 9.34861,5.33413 9.34861,4.61645 z m -11.11,-6.84348 c -0.12359,-0.19998 0.018,-0.25912 0.33196,-0.13865 0.61116,0.23453 0.72298,0.48739 0.21553,0.48739 -0.18257,0 -0.42895,-0.15694 -0.54749,-0.34874 z m -24.884416,5.7286 c -0.0061,-0.33955 -0.402973,-0.90259 -0.881945,-1.25119 l -0.870858,-0.63383 v 1.04893 c 0,0.96899 0.268763,1.2222 1.499305,1.41253 0.145521,0.0225 0.259595,-0.23689 0.253498,-0.57644 z m 14.298585,-0.44097 c -0.353338,-0.39044 -0.721808,-0.63051 -0.818822,-0.5335 -0.09701,0.097 0.112706,0.49584 0.466044,0.88627 0.353339,0.39044 0.721808,0.63051 0.818822,0.53349 0.09701,-0.097 -0.112705,-0.49583 -0.466044,-0.88626 z m -25.932504,-1.70373 c -0.01467,-1.10024 -0.02593,-4.05697 -0.02501,-6.57049 9.18e-4,-2.51353 -0.07435,-4.64608 -0.167262,-4.73899 -0.601287,-0.60128 -0.886517,1.14432 -0.92029,5.63215 -0.02106,2.7984 -0.180191,5.36419 -0.353627,5.70177 -0.357938,0.69668 0.617644,2.51691 1.167004,2.17739 0.179222,-0.11076 0.313854,-1.10159 0.299185,-2.20183 z m 16.231116,2.09101 c 0,-0.17504 -0.464496,-0.48019 -1.03221,-0.67809 -0.567715,-0.19791 -1.300348,-0.76907 -1.628073,-1.26924 -0.327725,-0.50017 -0.799778,-0.9094 -1.049007,-0.9094 -0.249228,0 -1.278798,-0.55562 -2.287932,-1.23472 -1.009135,-0.6791 -2.017275,-1.22827 -2.240312,-1.22039 -0.572436,0.0203 1.778184,1.97005 3.172911,2.63189 0.638855,0.30316 1.285683,0.76512 1.437394,1.02658 0.271729,0.46829 2.831711,1.97164 3.357421,1.97164 0.148396,0 0.269808,-0.14322 0.269808,-0.31827 z m 41.274999,-1.5964 c 0,-0.60407 -1.64734,-1.96588 -2.37806,-1.96588 -0.28546,0 -1.09749,-0.45329 -1.80451,-1.00729 -1.60609,-1.25851 -2.65526,-1.81494 -3.42215,-1.81494 -1.05306,0 0.13068,1.01638 2.67751,2.29894 1.28993,0.6496 2.61242,1.58871 2.93885,2.08691 0.63335,0.96662 1.98836,1.24075 1.98836,0.40226 z m -23.63611,-0.16012 c 0,-0.43501 -2.319173,-2.15854 -2.904519,-2.15854 -0.265183,0 -0.672649,-0.1905 -0.905482,-0.42334 -0.318611,-0.31861 -0.423333,-0.32092 -0.423333,-0.009 0,0.40003 3.417654,2.90215 3.964044,2.90215 0.14811,0 0.26929,-0.13991 0.26929,-0.3109 z m 4.93889,-0.0591 c 0,-0.45885 -2.85187,-1.76996 -3.27761,-1.50684 -0.34498,0.21321 2.14111,1.84849 2.83664,1.86585 0.24253,0.006 0.44097,-0.1555 0.44097,-0.35901 z m -29.78397,-0.5195 c -0.373892,-0.28286 -0.76617,-0.42793 -0.871728,-0.32237 -0.221436,0.22143 0.674545,0.85114 1.198752,0.84249 0.194028,-0.003 0.04687,-0.23725 -0.327024,-0.52012 z m 53.54027,-0.68329 c 0.39885,-0.30222 0.57119,-0.7402 0.44674,-1.13531 -0.11144,-0.35379 -0.28998,-3.0204 -0.39675,-5.92579 -0.19312,-5.25486 -0.7358,-9.18276 -1.78026,-12.88553 -0.30102,-1.06715 -0.64089,-4.11837 -0.75527,-6.78048 -0.21444,-4.99095 0.0159,-6.39114 1.50447,-9.14571 0.44075,-0.81558 0.43811,-0.95852 -0.0209,-1.13467 -0.67509,-0.25906 -1.93735,-2.32296 -1.93906,-3.17055 -7.1e-4,-0.35873 -0.21571,-1.15248 -0.47774,-1.76388 -1.97905,-4.61785 -2.7181,-6.56812 -2.89439,-7.63804 -0.52327,-3.17567 -0.42579,-3.06879 -1.57504,-1.72707 -1.37761,1.60832 -1.60746,2.38257 -0.86786,2.92338 0.56207,0.41099 0.55849,0.48071 -0.0562,1.095 -1.30775,1.30691 -2.94954,3.8975 -2.94954,4.6541 0,0.42573 -0.15875,0.87217 -0.35278,0.99209 -0.66259,0.40951 -0.36827,2.23998 0.51308,3.19098 0.47623,0.51385 1.05494,1.51422 1.28603,2.22303 0.23109,0.70882 0.71458,1.66736 1.07442,2.13009 0.35984,0.46273 0.65425,1.31142 0.65425,1.88598 0,1.28973 0.99364,4.84586 1.55438,5.56297 1.35071,1.72738 2.67471,6.60487 2.68134,9.87778 0.002,0.87312 0.39883,3.48896 0.88236,5.81298 0.48353,2.32401 0.88477,4.70526 0.89165,5.29167 0.007,0.5864 0.23937,1.46306 0.51666,1.94813 0.27729,0.48507 0.50979,1.3849 0.51666,1.99961 0.0138,1.23254 0.31638,2.23987 0.66761,2.2225 0.12476,-0.006 0.51905,-0.23264 0.8762,-0.50326 z m -55.859079,-0.82295 c 0,-0.54258 -2.855475,-2.8959 -3.513834,-2.8959 -0.367271,0 -0.740365,-0.27782 -0.829098,-0.61737 -0.123656,-0.47318 -0.170891,-0.43546 -0.202256,0.16152 -0.02987,0.56854 0.379713,1.02539 1.516642,1.69168 0.856661,0.50203 1.749224,1.14373 1.983474,1.42598 0.460168,0.55447 1.045072,0.68548 1.045072,0.23409 z m 15.169444,-0.26807 c 0,-0.10692 -0.515938,-0.41073 -1.146528,-0.67513 -0.63059,-0.26441 -2.225347,-1.28818 -3.543903,-2.27505 -1.318556,-0.98688 -2.53078,-1.79432 -2.693829,-1.79432 -0.163048,0 -1.247371,-0.635 -2.409607,-1.41111 -2.585497,-1.72653 -3.597513,-1.82849 -1.67141,-0.16839 1.490266,1.28445 1.259203,1.72612 -0.272652,0.52117 -0.951792,-0.74868 -2.020404,-0.93761 -2.020404,-0.35721 0,0.35862 2.137863,1.80843 3.300613,2.23835 0.492165,0.18197 0.600012,0.46031 0.434251,1.12075 -0.192862,0.76843 -0.104898,0.87866 0.701164,0.87866 0.625005,0 0.981084,0.22712 1.106199,0.70556 0.201509,0.77057 1.366777,0.96882 1.599036,0.27204 0.106143,-0.31843 0.391572,-0.27161 1.075319,0.17639 0.511948,0.33545 1.114591,0.6099 1.339201,0.6099 0.654936,0 -0.322806,-0.99448 -1.578687,-1.60571 -1.581253,-0.7696 -2.49642,-1.52311 -2.204457,-1.81508 0.333169,-0.33317 2.998341,1.13787 4.697223,2.59262 0.794681,0.68048 1.746493,1.15989 2.318332,1.1677 0.533576,0.007 0.970139,-0.0742 0.970139,-0.18114 z m 21.919385,-0.38131 c -0.65317,-0.28498 -1.27153,-0.4342 -1.37414,-0.33158 -0.22576,0.22576 1.29211,0.86512 2.03253,0.85614 0.29105,-0.004 -0.005,-0.23958 -0.65839,-0.52456 z m 11.94728,-0.4902 c 0,-0.19819 -0.39687,-0.54117 -0.88194,-0.76218 -0.48507,-0.22101 -0.88195,-0.51991 -0.88195,-0.66422 0,-0.24192 -4.65654,-2.79937 -5.09703,-2.79937 -0.10705,0 -0.19463,0.14211 -0.19463,0.31581 0,0.17369 0.83344,0.74648 1.85208,1.27287 1.01865,0.52639 2.16958,1.23572 2.55764,1.5763 1.38319,1.21394 2.64583,1.72017 2.64583,1.06079 z m -44.542392,-0.94158 c -0.328,-0.328 -0.695414,-0.49731 -0.816477,-0.37625 -0.347197,0.34721 0.185804,0.97262 0.828897,0.97262 0.538506,0 0.53754,-0.0464 -0.01242,-0.59637 z m 15.822102,-0.65159 c -0.759005,-0.67022 -2.187755,-1.67683 -3.175,-2.23691 -0.987242,-0.56008 -2.217797,-1.41353 -2.734571,-1.89656 -0.51677,-0.48304 -1.429152,-1.04891 -2.027509,-1.2575 -0.598361,-0.20859 -1.643987,-0.80338 -2.323613,-1.32176 -1.557585,-1.18803 -1.641242,-0.52613 -0.08915,0.70539 0.869865,0.6902 1.033162,0.98235 0.676733,1.21073 -0.338634,0.21696 0.323004,0.85653 2.369923,2.29084 2.814926,1.97247 3.567927,2.31797 3.567927,1.63706 0,-0.63268 0.85187,-0.32844 2.469444,0.88194 2.093602,1.56658 3.043668,1.55665 1.26582,-0.0132 z m -7.364896,-3.32933 c -0.817107,-0.77126 -1.314425,-1.40626 -1.105154,-1.41112 0.544396,-0.0126 3.676453,2.11197 3.676453,2.49387 0,0.72767 -1.179435,0.23102 -2.571299,-1.08275 z m -10.128701,2.8334 c 0,-0.60325 -1.548135,-1.43111 -2.676222,-1.43111 -0.728511,0 -1.428561,-0.32044 -2.043517,-0.9354 -0.959889,-0.95989 -1.529738,-0.93636 -1.152169,0.0476 0.27048,0.70486 3.725785,2.31317 5.607325,2.60999 0.145521,0.023 0.264583,-0.10801 0.264583,-0.29104 z m 29.633337,-0.36037 c 0,-0.38666 -1.14704,-1.07074 -1.79538,-1.07074 -0.26971,0 -0.19203,0.26366 0.20788,0.70555 0.66788,0.738 1.5875,0.94955 1.5875,0.36519 z m 4.23333,-0.71797 c -0.43752,-0.8175 -1.05833,-0.93615 -1.05833,-0.20225 0,0.27681 0.27781,0.5759 0.61736,0.66463 0.33955,0.0887 0.66263,0.17975 0.71797,0.20226 0.0553,0.0225 -0.0693,-0.27658 -0.277,-0.66464 z m 0.49673,-1.94027 c -0.31783,-0.48507 -0.71837,-0.88195 -0.89008,-0.88195 -0.55457,0 -0.3312,1.01221 0.30516,1.38286 1.01345,0.59027 1.19693,0.43314 0.58492,-0.50091 z m 10.98932,-0.0112 c -0.37664,-0.28487 -0.85289,-0.5129 -1.05834,-0.50673 -0.20545,0.006 -0.0654,0.2443 0.31125,0.52917 0.37663,0.28487 0.85288,0.5129 1.05833,0.50673 0.20545,-0.006 0.0654,-0.2443 -0.31124,-0.52917 z m -48.527717,-1.20861 c 0,-0.14431 -0.160445,-0.72264 -0.356543,-1.28517 -0.301538,-0.86499 -0.54645,-1.02278 -1.5875,-1.02278 -0.677026,0 -1.254769,0.11906 -1.283873,0.26458 -0.155686,0.77843 -0.02206,0.99127 1.11125,1.77001 1.137501,0.78161 2.116666,0.90807 2.116666,0.27336 z m 39.428207,0.24969 c -0.0779,-0.24254 -1.00397,-0.94337 -2.05787,-1.55741 -1.05389,-0.61403 -2.19398,-1.3681 -2.53353,-1.67569 -0.33955,-0.30759 -1.03367,-0.55926 -1.5425,-0.55926 -0.76816,0 -0.85311,0.0868 -0.50062,0.51151 0.23349,0.28134 1.13884,0.85732 2.0119,1.27996 0.87306,0.42264 1.67605,0.99949 1.78442,1.28189 0.35501,0.92516 3.13037,1.62824 2.8382,0.719 z m -11.20598,-0.58252 c 0,-0.61941 -0.9594,-1.4026 -3.514393,-2.86891 -0.518483,-0.29755 -1.408288,-0.9029 -1.977346,-1.34522 -2.335664,-1.81545 -3.499224,-2.75947 -4.781042,-3.87895 -0.742527,-0.64848 -1.542997,-1.11475 -1.778826,-1.03614 -0.241176,0.0804 0.328835,0.82779 1.302809,1.70824 0.952373,0.86092 2.325348,2.16062 3.051058,2.88822 0.72571,0.72761 1.437337,1.32292 1.581394,1.32292 0.144053,0 0.745726,0.46686 1.337045,1.03748 2.608801,2.51746 4.779301,3.50403 4.779301,2.17236 z m 14.26971,-0.28043 c -0.98064,-0.69752 -2.95131,-2.06325 -4.40128,-3.05023 -0.68424,-0.46575 -1.76193,-0.96056 -2.39487,-1.09958 -0.63294,-0.13901 -1.87632,-0.80656 -2.76307,-1.48343 -0.88675,-0.67687 -1.55531,-1.07793 -1.48569,-0.89124 0.12829,0.34401 3.34424,2.88951 3.65057,2.88951 0.0916,0 1.06647,0.57571 2.16645,1.27936 1.09998,0.70366 2.41275,1.39019 2.91727,1.52563 0.50451,0.13545 0.93867,0.47255 0.9648,0.74911 0.0261,0.27657 0.0658,0.5999 0.0882,0.71851 0.0224,0.11861 0.46925,0.13374 0.99304,0.0336 0.91519,-0.17495 0.92552,-0.20114 0.26459,-0.67125 z m -9.6836,-0.0245 c 0,-0.14855 -1.04653,-0.95329 -2.32562,-1.78832 -2.10154,-1.37196 -2.27666,-1.57537 -1.81751,-2.11117 1.33809,-1.56146 0.76961,-2.77447 -1.79682,-3.83397 -0.7106,-0.29336 -1.609503,-0.79539 -1.997553,-1.11561 -0.689364,-0.56887 -0.691386,-0.5654 -0.0882,0.1511 1.155833,1.37296 0.57696,2.17388 -0.617357,0.85417 -0.351187,-0.38806 -0.839858,-0.70556 -1.085942,-0.70556 -0.246083,0 -0.913779,-0.39241 -1.483765,-0.87202 -0.569987,-0.47961 -1.415606,-1.03721 -1.879152,-1.23911 -1.500939,-0.65374 -3.28205,-1.82347 -4.636184,-3.04479 -0.728165,-0.65674 -1.533927,-1.19408 -1.790591,-1.19408 -0.25666,0 -0.839498,-0.39687 -1.295199,-0.88194 -0.4557,-0.48507 -1.019559,-0.88194 -1.253021,-0.88194 -0.233461,0 -0.622102,-0.23813 -0.863645,-0.52917 -0.528433,-0.63672 -1.058334,-0.68929 -1.058334,-0.10499 0,0.53186 2.123169,2.75082 2.632068,2.75082 0.679835,0 3.111701,1.45616 4.126304,2.47077 0.546707,0.5467 1.472226,1.20569 2.056709,1.4644 0.584482,0.25872 1.062697,0.5543 1.062697,0.65684 0,0.10254 0.547236,0.48114 1.216078,0.84133 0.689451,0.3713 1.367098,1.08813 1.56482,1.65531 0.345182,0.99019 1.732922,1.68236 2.465383,1.22968 0.191121,-0.11812 1.063561,0.2685 1.938754,0.85916 1.22847,0.82909 1.61629,1.32298 1.70103,2.16629 0.0923,0.91891 0.38983,1.22993 1.87366,1.95893 0.97014,0.47662 2.00201,1.00291 2.29306,1.16953 0.67896,0.38869 1.05833,0.41534 1.05833,0.0743 z m -10.068677,-6.80894 c -0.384292,-0.6218 0.02081,-0.70898 0.745814,-0.16049 0.596855,0.45154 0.607015,0.51567 0.08326,0.52552 -0.328097,0.006 -0.701181,-0.15809 -0.829077,-0.36503 z m 23.121457,6.36474 c 0,-0.4373 -0.342,-0.84431 -0.88195,-1.0496 -0.48507,-0.18442 -0.88194,-0.49301 -0.88194,-0.68575 0,-0.41923 0.74445,-0.15783 2.64583,0.92899 1.59893,0.91395 2.29306,1.02275 2.29306,0.35942 0,-0.77786 -3.72096,-2.36572 -5.56407,-2.3744 -1.10193,-0.005 -1.96714,-0.2398 -2.54982,-0.69146 l -0.88195,-0.68362 0.88195,0.22348 c 0.8037,0.20364 0.83732,0.16909 0.37895,-0.38955 -0.33299,-0.40584 -0.7801,-0.54347 -1.32292,-0.40723 -0.63297,0.15886 -0.81992,0.0595 -0.81992,-0.43594 0,-0.65356 -0.62698,-1.48839 -1.11782,-1.48839 -0.14913,0 -0.17977,0.23813 -0.0681,0.52917 0.28436,0.74104 -0.7749,0.68128 -1.56332,-0.0882 -0.59798,-0.58361 -2.82709,-1.91058 -4.56816,-2.71936 -0.43505,-0.2021 -0.79224,-0.61471 -0.79375,-0.91692 -0.003,-0.61592 -1.9668,-1.57297 -3.9715,-1.93559 -1.670333,-0.30214 -1.716803,0.22628 -0.0882,1.0029 1.58996,0.75821 1.6434,1.47136 0.0882,1.17686 l -1.14653,-0.21711 1.52313,1.4427 c 0.83773,0.79349 1.58908,1.37677 1.66967,1.29618 0.0806,-0.0806 0.004,-0.64539 -0.17141,-1.25511 -0.31581,-1.10117 -0.31046,-1.10714 0.79978,-0.89219 0.61475,0.11902 1.56646,0.58871 2.11493,1.04375 0.54846,0.45505 1.18698,0.82736 1.41892,0.82736 0.23195,0 1.0032,0.4793 1.71389,1.06511 0.71069,0.58581 2.2153,1.54959 3.34358,2.14172 1.12827,0.59213 2.3689,1.37106 2.75696,1.73095 0.38805,0.3599 1.15774,0.76664 1.71041,0.90386 0.67326,0.16716 1.12121,0.58325 1.35743,1.26087 0.41953,1.20346 1.69466,1.42701 1.69466,0.29709 z m -44.802783,-1.8938 c 0,-0.0763 -0.246371,-0.23319 -0.54749,-0.34874 -0.313945,-0.12047 -0.455549,-0.0613 -0.331958,0.13864 0.207172,0.33522 0.879448,0.49582 0.879448,0.2101 z m 19.994117,-0.40016 c 0.06635,-0.19933 -0.317366,-0.5581 -0.85271,-0.79726 -0.535344,-0.23916 -1.745357,-0.98888 -2.688914,-1.66605 -1.769043,-1.2696 -2.815731,-1.65517 -1.837415,-0.67685 0.753558,0.75355 0.696563,1.20952 -0.15119,1.20952 -0.869167,0 -0.932282,0.65753 -0.08819,0.91877 0.339549,0.10509 0.874801,0.32685 1.189451,0.49281 0.332623,0.17544 0.714657,0.15917 0.912692,-0.0389 0.41982,-0.41982 2.219385,0.19729 2.219385,0.76108 0,0.47615 1.129676,0.29919 1.296896,-0.20316 z m -7.649305,-0.0786 c -0.0038,-0.42229 -2.395273,-1.9348 -2.830001,-1.78989 -0.612662,0.20422 1.287611,2.05448 2.11001,2.05448 0.397319,0 0.721317,-0.11907 0.719991,-0.26459 z M 73.442822,144.4715 c -0.989605,-0.80229 -1.460223,-0.85883 -1.460223,-0.17542 0,0.48589 1.763312,1.3265 2.116666,1.00907 0.09701,-0.0872 -0.198385,-0.4623 -0.656443,-0.83365 z m 8.241165,-0.32241 c -0.119915,-0.19403 -0.456153,-0.35278 -0.747195,-0.35278 -0.291042,0 -0.431054,0.15875 -0.311138,0.35278 0.119916,0.19402 0.456154,0.35277 0.747195,0.35277 0.291042,0 0.431054,-0.15875 0.311138,-0.35277 z m 40.280253,-0.48163 c -0.42132,-0.64303 -0.45086,-0.93029 -0.12876,-1.25246 0.25522,-0.25528 0.43273,-1.68168 0.45591,-3.66351 0.0209,-1.785 0.1431,-3.48727 0.27162,-3.78282 0.16667,-0.38328 -0.0866,-0.65826 -0.88339,-0.959 -1.4216,-0.5366 -1.74768,-0.32153 -1.4872,0.98087 0.16338,0.81688 0.0832,1.04466 -0.36779,1.04466 -0.31719,0 -0.84857,-0.3175 -1.18083,-0.70556 -0.59299,-0.69256 -1.50987,-0.96187 -1.50128,-0.44097 0.002,0.14552 0.56406,0.62718 1.24812,1.07035 1.23381,0.79934 1.39894,1.66305 0.23552,1.23185 -0.33333,-0.12354 -0.0108,0.3947 0.71686,1.15165 1.23133,1.281 1.69049,2.27879 1.04863,2.27879 -0.37356,0 -1.93726,-1.09606 -2.37155,-1.66232 -0.19403,-0.25299 -0.8546,-0.73652 -1.46794,-1.07452 -0.61333,-0.338 -1.8933,-1.03873 -2.84438,-1.55717 -0.95107,-0.51844 -1.93712,-1.19313 -2.19123,-1.4993 -0.25411,-0.30618 -0.62851,-0.55669 -0.832,-0.55669 -0.2035,0 -0.66032,-0.26273 -1.01514,-0.58384 -0.35483,-0.32112 -0.64233,-0.44018 -0.6389,-0.26459 0.007,0.3541 1.01262,1.242 3.78612,3.34264 1.01864,0.77151 1.85209,1.5975 1.85209,1.83552 2e-5,0.66435 2.32985,2.37237 3.24434,2.37845 1.06593,0.007 1.84725,0.52044 1.54253,1.01349 -0.14833,0.23999 0.0438,0.39222 0.49504,0.39222 0.4056,0 0.83648,0.27781 0.95753,0.61736 0.30766,0.86305 0.83925,1.4993 1.25265,1.4993 0.19259,0 0.10413,-0.37548 -0.19657,-0.8344 z m -33.909485,-1.11709 c -0.891307,-0.67415 -1.465594,-0.66702 -0.902712,0.0112 0.241543,0.29104 0.697544,0.52412 1.013333,0.51795 0.48236,-0.009 0.464675,-0.094 -0.110621,-0.52917 z m -5.665212,-0.35948 c -0.388056,-0.28855 -0.97081,-0.74745 -1.29501,-1.01977 -1.746859,-1.4673 -3.151441,-1.53653 -1.668858,-0.0823 1.108861,1.08768 2.092617,1.62777 2.963868,1.62716 l 0.705555,-3.5e-4 -0.705555,-0.52465 z m -13.819839,-0.59944 c 1.324069,-5.3313 1.464267,-6.26181 0.94345,-6.26181 -0.194027,0 -0.352777,0.5203 -0.352777,1.15623 0,0.63593 -0.214445,1.46936 -0.476545,1.85208 -0.56473,0.82463 -1.055353,4.04725 -0.616166,4.04725 0.167697,0 0.393614,-0.35719 0.502038,-0.79375 z m 16.986542,-0.7569 c -0.493364,-0.75297 -1.870425,-1.45072 -2.204258,-1.11689 -0.218655,0.21866 1.829706,1.96198 2.305275,1.96198 0.340318,0 0.315236,-0.20981 -0.101017,-0.84509 z m 3.359686,0.68952 c 0,-0.0856 -0.15875,-0.25368 -0.352778,-0.37359 -0.194028,-0.11992 -0.352778,-0.0499 -0.352778,0.15556 0,0.20548 0.15875,0.3736 0.352778,0.3736 0.194028,0 0.352778,-0.07 0.352778,-0.15557 z m 35.630558,-0.33327 c 0,-0.26886 -0.23715,-0.94355 -0.52699,-1.4993 l -0.527,-1.01047 -0.002,1.26412 c -10e-4,0.69527 0.10366,1.36996 0.23301,1.49931 0.39475,0.3948 0.82309,0.26281 0.82309,-0.25366 z m -41.980558,-2.15699 c -0.241543,-0.29104 -0.597919,-0.52917 -0.791947,-0.52917 -0.196789,0 -0.158589,0.23399 0.08639,0.52917 0.241543,0.29104 0.597919,0.52917 0.791947,0.52917 0.196789,0 0.158589,-0.23399 -0.08639,-0.52917 z m 5.997222,-0.17639 c 0,-0.19403 -0.306162,-0.35278 -0.680357,-0.35278 -0.374198,0 -0.93738,-0.25702 -1.251521,-0.57116 -0.604333,-0.60433 -1.021426,-0.5477 -0.60658,0.0824 0.591089,0.89773 2.538458,1.54335 2.538458,0.84158 z m -7.667825,-0.21088 c 0.431202,-0.4312 -0.215724,-1.24192 -1.378788,-1.72788 -0.659961,-0.27575 -1.474145,-0.98462 -1.809297,-1.57526 -0.335152,-0.59065 -0.872978,-1.15906 -1.195169,-1.26314 -0.322191,-0.10408 -0.841788,-0.57992 -1.15466,-1.05743 -0.680552,-1.03865 -1.610927,-1.14237 -1.610927,-0.17958 0,0.62961 2.075487,2.35868 4.053819,3.3772 0.386337,0.1989 0.760607,0.67515 0.831712,1.05833 0.241392,1.30086 1.543389,2.08768 2.26331,1.36776 z m 2.853008,-0.76388 c -0.173552,-0.66366 -1.966747,-1.84746 -2.798494,-1.84746 -0.909583,0 -0.520664,0.66292 0.739836,1.26107 0.682228,0.32373 1.326598,0.72806 1.431931,0.89849 0.34163,0.55277 0.793986,0.3275 0.626727,-0.3121 z m 27.309813,-0.19339 c -1.42818,-1.16952 -3.09222,-2.09361 -3.09222,-1.71721 0,0.41253 0.73497,1.02918 2.20879,1.85323 1.58089,0.88391 2.04221,0.81289 0.88343,-0.13602 z m -14.381108,0.0108 c 0,-0.2485 -0.436562,-0.63833 -0.970138,-0.86627 -0.533577,-0.22795 -1.404105,-0.76806 -1.934503,-1.20025 -0.530402,-0.43219 -1.047732,-0.70243 -1.149625,-0.60054 -0.142459,0.14246 3.559968,3.04105 3.966072,3.105 0.04851,0.008 0.08819,-0.18943 0.08819,-0.43794 z m 9.877778,-0.25373 c 0,-0.19403 -0.15875,-0.35278 -0.35277,-0.35278 -0.19403,0 -0.35278,0.15875 -0.35278,0.35278 0,0.19403 0.15875,0.35278 0.35278,0.35278 0.19402,0 0.35277,-0.15875 0.35277,-0.35278 z m -22.224999,-1.30361 c 0,-0.55518 -1.94668,-2.22417 -2.594223,-2.22417 -0.56419,0 -0.432926,0.23436 0.683363,1.22004 1.357937,1.19906 1.91086,1.48961 1.91086,1.00413 z m 17.789549,-2.2526 c -0.83469,-0.92233 -3.708644,-2.88118 -3.918807,-2.67101 -0.308984,0.30898 2.139867,2.75302 3.206347,3.20006 1.36391,0.5717 1.57008,0.41861 0.71246,-0.52905 z m -6.161207,-0.31001 c -0.67177,-0.5742 -1.395233,-1.05045 -1.607693,-1.05833 -0.212464,-0.008 -0.67363,-0.33184 -1.024816,-0.71989 -0.351187,-0.38806 -0.765616,-0.70556 -0.920955,-0.70556 -0.155339,0 -0.867262,-0.39687 -1.582053,-0.88194 -1.482644,-1.00615 -1.906714,-1.09171 -1.906714,-0.38467 0,0.27351 1.150937,1.15112 2.557638,1.95027 1.406702,0.79914 3.033889,1.75439 3.615973,2.12277 1.653476,1.04643 2.222884,0.83492 0.86862,-0.32265 z m -7.042231,-1.95461 c -1.469948,-1.49777 -2.698168,-2.09729 -2.38754,-1.1654 0.137128,0.41138 3.313327,2.7529 3.734233,2.7529 0.116227,0 -0.489786,-0.71438 -1.346693,-1.5875 z m 18.344448,1.29135 c 0,-0.16289 -0.39688,-0.47698 -0.88195,-0.698 -0.92163,-0.41992 -1.12876,-0.92834 -0.52916,-1.29891 0.72732,-0.44951 0.30219,-0.83481 -1.32292,-1.19898 -0.92163,-0.20652 -2.07257,-0.47985 -2.55764,-0.60739 -0.8379,-0.22031 -0.82123,-0.16779 0.33379,1.05182 0.66865,0.70604 1.38303,1.28451 1.5875,1.28547 0.20447,0.001 0.84802,0.39213 1.4301,0.86926 1.06722,0.87479 1.94028,1.1433 1.94028,0.59673 z m -28.188906,-0.90311 c -0.964625,-1.0268 -4.208422,-2.75893 -4.652602,-2.48441 -0.762714,0.47139 -0.217967,1.21462 1.179699,1.60955 0.824618,0.233 1.812396,0.71562 2.195062,1.07249 0.382665,0.35687 1.00565,0.64885 1.38441,0.64885 0.653412,0 0.647958,-0.0433 -0.106569,-0.84648 z m 3.640368,0.3651 c -0.101598,-0.26476 -0.612553,-0.67618 -1.135456,-0.91425 -1.765705,-0.80393 -4.302121,-2.60075 -4.302121,-3.04767 0,-0.41299 -1.852926,-1.55392 -2.523644,-1.55392 -0.73583,0 -0.237744,1.34989 0.573184,1.55342 0.479469,0.12034 1.040679,0.53442 1.247134,0.92019 0.206455,0.38576 0.568225,0.70492 0.803933,0.70923 0.235708,0.004 0.825435,0.31829 1.310504,0.69771 0.48507,0.37943 1.233547,0.6934 1.663283,0.69771 0.429736,0.004 0.951259,0.32535 1.15894,0.7134 0.420472,0.78566 1.496575,0.98598 1.204243,0.22418 z m 27.945888,-1.01793 c -0.11699,-0.43656 -0.21489,-0.97293 -0.21754,-1.19192 -0.003,-0.21899 -0.48728,-0.59802 -1.07697,-0.84227 -0.93734,-0.38826 -1.13016,-0.36477 -1.53349,0.18681 -0.40186,0.54957 -0.32048,0.75918 0.63118,1.62569 1.37492,1.25189 2.50342,1.36577 2.19682,0.22169 z m 5.42917,-0.0797 c -0.24544,-0.29574 -0.70462,-0.53417 -1.02041,-0.52985 -0.42801,0.006 -0.35101,0.1793 0.30251,0.68142 0.98372,0.75584 1.39833,0.6683 0.7179,-0.15157 z m -2.40064,-1.97636 c -0.41833,-0.82054 -0.8225,-1.17495 -1.24673,-1.09326 -0.34525,0.0665 -1.01122,-0.13037 -1.47992,-0.43748 -0.98427,-0.64492 -1.7344,-0.73668 -1.38373,-0.16927 0.26367,0.42663 4.47866,3.16488 4.63344,3.0101 0.0528,-0.0528 -0.18261,-0.64231 -0.52306,-1.31009 z m -31.130545,0.36655 c -0.836533,-0.52904 -1.28849,-0.36497 -0.544703,0.19774 0.373892,0.28287 0.766169,0.42794 0.871728,0.32238 0.105559,-0.10556 -0.0416,-0.33961 -0.327025,-0.52012 z m 17.119942,-2.10289 c -0.867121,-0.88801 -1.698583,-1.41111 -2.242943,-1.41111 -0.842677,0 -0.84853,0.0182 -0.226505,0.70556 0.351187,0.38805 0.891727,0.70908 1.201205,0.7134 0.309474,0.004 0.959563,0.31828 1.444633,0.69771 1.385293,1.08359 1.321493,0.82842 -0.17639,-0.70556 z m -2.672539,0.14287 c -0.963802,-1.03167 -2.757713,-2.06215 -3.061327,-1.75854 -0.318407,0.31841 1.047739,1.66792 2.206085,2.17923 1.585612,0.69991 1.802472,0.59324 0.855242,-0.42069 z m 20.412142,0.29811 c -0.2958,-0.33955 -0.59822,-0.78217 -0.67204,-0.9836 -0.29591,-0.80737 -3.43638,-3.33793 -4.14243,-3.33793 -1.51671,0 -0.58636,1.10451 2.94987,3.50209 2.34825,1.59213 2.65526,1.72705 1.8646,0.81944 z m -38.024328,-0.61737 c -0.241543,-0.29104 -0.597919,-0.52916 -0.791947,-0.52916 -0.196789,0 -0.158589,0.23398 0.08639,0.52916 0.241543,0.29105 0.59792,0.52917 0.791947,0.52917 0.196789,0 0.158589,-0.23398 -0.08639,-0.52917 z m 7.49052,-0.26458 c -0.182203,-0.70706 -0.140067,-0.74087 0.385804,-0.30958 0.324687,0.26629 0.590342,0.3328 0.590342,0.1478 0,-0.40457 -1.223969,-1.03194 -2.557638,-1.31095 -0.533577,-0.11163 -1.367014,-0.30085 -1.852084,-0.42048 -1.488145,-0.36702 -0.991868,0.43854 0.970139,1.57473 2.260505,1.30906 2.734483,1.37033 2.463437,0.31848 z m 3.974757,-0.97014 c -0.652822,-0.72136 -2.293055,-0.98092 -2.293055,-0.36286 0,0.18848 0.515937,0.49166 1.146528,0.67374 1.714351,0.495 1.844018,0.45984 1.146527,-0.31088 z m 17.093741,-0.19565 c -0.25034,-0.30163 -0.78571,-0.72005 -1.18973,-0.92982 -0.65548,-0.34033 -0.64249,-0.28129 0.12068,0.54843 0.90343,0.9822 1.84708,1.31886 1.06905,0.38139 z m -30.940946,-0.24532 c -0.193409,-0.24254 -0.425048,-0.96761 -0.514755,-1.61128 -0.150954,-1.08315 -0.101069,-1.15475 0.669758,-0.96128 0.76222,0.1913 0.795018,0.14844 0.386699,-0.50538 -0.245388,-0.39293 -0.622409,-0.71442 -0.837824,-0.71442 -0.895302,0 -2.613617,0.80746 -2.613617,1.22818 0,0.24948 0.635458,1.02771 1.412128,1.72938 1.388905,1.25479 2.187537,1.69997 1.497611,0.8348 z m 40.390796,-0.30857 c -0.33793,-0.18912 -0.61442,-0.57409 -0.61442,-0.85549 0,-0.91457 1.11476,-0.44709 1.51397,0.63489 0.31328,0.84913 0.95547,0.77776 0.95547,-0.10618 0,-0.39794 -0.59531,-1.27031 -1.32291,-1.93859 -1.3362,-1.22724 -1.85209,-1.47902 -1.85209,-0.90389 0,0.173 -0.43656,0.42664 -0.97014,0.56365 l -0.97014,0.24911 1.74374,1.54378 c 0.95905,0.84908 1.83085,1.45666 1.93734,1.35018 0.10648,-0.10649 -0.0829,-0.34834 -0.42082,-0.53746 z m -13.49081,-0.30879 c -0.11992,-0.19403 -0.37678,-0.35278 -0.57081,-0.35278 -0.19402,0 -0.25466,0.15875 -0.13475,0.35278 0.11992,0.19403 0.37678,0.35278 0.57081,0.35278 0.19403,0 0.25467,-0.15875 0.13475,-0.35278 z m 19.21048,-42.774302 c 0.009,-0.339549 -0.14284,-0.617362 -0.33687,-0.617362 -0.19403,0 -0.35494,0.357188 -0.35759,0.79375 -0.003,0.436563 -0.0838,1.190625 -0.18024,1.675695 -0.15485,0.778524 -0.11478,0.75784 0.34168,-0.176389 0.28441,-0.582083 0.52427,-1.336146 0.53302,-1.675694 z M 116.20156,260.7269 c -0.1149,-0.2994 -0.12005,-0.63323 -0.0115,-0.74182 0.1086,-0.1086 0.0549,-0.57238 -0.11932,-1.03063 -0.40888,-1.07542 0.28684,-1.56765 0.9445,-0.66825 0.67232,0.91945 0.62762,2.98509 -0.0646,2.98509 -0.29713,0 -0.63424,-0.24498 -0.74913,-0.54439 z m -4.41029,-23.00353 c -0.1238,-1.38421 -0.27616,-2.49293 -0.64231,-4.6743 -0.47699,-2.84178 -0.69672,-5.27542 -0.83699,-9.27066 -0.0615,-1.75037 -0.28836,-3.27666 -0.52183,-3.51013 -0.57377,-0.57377 -0.50282,-1.01796 0.32053,-2.00694 1.30732,-1.5703 1.63527,-0.52336 2.0353,6.49745 0.19899,3.4925 0.58397,7.69937 0.85551,9.34861 0.55872,3.39349 0.4614,4.23333 -0.49058,4.23333 -0.37655,0 -0.68833,-0.26747 -0.71963,-0.61736 z m 4.10529,-9.525 c 0.0761,-4.49549 0.13105,-4.85069 0.75006,-4.85069 0.60623,0 0.67773,0.34212 0.77405,3.70417 0.13203,4.60799 -0.0904,5.99722 -0.96037,5.99722 -0.59866,0 -0.63987,-0.35466 -0.56374,-4.8507 z m -25.494312,-9.34726 c -0.373871,-0.99049 -0.344114,-1.26448 0.220299,-2.02847 0.860033,-1.16414 2.234247,-4.29197 1.99208,-4.53414 -0.104733,-0.10473 -0.683613,0.40791 -1.286405,1.1392 -0.869664,1.05506 -1.26668,1.28678 -1.922614,1.12215 -0.666326,-0.16724 -0.868549,-0.0405 -1.042772,0.65368 -0.118872,0.47363 -0.454258,0.95253 -0.745299,1.06421 -1.54153,0.59155 -1.645338,-1.78533 -0.127,-2.90788 0.574227,-0.42455 1.248914,-0.77534 1.499305,-0.77954 0.250391,-0.004 0.693381,-0.52013 0.984423,-1.14652 0.453094,-0.97517 0.699407,-1.13083 1.713374,-1.08278 1.151961,0.0546 1.177679,0.0257 0.944355,-1.05833 -0.44939,-2.08804 -0.811453,-4.99432 -0.655235,-5.25959 0.368843,-0.62633 1.521929,-0.22439 1.729563,0.60289 0.119747,0.47711 0.433536,1.04658 0.697304,1.26549 0.312963,0.25974 0.405088,0.77048 0.265166,1.47009 -0.153035,0.76518 -0.05911,1.15899 0.3281,1.37568 0.846191,0.47355 0.770291,4.75159 -0.109562,6.1754 -0.373852,0.60499 -0.679732,1.41286 -0.679732,1.79528 0,1.01512 -1.818583,3.25046 -2.656685,3.26551 -0.489916,0.009 -0.853066,-0.34919 -1.148665,-1.13233 z m -4.566571,-16.8253 c -1.730219,-0.28197 -2.02421,-0.49198 -1.736898,-1.2407 0.149024,-0.38836 0.705238,-0.54438 1.940663,-0.54438 1.83195,0 2.768148,0.61805 2.397862,1.58301 -0.218581,0.56961 -0.305107,0.57633 -2.601627,0.20207 z M 56.831642,172.21458 c -0.69556,-0.74039 -0.776165,-1.08827 -0.570278,-2.46123 0.131878,-0.87942 0.400179,-1.69808 0.596224,-1.81925 0.196045,-0.12116 0.272801,-0.43826 0.17057,-0.70467 -0.102231,-0.26641 -0.009,-1.80636 0.207188,-3.42211 0.344793,-2.57695 0.313791,-3.18974 -0.252449,-4.98997 -0.544351,-1.73063 -0.576703,-2.22535 -0.206437,-3.15679 0.6502,-1.63566 0.840254,-3.04483 0.410655,-3.04483 -0.205678,0 -0.37396,-0.3875 -0.37396,-0.86112 0,-0.47362 -0.15875,-0.95924 -0.352778,-1.07916 -0.194028,-0.11991 -0.352778,-0.79147 -0.352778,-1.49234 0,-0.70088 -0.253245,-1.55416 -0.562767,-1.89617 -0.310205,-0.34277 -0.606075,-1.38433 -0.659267,-2.32084 -0.124252,-2.18759 -0.680094,-5.47617 -1.018005,-6.02292 -0.144637,-0.23403 -0.326597,-3.66898 -0.404355,-7.63322 -0.121174,-6.17766 -0.06557,-7.23681 0.389064,-7.41127 0.849285,-0.32591 1.650404,2.06164 1.581302,4.71268 -0.03265,1.25267 -0.118968,2.33718 -0.191813,2.41002 -0.07285,0.0729 0.09217,0.67003 0.366698,1.32706 0.274529,0.65705 0.506207,2.11254 0.514842,3.23443 0.02264,2.94267 1.643406,10.94117 2.402344,11.85564 0.204142,0.24598 0.366826,0.75741 0.361519,1.13653 -0.01343,0.95919 0.731278,5.8665 0.987938,6.51013 0.404938,1.01545 0.376756,1.95028 -0.101031,3.35139 -0.619398,1.81637 -0.611109,2.28168 0.05374,3.01633 0.493124,0.54489 0.47407,0.8677 -0.199459,3.37917 -0.409566,1.52719 -0.836343,4.00703 -0.948393,5.51074 -0.222206,2.982 -0.521018,3.2846 -1.848311,1.87177 z m 4.997524,-43.49954 c -0.139431,-0.33955 -0.250999,-2.12549 -0.247928,-3.96875 0.0053,-3.17606 0.102185,-3.60769 1.852083,-8.25049 1.015575,-2.69451 1.8465,-5.35573 1.8465,-5.91382 0,-0.55809 0.141495,-1.29036 0.314433,-1.62728 0.737399,-1.43659 1.449456,-4.70761 1.449456,-6.65844 0,-2.18441 -0.387387,-2.949966 -1.492738,-2.949966 -0.786878,0 -1.250938,-1.023599 -0.636282,-1.403477 0.243779,-0.150665 0.730896,-0.198709 1.082481,-0.106769 0.590868,0.154517 0.647984,-0.208093 0.754698,-4.791324 0.09919,-4.259883 0.203727,-5.022935 0.741994,-5.415858 0.58854,-0.429624 0.550919,-0.607018 -0.620293,-2.924828 -1.335923,-2.643773 -1.982412,-5.889783 -1.261742,-6.335182 0.696906,-0.430714 1.706204,0.826103 2.354955,2.932472 0.337706,1.096468 0.903167,2.372176 1.25658,2.834904 0.353413,0.462728 0.647586,1.018353 0.653717,1.234722 0.02673,0.943127 1.735225,2.33385 2.882347,2.34624 0.639897,0.0069 2.075163,0.230463 3.18948,0.496778 1.114316,0.266316 2.342082,0.401563 2.728367,0.300549 1.059968,-0.277188 2.337599,0.152432 3.410605,1.146859 1.015231,0.940883 1.684415,0.950313 4.270185,0.06017 1.658951,-0.571088 2.253523,0.123511 0.909351,1.062337 -1.475271,1.030393 -3.002819,1.197211 -5.895224,0.643805 -1.724478,-0.329949 -3.040412,-0.394017 -3.937446,-0.191703 -1.395708,0.314784 -3.418126,0.03569 -5.31193,-0.733047 -0.601978,-0.244359 -1.35604,-0.343927 -1.675694,-0.221262 -0.773574,0.296848 -0.747599,1.886246 0.0566,3.463646 0.48115,0.943747 0.602195,1.810056 0.49285,3.52729 -0.128979,2.025579 -0.0245,2.498915 0.948556,4.297474 0.601426,1.11165 1.481395,2.61388 1.955487,3.33827 0.474093,0.7244 1.108783,2.39494 1.410423,3.71231 0.301639,1.31737 0.787388,2.8573 1.079441,3.42207 0.766245,1.48175 0.733284,5.9453 -0.04611,6.24438 -1.359316,0.52162 -1.901049,-0.61869 -1.929345,-4.06113 -0.01126,-1.3694 -1.033616,-3.92741 -1.835726,-4.5931 -0.306918,-0.25472 -0.816804,-1.28434 -1.133079,-2.28806 -0.961393,-3.05101 -1.29402,-3.76521 -1.753596,-3.76521 -0.249606,0 -0.53284,0.64971 -0.653604,1.49931 -0.117213,0.82462 -0.534235,2.84868 -0.926715,4.49791 -0.39248,1.64924 -0.956432,4.18551 -1.253226,5.63617 -0.533437,2.60729 -1.146297,3.81888 -1.476364,2.9187 -0.218417,-0.59568 -0.688482,-0.55689 -0.931687,0.0769 -0.109299,0.28483 -0.302015,2.70577 -0.428259,5.37986 -0.180342,3.82003 -0.349301,4.9565 -0.788389,5.30297 -0.758172,0.59824 -1.104998,0.55471 -1.405214,-0.17639 z m -7.919273,-5.93127 c -0.259346,-0.25935 0.09677,-3.04924 0.447462,-3.50553 0.149125,-0.19403 0.384868,-1.27172 0.523874,-2.39487 0.19411,-1.56839 0.132474,-2.18215 -0.26571,-2.64584 -0.380182,-0.44273 -0.645638,-2.53241 -0.995376,-7.83568 -0.57299,-8.688561 -0.588266,-12.478869 -0.06242,-15.487389 0.400987,-2.294167 0.353899,-2.770095 -0.788784,-7.972332 -0.492539,-2.242362 -0.489316,-2.826293 0.03505,-6.35 0.578764,-3.889233 1.68669,-6.884285 2.771121,-7.491165 0.293731,-0.16438 0.858167,-1.221023 1.254301,-2.348095 0.915116,-2.603666 2.009886,-4.095461 3.005499,-4.095461 0.424823,0 0.978719,-0.248591 1.23088,-0.552428 0.849988,-1.024171 2.475288,-1.615211 4.191224,-1.524138 0.924617,0.04908 2.166722,-0.111915 2.760234,-0.357755 0.794471,-0.329082 1.267544,-0.346139 1.793482,-0.06466 1.013325,0.542314 2.362617,0.473456 2.877421,-0.146848 0.241543,-0.291041 0.663442,-0.529166 0.937552,-0.529166 0.541532,0 1.998052,-0.835082 3.119393,-1.78847 0.388055,-0.329936 1.10243,-0.720239 1.5875,-0.867343 0.485069,-0.147105 1.532166,-0.79943 2.326882,-1.449606 0.794715,-0.650177 1.945653,-1.28228 2.55764,-1.40468 1.84368,-0.368734 1.365447,0.660957 -1.268256,2.730704 l -2.380956,1.871119 1.410817,0.299755 c 3.240943,0.688594 4.531835,1.183693 5.157271,1.977993 0.564328,0.71669 0.875764,0.811594 2.117019,0.645104 1.883968,-0.252691 2.426804,-0.01951 2.426804,1.042465 0,0.475686 0.482117,1.464814 1.071369,2.198059 0.957294,1.191225 1.029501,1.442569 0.678152,2.360567 l -0.393217,1.027387 -0.650325,-0.79847 c -0.357681,-0.439159 -0.702539,-0.915408 -0.766349,-1.058333 -0.06381,-0.142924 -0.711331,-0.704504 -1.438935,-1.247955 -0.727604,-0.54345 -1.322917,-1.204094 -1.322917,-1.468095 0,-0.368328 -0.898899,-0.507778 -3.863809,-0.599404 -4.086868,-0.126302 -5.112751,-0.491064 -4.262488,-1.515569 0.294208,-0.354499 1.143424,-0.566857 2.436854,-0.609374 l 1.985277,-0.06526 -1.837149,-0.12905 c -1.994209,-0.140084 -3.434583,0.496362 -3.811585,1.68419 -0.487816,1.536971 -2.83206,1.044779 -2.441195,-0.512548 0.172288,-0.686449 0.04771,-0.775215 -1.135059,-0.808739 -0.741873,-0.02103 -1.490947,0.173217 -1.696244,0.439868 -0.392978,0.510416 -2.374692,1.285758 -5.423602,2.121979 -1.03452,0.283736 -2.191454,0.682061 -2.570964,0.885169 -0.379511,0.203108 -0.988163,0.274659 -1.352561,0.159004 -0.364397,-0.115655 -0.766131,-0.04267 -0.892742,0.162189 -0.12661,0.204862 -0.735283,0.586285 -1.352605,0.847609 -1.608111,0.680738 -2.287108,1.587193 -3.241825,4.327796 -0.632945,1.816933 -1.022472,2.446359 -1.566373,2.531053 -0.684351,0.106568 -0.904706,0.498038 -0.730848,1.298381 0.120199,0.553329 -0.723056,5.226438 -1.059212,5.869894 -0.399502,0.764709 -0.06134,4.370323 0.566801,6.043495 0.609087,1.622411 0.643971,3.56319 0.08027,4.465817 -0.326338,0.522549 -0.317064,0.980073 0.04191,2.067782 0.359181,1.08833 0.370857,1.669814 0.05287,2.63331 -0.298098,0.903245 -0.317846,2.688522 -0.07326,6.623334 0.184159,2.96273 0.254849,5.59523 0.157089,5.84999 -0.09776,0.25475 0.09737,1.29149 0.433623,2.30385 1.030643,3.10297 0.147443,12.12411 -1.275125,13.02431 -0.592076,0.37466 -0.843417,0.40442 -1.115754,0.13208 z m 42.559967,-1.19229 c -2.214859,-0.5295 -2.505664,-1.36609 -0.941928,-2.70977 1.429191,-1.22807 3.265777,-0.52448 3.265777,1.25111 0,0.86839 -0.576964,1.84144 -1.040694,1.75514 -0.106716,-0.0199 -0.684135,-0.15328 -1.283155,-0.29648 z m 12.20163,-6.68579 c -0.63101,-0.17276 -0.91481,-0.52496 -0.99745,-1.23782 -0.0731,-0.6307 -0.36809,-1.06241 -0.80374,-1.17634 -0.56599,-0.14801 -3.49048,-4.48898 -3.49048,-5.18109 0,-0.11167 0.30443,-0.20304 0.6765,-0.20304 0.43164,0 0.91048,0.47885 1.32292,1.32292 0.46269,0.94691 0.90553,1.35304 1.55807,1.4289 0.83782,0.0974 0.89845,0.0161 0.74863,-1.0047 -0.13658,-0.93063 -0.0582,-1.09049 0.48335,-0.9862 0.82332,0.15856 1.90296,3.04529 2.01023,5.3749 0.0844,1.83393 -0.10778,2.04584 -1.50803,1.66247 z m -23.63345,-0.47815 c 0.008,-1.32095 0.806263,-5.08562 1.267513,-5.97759 0.421266,-0.81464 0.734673,-1.00958 1.484023,-0.92306 0.920016,0.10622 0.946185,0.17085 0.829959,2.04996 -0.06601,1.06715 -0.264442,2.09109 -0.440972,2.27541 -0.17653,0.18433 -0.320965,0.78357 -0.320965,1.33165 0,0.74509 -0.228314,1.08332 -0.90491,1.34056 -1.228845,0.4672 -1.917845,0.43232 -1.914648,-0.0969 z m 11.498188,-3.40027 c -0.731302,-0.80808 -0.641488,-1.74456 0.2193,-2.28663 0.812462,-0.51163 1.280961,-0.002 1.408198,1.5331 0.120551,1.45406 -0.66456,1.81757 -1.627498,0.75353 z m 0.587604,-4.00128 c -0.410997,-0.44029 -0.859561,-1.25281 -0.996812,-1.80559 -0.212147,-0.85443 -0.151836,-0.98624 0.402413,-0.8795 0.715278,0.13775 2.351151,2.32949 2.162066,2.89674 -0.223012,0.66904 -0.820925,0.58831 -1.567667,-0.21165 z m 4.580298,-8.319106 c -2.890489,-2.750238 -3.946473,-4.299479 -2.930586,-4.299479 1.393676,0 7.555086,5.608555 7.347206,6.687955 -0.22406,1.1635 -1.28852,0.58785 -4.41662,-2.388476 z M 89.120328,98.400391 c 0.258261,-1.722374 0.895819,-2.55027 1.979644,-2.570657 0.773063,-0.01453 1.149501,0.607403 0.697374,1.15218 -0.194878,0.234816 -0.406982,0.981921 -0.471343,1.660239 -0.105392,1.11078 -0.233429,1.244476 -1.288792,1.345737 l -1.17178,0.11243 z m 47.715222,-8.463713 c -0.8265,-0.218892 -0.99304,-0.871647 -0.63218,-2.477731 0.52309,-2.328097 0.70268,-7.987037 0.34341,-10.820692 -0.19982,-1.576017 -0.70628,-3.401476 -1.231,-4.43697 -0.49033,-0.96762 -0.89151,-2.044767 -0.89151,-2.393657 0,-0.729866 -1.19414,-2.022405 -3.68366,-3.987193 -1.69033,-1.334057 -5.42758,-2.810249 -7.11466,-2.810249 -0.44094,0 -0.89982,-0.15875 -1.01974,-0.352778 -0.11991,-0.194027 -0.89779,-0.352777 -1.72861,-0.352777 -0.83083,0 -2.81011,-0.174886 -4.3984,-0.388638 -1.5883,-0.213751 -3.31343,-0.281816 -3.83362,-0.151257 l -0.94581,0.237384 1.13169,0.548097 c 1.34785,0.652783 1.46503,1.165525 0.26635,1.165525 -0.99688,0 -2.66243,-0.686527 -2.66243,-1.097428 0,-0.153244 0.27781,-0.445732 0.61736,-0.649972 0.46886,-0.282025 0.0233,-0.3646 -1.85208,-0.343288 -5.43207,0.06172 -8.46023,-0.231825 -8.57697,-0.831451 -0.19198,-0.986131 2.21458,-1.335677 7.56425,-1.098695 2.6913,0.119221 4.78985,0.109368 4.66345,-0.02191 -0.12639,-0.131265 -1.16978,-0.902536 -2.31863,-1.713938 -3.85781,-2.724658 -6.12011,-4.974978 -6.28121,-6.247952 -0.0806,-0.637113 -0.54788,-1.73743 -1.03833,-2.445152 -0.49045,-0.707718 -0.89262,-1.43698 -0.8937,-1.620579 -10e-4,-0.1836 -0.16841,-0.933193 -0.37185,-1.665764 -0.36981,-1.331648 -1.03729,-1.50121 -1.03729,-0.26349 0,0.868123 -2.166212,2.179017 -4.203383,2.543697 -4.418806,0.79103 -4.263288,0.791351 -4.263288,-0.0088 0,-0.504359 -0.164313,-0.67788 -0.514618,-0.543454 -0.73339,0.281429 -2.815699,-0.47504 -3.554345,-1.291237 -0.915469,-1.011583 -1.220802,-0.856054 -1.238067,0.630643 -0.04229,3.641048 -1.337052,6.085416 -3.223404,6.085416 -0.634404,0 -0.700606,-0.150114 -0.50563,-1.146527 0.123395,-0.63059 0.56762,-1.860903 0.987168,-2.734028 0.419548,-0.873125 0.89287,-1.905 1.051824,-2.293055 0.385484,-0.941063 0.196402,-2.976471 -0.372413,-4.008913 -0.293659,-0.533012 -0.372226,-1.296773 -0.217738,-2.116667 0.533792,-2.832932 0.05253,-8.161919 -0.737101,-8.161919 -0.826805,0 -1.906231,-1.351369 -1.906231,-2.386474 0,-0.536449 -0.314695,-1.562516 -0.699322,-2.280147 -1.552194,-2.896056 -1.132158,-5.916711 0.822745,-5.916711 0.714463,0 0.793418,-0.138605 0.653101,-1.146527 -0.08779,-0.630591 -0.324874,-1.353425 -0.526863,-1.606298 -0.628387,-0.786687 -0.459396,-6.529854 0.220709,-7.500841 0.32338,-0.461689 0.587963,-1.272403 0.587963,-1.801587 0,-1.27291 1.870883,-4.0015739 3.089032,-4.5053186 1.737198,-0.7183896 3.99186,-2.0374647 4.832551,-2.8272503 0.554439,-0.520869 0.903347,-0.6442617 1.068073,-0.3777294 0.170275,0.2755139 0.608824,0.1809686 1.442692,-0.3110254 0.739655,-0.4364074 2.195477,-0.7972515 3.804902,-0.9430937 2.26688,-0.20541913 2.697223,-0.14989473 3.299783,0.4257506 0.93966,0.8976736 1.79621,1.43468 3.36505,2.1096771 0.72761,0.3130527 1.32292,0.7279094 1.32292,0.921904 0,0.1939942 0.35851,0.2627376 0.79668,0.152763 1.0778,-0.2705121 1.44468,0.028018 2.31944,1.8873549 0.75638,1.6077207 1.1108,2.2307325 2.2496,3.9544648 0.69033,1.044895 0.83661,2.579907 0.27872,2.924701 -0.19402,0.119916 -0.35277,0.613418 -0.35277,1.096672 0,0.483254 -0.21936,1.307322 -0.48745,1.831263 -0.26811,0.523941 -0.59942,1.626476 -0.73626,2.450077 -0.13684,0.823601 -0.39373,1.587033 -0.57088,1.696514 -0.6341,0.391895 -0.30338,1.565276 0.79318,2.814185 0.88653,1.009712 1.10402,1.556915 1.06047,2.668237 -0.0683,1.74303 -1.80717,5.52429 -3.02541,6.578912 -0.6728,0.58243 -0.9183,1.14137 -0.92969,2.116667 -0.009,0.728887 -0.22829,1.921567 -0.48837,2.650399 -0.29861,0.836803 -0.40712,2.144299 -0.29445,3.547935 0.13624,1.697326 0.0518,2.349404 -0.35719,2.758397 -0.70716,0.707157 -0.44917,3.150252 0.70287,6.656017 0.97946,2.980583 1.74325,3.974189 3.7945,4.936147 0.78134,0.366423 1.8175,0.886915 2.30256,1.156649 2.6843,1.492666 3.19974,1.658845 3.86214,1.245171 0.52068,-0.325173 0.84694,-0.282988 1.59322,0.20599 1.20763,0.79127 0.98598,1.424729 -0.54363,1.553665 -2.149,0.181145 -2.3503,0.474197 -0.67839,0.987556 2.06484,0.634012 2.80717,0.621125 3.56183,-0.06183 0.45465,-0.411455 1.37402,-0.563284 3.46621,-0.572421 2.83224,-0.01238 2.85802,-0.0042 4.83041,1.530124 1.09063,0.848406 2.65246,1.88577 3.47073,2.305251 2.90077,1.487064 4.62261,3.885466 6.18627,8.617052 0.41113,1.244056 1.05646,2.692054 1.43408,3.217774 0.7853,1.093293 0.86167,1.726554 0.27853,2.309688 -0.22442,0.224427 -0.46312,1.407114 -0.53043,2.628195 -0.16788,3.0456 -0.84738,9.202242 -1.05221,9.53367 -0.17572,0.284318 -0.61428,0.29361 -1.59525,0.0338 z M 99.409947,44.692893 c 0.713063,-0.622571 1.238663,-1.50635 1.446813,-2.432783 0.17981,-0.800259 0.74168,-1.947922 1.2486,-2.550368 0.56799,-0.675012 0.92252,-1.524945 0.92386,-2.214816 0.001,-0.615703 0.25319,-1.595709 0.55998,-2.177792 0.41611,-0.789476 0.50072,-1.573645 0.33309,-3.086806 -0.18007,-1.625381 -0.12485,-2.028472 0.27786,-2.028472 0.27642,0 0.59784,-0.47625 0.71426,-1.058333 0.24383,-1.219146 1.08046,-1.399066 1.64041,-0.352778 0.58706,1.096928 1.05834,0.834386 1.05834,-0.589583 0,-0.712326 0.26361,-1.586424 0.5858,-1.94244 0.32219,-0.356016 0.46358,-0.765391 0.31421,-0.909723 -0.14937,-0.144331 -0.51172,0.09477 -0.80522,0.53133 -0.81803,1.216785 -1.5059,1.004763 -1.5059,-0.464164 0,-0.691853 -0.16117,-1.559067 -0.35816,-1.927141 -0.49961,-0.933519 -1.36822,-0.492916 -1.29194,0.655335 0.0593,0.893083 -0.0202,0.941321 -1.5249,0.924992 -0.87313,-0.0095 -2.25259,-0.128878 -3.065473,-0.26534 l -1.477963,-0.248112 -0.109538,1.296404 c -0.138154,1.635128 -0.763368,1.871382 -1.3303,0.502689 -0.428628,-1.034799 -0.348431,-4.498762 0.121768,-5.25956 0.128426,-0.207795 0.959559,-0.486689 1.846965,-0.619764 1.483711,-0.222496 3.031441,0.04543 5.295151,0.916644 0.6931,0.26675 0.76443,0.15407 0.91869,-1.451423 0.0976,-1.015735 0.44555,-2.048135 0.8355,-2.479027 0.55203,-0.609989 0.65374,-1.207538 0.58481,-3.436009 -0.0554,-1.790919 -0.24545,-2.816633 -0.56547,-3.051738 -0.26512,-0.194773 -0.60255,-0.733842 -0.74984,-1.1979309 -0.29734,-0.936821 -1.88331,-2.4764013 -2.56889,-2.4937333 -0.24253,-0.00613 -0.44097,-0.1518098 -0.44097,-0.32373 0,-0.1719199 -0.51594,-0.5745741 -1.14653,-0.8947869 C 100.54437,5.7437211 99.187787,5.0095306 98.160328,4.4324 96.676358,3.5988427 96.150437,3.4589538 95.60269,3.7520992 c -0.379247,0.2029654 -0.689536,0.5493801 -0.689536,0.76981 0,0.2204304 -0.277534,0.7074521 -0.616741,1.082271 -0.594197,0.6565839 -0.565192,0.7258811 0.79375,1.8962308 1.257844,1.0832806 1.563205,1.1904735 2.821602,0.9904944 3.648365,-0.5797807 6.509705,0.2355585 7.074785,2.0159586 0.37014,1.166225 -0.16998,1.282206 -2.17542,0.467134 -1.60291,-0.651473 -2.19816,-0.739519 -3.089623,-0.457001 -2.229636,0.706608 -2.697497,0.703071 -4.10593,-0.03105 -0.786339,-0.409863 -1.821692,-0.7452051 -2.300785,-0.7452051 -0.732684,0 -0.871083,-0.1681494 -0.871083,-1.0583333 0,-0.5820832 -0.08726,-1.0583332 -0.193908,-1.0583332 -0.993023,0 -5.097758,2.9897136 -5.097758,3.7129896 0,0.710789 -0.666704,0.991755 -1.234722,0.520343 -0.274042,-0.227435 -0.624442,-0.335533 -0.778666,-0.240218 -0.154223,0.09532 -0.330256,1.985973 -0.391181,4.201463 -0.09017,3.279117 -0.01055,4.111351 0.42828,4.475535 0.437416,0.363022 0.729861,0.352185 1.551047,-0.05748 0.792321,-0.395262 1.575996,-0.437488 3.610257,-0.19453 2.274778,0.271685 2.721384,0.448223 3.587178,1.417978 1.174048,1.315016 1.301609,2.391692 0.283362,2.391692 -0.388055,0 -0.705555,-0.15875 -0.705555,-0.352778 0,-0.194028 -0.15875,-0.352778 -0.352778,-0.352778 -0.194028,0 -0.352778,0.23254 -0.352778,0.516755 0,1.481941 -3.748193,1.66068 -4.466061,0.212972 -0.233937,-0.471776 -0.63446,-0.900371 -0.890054,-0.952435 -0.255595,-0.05206 -0.814705,-0.198635 -1.24247,-0.325715 -0.628039,-0.186578 -0.820522,-0.06065 -0.999931,0.654179 -0.165745,0.660373 -0.528249,0.942653 -1.427109,1.11128 -1.405108,0.2636 -1.443372,0.484792 -0.491268,2.839908 0.460848,1.139946 0.644331,1.387095 0.518714,0.698692 -0.247653,-1.357154 0.494647,-2.457405 1.452764,-2.153311 0.567326,0.180062 0.705118,0.582692 0.76938,2.248094 0.07171,1.858534 1.115666,5.27843 1.938746,6.35115 0.186461,0.243016 0.245082,0.911548 0.130267,1.485627 -0.114815,0.57408 -0.05521,1.138679 0.132465,1.254665 0.187674,0.11599 0.341224,0.658587 0.341224,1.20577 0,1.636726 1.658105,4.796275 3.09034,5.888693 1.319766,1.006634 4.527681,1.891182 5.904258,1.628031 0.40277,-0.07699 1.23626,-0.579988 1.852195,-1.117763 z m -6.13637,-2.681481 c -0.340533,-0.887419 0.348251,-1.281317 2.029576,-1.160656 1.170513,0.084 1.574172,0.268735 1.668074,0.763383 0.105809,0.557339 -0.03228,0.61826 -0.946404,0.417487 -0.592959,-0.130235 -1.396513,-0.06048 -1.801766,0.156401 -0.588546,0.314981 -0.774079,0.280469 -0.94948,-0.176615 z m -0.964251,-2.829076 c -0.278734,-0.20247 -0.560963,-0.67872 -0.627176,-1.058333 -0.112931,-0.647464 0.100186,-0.690203 3.441577,-0.690203 3.711328,0 4.87598,0.389534 4.6494,1.555058 -0.0909,0.467551 -0.682619,0.561608 -3.533099,0.561608 -1.883152,0 -3.651969,-0.165657 -3.930702,-0.36813 z m 1.473489,-5.17193 c -0.85816,-0.85816 -0.831,-2.044661 0.04681,-2.044661 0.374199,0 0.918482,0.238125 1.209524,0.529167 0.738967,0.738965 1.115331,0.66445 1.781845,-0.352778 0.646673,-0.986946 1.883219,-1.172885 2.206004,-0.331718 0.127089,0.331203 -0.171528,0.949649 -0.750196,1.553647 -1.221966,1.275459 -3.532551,1.607777 -4.493983,0.646343 z m 10.655345,-7.542114 c 0,-0.62298 0.75944,-0.514488 0.97748,0.139641 0.0768,0.230408 -0.11171,0.418924 -0.41892,0.418924 -0.30721,0 -0.55856,-0.251355 -0.55856,-0.558565 z M 88.563154,44.31842 c 0,-0.149514 -0.238125,-0.469466 -0.529167,-0.71101 -0.447213,-0.371154 -0.529166,-0.297606 -0.529166,0.474899 0,0.667569 0.142702,0.85931 0.529166,0.71101 0.291042,-0.111686 0.529167,-0.325388 0.529167,-0.474899 z M 107.96053,9.4761636 c -0.003,-0.1455209 -0.15929,-0.5027083 -0.34737,-0.79375 -0.27654,-0.4279049 -0.34301,-0.3772739 -0.34738,0.2645834 -0.003,0.4365624 0.15335,0.7937498 0.34738,0.7937498 0.19402,0 0.35034,-0.1190624 0.34737,-0.2645832 z M 92.229577,5.6549502 C 92.56074,4.7919571 92.488939,4.6779298 91.914543,5.1546362 91.328092,5.641346 91.212437,6.2129695 91.70041,6.2129695 c 0.17327,0 0.411395,-0.2511086 0.529167,-0.5580193 z m -3.88069,82.6073458 c -0.105667,-0.275368 0.05459,-0.877196 0.356126,-1.337402 0.325444,-0.49669 0.645417,-2.100862 0.787347,-3.947336 0.191583,-2.492428 0.397376,-3.298701 1.03553,-4.057103 0.438033,-0.520576 0.849852,-1.416162 0.915151,-1.990192 0.07278,-0.639773 0.323515,-1.043689 0.647891,-1.043689 0.436869,0 0.528895,0.64607 0.527617,3.704166 -0.0014,3.088103 -0.140772,4.043154 -0.838672,5.742368 -1.075673,2.619015 -2.939426,4.210184 -3.43099,2.929188 z m 25.697333,-1.621099 c -0.91825,-0.377864 -1.60967,-1.897464 -1.303,-2.863719 0.25152,-0.792441 0.42952,-0.805815 1.99869,-0.150177 1.54082,0.643798 2.12865,1.350203 1.98235,2.382216 -0.12931,0.912216 -1.31606,1.192138 -2.67804,0.63168 z M 74.274927,85.939935 c -0.335094,-0.370275 -0.532768,-1.066489 -0.466688,-1.643694 0.09178,-0.801641 0.312658,-1.024036 1.107578,-1.115162 1.229015,-0.140889 2.711226,0.782281 2.711226,1.688641 0,0.764565 -0.292313,1.001755 -1.749663,1.419719 -0.794104,0.227743 -1.150372,0.15004 -1.602453,-0.349504 z m 22.445348,-0.123493 c -0.217766,-0.262393 -0.494732,-1.422277 -0.61548,-2.577522 -0.170022,-1.6267 -0.09878,-2.221201 0.315866,-2.635845 0.438316,-0.43832 0.473093,-0.878251 0.19177,-2.426056 -0.390186,-2.146759 0.170628,-4.936278 0.992403,-4.936278 0.594653,0 0.57319,-0.1166 0.649806,3.530247 0.05216,2.482775 0.228614,3.330715 1.021707,4.909724 0.52726,1.049753 0.877473,2.120205 0.778253,2.37878 -0.313833,0.817813 -1.158868,0.509785 -1.613669,-0.588197 -0.241106,-0.582083 -0.662827,-1.058333 -0.937154,-1.058333 -0.383811,0 -0.414605,0.157286 -0.13359,0.682364 0.444469,0.830495 0.485634,3.198191 0.0556,3.198191 -0.170268,0 -0.487754,-0.214683 -0.705517,-0.477075 z M 66.520106,77.130299 c -0.211224,-0.341771 0.0149,-4.556781 0.257474,-4.799354 0.06984,-0.06984 0.674131,-0.171517 1.342869,-0.225955 1.036708,-0.08439 1.232925,0.02099 1.331505,0.715176 0.06359,0.447777 -0.134751,1.196255 -0.440757,1.66328 -0.306007,0.467025 -0.556376,1.140474 -0.556376,1.49655 0,1.156236 -1.412143,1.99584 -1.934715,1.150303 z M 97.09773,68.213658 c 0.07592,-1.04932 0.2673,-1.499306 0.637646,-1.499306 0.66929,0 0.91101,1.796817 0.335072,2.490777 -0.742972,0.895227 -1.084069,0.54755 -0.972718,-0.991471 z m 8.95386,-10.100401 c -0.10565,-0.170949 -1.38502,-0.908233 -2.84304,-1.638409 -1.92018,-0.961626 -2.65095,-1.514605 -2.65095,-2.006011 0,-0.528782 0.16351,-0.626522 0.7413,-0.443138 0.68126,0.216221 0.72131,0.139566 0.49454,-0.946365 -0.13572,-0.649905 -0.46931,-1.53325 -0.7413,-1.962986 -0.87727,-1.386035 -0.27559,-2.910487 0.71756,-1.81804 0.56524,0.62175 1.54096,3.355393 1.67923,4.704651 0.0759,0.740833 0.46829,1.285822 1.342,1.863965 1.93572,1.280886 2.51643,1.842946 2.28725,2.213772 -0.26433,0.427704 -0.77242,0.443819 -1.02659,0.03256 z M 90.816437,54.631715 c -0.106708,-0.339549 -0.333537,-0.968156 -0.504059,-1.396908 -0.606072,-1.523859 -0.797652,-4.228109 -0.320432,-4.523048 0.680798,-0.420755 1.746208,1.130582 1.746208,2.542649 0,0.670355 0.164334,1.525894 0.365188,1.901193 0.253535,0.473728 0.249739,0.898091 -0.01242,1.387919 -0.465649,0.870077 -1.016786,0.908216 -1.274494,0.08819 z m 5.166268,-2.645833 c 0.01545,-1.093985 0.890323,-2.164126 1.559334,-1.907402 0.741314,0.284469 0.688947,1.404207 -0.09902,2.117308 -0.896761,0.811558 -1.473574,0.728648 -1.46031,-0.209906 z"
       style="fill:#000000;stroke-width:0.35277775" />
  </g>
</svg>
