<?xml version="1.0" encoding="UTF-8" standalone="no"?>
<svg
   xmlns:dc="http://purl.org/dc/elements/1.1/"
   xmlns:cc="http://creativecommons.org/ns#"
   xmlns:rdf="http://www.w3.org/1999/02/22-rdf-syntax-ns#"
   xmlns:svg="http://www.w3.org/2000/svg"
   xmlns="http://www.w3.org/2000/svg"
   id="svg8"
   version="1.1"
   viewBox="0 0 63.374598 113.02287"
   height="113.02287mm"
   width="63.374596mm">
  <defs
     id="defs2" />
  <metadata
     id="metadata5">
    <rdf:RDF>
      <cc:Work
         rdf:about="">
        <dc:format>image/svg+xml</dc:format>
        <dc:type
           rdf:resource="http://purl.org/dc/dcmitype/StillImage" />
        <dc:title></dc:title>
      </cc:Work>
    </rdf:RDF>
  </metadata>
  <g
     transform="translate(-41.898713,10.735812)"
     id="layer1">
    <path
       id="path5140"
       d="m 43.180769,102.22276 c -1.513889,-0.166 -1.655367,-0.64301 -0.591757,-1.99517 0.526384,-0.669192 1.057701,-0.929524 1.897082,-0.929524 0.641258,0 1.351239,-0.223291 1.577736,-0.496204 0.226497,-0.272912 1.439865,-0.933136 2.696374,-1.467157 2.681348,-1.139588 2.734996,-1.260679 2.503265,-5.650226 -0.118875,-2.251788 -0.478124,-4.068308 -1.263764,-6.390154 -0.603722,-1.784212 -1.168559,-4.220266 -1.255194,-5.413456 -0.08664,-1.193186 -0.655109,-3.595106 -1.263275,-5.337592 -1.648508,-4.723225 -1.254268,-5.822156 2.552322,-7.114529 0.887186,-0.301206 2.661202,-1.280348 3.942257,-2.17587 2.351486,-1.643807 5.745297,-2.969105 9.489678,-3.705762 1.115659,-0.219491 2.021466,-0.506882 2.012903,-0.638648 -0.0086,-0.131762 -0.227496,-1.033321 -0.486517,-2.00346 -0.302008,-1.131143 -0.355245,-1.985349 -0.148407,-2.38125 0.205416,-0.393181 0.178722,-0.886086 -0.07351,-1.35739 -0.79257,-1.48093 -1.77838,-4.781169 -2.096376,-7.018126 -0.245606,-1.727733 -0.194283,-2.925604 0.208999,-4.878021 0.812538,-3.933744 1.774145,-6.7752 2.886896,-8.530492 1.356996,-2.140574 2.000234,-4.645427 1.294372,-5.040447 -0.375326,-0.210044 -0.456044,-0.650497 -0.299088,-1.632041 0.175591,-1.098085 0.07334,-1.476312 -0.558178,-2.064661 -0.725486,-0.67589 -0.738605,-0.773017 -0.212801,-1.575495 0.432972,-0.660798 0.508875,-1.347667 0.333911,-3.02164 L 66.101259,19.239005 64.271191,18.70699 C 63.264653,18.414382 61.723716,17.627194 60.846885,16.957684 55.95448,13.222055 57.135161,4.9944465 63.023542,1.789588 65.196843,0.60672968 69.035292,0.33849398 70.457133,1.2701195 l 0.857668,0.5619655 0.01738,-2.33159522 c 0.0207,-2.77790958 1.022701,-5.13556468 3.039906,-7.15276868 2.033013,-2.033014 3.937992,-2.8557591 7.041555,-3.0411901 3.924434,-0.234476 5.74759,0.462857 8.235322,3.1499061 2.513501,2.714885 3.107041,4.0785359 3.125991,7.18190168 0.0184,3.01681142 -1.00924,5.28020512 -3.396571,7.48076912 -2.01766,1.8598153 -3.241781,2.4817728 -5.58944,2.8399079 -1.709209,0.2607402 -5.472155,-0.026098 -5.89545,-0.4493934 -0.442718,-0.4427182 0.362529,-0.5019161 2.012883,-0.1479783 2.081432,0.4463866 4.515828,0.061713 6.717429,-1.0614597 1.815162,-0.9260276 4.392444,-3.8555428 4.909109,-5.5800437 0.54142,-1.80708492 0.5378,-5.0676492 -0.007,-6.3283973 -0.721273,-1.6690753 -3.10004,-4.3076123 -4.761136,-5.2810803 -1.358855,-0.79634 -1.982026,-0.924969 -4.45787,-0.920145 -4.434805,0.0086 -7.301756,1.590107 -9.246139,5.100346 -0.895693,1.6170169 -1.039207,2.2457544 -1.032604,4.52386358 0.01176,4.05766282 0.731145,5.51177522 4.101406,8.29027812 1.227706,1.0121396 2.132359,2.9986112 1.365593,2.9986112 -0.197735,0 -0.359509,-0.319054 -0.359509,-0.709008 0,-0.389955 -0.335216,-0.9852676 -0.744922,-1.3229169 C 75.981025,8.7340425 75.410996,8.2336 75.123997,7.9595982 c -0.449414,-0.4290621 -0.565573,-0.4290621 -0.837177,0 -0.222719,0.3518391 -0.316946,0.3686461 -0.320763,0.057213 -0.0028,-0.2425348 -0.353243,-0.4409723 -0.778383,-0.4409723 -0.7543,0 -0.756431,-0.012181 -0.08819,-0.5039713 0.619352,-0.4558139 0.628429,-0.5258294 0.09499,-0.7327205 -0.324388,-0.1258122 -0.924682,-0.049524 -1.333987,0.1695302 -0.872202,0.4667878 -2.838719,3.0756258 -2.838719,3.7659247 0,0.261931 -0.15875,0.476237 -0.352778,0.476237 -0.504113,0 -0.437003,-0.428317 0.212372,-1.355429 0.653274,-0.9326796 0.410033,-1.4241777 -0.380236,-0.768313 -0.590709,0.4902454 -0.766506,3.012353 -0.184914,2.652909 0.547326,-0.338266 0.43449,0.245129 -0.705555,3.647937 -1.070612,3.195563 -1.482101,6.309421 -0.636784,4.81873 0.220053,-0.388056 0.546285,-0.80268 0.72496,-0.921386 0.178674,-0.118707 0.271617,-0.356623 0.206538,-0.528702 -0.06508,-0.172079 0.1198,-0.328587 0.410841,-0.347797 0.291042,-0.01921 0.846667,-0.07026 1.234723,-0.113455 l 0.705555,-0.07853 -0.705555,-0.303188 c -0.388056,-0.166753 -0.520102,-0.314345 -0.293436,-0.327983 0.226665,-0.01364 0.68927,-0.131147 1.02801,-0.261134 0.38939,-0.149423 0.531198,-0.0993 0.385598,0.136281 -0.260411,0.421355 0.682576,0.733041 1.613856,0.533429 0.942216,-0.201957 0.735723,-0.710934 -0.214717,-0.529246 -0.507907,0.09709 -0.905975,-0.03351 -1.021756,-0.335231 -0.141875,-0.369722 0.05979,-0.457678 0.800212,-0.349008 0.979697,0.143789 0.992463,0.121259 1.239767,-2.188038 0.394018,-3.67928 0.807191,-3.039302 0.612081,0.948071 -0.130298,2.662844 -0.02645,4.201683 0.394399,5.844422 0.65265,2.547553 0.694616,3.087095 0.141566,1.820104 l -0.385,-0.881942 -0.25648,1.058333 c -0.55195,2.277551 -0.361742,6.302368 0.392024,8.295259 1.038758,2.746379 1.397282,3.980572 1.210567,4.167287 -0.08913,0.08913 -0.262071,-0.138483 -0.384316,-0.505802 -0.122244,-0.36732 -0.562543,-1.530516 -0.978442,-2.584884 l -0.75618,-1.91703 -0.194899,1.740641 c -0.107194,0.957354 -0.543757,2.373291 -0.970139,3.146527 -0.968259,1.755923 -1.009115,1.138495 -0.06968,-1.053109 0.388056,-0.905298 0.705556,-2.12852 0.705556,-2.718276 0,-0.936699 -0.07039,-1.013866 -0.556686,-0.610274 -0.306178,0.254106 -0.951851,1.241827 -1.43483,2.194941 -0.482979,0.953114 -0.95855,1.652524 -1.056826,1.554248 -0.09828,-0.09827 0.07115,-0.661801 0.376496,-1.25228 0.305349,-0.59048 0.555179,-1.155873 0.555179,-1.256436 0,-0.417975 -1.29282,0.322541 -2.047121,1.172573 -0.724873,0.816871 -0.771045,0.829988 -0.42856,0.121754 0.546551,-1.130229 -0.149521,-1.005198 -0.982007,0.176389 -1.876596,2.663543 -3.950646,9.097067 -3.950646,12.254566 0,1.651836 0.978599,4.405757 1.352918,3.807312 0.143442,-0.22933 0.480841,-0.04723 0.868413,0.468694 0.717377,0.954948 0.575533,1.120757 -0.251377,0.293846 -0.498,-0.497999 -0.537355,-0.456389 -0.41706,0.440972 0.07306,0.544975 0.397841,1.603333 0.721745,2.35191 0.323904,0.748573 0.503978,1.445983 0.400165,1.549795 -0.103813,0.103815 -0.271647,-0.03242 -0.372965,-0.302712 -0.101318,-0.270305 -0.496203,-1.36459 -0.877522,-2.431743 -0.392616,-1.098765 -0.698827,-1.599053 -0.706034,-1.153513 -0.007,0.432721 0.403651,1.800666 0.912558,3.039879 l 0.925286,2.253115 1.219329,-0.275005 c 0.670632,-0.15125 1.287105,-0.342776 1.369942,-0.425612 0.08284,-0.08284 -0.247241,-0.898871 -0.733504,-1.813405 -0.486264,-0.914538 -0.87648,-1.852831 -0.867147,-2.085097 0.0093,-0.232269 0.493485,0.5011 1.075894,1.62971 0.582409,1.128611 1.170086,2.001736 1.305948,1.940278 0.135863,-0.06146 1.184952,-0.746202 2.33131,-1.521661 1.718349,-1.162382 2.383983,-1.41013 3.791269,-1.411111 1.333603,-0.0011 1.707223,-0.125529 1.708073,-0.56963 7.06e-4,-0.421609 -0.249499,-0.529538 -0.969045,-0.417827 -0.892574,0.138571 -0.920073,0.109883 -0.343952,-0.358849 0.57065,-0.464277 1.788626,-4.118776 1.476675,-4.430723 -0.07279,-0.07279 -0.406675,0.442933 -0.741969,1.146051 -0.335294,0.703122 -0.749131,1.2784 -0.919639,1.2784 -0.343711,0 1.091216,-2.793827 1.721295,-3.351389 0.532437,-0.471156 0.990981,-2.430442 0.497424,-2.125405 -0.629599,0.389114 -0.401966,-0.261257 0.384422,-1.098328 0.436671,-0.464816 0.789971,-1.360812 0.843586,-2.139403 0.05074,-0.736805 0.364212,-1.969534 0.696613,-2.739405 0.775462,-1.79603 0.581981,-4.688381 -0.471029,-7.041381 -0.901837,-2.015201 -1.275683,-1.879473 -1.990259,0.722577 -0.455306,1.657943 -0.473594,1.675868 -0.496514,0.486622 -0.01309,-0.679097 0.290216,-1.926745 0.67401,-2.772551 0.824541,-1.817127 0.988939,-4.872468 0.206725,-3.842033 -0.680311,0.896197 -1.024368,0.757831 -0.438602,-0.176389 0.273731,-0.436562 0.578665,-1.825625 0.677637,-3.086805 0.09897,-1.261181 0.302461,-2.610556 0.452205,-2.998611 0.266379,-0.690317 0.256169,-0.69144 -0.472702,-0.05199 -0.40973,0.35946 -0.952584,0.57043 -1.206348,0.468823 -0.317112,-0.126974 -0.281026,-0.193449 0.115404,-0.212592 1.075221,-0.05192 1.677145,-1.496626 1.343593,-3.224821 -0.344784,-1.78641 -0.431059,-4.427135 -0.134965,-4.131041 0.35077,0.350772 0.887465,4.585819 1.029243,8.121761 0.121782,3.037213 0.06839,3.442484 -0.456427,3.464381 -0.49033,0.02046 -0.474966,0.07154 0.08779,0.29192 0.447291,0.175161 0.544026,0.352488 0.280977,0.515059 -0.774608,0.478737 -0.272122,3.806673 0.960523,6.361455 1.115335,2.311658 1.162794,2.570882 0.968791,5.291667 -0.180841,2.536215 -0.527526,3.87652 -1.65251,6.388714 -1.079712,2.411099 -1.912345,9.671717 -1.234846,10.767932 0.331308,0.536067 0.807036,0.406873 1.004514,-0.272793 0.139922,-0.481573 0.166098,-0.461087 0.119006,0.09314 -0.0332,0.390776 0.276366,1.047239 0.687934,1.458807 1.562651,1.56265 2.307502,4.516501 2.344099,9.295974 0.03154,4.118483 -0.03002,4.54225 -0.932208,6.416396 l -0.965976,2.006674 0.579476,2.22666 c 0.407571,1.566114 0.542929,3.273185 0.456279,5.754437 l -0.123197,3.527778 2.116667,-0.105802 c 5.999029,-0.299854 6.628042,-0.242616 8.622049,0.784582 1.0556,0.543785 2.48435,1.045199 3.175,1.114248 2.53073,0.253027 7.621115,0.843217 8.157625,0.945812 0.30354,0.05804 0.99923,0.431401 1.54598,0.82968 0.94768,0.690337 0.97407,0.784807 0.56531,2.023382 -0.23584,0.714579 -0.98828,1.891852 -1.67209,2.616165 -0.68381,0.724312 -1.64216,2.110683 -2.12967,3.080822 -1.15925,2.306881 -1.774615,2.851362 -3.653215,3.232397 -4.02338,0.81606 -5.90816,-1.25241 -2.27826,-2.500309 1.18574,-0.407642 1.34005,-0.601161 1.45817,-1.828708 0.0727,-0.755054 0.17442,-1.681039 0.22615,-2.057746 0.20255,-1.474922 -1.74855,-1.782247 -6.785104,-1.068744 -0.679097,0.0962 -2.107847,-0.01027 -3.175,-0.236633 -1.766471,-0.374681 -2.964558,-0.457813 -8.751087,-0.607208 l -1.871921,-0.04833 -0.736638,-1.675694 C 75.248617,86.822963 74.241489,85.1164 73.415708,83.952233 71.83073,81.717767 69.500507,76.381844 69.146077,74.1753 l -0.210464,-1.310266 -1.63263,0.185646 c -0.897946,0.102104 -1.950129,0.251241 -2.338185,0.331417 -0.388055,0.08018 -1.683245,-0.03383 -2.878198,-0.253337 -2.418311,-0.444239 -6.38416,0.134049 -6.708073,0.978154 -0.0953,0.248352 0.255701,1.692025 0.780008,3.208158 0.878625,2.540713 0.931944,3.005265 0.680801,5.931606 -0.43234,5.037663 -0.224846,9.963718 0.512656,12.170834 0.945878,2.830721 1.195833,5.012908 0.654991,5.718268 -0.494106,0.64441 -2.9137,0.90584 -4.683852,0.50607 -2.288312,-0.5168 -2.692738,-0.52466 -3.796055,-0.0738 -1.32705,0.5423 -4.44135,0.86357 -6.346307,0.65469 z m 5.962345,-1.45994 c 1.253972,-0.45619 1.811654,-0.46752 3.880556,-0.0788 3.212585,0.60359 4.065985,0.45189 4.393662,-0.781001 l 0.261143,-0.982556 -1.684529,0.192602 c -1.081981,0.123709 -2.123345,0.0092 -2.911312,-0.31998 -1.159813,-0.4846 -2.460945,-1.611679 -1.860569,-1.611679 0.153109,0 0.204447,-0.07393 0.114084,-0.164296 -0.218276,-0.218278 -3.200784,1.303722 -4.393957,2.24227 -0.520386,0.409338 -1.231913,0.74425 -1.581171,0.74425 -0.349258,0 -1.076533,0.16786 -1.616166,0.37303 -0.792167,0.30118 -0.881529,0.43844 -0.463938,0.71261 0.742455,0.48745 4.14596,0.29792 5.862197,-0.32644 z m 6.060236,-2.875866 c 0.14308,-0.433151 0.07848,-0.449707 -0.356003,-0.09126 -0.658894,0.543592 -1.131787,0.15192 -0.596015,-0.493646 0.216102,-0.260389 0.333787,-0.485228 0.261523,-0.499646 -1.896945,-0.378478 -1.916456,-0.374939 -1.182915,0.214559 0.445873,0.358317 0.507243,0.511518 0.16958,0.42332 -0.291042,-0.07602 -0.709557,-0.496909 -0.930033,-0.935313 -0.220477,-0.4384 -0.498805,-0.63863 -0.618506,-0.444948 -0.343746,0.556193 0.06435,1.249154 1.111641,1.887626 1.139486,0.694672 1.898318,0.67316 2.140728,-0.0607 z m 1.626143,-0.966523 c -0.450213,-0.345852 -0.540135,-0.579815 -0.262986,-0.684251 0.231635,-0.08728 0.334063,-0.385657 0.227618,-0.663046 -0.106445,-0.277393 -0.295964,-0.441886 -0.421154,-0.365538 -0.12519,0.07634 -0.274337,-0.678628 -0.331438,-1.677723 -0.0571,-0.999091 -0.256528,-1.869775 -0.443171,-1.934855 -0.186642,-0.06508 -0.258229,-0.24958 -0.159082,-0.410006 0.09915,-0.160422 -0.0983,-0.238382 -0.438774,-0.173249 -0.340473,0.06514 -0.993214,0.130577 -1.450535,0.145422 -0.588651,0.01912 -0.772188,0.181536 -0.628433,0.556158 0.27576,0.718619 -0.120552,0.668316 -0.694824,-0.08819 -0.306661,-0.403976 -0.472522,-0.459119 -0.479864,-0.159543 -0.0062,0.251798 0.410538,0.848688 0.926019,1.32642 0.961945,0.891501 0.919978,1.670999 -0.04677,0.868673 -0.444161,-0.368622 -0.537692,-0.346686 -0.537692,0.126118 0,0.314797 0.198438,0.584895 0.440973,0.600212 0.34521,0.0218 0.343654,0.06701 -0.0072,0.208174 -0.305967,0.123116 -0.176396,0.394078 0.408421,0.854093 0.471107,0.370575 0.980924,0.67377 1.132925,0.67377 0.152001,0 -0.03179,-0.251086 -0.408421,-0.557967 -0.655223,-0.533876 -0.65598,-0.548757 -0.01753,-0.344699 0.503055,0.160782 0.581781,0.102757 0.319911,-0.235786 -0.406175,-0.5251 -0.174302,-3.447659 0.273536,-3.447659 0.167558,0 0.21955,0.22177 0.115537,0.492824 -0.104013,0.271053 0.256535,0.906053 0.801217,1.411111 0.544682,0.505058 0.825266,0.918287 0.62352,0.918287 -0.201747,0 -0.568546,-0.198437 -0.815109,-0.440972 -0.361165,-0.355265 -0.408739,-0.269554 -0.244774,0.440972 0.111939,0.48507 0.246827,1.199445 0.299753,1.5875 0.154885,1.13562 0.530205,1.499306 1.547274,1.499306 0.917077,0 0.927882,-0.02096 0.271017,-0.525551 z m -1.389695,-0.797366 c -0.119916,-0.194027 -0.04991,-0.352777 0.155569,-0.352777 0.205478,0 0.373597,0.15875 0.373597,0.352777 0,0.194028 -0.07001,0.352778 -0.155569,0.352778 -0.08556,0 -0.253682,-0.15875 -0.373597,-0.352778 z m 43.479867,0.372689 c 0.43656,-0.364194 0.79375,-0.856114 0.79375,-1.093153 0,-0.635889 1.359305,-2.767898 2.889905,-4.532676 1.36959,-1.579132 1.69386,-2.836308 0.90125,-3.494116 -0.51264,-0.42545 -1.25891,-0.682395 -1.23427,-0.424966 0.009,0.09701 -0.33261,0.861458 -0.75977,1.698766 -0.70569,1.383273 -2.944365,3.208309 -3.649205,2.974947 -0.14552,-0.04818 -0.28959,0.428336 -0.32015,1.058926 -0.0764,1.575929 -0.0588,1.764358 0.23051,2.469444 0.20074,0.489219 0.0734,0.617362 -0.61372,0.617362 -1.14065,0 -3.089,0.689299 -3.089,1.092845 0,0.175045 0.91281,0.312985 2.02847,0.306529 1.45423,-0.0084 2.25318,-0.199193 2.82223,-0.673908 z m -45.25508,-6.722689 c 1.139506,0 1.988847,-0.359886 1.752366,-0.74252 -0.10735,-0.173697 -0.0025,-0.315813 0.233092,-0.315813 0.291056,0 0.253386,-0.197799 -0.117575,-0.617361 -0.474745,-0.536942 -2.032948,-5.474671 -2.032948,-6.442132 0,-0.191862 0.238125,-0.348841 0.529166,-0.348841 0.390934,0 0.529167,0.409261 0.529167,1.566679 0,0.861674 0.15875,1.664794 0.352778,1.78471 0.194028,0.119916 0.357605,0.724599 0.363505,1.343738 0.01744,1.830352 0.662619,0.302641 0.922586,-2.184587 0.321759,-3.078428 -0.375565,-6.095634 -1.998875,-8.648792 -1.337868,-2.104214 -1.604222,-3.29152 -0.371901,-1.657795 0.428681,0.568314 0.712305,0.704832 0.884728,0.425845 0.14332,-0.231895 -0.103419,-0.726281 -0.566882,-1.135849 -0.713515,-0.630541 -0.728544,-0.689578 -0.115106,-0.452163 0.946735,0.366413 2.394128,0.323014 4.93889,-0.148082 2.098097,-0.388408 2.088178,-0.390458 -1.130639,-0.233859 -3.097687,0.150703 -4.341659,0.01086 -4.333869,-0.487172 0.0078,-0.497523 6.160118,-0.401384 8.228795,0.128587 2.931848,0.751106 7.573604,0.615671 10.46488,-0.305333 1.261181,-0.401743 2.729618,-0.686272 3.263195,-0.632287 0.618709,0.0626 0.967331,-0.06976 0.962392,-0.365379 -0.01781,-1.066345 -1.401085,-3.412483 -2.454018,-4.162238 -1.526848,-1.087212 -2.542493,-2.084049 -3.444723,-3.380934 -0.728821,-1.04762 -0.824577,-1.077715 -2.979517,-0.936389 -1.224573,0.08031 -2.861496,0.298588 -3.637607,0.485066 -0.776111,0.186475 -1.887361,0.394825 -2.469445,0.462996 -1.650974,0.193361 -4.780939,1.485262 -6.526389,2.693787 -0.873125,0.604537 -1.27,0.995228 -0.881945,0.8682 0.912137,-0.298584 6.011731,-2.258431 7.496529,-2.881027 0.661194,-0.277244 1.146528,-0.333834 1.146528,-0.133682 0,0.190889 0.238125,0.34707 0.529166,0.34707 0.291042,0 0.529167,0.136892 0.529167,0.304208 0,0.167312 -0.84982,0.404085 -1.888488,0.526161 -1.038668,0.122075 -3.287313,0.785883 -4.996988,1.475129 -1.709675,0.689247 -3.315397,1.173784 -3.56827,1.076749 -0.252874,-0.09704 -0.552309,-0.0267 -0.665412,0.156305 -0.113103,0.183004 -1.051133,0.578524 -2.084511,0.878935 -3.244361,0.943162 -3.755811,2.183935 -2.387853,5.792919 0.482242,1.272265 1.077109,3.741956 1.321926,5.488206 0.244817,1.74625 0.854852,4.445 1.355633,5.997223 0.500781,1.552222 0.912537,3.166427 0.915014,3.587118 0.0025,0.420695 0.107531,1.033385 0.233454,1.361532 0.20829,0.542798 0.257622,0.545402 0.546696,0.02886 0.17476,-0.312282 0.693749,-0.567785 1.153308,-0.567785 z m -1.142976,-2.822222 c -0.213616,-0.84158 -0.226466,-1.411111 -0.03184,-1.411111 0.344022,0 0.465719,0.278052 0.810618,1.852083 0.336097,1.53386 -0.380507,1.128092 -0.778778,-0.440972 z m -0.795325,-3.023197 c -0.585557,-1.540132 -1.140103,-5.846244 -0.797063,-6.189281 0.188708,-0.188708 0.503342,0.937746 0.774141,2.771584 0.250921,1.699229 0.505535,3.367317 0.565808,3.706866 0.162248,0.914036 -0.148323,0.748612 -0.542886,-0.289169 z m 1.353491,-4.681477 c -0.160015,-1.090253 -0.01285,-1.820327 0.366921,-1.820327 0.132638,0 0.257809,0.635 0.278159,1.411111 0.04235,1.615261 -0.424595,1.911478 -0.64508,0.409216 z m -2.136043,-4.818938 c 0.09273,-0.485069 0.308838,-0.881944 0.480247,-0.881944 0.171408,0 0.311652,0.396875 0.311652,0.881944 0,0.508836 -0.203169,0.881945 -0.480247,0.881945 -0.322036,0 -0.424705,-0.290545 -0.311652,-0.881945 z m 0.61551,-1.940278 c 0.119916,-0.194028 0.288034,-0.352778 0.373597,-0.352778 0.08556,0 0.155569,0.15875 0.155569,0.352778 0,0.194028 -0.168119,0.352778 -0.373597,0.352778 -0.205479,0 -0.275485,-0.15875 -0.155569,-0.352778 z m 0.881944,-0.881944 c 0,-0.291042 0.15875,-0.529167 0.352778,-0.529167 0.194028,0 0.352778,0.238125 0.352778,0.529167 0,0.291041 -0.15875,0.529166 -0.352778,0.529166 -0.194028,0 -0.352778,-0.238125 -0.352778,-0.529166 z m -4.205483,-0.287775 c -0.04126,-0.949022 0.623735,-2.005281 1.26248,-2.005281 0.434765,0 0.470064,0.108306 0.15789,0.484452 -0.221133,0.26645 -0.292386,0.770259 -0.158339,1.119579 0.186762,0.486692 0.111064,0.584221 -0.3239,0.417312 -0.31219,-0.1198 -0.644718,-0.02829 -0.738949,0.203337 -0.09423,0.231634 -0.183864,0.132906 -0.199182,-0.219399 z m 19.510168,-0.307975 c -0.216048,-0.349571 -0.419358,-0.311041 2.334205,-0.44237 1.765083,-0.08418 2.089989,-0.03083 1.411112,0.231663 -1.148192,0.443974 -3.518727,0.577338 -3.745317,0.210707 z M 53.180429,70.03833 c -0.262272,-0.162095 -0.372261,-0.463956 -0.244421,-0.670807 0.252168,-0.408016 11.851638,-0.413026 11.852128,-0.0051 6.71e-4,0.564113 -1.572072,0.683797 -5.945504,0.452441 -3.264721,-0.172706 -4.783861,-0.131416 -4.9482,0.13449 -0.139081,0.225037 -0.434336,0.261839 -0.714003,0.08899 z m 17.693397,-0.63554 c -1.435004,-0.06831 -2.557639,-0.280709 -2.557639,-0.483906 0,-0.354792 4.010374,-0.393668 6.088497,-0.05902 1.129514,0.181892 0.950362,0.839121 -0.200289,0.734769 -0.425111,-0.03855 -1.923867,-0.12488 -3.330569,-0.191843 z M 60.425989,68.330155 c -0.119188,-0.19285 0.590581,-0.447347 1.634924,-0.586222 4.774281,-0.634883 4.933548,-0.640411 4.775344,-0.165798 -0.08445,0.253344 -0.580821,0.574901 -1.103049,0.714565 -0.64056,0.171313 -0.873397,0.130793 -0.715598,-0.12453 0.15805,-0.255732 -0.0414,-0.289338 -0.615008,-0.103625 -1.448972,0.469124 -3.755617,0.623192 -3.976613,0.26561 z m 6.356081,-4.177112 c -0.596426,-0.323183 -1.363357,-0.454593 -1.886611,-0.323264 -0.632525,0.158754 -0.839294,0.09233 -0.731732,-0.235077 0.224505,-0.683366 1.965157,-0.760176 2.928128,-0.129215 0.465702,0.305138 1.319197,0.554799 1.896656,0.554799 0.577459,0 1.148038,0.15875 1.267954,0.352778 0.346798,0.561132 -2.347698,0.3905 -3.474395,-0.220021 z M 56.145353,90.478621 c -0.119916,-0.194028 -0.407097,-0.350348 -0.638181,-0.347377 -0.252453,0.0032 -0.208941,0.141898 0.109014,0.347377 0.67773,0.437984 0.799855,0.437984 0.529167,0 z m 43.741952,-0.701517 c 0.123595,-0.199975 -0.018,-0.259115 -0.33196,-0.138645 -0.61116,0.234523 -0.72298,0.487384 -0.21553,0.487384 0.18257,0 0.42895,-0.156933 0.54749,-0.348739 z m -6.13144,-0.921893 c 0.32661,-0.295578 0.65495,-1.060855 0.72964,-1.700614 0.13098,-1.121968 0.0604,-1.195903 -1.99245,-2.085806 l -2.128255,-0.922609 1.058333,0.87141 c 0.582082,0.479277 1.177392,0.872201 1.322922,0.873164 0.14552,0.0011 0.26458,0.166088 0.26458,0.366942 0,0.525413 -1.32173,-0.229306 -2.946433,-1.682443 -1.278481,-1.143473 -1.466445,-1.202634 -3.175001,-0.9993 -0.998837,0.118872 -2.660604,0.307185 -3.692818,0.418476 -1.466645,0.158132 -1.832832,0.316798 -1.675765,0.726098 0.11054,0.288064 -0.047,0.868041 -0.350097,1.288838 -0.531082,0.73733 -0.5429,0.719469 -0.325744,-0.492259 0.167471,-0.934494 0.07763,-1.379929 -0.349889,-1.734736 -0.480818,-0.399044 -0.539714,-0.945342 -0.358866,-3.328765 0.19825,-2.612813 0.170638,-2.794501 -0.330038,-2.171573 -0.789323,0.982045 -1.054192,0.452783 -0.40331,-0.805889 0.648371,-1.253811 0.690877,-2.193333 0.182118,-4.025343 -0.351493,-1.265696 -0.430138,-1.322483 -1.646004,-1.188498 -0.702282,0.07739 -1.748992,0.0053 -2.326023,-0.160179 -1.559416,-0.447237 -5.885466,0.359957 -5.885466,1.098162 0,1.847258 2.477333,7.663953 4.579257,10.751944 0.528281,0.776112 1.235015,1.861665 1.57052,2.412341 0.485613,0.797055 0.784042,0.957548 1.46345,0.787029 0.476574,-0.119612 0.85344,-0.05842 0.85344,0.138579 0,0.194027 -0.395778,0.452109 -0.879507,0.573518 -1.325887,0.332778 -0.774386,0.727269 1.318733,0.943296 2.118924,0.218694 3.880817,-0.01933 3.592788,-0.48538 -0.106204,-0.171842 0.04117,-0.312438 0.32749,-0.312438 0.286325,0 0.573504,0.155801 0.638183,0.346223 0.406079,1.195607 9.328892,1.617762 10.564212,0.499812 z m -6.389676,-0.45836 c -1.983053,-0.215943 -4.93889,-1.520367 -4.93889,-2.179553 0,-0.390931 0.305506,-0.255655 1.869483,0.8278 0.782736,0.542244 1.477772,0.663995 3.351389,0.587061 3.999834,-0.164236 6.483044,-0.0091 6.236614,0.389618 -0.1242,0.20096 -0.80825,0.338646 -1.52012,0.305964 -0.71187,-0.03267 -1.691184,0.01704 -2.176254,0.11049 -0.485069,0.09345 -1.755069,0.07483 -2.822222,-0.04138 z m -8.643056,-0.740453 c -0.119917,-0.194027 0.01647,-0.352777 0.303106,-0.352777 0.286622,0 0.811929,-0.09234 1.167345,-0.20519 0.591334,-0.187759 0.58806,-0.157801 -0.03857,0.352778 -0.794826,0.647629 -1.128854,0.695494 -1.431879,0.205189 z m -0.590424,-2.605271 c -0.707351,-0.517225 -2.15931,-4.450285 -1.642903,-4.450285 0.197506,0 0.447361,0.337496 0.55523,0.749992 0.107868,0.412496 0.563816,1.476273 1.013213,2.363946 0.4494,0.887674 0.782591,1.648446 0.740431,1.690607 -0.04216,0.04216 -0.341849,-0.117257 -0.665971,-0.35426 z m -0.302238,-2.895261 c -0.29385,-0.890373 -0.307326,-1.378091 -0.04532,-1.640096 0.262001,-0.262001 0.363605,-0.173665 0.341662,0.297064 -0.01718,0.368473 0.08749,1.106515 0.232597,1.640092 0.38717,1.423716 -0.04025,1.183665 -0.528937,-0.29706 z M 75.8931,79.561252 c -0.392349,-0.15912 -1.634318,-1.4917 -2.759931,-2.961287 -1.675566,-2.1876 -1.979864,-2.786599 -1.678613,-3.304297 0.220729,-0.379321 0.389891,-0.455884 0.422779,-0.191354 0.03016,0.242535 0.07467,0.586493 0.09892,0.764353 0.06966,0.510826 0.573264,0.898215 0.573264,0.440973 0,-0.226367 0.165709,-0.411576 0.368243,-0.411576 0.202533,0 0.342474,0.198438 0.310979,0.440973 -0.151942,1.170086 0.168407,1.758615 1.951209,3.584674 1.938863,1.985902 2.017533,2.166546 0.713148,1.637541 z m 21.564305,9.799084 c 0.17179,-0.277957 0.0624,-0.338772 -0.33512,-0.186245 -0.37955,0.145648 -0.74528,-0.02184 -1.02468,-0.469216 -0.23896,-0.382633 -0.5644,-0.695699 -0.7232,-0.695699 -0.15881,0 -0.19806,0.146734 -0.0872,0.32608 0.11084,0.179341 0.001,0.394684 -0.24376,0.478532 -0.24491,0.08385 -0.17332,0.112254 0.1591,0.06312 0.33241,-0.04913 0.78841,0.132398 1.01333,0.403409 0.49887,0.601098 0.90339,0.627172 1.24155,0.08002 z m 2.01575,-0.405017 c 0.45035,-0.166412 0.574755,-0.448007 0.4172,-0.944404 -0.13497,-0.425238 -0.0643,-0.707294 0.177265,-0.707294 0.25195,0 0.21301,-0.188744 -0.104455,-0.506201 -0.5652,-0.5652 -4.84227,-1.173251 -4.82465,-0.685896 0.0194,0.536462 1.02898,1.680613 1.27013,1.439454 0.12667,-0.126669 0.024,-0.478931 -0.22823,-0.782804 -0.4051,-0.488124 -0.31847,-0.52814 0.74348,-0.343446 0.66111,0.11498 1.44014,0.470136 1.73118,0.789234 0.47037,0.515719 0.47037,0.539418 0,0.213297 -0.85707,-0.594237 -1.76389,-0.83347 -1.76389,-0.465346 0,0.187939 0.19994,0.341707 0.44431,0.341707 0.24437,0 0.64259,0.317501 0.88494,0.705556 0.52416,0.839318 0.17532,0.908145 -0.87481,0.172607 -0.48274,-0.33812 -0.84161,-0.402361 -0.98167,-0.175729 -0.12143,0.196473 0.17023,0.505883 0.64813,0.687578 0.4779,0.181695 0.98354,0.515846 1.12366,0.742558 0.14751,0.238683 0.34757,0.274137 0.47524,0.08422 0.12126,-0.18039 0.50924,-0.434679 0.86217,-0.565094 z M 78.017577,70.65429 c -0.388056,-0.220052 -0.822188,-0.57241 -0.964738,-0.783022 -0.162828,-0.240573 -0.26119,-0.175278 -0.264583,0.175638 -0.0073,0.752263 0.321246,1.031035 1.199924,1.018208 0.727657,-0.01062 0.72795,-0.01471 0.02939,-0.410824 z m 1.536968,-0.598085 c 0.333661,-0.21142 0.360373,-0.376372 0.08819,-0.544587 -0.214743,-0.132718 -0.390441,-0.07016 -0.390441,0.139016 0,0.231013 -0.380852,0.297233 -0.970139,0.168673 -0.747028,-0.162969 -0.848441,-0.125193 -0.440972,0.164264 0.640712,0.455151 1.080259,0.473784 1.713357,0.07263 z m -2.185518,-2.391319 c -0.550729,-0.288649 -1.093125,-0.433017 -1.205322,-0.320819 -0.112201,0.112197 -0.0094,0.203997 0.228395,0.203997 0.237818,0 0.358885,0.119063 0.269039,0.264583 -0.08985,0.145521 0.257973,0.289888 0.772929,0.32082 l 0.936287,0.05623 z m 1.447542,-1.439739 c 0.0028,-0.533576 -0.122523,-1.128889 -0.27868,-1.322916 -0.156157,-0.194028 -0.285517,-0.507559 -0.287465,-0.696737 -0.0021,-0.189177 -0.213885,-0.3997 -0.470972,-0.467829 -0.309563,-0.08204 -0.288713,0.0025 0.06174,0.250363 0.447379,0.316389 0.420116,0.378756 -0.176389,0.403511 -0.657736,0.0273 -0.651757,0.05522 0.08819,0.412087 0.930642,0.448832 1.081172,1.067241 0.176388,0.724633 -0.587964,-0.222641 -0.587964,-0.204113 0,0.389047 0.339549,0.342551 0.617362,0.770231 0.617362,0.950401 0,0.180168 0.05953,0.327579 0.132291,0.327579 0.07276,0 0.134652,-0.436562 0.137535,-0.970139 z m -3.092048,-0.05335 c 0,-0.174865 -0.595312,-0.656004 -1.322917,-1.069206 l -1.322916,-0.751272 1.234722,1.059716 c 1.385087,1.188766 1.411111,1.202796 1.411111,0.760762 z m -0.352778,-1.728438 c 0,-0.309834 -3.182391,-1.944388 -3.387086,-1.739692 -0.06973,0.06972 0.624158,0.544234 1.541963,1.054467 1.950921,1.084573 1.845123,1.045284 1.845123,0.685225 z m 0.79375,-0.660996 c -0.436562,-0.304532 -0.79375,-0.772457 -0.79375,-1.03983 0,-0.500804 -0.761202,-0.665675 -1.172848,-0.254032 -0.251814,0.251816 1.830394,1.850728 2.407571,1.848756 0.194028,-7.05e-4 -0.0044,-0.250366 -0.440973,-0.554894 z m 3.769865,-1.660321 c 0.247227,-0.461948 0.342731,-1.176323 0.212228,-1.5875 -0.130503,-0.411176 -0.08462,-0.747592 0.101956,-0.747592 0.186577,0 0.316336,-0.396763 0.288354,-0.881694 -0.05745,-0.995642 -0.626629,-1.137988 -1.411588,-0.353029 -0.606824,0.60682 -1.494903,0.693163 -1.814287,0.176389 -0.119916,-0.194028 0.02946,-0.352778 0.331957,-0.352778 0.302493,0 0.549988,-0.147108 0.549988,-0.326912 0,-0.548887 -1.190209,-0.621051 -1.985871,-0.120406 -1.214533,0.764208 -1.379898,-0.407981 -0.263955,-1.871053 0.50735,-0.665173 0.804802,-1.209407 0.660999,-1.209407 -0.143799,0 -0.0696,-0.231171 0.164892,-0.513715 0.507866,-0.611942 0.199217,-1.250174 -0.60459,-1.250174 -0.486562,0 -0.469671,0.08645 0.109015,0.557968 0.626632,0.510579 0.629906,0.540537 0.03857,0.352778 -0.355417,-0.112854 -0.801349,-0.20519 -0.990957,-0.20519 -0.189611,0 -0.2427,-0.165114 -0.117979,-0.366917 0.207574,-0.335862 -0.758642,-0.242373 -2.231922,0.215953 -0.252613,0.07859 -0.361146,-0.01591 -0.241187,-0.210023 0.11996,-0.194098 -0.578303,0.238919 -1.551694,0.962265 -0.973392,0.723343 -1.695649,1.389324 -1.605017,1.479956 0.09063,0.09063 0.352639,-0.02307 0.582239,-0.25267 0.507349,-0.507348 2.040231,-0.555939 2.040231,-0.06468 0,0.194028 -0.268467,0.352778 -0.596593,0.352778 -0.522465,0 -0.511507,0.06817 0.08819,0.548629 0.657586,0.526835 0.653258,0.533347 -0.108963,0.163975 -0.552865,-0.267917 -1.000832,-0.273823 -1.476114,-0.01947 -0.985881,0.527625 -1.542181,0.449597 -1.299698,-0.182302 0.123716,-0.322396 0.06253,-0.456293 -0.148816,-0.32567 -0.197399,0.121997 -0.993837,0.267042 -1.76986,0.322315 -0.776024,0.05527 -1.507728,0.197274 -1.62601,0.315556 -0.269557,0.269558 0.588597,3.410289 0.931808,3.410289 0.13874,0 0.5362,-0.313757 0.883244,-0.697237 0.731007,-0.807752 1.383316,-0.585851 1.129623,0.384274 -0.09575,0.366173 -0.03021,0.665755 0.145655,0.665755 0.175863,0 0.325033,-0.198437 0.331488,-0.440972 0.03316,-1.245965 2.251681,-2.814105 3.514171,-2.483958 0.52703,0.137823 0.736154,0.08182 0.588227,-0.157533 -0.126239,-0.204262 0.02416,-0.468732 0.334216,-0.58771 0.328939,-0.126227 0.477507,-0.441057 0.356699,-0.755876 -0.11702,-0.304952 0.01957,-0.626509 0.314149,-0.739549 0.744741,-0.285782 0.243602,-0.901746 -0.533087,-0.655235 -0.355398,0.1128 -0.727258,0.0739 -0.826356,-0.08645 -0.0991,-0.160341 0.08598,-0.302602 0.411284,-0.316131 0.325303,-0.01355 0.908961,-0.141898 1.297016,-0.285264 0.564282,-0.20847 0.599599,-0.184442 0.176389,0.119991 -0.42083,0.302725 -0.291895,0.381762 0.629772,0.386059 1.011368,0.0047 1.111028,0.08401 0.782669,0.622762 -1.718723,2.819947 -1.786581,2.988772 -1.392294,3.463861 0.219516,0.264496 0.904625,0.461899 1.522469,0.438673 1.352529,-0.05085 2.690718,0.602329 2.690718,1.313349 0,0.646275 -0.336935,0.639717 -1.213955,-0.02364 -0.747247,-0.565192 -1.257053,-0.668299 -1.252738,-0.253365 0.0025,0.230981 0.941278,0.778838 2.378498,1.387912 0.247364,0.104832 0.440972,-0.06202 0.440972,-0.38003 0,-0.311802 0.15875,-0.56691 0.352778,-0.56691 0.515479,0 0.430823,0.554394 -0.159459,1.044282 -0.639441,0.530691 -1.656524,0.239293 -3.732008,-1.069234 -1.054245,-0.664669 -1.863572,-0.938406 -2.377282,-0.804069 -1.121944,0.293395 -0.662526,0.729562 1.067125,1.013122 0.823602,0.135018 1.735582,0.446465 2.026624,0.692097 0.711292,0.600315 2.554083,1.561599 3.027193,1.579121 0.209748,0.0078 0.583636,-0.363833 0.830866,-0.825782 z m -0.791062,-2.560687 c -0.281844,-0.281845 0.03676,-0.832739 0.481602,-0.832739 0.182577,0 0.331957,0.238125 0.331957,0.529167 0,0.545539 -0.416264,0.700864 -0.813559,0.303572 z M 66.932927,58.170056 c 0.01693,-0.410969 0.100521,-0.49456 0.213137,-0.213138 0.101907,0.254659 0.08937,0.55893 -0.02785,0.676158 -0.117225,0.117225 -0.200604,-0.09114 -0.185287,-0.46302 z m 1.030483,0.205785 c -0.317956,-0.205479 -0.361468,-0.344131 -0.109015,-0.347376 0.231084,-0.0028 0.518265,0.153349 0.638181,0.347376 0.270688,0.437985 0.148563,0.437985 -0.529166,0 z m -0.176389,-0.894358 c -0.882163,-0.424904 -0.911525,-0.473873 -0.176389,-0.294192 0.999596,0.244319 2.123192,0.817005 1.5875,0.809134 -0.194028,-0.0028 -0.829028,-0.234576 -1.411111,-0.514942 z m 5.249883,4.227424 c 0.132102,-0.344251 0.06599,-0.458431 -0.178088,-0.30758 -0.213498,0.13195 -0.489492,0.08526 -0.61332,-0.103748 -0.123828,-0.189011 -0.674548,-0.453722 -1.223822,-0.58825 -0.837399,-0.205091 -0.979065,-0.142649 -0.877221,0.386655 0.07094,0.368713 0.454255,0.648116 0.92165,0.671809 0.440106,0.02229 0.901002,0.141372 1.024213,0.264583 0.373619,0.37362 0.725191,0.253482 0.946588,-0.323469 z m -1.865421,-2.292431 c 0.380734,-0.203765 0.599053,-0.521265 0.485154,-0.705556 -0.113899,-0.184294 -0.01251,-0.335079 0.225305,-0.335079 0.237817,0 0.328966,-0.103427 0.202554,-0.229841 -0.126412,-0.126411 -0.650769,0.191089 -1.165236,0.705555 -0.985977,0.985979 -0.898911,1.180987 0.252223,0.564921 z M 79.84928,57.47648 c 0.493593,-0.493592 0.46131,-0.52518 -0.332969,-0.325829 -0.748372,0.18783 -0.918602,0.07204 -1.14137,-0.776333 -0.237882,-0.905923 -0.286904,-0.932579 -0.536187,-0.291532 -0.200329,0.515165 -0.07043,0.870027 0.481397,1.315071 0.926162,0.746947 0.864002,0.743751 1.529129,0.07862 z m -1.398079,-2.488777 c -0.117228,-0.117224 -0.421499,-0.129755 -0.676159,-0.02783 -0.281421,0.112614 -0.197831,0.196208 0.213138,0.213135 0.371884,0.01531 0.580245,-0.06806 0.463021,-0.185286 z m -4.233334,-2.116666 c -0.117228,-0.117225 -0.421497,-0.129755 -0.676158,-0.02783 -0.281423,0.112613 -0.19783,0.196207 0.213136,0.213134 0.371886,0.01531 0.580247,-0.06806 0.463022,-0.185286 z m 5.381809,-14.183379 c -0.0047,-0.514092 -0.05267,-0.523405 -0.347377,-0.06737 -0.446475,0.690869 -0.446475,1.15788 0,0.881944 0.194028,-0.119916 0.350347,-0.486473 0.347377,-0.814571 z m -10.540371,-7.477559 0.244886,-0.880092 0.03517,0.831493 c 0.0406,0.960068 0.574645,0.863237 2.167773,-0.393057 0.752835,-0.593662 1.006879,-1.099503 1.017471,-2.025936 0.0078,-0.679098 -0.102515,-1.060052 -0.245064,-0.846561 -0.333221,0.499043 -1.85744,1.306174 -2.068348,1.095265 -0.08868,-0.08868 0.391947,-0.487627 1.068063,-0.886544 0.969388,-0.571952 1.271407,-1.010081 1.428452,-2.072203 0.109534,-0.740798 0.339315,-2.140652 0.510626,-3.110791 0.171312,-0.970139 0.233087,-1.894611 0.137279,-2.05438 -0.296312,-0.494135 -1.239916,1.177173 -1.057803,1.873574 0.111081,0.424773 0.01734,0.597888 -0.265081,0.489515 -0.247757,-0.09507 -0.367365,-0.531615 -0.276251,-1.00825 0.08838,-0.462318 -0.09391,-1.204062 -0.405077,-1.64832 -0.31117,-0.444257 -0.554606,-1.05023 -0.540969,-1.346606 0.01686,-0.36635 0.112061,-0.315504 0.297376,0.158821 0.264772,0.677695 0.284634,0.675168 0.693173,-0.0882 0.231325,-0.432235 0.653131,-0.785881 0.937346,-0.785881 0.284215,0 0.516755,-0.175735 0.516755,-0.390521 0,-0.236499 -0.243489,-0.28724 -0.617362,-0.128654 -0.339548,0.144028 -1.010196,0.239215 -1.490329,0.211528 -0.996434,-0.05746 -2.882671,0.754247 -3.510429,1.510649 -0.233007,0.280756 -0.493204,1.347514 -0.578214,2.37057 -0.08501,1.023055 -0.313113,2.018651 -0.506893,2.212431 -0.586311,0.586314 -0.396214,1.269553 0.353226,1.269553 0.40848,0 0.705556,-0.235187 0.705556,-0.558564 0,-0.307213 0.188515,-0.495727 0.418923,-0.418924 0.73188,0.24396 0.704797,0.90919 -0.04673,1.147713 -0.934226,0.29651 -0.952347,1.029858 -0.01942,0.785891 0.458562,-0.119917 0.705555,-0.01083 0.705555,0.311633 0,0.272877 -0.119062,0.47734 -0.264583,0.454364 -0.849526,-0.134137 -1.146528,0.154058 -1.146528,1.11252 0,0.961428 0.07203,1.032196 0.705556,0.693144 0.478363,-0.25601 0.705555,-0.260007 0.705555,-0.01242 0,0.200854 0.3175,0.365188 0.705556,0.365188 0.447382,0 0.695364,0.225901 0.677705,0.617361 -0.01664,0.368808 -0.09949,0.439823 -0.205788,0.176389 -0.09786,-0.242527 -0.561581,-0.440965 -1.030481,-0.440965 -0.605245,0 -0.852546,0.196293 -0.852546,0.676702 0,0.372188 -0.102538,0.943913 -0.227863,1.270504 -0.170552,0.444451 -0.06353,0.562152 0.425505,0.467971 0.359352,-0.06921 0.763566,-0.521868 0.898253,-1.005918 z m 0.54042,-6.524537 c 0.111683,-0.291042 0.543263,-0.510752 0.959067,-0.488244 0.59633,0.03228 0.625613,0.075 0.138646,0.202258 -0.339549,0.08873 -0.617362,0.30844 -0.617362,0.488241 0,0.179803 -0.153767,0.326912 -0.341705,0.326912 -0.187939,0 -0.25033,-0.238125 -0.138646,-0.529167 z M 67.861193,23.45084 c 0.103156,-0.394473 0.01082,-0.705556 -0.209416,-0.705556 -0.216658,0 -0.393923,-0.15875 -0.393923,-0.352778 0,-0.524316 1.527788,-0.426811 2.313398,0.147641 0.658357,0.481401 0.647515,0.509662 -0.285352,0.743797 -0.533342,0.133862 -0.969713,0.384923 -0.969713,0.557918 0,0.172992 -0.143887,0.314533 -0.31975,0.314533 -0.175864,0 -0.236723,-0.3175 -0.135244,-0.705555 z m 10.575953,-2.38125 c -0.08873,-0.339549 -0.161336,-0.06174 -0.161336,0.617361 0,0.679097 0.0726,0.95691 0.161336,0.617361 0.08873,-0.339549 0.08873,-0.895174 0,-1.234722 z M 72.86551,20.306042 c 0.308242,-0.195178 0.397767,-0.555964 0.239388,-0.964737 -0.243889,-0.629476 -0.27112,-0.628331 -0.756961,0.03182 -0.832266,1.130868 -0.562624,1.61689 0.517573,0.932915 z m -6.003101,-4.880897 c 0.423586,-1.697743 0.739818,-3.926591 0.702739,-4.952995 -0.07379,-2.0425639 0.21131,-2.5473448 1.492197,-2.6420071 0.465488,-0.034403 1.277554,-0.502568 1.804591,-1.0403703 0.527037,-0.5378024 1.12235,-0.9778225 1.322917,-0.9778225 0.442342,0 0.487151,-0.9409949 0.05746,-1.2065614 C 72.073346,4.5009616 71.843282,3.9564303 71.73106,3.3953189 71.327682,1.3784293 67.116262,0.58758798 64.082858,1.9591016 c -3.139436,1.419454 -5.105185,4.0796938 -5.499693,7.4427112 -0.438074,3.7343922 1.233267,6.7264432 4.617748,8.2667382 2.762981,1.257448 2.792564,1.239322 3.6615,-2.243406 z m -3.097823,32.314721 c -0.583043,-1.672523 -0.485527,-2.650134 0.677504,-6.792059 1.165335,-4.150127 2.237213,-6.563847 2.911128,-6.555455 0.330006,0.0041 0.33361,0.06911 0.01506,0.271664 -1.589612,1.010775 -3.91781,10.947178 -3.138129,13.393075 0.390103,1.223772 -0.02758,0.939172 -0.465567,-0.317225 z m 8.053861,0.622554 c -0.147514,-0.140215 -2.539413,-0.530161 -3.414065,-0.556588 -0.242535,-0.0073 -0.440972,-0.270888 -0.440972,-0.585685 0,-0.464647 0.098,-0.491032 0.520729,-0.140198 0.300973,0.249785 1.190347,0.378912 2.107436,0.305972 1.170476,-0.09309 1.612264,0.0065 1.684132,0.379588 0.08445,0.438394 0.169197,0.438637 0.636113,0.0018 1.057674,-0.98952 2.789728,-2.090247 2.602375,-1.653818 -0.414031,0.964459 -3.238721,2.68333 -3.695748,2.248923 z m -3.524034,-1.994482 c -0.693652,-0.428699 -0.308398,-0.616102 0.72733,-0.353801 0.676498,0.171323 0.751224,0.2736 0.320786,0.439057 -0.308636,0.118635 -0.780289,0.08027 -1.048116,-0.08526 z m -0.967707,-1.427822 c 0.07273,-0.218183 0.745321,-0.607466 1.494651,-0.865075 1.037217,-0.356577 1.244785,-0.363276 0.869597,-0.02805 -0.793472,0.708932 -2.520292,1.361267 -2.364248,0.893135 z M 76.0827,45.05848 c 0.0099,-0.482837 0.658393,-1.305885 0.865667,-1.09861 0.277901,0.2779 -0.164779,1.363193 -0.556034,1.363193 -0.173267,0 -0.312603,-0.119063 -0.309633,-0.264583 z m -2.122068,-1.105384 c 0,-0.415547 1.362784,-0.757523 1.585123,-0.397767 0.09609,0.15548 -0.07548,0.3787 -0.381279,0.496048 -0.781509,0.299893 -1.203844,0.265412 -1.203844,-0.09828 z m -1.336826,-0.605892 c -0.250184,-0.271473 -0.29924,-0.493586 -0.109014,-0.493586 0.366339,0 0.896665,0.671058 0.687416,0.869834 -0.06794,0.06454 -0.328217,-0.104775 -0.578402,-0.376248 z m -4.836785,-0.140808 c 0.119916,-0.194028 0.367409,-0.352778 0.549986,-0.352778 0.182577,0 0.331958,0.15875 0.331958,0.352778 0,0.194028 -0.247494,0.352778 -0.549986,0.352778 -0.302493,0 -0.451874,-0.15875 -0.331958,-0.352778 z m -0.529167,-1.411111 c -0.412353,-0.266481 -0.315008,-0.343165 0.440972,-0.347377 0.533577,-0.003 0.970139,0.153349 0.970139,0.347377 0,0.446056 -0.720889,0.446056 -1.411111,0 z m 9.5057,-0.440972 c -0.08981,-1.264702 -0.09486,-1.2813 -0.847774,-2.790159 -0.412108,-0.825866 -0.542901,-1.524783 -0.3631,-1.940277 0.265786,-0.614194 0.289055,-0.611149 0.42891,0.05613 0.08133,0.388056 0.433229,1.499306 0.781999,2.469445 0.400749,1.114735 0.530106,2.023551 0.351487,2.469444 -0.249975,0.624029 -0.29059,0.593457 -0.351522,-0.264583 z m -4.919589,-0.03005 c 0,-0.336673 -0.272575,-1.028139 -0.605722,-1.536583 -0.48772,-0.744355 -0.504901,-0.891061 -0.08819,-0.753054 0.284641,0.09427 0.753328,0.589619 1.041527,1.10078 0.415884,0.737626 0.434081,1.019302 0.08819,1.365186 -0.345886,0.345888 -0.435804,0.309506 -0.435805,-0.176329 z m -4.586111,-1.977602 c 0,-0.182576 0.15875,-0.430071 0.352778,-0.549987 0.194028,-0.119916 0.352778,0.02946 0.352778,0.331957 0,0.302493 -0.15875,0.549987 -0.352778,0.549987 -0.194028,0 -0.352778,-0.14938 -0.352778,-0.331957 z m 1.069138,-2.666654 c 0,-0.194028 0.153888,-0.590903 0.341973,-0.881944 0.188086,-0.291042 0.341974,-0.370417 0.341974,-0.176389 0,0.194027 -0.153888,0.590902 -0.341974,0.881944 -0.188085,0.291042 -0.341973,0.370417 -0.341973,0.176389 z M 75.018966,24.84113 c 0,-0.205479 0.15875,-0.275484 0.352777,-0.155568 0.194028,0.119916 0.352778,0.288036 0.352778,0.373599 0,0.08556 -0.15875,0.155568 -0.352778,0.155568 -0.194027,0 -0.352777,-0.16812 -0.352777,-0.373599 z m -0.352778,-4.906996 c 0,-0.187939 0.238125,-0.250329 0.529167,-0.138646 0.291041,0.111683 0.529166,0.265451 0.529166,0.341706 0,0.07626 -0.238125,0.138646 -0.529166,0.138646 -0.291042,0 -0.529167,-0.153768 -0.529167,-0.341706 z m 0.236657,-4.038167 c -0.105382,-0.274624 -0.06018,-0.949312 0.100457,-1.499305 0.260195,-0.890879 0.288047,-0.836398 0.255288,0.499316 -0.04034,1.644974 -0.07301,1.736788 -0.355745,0.999989 z m -4.064567,-2.322905 c -0.0017,-1.261181 0.123661,-2.610556 0.278538,-2.998612 0.159697,-0.400133 0.213112,0.439778 0.123393,1.940278 -0.206057,3.446198 -0.398075,3.951804 -0.401931,1.058334 z m 1.497803,-3.8206054 c 0.140294,-0.2270009 0.549982,-0.4127285 0.910417,-0.4127285 0.360436,0 0.73541,-0.1984375 0.833274,-0.4409722 0.106299,-0.2634337 0.189149,-0.1924185 0.205786,0.1763889 0.01531,0.3395486 -0.197291,0.6173611 -0.472462,0.6173611 -0.275172,0 -0.777465,0.1063526 -1.116205,0.2363396 -0.419906,0.1611325 -0.534721,0.1050035 -0.36081,-0.1763889 z M 81.302316,1.8432 C 80.997463,1.6006652 80.653155,0.99180388 80.53719,0.49017508 c -0.276232,-1.1949184 0.930536,-2.57721708 2.018319,-2.31189188 0.414553,0.1011153 1.06189,-0.044944 1.438523,-0.3245771 0.986148,-0.7321695 1.510929,-0.6321545 2.199841,0.4192538 0.597305,0.91160398 0.589805,0.94226348 -0.432841,1.76959168 C 85.188661,0.50560488 84.397271,1.1994003 84.002392,1.5843193 83.182614,2.3834217 82.110547,2.4862102 81.302316,1.8432 Z m 1.195539,-0.3351389 c -0.598738,-0.59873802 -0.528098,-1.16111562 0.08223,-0.65459402 0.396653,0.32919462 0.697206,0.29400182 1.395251,-0.1633746 0.753868,-0.4939528 0.826315,-0.6844355 0.474553,-1.2476989 -0.384242,-0.61526668 -0.810306,-0.67164338 -2.816335,-0.3726561 -0.545168,0.081254 -0.254225,2.12707512 0.352778,2.48062202 0.832803,0.4850635 1.023151,0.4693239 0.511528,-0.042298 z m 3.457222,-2.35569322 c 0,-0.44468238 -1.035572,-1.24188468 -1.286827,-0.99062608 -0.361266,0.3612646 0.177885,1.30020808 0.746591,1.30020808 0.29713,0 0.540236,-0.139312 0.540236,-0.309582 z"
       style="fill:#000000;stroke-width:0.35277781" />
  </g>
</svg>
