<?xml version="1.0" encoding="UTF-8" standalone="no"?>
<svg
   xmlns:dc="http://purl.org/dc/elements/1.1/"
   xmlns:cc="http://creativecommons.org/ns#"
   xmlns:rdf="http://www.w3.org/1999/02/22-rdf-syntax-ns#"
   xmlns:svg="http://www.w3.org/2000/svg"
   xmlns="http://www.w3.org/2000/svg"
   id="svg8"
   version="1.1"
   viewBox="0 0 60.729478 174.83105"
   height="174.83107mm"
   width="60.729477mm">
  <defs
     id="defs2" />
  <metadata
     id="metadata5">
    <rdf:RDF>
      <cc:Work
         rdf:about="">
        <dc:format>image/svg+xml</dc:format>
        <dc:type
           rdf:resource="http://purl.org/dc/dcmitype/StillImage" />
        <dc:title></dc:title>
      </cc:Work>
    </rdf:RDF>
  </metadata>
  <g
     transform="translate(-37.890411,42.551573)"
     id="layer1">
    <path
       id="path3510"
       d="m 55.745265,132.22832 c -0.0597,-0.0563 -1.21987,-0.20494 -2.57807,-0.33023 -1.35819,-0.12529 -3.27415,-0.47873 -4.25768,-0.78544 -1.47906,-0.46123 -2.4794,-0.50255 -5.78587,-0.23899 -3.21075,0.25591 -4.09132,0.22495 -4.47357,-0.15729 -0.61218,-0.61218 -0.62499,-0.49362 0.40345,-3.73399 1.37257,-4.32467 1.54704,-5.16459 1.62103,-7.80405 0.0997,-3.5556 0.22495,-3.70417 3.12334,-3.70417 h 2.42393 l 0.23041,-1.85208 c 0.32043,-2.5757 1.85946,-8.00774 3.18911,-11.256 0.76879,-1.87811 1.14013,-3.407328 1.19471,-4.919968 0.0436,-1.20715 0.33268,-2.685 0.64247,-3.28409 0.75415,-1.45838 1.93301,-3.02953 2.27311,-3.02953 0.42805,0 -0.0775,1.11139 -1.12333,2.46945 -0.75404,0.97917 -1.00198,1.78232 -1.19796,3.88056 -0.24464,2.619098 -1.02606,6.229108 -1.592,7.354748 -0.87257,1.7355 -1.78684,4.55747 -2.41753,7.46191 -0.34398,1.58408 -0.27655,7.20066 0.10517,8.76081 0.12779,0.52229 0.0673,0.7404 -0.16548,0.59654 -0.2018,-0.12472 -0.38274,-0.73333 -0.40208,-1.35247 -0.0193,-0.61914 -0.15071,-1.52258 -0.29194,-2.00765 -0.14122,-0.48507 -0.0996,-1.23981 0.0925,-1.67719 0.35794,-0.81504 0.0395,-1.57453 -0.40191,-0.95843 -0.13497,0.18841 -1.19482,0.38802 -2.35522,0.44358 -2.5753,0.1233 -2.7888,0.41607 -2.68297,3.67902 0.0431,1.32766 -0.10708,2.9756 -0.33364,3.66208 -0.36052,1.09239 -0.3305,1.30983 0.24059,1.74249 0.97191,0.73633 2.03149,0.67332 1.69149,-0.10058 -0.4871,-1.10873 -0.63199,-3.38034 -0.19853,-3.11245 0.21685,0.13402 0.39427,0.75818 0.39427,1.38702 0,1.52012 0.54852,1.99001 2.32304,1.99001 1.16439,0 1.59226,-0.17688 2.02482,-0.83704 0.30165,-0.46038 0.46014,-1.17475 0.35221,-1.5875 -0.24438,-0.93452 0.1704,-0.99403 0.51477,-0.0739 0.29983,0.80117 3.27413,3.23181 3.66161,2.99234 0.14764,-0.0913 0.37057,-0.71031 0.4954,-1.37569 0.12482,-0.66538 0.47819,-1.41387 0.78527,-1.66332 0.48481,-0.39383 0.51816,-0.36065 0.2533,0.25202 -0.16776,0.38805 -0.37052,1.44438 -0.45059,2.34739 -0.12839,1.44798 -0.0537,1.67101 0.63266,1.88885 0.42803,0.13585 2.01293,0.0549 3.52199,-0.17982 2.12258,-0.3302 3.17156,-0.3324 4.63338,-0.01 2.45983,0.54294 10.22324,0.4373 10.80762,-0.14707 0.35543,-0.35544 -2.20396,-1.53757 -3.78223,-1.74694 -1.12018,-0.14859 -2.2061,-0.61202 -3.19903,-1.36521 -3.02131,-2.29182 -3.26385,-2.40252 -4.75895,-2.17198 -0.77611,0.11968 -1.73439,0.42191 -2.12951,0.67162 -0.86427,0.54622 -4.01885,0.36016 -4.65347,-0.27446 -0.33542,-0.33542 -0.34625,-0.76383 -0.0466,-1.84154 0.54577,-1.96271 0.17003,-12.27161 -0.5848,-16.04472 -0.71416,-3.56984 -0.53829,-7.463128 0.498,-11.024308 0.57513,-1.97641 0.60721,-2.38125 0.18867,-2.38125 -0.77096,0 -0.61762,-0.45563 0.76098,-2.26114 0.72691,-0.95199 1.17878,-1.88239 1.06201,-2.18666 -0.11178,-0.2913 0.12128,-1.43377 0.51792,-2.53883 1.55955,-4.345101 1.76775,-5.031804 1.60528,-5.29468 -0.0927,-0.149934 0.21557,-1.445069 0.68495,-2.878084 0.46939,-1.433012 0.80574,-2.653165 0.74746,-2.711447 -0.0583,-0.05828 -0.49296,0.519592 -0.96594,1.284161 -0.47299,0.764571 -1.01873,1.362921 -1.21275,1.329668 -0.19403,-0.03327 -0.73746,0.151892 -1.20761,0.411435 l -0.85484,0.471896 0.74569,-0.947995 c 0.41014,-0.521395 1.15517,-1.270081 1.65563,-1.663749 1.93238,-1.52001 2.85484,-4.709993 3.38802,-11.716272 0.19059,-2.504394 0.42029,-4.672803 0.51045,-4.818684 0.26759,-0.432971 -0.57528,-2.577849 -1.3491,-3.433088 -0.49279,-0.544651 -1.11887,-0.79375 -1.99498,-0.79375 -1.82991,0 -4.90358,1.676442 -6.17246,3.366597 -0.58894,0.784472 -1.54705,1.739487 -2.12914,2.122251 -0.96143,0.632213 -1.0979,0.969987 -1.49048,3.688958 -0.4923,3.4097 -0.14175,8.736136 0.73532,11.172645 0.72345,2.009754 1.15359,6.460663 0.62436,6.460663 -0.2191,0 -0.39836,-0.515397 -0.39836,-1.145324 0,-1.02597 -1.70514,-6.821643 -1.92706,-6.549966 -0.0497,0.06081 0.0363,1.063068 0.19113,2.227235 0.15479,1.164166 0.47761,4.101041 0.71737,6.526389 l 0.43593,4.409721 -1.0239,2.29306 c -0.56314,1.26118 -1.78145,3.48927 -2.70736,4.9513 -3.07124,4.84959 -3.27084,5.73502 -3.27084,14.510018 0,4.20379 -0.11906,7.76244 -0.26458,7.9081 -0.14552,0.14566 -0.28938,-0.51568 -0.3197,-1.46965 -0.0303,-0.95397 -0.091,-2.13137 -0.13494,-2.61644 -0.22493,-2.48497 -0.20681,-10.897438 0.0255,-11.818048 0.35337,-1.40059 2.61838,-5.86378 4.20722,-8.29028 0.69875,-1.06716 1.58766,-2.96382 1.97534,-4.2148 0.63414,-2.046247 0.66713,-2.617677 0.32868,-5.69349 -0.20692,-1.880429 -0.52846,-3.949788 -0.71453,-4.598578 -0.18607,-0.648786 -0.34201,-2.84922 -0.34654,-4.889849 -0.007,-3.342785 0.16557,-5.089324 0.9169,-9.257118 0.16078,-0.891826 0.0582,-1.689845 -0.31936,-2.485581 -0.30588,-0.644313 -0.72803,-1.938644 -0.93809,-2.875985 -0.21006,-0.937345 -0.53014,-1.981197 -0.71129,-2.319669 -0.18114,-0.338473 -0.3504,-2.530567 -0.37611,-4.871315 l -0.0468,-4.255911 1.92931,-3.991621 c 2.65708,-5.497318 2.69097,-5.808577 1.00953,-9.270689 -2.25798,-4.649227 -2.86914,-6.135712 -2.86914,-6.978442 0,-0.43996 -0.14767,-1.314813 -0.32816,-1.944123 -0.30862,-1.07611 0.0618,-1.658521 0.44729,-0.703227 0.1063,0.263433 0.18915,0.192419 0.20579,-0.176389 0.0385,-0.852724 0.73341,-0.782176 0.73341,0.07445 0,0.380499 0.34743,1.015499 0.77207,1.411111 0.66087,0.615693 0.68476,0.7193 0.16583,0.7193 -0.53399,0 -0.51298,0.126146 0.17621,1.058333 0.43036,0.582084 1.06513,1.058334 1.4106,1.058334 0.40011,0 0.55778,0.183363 0.43432,0.505093 -0.32217,0.839561 -1.613,0.463095 -2.30544,-0.672374 -0.35802,-0.587092 -0.65155,-0.895971 -0.65227,-0.686396 -0.003,0.777713 1.70324,4.538067 2.12208,4.677682 0.23883,0.07961 0.73189,0.442401 1.0957,0.806203 0.3638,0.363802 0.89958,0.661458 1.19062,0.661458 0.29104,0 0.52917,0.238125 0.52917,0.529167 0,0.643294 -0.74348,0.690383 -1.39248,0.08819 -0.38884,-0.360793 -0.43374,-0.323476 -0.24694,0.205243 0.12557,0.355417 0.23074,0.831667 0.23371,1.058333 0.0134,1.025243 0.54987,1.330188 1.48579,0.844628 0.72739,-0.377374 0.83794,-0.594544 0.55764,-1.095421 -0.42796,-0.764716 -0.0243,-1.287032 0.43406,-0.561594 0.18032,0.285422 0.37846,0.663 0.4403,0.839061 0.0618,0.176061 1.24,-0.02237 2.61813,-0.440972 1.37814,-0.418596 3.04175,-0.761083 3.69691,-0.761083 1.01859,0 1.20188,-0.128866 1.26481,-0.889247 0.0405,-0.489088 0.29434,-1.24315 0.56414,-1.675695 0.2698,-0.432547 0.59911,-1.252033 0.73181,-1.821081 0.28076,-1.203985 1.75911,-3.086269 2.71115,-3.451916 0.79446,-0.305125 0.85467,-1.085744 0.13013,-1.687061 -0.29104,-0.241544 -0.52916,-0.873633 -0.52916,-1.404648 0,-0.531012 -0.45382,-1.821262 -1.00849,-2.86722 -0.55466,-1.045957 -1.28567,-3.171743 -1.62447,-4.723966 -0.71182,-3.261314 -2.37565,-7.7979126 -3.25938,-8.8870676 l -0.6084,-0.749818 -1.70119,0.862058 c -0.93565,0.47413 -2.32933,1.429544 -3.09706,2.123144 -0.87241,0.788169 -1.60366,1.181357 -1.94996,1.048469 -0.30474,-0.116942 -1.03503,0.03609 -1.62285,0.340061 -0.58782,0.303978 -1.17308,0.439868 -1.30057,0.301984 -0.12749,-0.137883 -0.0386,-0.319824 0.19756,-0.404318 0.23615,-0.08449 1.02388,-0.557068 1.75051,-1.050174 0.80752,-0.547998 1.3721,-0.743705 1.4522,-0.503392 0.0724,0.217148 1.02598,-0.298902 2.13005,-1.152709 1.09944,-0.850226 2.43482,-1.683776 2.9675,-1.85233 1.57691,-0.498969 3.96917,-2.633479 5.36843,-4.79000303 0.71876,-1.10775697 1.96824,-2.58796697 2.77662,-3.28935297 2.34659,-2.0360213 3.76225,-3.4577722 3.60226,-3.6177604 -0.0815,-0.08153 -0.65877,0.1064542 -1.28275,0.4177382 -1.38204,0.6894548 -1.4046,0.6906437 -1.16316,0.061461 0.10648,-0.2774844 0.65553,-0.6655435 1.2201,-0.8623547 0.71753,-0.2501336 0.96311,-0.5230072 0.81591,-0.9065966 -0.24967,-0.6506474 0.25346,-0.7246542 0.85269,-0.1254231 0.32926,0.3292581 0.42333,0.2387142 0.42333,-0.4074548 0,-0.771917 0.0442,-0.790813 0.62335,-0.2666689 0.57584,0.5211346 0.75057,0.4849325 2.29305,-0.4751381 0.91834,-0.571591 1.66972,-1.167097 1.66972,-1.323346 0,-0.15625 1.0104,-1.025984 2.24535,-1.932743 1.33237,-0.978295 2.80062,-2.476248 3.61098,-3.684012 0.75109,-1.119448 1.8838,-2.63113 2.51714,-3.359293 0.63334,-0.728163 1.16475,-1.442538 1.18092,-1.5875 0.0833,-0.746469 0.22734,-1.833488 0.43237,-3.262178 0.15049,-1.04862 0.0697,-1.869846 -0.23792,-2.419269 l -0.46575,-0.831768 -0.76099,1.459993 c -0.41855,0.802996 -0.76099,1.729638 -0.76099,2.059205 0,0.942756 -2.04126,3.691965 -3.54245,4.771038 -0.75233,0.540785 -1.28724,1.184893 -1.19141,1.434628 0.10132,0.264035 -0.7964,1.165597 -2.15067,2.159862 -1.27852,0.938658 -2.55075,2.029557 -2.82719,2.424224 -0.27643,0.394666 -0.59961,0.62057 -0.71818,0.502008 -0.35034,-0.350338 1.28035,-2.310379 2.27783,-2.737896 0.93319,-0.399961 3.55724,-2.472025 3.13056,-2.472025 -0.90022,0 -7.91824,4.75143 -7.42242,5.025224 0.1502,0.08294 0.0596,0.09667 -0.20126,0.0305 -0.2609,-0.06617 -1.61027,1.031411 -2.99861,2.439068 -1.38834,1.407658 -3.23725,2.9562526 -4.10868,3.441322 -2.12738,1.1841692 -4.57072,3.7000284 -4.82419,4.9673654 -0.11328,0.56642 -0.3194,1.029857 -0.45803,1.029857 -0.13863,0 -0.43288,0.396875 -0.65389,0.881944 -0.45413,0.99670297 -1.34399,1.24465997 -0.94954,0.26458397 0.36979,-0.91877797 0.60514,-2.55763897 0.3673,-2.55763897 -0.11419,0 -1.11591,0.460216 -2.22604,1.022699 -2.56819,1.30127 -5.24345,3.917788 -5.54653,5.424742 -0.39016,1.940002 -0.56346,2.372003 -0.95153,2.372003 -0.23178,0 -0.29855,-0.47215 -0.1747,-1.235315 0.18457,-1.137408 0.14629,-1.206327 -0.48301,-0.869533 -0.44187,0.236481 -0.68347,0.738184 -0.68347,1.419267 0,0.772456 -0.22803,1.157382 -0.85481,1.442963 -0.47015,0.21421 -0.95092,0.772382 -1.06837,1.240377 -0.26403,1.051973 0.37235,3.5172016 1.21374,4.7017836 0.3458,0.486847 0.89306,1.520179 1.21613,2.29629 0.92204,2.215011 2.56151,3.704167 4.07807,3.704167 0.69924,0 1.4592,-0.187854 1.6888,-0.417453 0.2296,-0.229602 0.53891,-0.295994 0.68736,-0.147545 0.45196,0.451957 -1.02413,1.270553 -2.29105,1.270553 -0.65587,0 -1.43931,0.246821 -1.74098,0.548492 -0.68518,0.685172 -3.58459,0.524299 -3.97894,-0.220772 -0.14675,-0.277258 -0.36873,-1.416519 -0.4933,-2.531685 -0.12457,-1.115166 -0.53602,-3.35504 -0.91433,-4.9775 -0.72948,-3.1285356 -0.5652,-4.9728396 0.52344,-5.8763246 1.02173,-0.847962 0.63162,-2.417696 -0.97618,-3.927902 -0.82462,-0.77457 -1.93461,-1.66876303 -2.46664,-1.98710203 -1.36463,-0.816515 -1.81394,-2.47869397 -1.52674,-5.64805357 0.27971,-3.0867315 1.23955,-5.2583098 2.45952,-5.5645028 0.46135,-0.115791 1.17733,-0.599854 1.59107,-1.075696 0.86844,-0.998795 2.38877,-1.665622 3.14014,-1.377293 0.28492,0.109334 0.90131,-0.05234 1.36976,-0.359278 0.48006,-0.314547 1.34352,-0.502951 1.97876,-0.431758 1.17588,0.131784 0.88269,0.383756 -0.90143,0.774687 -1.31111,0.287288 -1.22444,0.783506 0.17639,1.00992 0.8768,0.141715 1.2641,0.02106 1.64629,-0.512855 0.48291,-0.674633 0.544,-0.649758 1.81249,0.737942 1.22968,1.345252 2.57086,3.6266736 2.60952,4.4389586 0.009,0.1977566 0.39005,0.7533816 0.84586,1.2347222 0.4558,0.4813441 0.93499,1.1514385 1.06485,1.4891068 0.1995,0.5187388 0.5816,0.3126282 2.46419,-1.3292349 1.22544,-1.0687439 2.73063,-2.2015874 3.34487,-2.5174293 0.61424,-0.3158416 2.30742,-1.7160704 3.76263,-3.1116194 2.22851,-2.137153 8.23766,-6.532045 8.93128,-6.532045 0.44331,0 4.17757,-2.798361 4.81409,-3.607566 0.3682,-0.468085 1.11652,-2.189435 1.66293,-3.825221 0.54641,-1.635787 1.03394,-3.040543 1.0834,-3.12168 0.0495,-0.08114 0.48113,0.06185 0.95929,0.317752 0.47815,0.255901 0.78604,0.600098 0.6842,0.764883 -0.10184,0.164785 -6e-5,0.29961 0.22617,0.29961 0.24305,0 0.3167,-0.24665 0.18,-0.602864 -0.15221,-0.396665 0.046,-0.828506 0.57962,-1.262577 l 0.81096,-0.659713 -0.93737,0.202739 c -0.51554,0.111507 -1.19023,0.299776 -1.4993,0.418376 -0.30907,0.1186 -0.56194,0.03929 -0.56194,-0.176239 0,-0.215531 0.73401,-0.588192 1.63113,-0.828135 1.9166,-0.512614 2.14068,-0.888045 1.393,-2.333894 -0.77395,-1.496676 -0.6871,-3.101594 0.28029,-5.179054 0.88692,-1.904634 2.56107,-3.554703 3.96378,-3.906762 0.4751,-0.119243 1.86534,-0.153034 3.08941,-0.07509 2.44396,0.15562 3.66815,0.877532 5.18461,3.057403 0.92933,1.33587 1.0828,3.944716 0.31664,5.38227 -1.51558,2.843676 -3.32425,4.199652 -5.60173,4.199652 -1.21518,0 -1.49706,0.149852 -1.95779,1.040814 -0.29603,0.572448 -0.53823,1.284438 -0.53823,1.5822 0,0.297763 -0.46421,1.297834 -1.03159,2.22238 -0.56737,0.924547 -1.14104,2.120871 -1.27481,2.658497 -0.13378,0.537627 -0.78429,1.423492 -1.44559,1.968589 -0.66129,0.545098 -1.8875,2.03423 -2.72489,3.309183 -0.83739,1.274954 -2.05669,3.008464 -2.70955,3.852245 -1.6496,2.131986 -6.15049,6.6494257 -6.62508,6.6494257 -0.70866,0 -2.91754,2.2021907 -4.39677,4.3834547 -2.10055,3.09745197 -2.92409,4.025046 -6.5262,7.350809 -1.65581,1.52878 -1.78822,1.762915 -1.47011,2.599612 0.19228,0.505732 0.50786,2.051566 0.70129,3.4351806 0.35635,2.549007 1.43629,6.24344 2.32031,7.937677 0.26631,0.510395 0.48518,1.433593 0.48637,2.051551 0.001,0.61796 0.15551,1.52685 0.34291,2.019758 0.43245,1.137437 -0.0548,7.097875 -0.79556,9.731968 -0.29993,1.066546 -0.42068,2.098421 -0.26832,2.293055 0.80424,1.027399 1.41204,4.102192 1.36633,6.912152 -0.0454,2.78795 0.059,3.28205 1.30331,6.173611 0.77015,1.789642 1.36386,3.750762 1.37875,4.554227 0.0234,1.263724 -0.0936,1.46382 -1.12038,1.915749 -1.23364,0.542978 -1.38849,1.125781 -0.82301,3.097502 0.43041,1.500766 0.86744,7.383875 0.79537,10.70706 -0.0651,3.002802 -0.83889,8.390742 -1.60638,11.185468 -0.36694,1.336164 -0.41612,2.199993 -0.17498,3.07333 0.26113,0.945734 0.17705,1.697171 -0.37963,3.392895 -0.39327,1.19797 -0.85585,2.35497 -1.02796,2.57112 -0.59709,0.74988 -1.45775,5.03608 -1.46476,7.2947 -0.004,1.24878 -0.43629,4.969256 -0.96093,8.267726 -1.37811,8.66435 -1.10886,16.03337 0.6057,16.57755 0.33552,0.10648 1.49623,0.88177 2.57937,1.72284 1.4094,1.09442 2.42772,1.59205 3.58142,1.75019 1.74125,0.23866 4.03136,1.26656 4.74938,2.13172 0.37978,0.45762 0.24443,0.62736 -0.90555,1.13566 -1.56205,0.69042 -7.93148,0.7559 -9.92929,0.10206 -1.24096,-0.40613 -6.76861,-0.0993 -6.76861,0.37569 0,0.1444 0.635,0.51198 1.41111,0.81684 1.55647,0.61141 1.85427,1.52944 0.79375,2.44691 -0.58778,0.5085 -2.04176,1.02493 -2.27263,0.8072 z m 1.65527,-1.75005 c 0,-0.50769 -0.45855,-0.86477 -1.70465,-1.32744 -0.93755,-0.3481 -2.89629,-1.56211 -4.35276,-2.69779 l -2.64813,-2.06488 -0.83467,0.83467 c -0.73149,0.73149 -1.16659,0.83467 -3.51973,0.83467 -1.47678,0 -2.97739,-0.15646 -3.33469,-0.34768 -0.54554,-0.29196 -0.71645,-0.16478 -1.06663,0.79375 -1.40222,3.83819 -1.27474,3.974 3.44932,3.67455 2.78244,-0.17637 3.894,-0.0893 5.89805,0.46226 1.6613,0.45719 3.39304,0.6555 5.29167,0.60599 2.54715,-0.0664 2.82222,-0.14129 2.82222,-0.7681 z m -0.88195,-10.04098 c 0.097,-0.85632 0.37341,-1.62172 0.61421,-1.70088 0.31424,-0.10331 0.37653,0.16255 0.22067,0.94186 -0.22595,1.12971 0.29757,2.14589 1.10551,2.14589 0.24359,0 1.03102,-0.24573 1.74985,-0.54608 1.12224,-0.4689 1.2427,-0.62351 0.8523,-1.09392 -0.52177,-0.6287 -0.66892,-1.18372 -0.80447,-3.0343 -0.0533,-0.72761 -0.12241,-1.62486 -0.15359,-1.99391 -0.0491,-0.58141 -0.2988,-0.65589 -1.87021,-0.55788 -1.01352,0.0632 -1.94486,0.32029 -2.11127,0.58279 -0.22335,0.35234 -0.2991,0.35951 -0.30315,0.0287 -0.003,-0.24252 -0.16415,-0.44096 -0.35818,-0.44096 -0.19403,0 -0.35278,0.47625 -0.35278,1.05833 0,0.6086 0.18739,1.06063 0.44097,1.06374 0.29287,0.004 0.31516,0.0924 0.0664,0.26458 -0.20602,0.14255 -0.57917,1.19245 -0.82922,2.33311 -0.37836,1.72598 -0.3747,2.12541 0.0218,2.38081 0.96949,0.62445 1.53148,0.15419 1.71117,-1.43189 z m 0.52917,-4.96313 c -0.11992,-0.19402 -0.0499,-0.35277 0.15557,-0.35277 0.20548,0 0.3736,0.15875 0.3736,0.35277 0,0.19403 -0.07,0.35278 -0.15557,0.35278 -0.0856,0 -0.25368,-0.15875 -0.3736,-0.35278 z m 1.5875,-1.73024 c 1.17879,-0.20974 1.2442,-0.29937 1.44393,-1.97875 0.11506,-0.96748 0.54096,-3.66406 0.94643,-5.99239 0.40547,-2.32834 0.84116,-6.138338 0.9682,-8.466668 0.12703,-2.32834 0.45466,-5.0144 0.72806,-5.96903 0.2734,-0.95463 0.43149,-1.80129 0.3513,-1.88148 -0.17856,-0.17856 -1.29406,0.96444 -1.83891,1.88424 -0.21978,0.37103 -0.5157,0.56389 -0.6576,0.42857 -0.40583,-0.38698 1.2333,-2.76994 2.1433,-3.11592 0.45121,-0.17155 1.07943,-0.81284 1.39603,-1.42509 0.60139,-1.16295 1.15058,-4.91435 0.71945,-4.91435 -0.13669,0 -0.64926,0.47625 -1.13905,1.058333 -0.48979,0.582083 -1.03516,1.058333 -1.21195,1.058333 -0.66022,0 -0.28124,-0.733813 1.0015,-1.939145 0.72761,-0.683697 1.0407,-1.143406 0.69576,-1.021577 -0.34494,0.121831 -0.78709,0.520333 -0.98255,0.88556 -0.37493,0.700553 -1.3889,0.919716 -1.3889,0.300203 0,-0.20012 0.23441,-0.453802 0.52091,-0.563746 0.28651,-0.109939 1.06539,-0.957752 1.73085,-1.884023 0.98349,-1.368955 1.31568,-2.304952 1.77501,-5.001462 0.3108,-1.824531 0.62174,-4.424549 0.69098,-5.777819 0.14609,-2.855365 -0.76975,-12.888658 -1.22047,-13.370627 -0.18436,-0.19715 -0.56859,-0.08881 -0.96848,0.273089 -0.36458,0.329939 -0.91008,0.505033 -1.21221,0.389093 -0.45076,-0.172974 -0.58334,0.189463 -0.73889,2.019967 -0.10426,1.226922 -0.33935,4.002457 -0.52242,6.16786 -0.3584,4.239091 -1.95767,11.412086 -3.68415,16.524016 -0.58977,1.74625 -1.1103,3.862645 -1.15673,4.703115 -0.0503,0.91114 -0.35932,1.83695 -0.76528,2.29305 -1.04324,1.1721 -2.67758,8.7891 -2.44334,11.38747 0.27479,3.048208 0.62137,4.723308 0.97726,4.723308 0.1728,0 0.28046,0.11907 0.23923,0.26459 -0.0412,0.14552 0.11755,0.61137 0.35283,1.03523 0.31362,0.565 0.32808,1.03287 0.0542,1.75329 -0.36005,0.94702 -0.41369,5.98832 -0.0701,6.58867 0.0923,0.16124 0.58703,0.17856 1.09944,0.0385 0.51241,-0.14008 1.48728,-0.35355 2.16637,-0.47438 z m -2.74234,-3.64973 c -0.23796,-0.65808 -0.42147,-1.42336 -0.4078,-1.70063 0.0137,-0.27726 0.25446,0.12289 0.53508,0.88924 0.28063,0.76634 0.46414,1.53162 0.40781,1.70062 -0.0563,0.169 -0.29712,-0.23115 -0.53509,-0.88923 z m 2.14073,-3.26308 c 0.48452,-1.86549 0.57781,-2.72337 0.64459,-5.92748 0.0396,-1.897768 0.21127,-3.536628 0.38159,-3.641888 0.17033,-0.10527 0.21315,-0.49554 0.0952,-0.86727 -0.13061,-0.41152 -0.0477,-0.67586 0.21192,-0.67586 0.82758,0 -0.2169,10.592318 -1.12933,11.452878 -0.27595,0.26026 -0.33454,0.16246 -0.20394,-0.34038 z m 0.49454,-15.745408 c -1.11589,-1.2717 -1.39096,-2.67488 -0.29343,-1.49681 0.77191,0.82854 1.57478,2.25081 1.38035,2.44524 -0.0746,0.0746 -0.56372,-0.35219 -1.08692,-0.94843 z m 0.72443,-2.30351 c 0.24254,-0.0979 0.44097,-0.32225 0.44097,-0.49863 0,-0.42327 1.45739,-2.08995 1.82751,-2.08995 0.52905,0 0.29927,0.6394 -0.62414,1.73682 -0.50232,0.59697 -1.17701,1.07286 -1.49931,1.05755 -0.36651,-0.0174 -0.42083,-0.0945 -0.14503,-0.20579 z m -8.68625,-32.133724 c 0.43881,-0.559526 0.42633,-0.572004 -0.13319,-0.133194 -0.58764,0.460858 -0.77452,0.750555 -0.48417,0.750555 0.0733,0 0.35107,-0.277812 0.61736,-0.617361 z m 14.34311,-1.675694 c 0.71384,-0.48507 1.49917,-0.881945 1.74517,-0.881945 0.246,0 0.44728,-0.15875 0.44728,-0.352777 0,-0.194028 -0.15875,-0.352778 -0.35278,-0.352778 -0.19403,0 -0.35278,-0.1905 -0.35278,-0.423334 0,-0.329258 0.0941,-0.329258 0.42333,0 0.23284,0.232834 0.62473,0.423334 0.87088,0.423334 0.44217,0 0.43243,-0.207349 -0.0746,-1.5875 -0.14257,-0.388056 -0.29072,-0.992812 -0.32921,-1.343904 -0.0793,-0.722788 -1.47145,-2.249561 -1.77472,-1.946289 -0.10912,0.109114 -0.0711,1.052795 0.0845,2.09707 0.40108,2.692294 0.22598,3.304173 -1.15897,4.050016 -0.66888,0.360218 -1.21615,0.777593 -1.21615,0.927495 0,0.438531 0.31137,0.326129 1.68811,-0.609388 z m -13.43066,0.2462 c 0.23556,-0.149687 0.5069,-0.821944 0.60297,-1.493901 0.0961,-0.671961 0.2815,-1.588311 0.41206,-2.036336 0.1873,-0.642736 0.0787,-0.856089 -0.51477,-1.011283 -0.41369,-0.108179 -0.75215,-0.355441 -0.75215,-0.549469 0,-0.194028 0.33004,-0.266471 0.73342,-0.160983 0.50928,0.133177 0.67942,0.05107 0.55673,-0.268648 -0.0972,-0.253241 0.001,-0.638531 0.21908,-0.856202 0.21767,-0.217674 0.24495,-0.398198 0.0606,-0.401168 -0.18433,-0.0028 -0.1581,-0.122033 0.0583,-0.264583 0.21638,-0.142551 0.49606,-0.588547 0.62151,-0.991101 0.17194,-0.551766 0.0101,-0.848572 -0.65748,-1.205855 -0.48705,-0.260667 -0.82117,-0.538321 -0.74248,-0.617012 0.13025,-0.130256 2.3253,0.876847 2.3253,1.066867 0,0.04481 -0.15363,0.636041 -0.3414,1.313858 -0.31144,1.124211 -0.29596,1.17228 0.17638,0.547606 0.5072,-0.670768 0.5178,-0.669322 0.5178,0.07066 0,0.415498 -0.27781,0.919187 -0.61736,1.119304 -0.52226,0.307806 -0.53934,0.415046 -0.11088,0.6962 0.41785,0.274182 0.42638,0.428868 0.0487,0.883906 -0.25176,0.303357 -0.36755,0.786624 -0.2573,1.073922 0.11024,0.287299 0.0486,0.61619 -0.13693,0.730868 -0.18555,0.114681 -0.33232,0.397577 -0.32615,0.62866 0.007,0.268799 0.16603,0.229528 0.44098,-0.109015 0.23636,-0.291042 0.81817,-0.572516 1.29291,-0.6255 0.47474,-0.05298 1.12224,-0.330796 1.43889,-0.617361 0.31665,-0.286565 0.7811,-0.521028 1.03212,-0.521028 0.36214,0 0.3564,-0.120534 -0.0278,-0.583681 -0.45047,-0.543056 -0.40559,-0.543056 0.64484,0 0.62095,0.321024 1.32283,0.583681 1.55972,0.583681 0.23689,0 0.71804,0.260025 1.06922,0.577836 0.59724,0.540498 0.65903,0.523399 0.95623,-0.264584 0.18997,-0.503689 0.18765,-1.090654 -0.006,-1.45978 -0.25766,-0.491705 -0.17737,-0.617361 0.39446,-0.617361 0.40301,0 0.71797,0.232135 0.71797,0.529167 0,0.291041 0.17818,0.529166 0.39597,0.529166 0.27358,0 0.26023,0.163562 -0.0432,0.529167 -0.28132,0.338967 -0.30314,0.529167 -0.0607,0.529167 0.62699,0 1.0928,-1.153778 0.73542,-1.821565 -0.19876,-0.37138 -0.19535,-0.684463 0.009,-0.810658 0.20445,-0.126355 0.20905,-0.576492 0.0119,-1.167935 -0.1764,-0.52929 -0.30066,-1.200467 -0.27614,-1.491509 0.10322,-1.224844 -0.10317,-1.76554 -0.68392,-1.791741 -0.40145,-0.0181 -0.456,-0.09246 -0.15597,-0.212591 0.25376,-0.101607 0.73001,0.04553 1.05833,0.326969 1.16714,1.000488 1.35662,0.971271 1.1872,-0.183071 -0.0902,-0.614687 -0.53775,-1.411576 -0.9945,-1.770863 -1.00642,-0.791647 -1.17608,-2.473304 -0.21311,-2.112412 0.54063,0.202611 0.55718,0.157385 0.13319,-0.363852 -0.26629,-0.32737 -0.68129,-0.595217 -0.92221,-0.595217 -0.57253,0 -1.68385,-2.926591 -1.50364,-3.959701 0.1338,-0.76696 0.15212,-0.771299 0.41049,-0.09724 0.60371,1.574994 1.11066,2.48436 1.53623,2.755709 0.24693,0.157445 0.36762,0.417894 0.26819,0.578775 -0.0994,0.160877 0.21473,0.551656 0.69814,0.868394 0.4834,0.316738 0.87891,0.413476 0.87891,0.214975 0,-0.198501 -0.18521,-0.360909 -0.41157,-0.360909 -0.22637,0 -0.30712,-0.104457 -0.17945,-0.232124 0.12767,-0.12767 0.0553,-0.44517 -0.16079,-0.705556 -0.27127,-0.326862 -0.27601,-0.473431 -0.0153,-0.473431 0.43538,0 -0.14607,-1.985313 -0.67768,-2.313866 -0.17434,-0.107745 -0.1587,0.22038 0.0347,0.729171 0.66924,1.760244 0.15146,2.287435 -0.61843,0.629666 -0.52789,-1.136689 -0.56673,-1.867193 -0.0993,-1.867193 0.72185,0 -0.1133,-1.075457 -0.99798,-1.285148 -0.51217,-0.121398 -1.19766,-0.451838 -1.5233,-0.734307 -0.39722,-0.344558 -0.86163,-0.422307 -1.41111,-0.236235 -0.45047,0.152542 -0.99916,0.24347 -1.21931,0.202068 -0.58608,-0.110225 -4.37634,0.920612 -4.85957,1.321661 -0.2274,0.188718 -0.95776,0.439021 -1.62303,0.556225 -1.49466,0.263323 -1.41548,0.171986 -1.4729,1.699126 -0.0263,0.698764 -0.17306,1.193034 -0.32621,1.098384 -0.15315,-0.09465 -0.4345,0.119496 -0.62523,0.475883 -0.28776,0.537672 -0.14064,0.758987 0.86424,1.300155 0.66607,0.358698 1.21103,0.801614 1.21103,0.984254 0,0.182636 -0.57563,-0.0075 -1.27918,-0.422667 -0.70355,-0.415106 -1.30799,-0.708596 -1.3432,-0.652208 -0.0352,0.05639 -0.57082,1.153886 -1.19026,2.438876 -1.33254,2.764293 -1.48246,4.816658 -0.42194,5.776415 0.51946,0.470105 0.60538,0.756592 0.32739,1.091558 -0.28742,0.346319 -0.0568,0.623094 0.97138,1.165581 0.74157,0.39128 1.22136,0.718436 1.06621,0.727008 -0.15516,0.0086 -0.75047,-0.22661 -1.32292,-0.522633 -1.60636,-0.830682 -1.24755,-0.392179 1.16405,1.422591 1.21267,0.912558 1.86076,1.5566 1.44019,1.431205 -0.71289,-0.212552 -0.85903,0.176558 -0.45527,1.212208 0.0378,0.09701 0.05,0.295451 0.027,0.440972 -0.0541,0.342593 0.71801,0.331407 1.26846,-0.01838 z m 2.92311,-2.828018 c 0,-0.42635 0.66929,-0.923428 0.91394,-0.67878 0.0888,0.08879 -0.0805,0.362253 -0.37625,0.607688 -0.33528,0.278253 -0.53769,0.305018 -0.53769,0.07109 z m -4.23334,-0.416793 c -0.31795,-0.205479 -0.36146,-0.344131 -0.10901,-0.347377 0.23108,-0.0028 0.51826,0.153349 0.63818,0.347377 0.27069,0.437984 0.14856,0.437984 -0.52917,0 z m 7.44202,-2.095846 c -0.35085,-0.216838 -0.36061,-0.347938 -0.0406,-0.545708 0.23165,-0.143165 0.57993,-0.101555 0.77396,0.09247 0.45974,0.459747 -0.13153,0.825176 -0.73335,0.453235 z m -7.26563,-0.373599 c -0.11991,-0.194028 -0.0499,-0.352778 0.15557,-0.352778 0.20548,0 0.3736,0.15875 0.3736,0.352778 0,0.194028 -0.07,0.352778 -0.15557,0.352778 -0.0856,0 -0.25368,-0.15875 -0.3736,-0.352778 z m 9.87992,-0.356235 c 0.12109,-0.195929 -0.29049,-0.785925 -0.91463,-1.311098 -1.83697,-1.545717 -3.14199,-3.056774 -3.13014,-3.624333 0.007,-0.357216 0.26486,-0.229419 0.79212,0.393283 1.33647,1.578392 3.82683,3.167073 4.58659,2.925936 0.49724,-0.157819 0.62733,-0.0859 0.46977,0.259732 -0.11984,0.262897 -0.31589,0.755806 -0.43566,1.095354 -0.11977,0.339549 -0.52611,0.617361 -0.90299,0.617361 -0.37688,0 -0.58615,-0.160306 -0.46506,-0.356235 z m -11.90839,-0.726119 c -1.20724,-0.637325 -1.82201,-1.739868 -0.97014,-1.739868 0.19403,0 0.43215,0 0.52917,0 0.097,0 0.1609,0.09421 0.14197,0.20936 -0.0189,0.115146 0.40765,0.670771 0.94795,1.234722 1.15024,1.200587 1.10447,1.22145 -0.64895,0.295786 z m 2.55764,-1.063392 -0.88195,-0.718947 1.14653,0.559463 c 0.63059,0.307704 1.14653,0.634757 1.14653,0.72679 0,0.350826 -0.56197,0.124901 -1.41111,-0.567306 z m -2.55764,-1.406052 c -1.52015,-0.802517 -1.60444,-1.041555 -0.59055,-1.674746 0.58839,-0.367453 0.64926,-0.557526 0.30959,-0.966805 -0.33658,-0.405546 -0.31489,-0.509429 0.10637,-0.509429 0.73746,0 1.5009,0.93961 0.9206,1.133042 -0.23647,0.07883 0.15377,0.504087 0.86722,0.945024 0.71345,0.440934 1.29719,0.853267 1.29719,0.916291 0,0.288541 -1.43172,-0.301064 -1.79553,-0.739422 -0.52119,-0.627998 -1.0267,-0.630414 -1.0267,-0.0049 0,0.267374 0.35719,0.735298 0.79375,1.03983 1.08877,0.759485 0.70542,0.699121 -0.88194,-0.138878 z m 11.72986,-0.03478 c 0,-0.161689 0.23813,-0.29398 0.52917,-0.29398 0.29104,0 0.52916,0.132291 0.52916,0.29398 0,0.161692 -0.23812,0.293984 -0.52916,0.293984 -0.29104,0 -0.52917,-0.132292 -0.52917,-0.293984 z m 1.06156,-0.466485 c -0.23977,-0.288904 -0.56239,-0.447139 -0.71692,-0.351635 -0.44218,0.273283 -1.42235,-0.217442 -1.18887,-0.59521 0.11552,-0.186923 0.42402,-0.25775 0.68556,-0.157388 0.30596,0.117408 0.40557,1.9e-4 0.27935,-0.328729 -0.22304,-0.581241 0.76582,-0.721861 1.11404,-0.158422 0.11992,0.194028 0.0499,0.352778 -0.15557,0.352778 -0.65438,0 -0.40121,0.616045 0.33196,0.807772 0.38806,0.101481 0.70556,0.358119 0.70556,0.570312 0,0.548989 -0.54335,0.477163 -1.05511,-0.139478 z m -7.65494,-0.33249 c -0.23087,-0.262988 -0.32731,-0.570611 -0.21431,-0.683612 0.113,-0.112999 -0.0156,-0.477887 -0.28579,-0.810864 -0.32504,-0.400586 -0.34205,-0.515778 -0.0503,-0.340483 0.24254,0.145711 0.44097,0.09681 0.44097,-0.10867 0,-0.751272 0.6282,-0.348012 0.7919,0.508346 0.0927,0.485069 0.0124,0.881944 -0.17846,0.881944 -0.19088,0 -0.14942,0.238125 0.0921,0.529167 0.54635,0.658305 -0.0193,0.681242 -0.59615,0.02416 z m 9.48616,-1.32945 c -0.23284,-0.232833 -0.42334,-0.720421 -0.42334,-1.083532 0,-0.546029 0.0797,-0.579586 0.46072,-0.194028 0.5854,0.592342 1.01367,1.700894 0.6571,1.700894 -0.14913,0 -0.46165,-0.1905 -0.69448,-0.423334 z m -4.47675,-1.336876 c -0.55574,-0.580058 -0.93411,-1.130967 -0.84084,-1.224241 0.27619,-0.276186 2.77532,1.644389 2.57065,1.975541 -0.31339,0.507076 -0.67446,0.350256 -1.72981,-0.7513 z m -7.6134,0.0047 c -1.15759,-0.611985 -2.45125,-1.772225 -1.97601,-1.772225 0.2771,0 3.41227,2.129807 3.41227,2.31805 0,0.210142 -0.0223,0.201654 -1.43626,-0.545836 z m 4.0631,-0.03906 c -0.13037,-0.210937 -0.0944,-0.526168 0.08,-0.700518 0.18748,-0.18748 0.317,-0.0308 0.317,0.383519 0,0.801592 -0.0653,0.853708 -0.39698,0.316999 z m 1.25371,0.03073 c 0,-0.194028 0.16812,-0.352778 0.3736,-0.352778 0.20548,0 0.27549,0.15875 0.15557,0.352778 -0.11991,0.194027 -0.28803,0.352777 -0.3736,0.352777 -0.0856,0 -0.15557,-0.15875 -0.15557,-0.352777 z m -7.40833,-0.352778 c -0.31795,-0.205479 -0.36147,-0.344131 -0.10901,-0.347377 0.23108,-0.0028 0.51826,0.153349 0.63818,0.347377 0.27069,0.437984 0.14856,0.437984 -0.52917,0 z m 4.74905,-0.374583 c -0.12731,-0.205998 -0.62248,-0.523201 -1.10038,-0.704896 -0.52596,-0.199969 -0.76939,-0.491367 -0.61678,-0.738304 0.13867,-0.22437 0.10096,-0.314516 -0.0838,-0.200325 -0.18476,0.114191 -0.56648,0.06178 -0.84826,-0.11648 -0.3827,-0.242101 -0.39548,-0.325466 -0.0505,-0.329502 0.2587,-0.0032 0.35109,-0.184527 0.21008,-0.412686 -0.16879,-0.273114 -0.0885,-0.313933 0.24376,-0.123906 0.81684,0.467169 2.12539,1.724395 2.48057,2.383275 0.35581,0.660065 0.15296,0.869989 -0.23465,0.242824 z m 7.77456,-1.036574 c -0.11991,-0.194028 -0.0593,-0.352778 0.13475,-0.352778 0.19403,0 0.45089,0.15875 0.57081,0.352778 0.11991,0.194028 0.0593,0.352778 -0.13475,0.352778 -0.19403,0 -0.45089,-0.15875 -0.57081,-0.352778 z m -10.05416,-2.469445 c -0.48507,-0.379426 -0.70811,-0.693395 -0.49565,-0.697709 0.21246,-0.0043 0.67363,0.309654 1.02481,0.697709 0.80439,0.888842 0.60715,0.888842 -0.52916,0 z m 3.87041,-2.842182 c -0.47949,-0.368448 -0.6928,-0.673435 -0.47403,-0.67775 0.21878,-0.0043 0.60164,0.237794 0.85081,0.538018 0.30684,0.369729 0.53004,0.421256 0.69169,0.159692 0.1659,-0.268418 0.35816,-0.242203 0.63052,0.08597 0.63125,0.760607 -0.67749,0.679006 -1.69899,-0.105932 z m 7.30088,0.137551 c -0.12935,-0.129349 -0.23518,-0.399224 -0.23518,-0.599722 0,-0.22105 0.16431,-0.200222 0.41745,0.05292 0.2296,0.229602 0.33543,0.499477 0.23519,0.599722 -0.10025,0.100249 -0.28811,0.07644 -0.41746,-0.05292 z m -14.89332,18.559897 c -0.52674,-0.582041 -0.57631,-0.853504 -0.25097,-1.37445 0.32842,-0.525883 0.2752,-0.766996 -0.28024,-1.269665 -0.60378,-0.546411 -0.68565,-0.553276 -0.68565,-0.05748 0,0.309661 0.16825,0.667004 0.37389,0.794095 0.23765,0.146876 0.15209,0.393259 -0.2348,0.676159 -0.57162,0.417975 -0.56753,0.468976 0.0671,0.83735 0.37167,0.215748 0.51702,0.408252 0.32299,0.427792 -0.19403,0.01954 -0.0353,0.171955 0.35278,0.338709 1.03448,0.444532 1.05434,0.422441 0.33492,-0.372512 z m 16.06925,0.01973 c 0,-0.194027 -0.25511,-0.352777 -0.56691,-0.352777 -0.35899,0 -0.49244,-0.194085 -0.36385,-0.529167 0.11168,-0.291042 0.0493,-0.529167 -0.13865,-0.529167 -0.57785,0 -0.3781,1.002076 0.27566,1.382854 0.77818,0.453252 0.79375,0.453806 0.79375,0.02826 z m -14.11111,-0.225689 c 0,-0.298175 -1.14563,-1.159915 -1.56103,-1.174199 -0.17947,-0.0062 -0.0207,0.296848 0.35278,0.673371 0.68967,0.695258 1.20825,0.910216 1.20825,0.500828 z m 14.46389,-1.185418 c 0,-0.194028 -0.15875,-0.352778 -0.35278,-0.352778 -0.19403,0 -0.35278,0.15875 -0.35278,0.352778 0,0.194028 0.15875,0.352778 0.35278,0.352778 0.19403,0 0.35278,-0.15875 0.35278,-0.352778 z m 1.41111,-0.155568 c 0,-0.08556 -0.15875,-0.253682 -0.35278,-0.373598 -0.19403,-0.119917 -0.35278,-0.04991 -0.35278,0.155568 0,0.205478 0.15875,0.373598 0.35278,0.373598 0.19403,0 0.35278,-0.07001 0.35278,-0.155568 z m 0.70555,-4.7625 c 0,-0.416228 -0.68804,-0.861483 -0.94074,-0.608785 -0.2527,0.252702 0.19256,0.940742 0.60878,0.940742 0.18258,0 0.33196,-0.14938 0.33196,-0.331957 z m -0.94541,-6.360604 c -0.2612,-0.2869 -0.78287,0.820328 -0.55795,1.184247 0.11768,0.190411 0.3254,0.03924 0.4616,-0.335937 0.1362,-0.375175 0.17956,-0.756916 0.0964,-0.84831 z m -1.17125,-8.095252 c 0,-0.372188 0.0964,-0.927813 0.21413,-1.234722 0.11777,-0.306913 0.0614,-0.558021 -0.12536,-0.558021 -0.18672,0 -0.51883,0.515938 -0.73803,1.146528 l -0.39854,1.146528 0.15835,-1.126807 c 0.12687,-0.902713 0.0153,-1.17221 -0.56101,-1.355126 -0.82845,-0.262939 -0.85151,-0.247431 -1.16887,0.785897 -0.18761,0.610877 -0.03,0.885924 0.74993,1.308795 1.33782,0.725343 1.8694,0.693191 1.8694,-0.113072 z m 0.9913,-4.466153 c 0.0702,-1.113793 -0.0118,-1.60983 -0.22845,-1.383534 -0.47904,0.500264 -0.69593,3.387425 -0.24332,3.238828 0.19933,-0.06544 0.41162,-0.900321 0.47177,-1.855294 z m -1.16242,-0.350043 c 0.2237,-1.009432 0.56246,-1.702044 0.80742,-1.650852 0.23212,0.04851 0.42203,-0.136948 0.42203,-0.412119 0,-0.275173 0.095,-0.791111 0.21113,-1.146527 0.11612,-0.355421 -0.4395,0.02233 -1.23472,0.839431 -1.21851,1.252036 -1.44586,1.714302 -1.44586,2.939813 0,2.00024 0.74647,1.657259 1.24,-0.569746 z m -16.05666,-9.658594 c 0,-0.184153 -0.54197,-0.748206 -1.20438,-1.253451 -0.66242,-0.505245 -1.54364,-1.584886 -1.95828,-2.399203 -0.41464,-0.814317 -0.66642,-1.189782 -0.5595,-0.834362 0.10691,0.355417 0.19438,1.336266 0.19438,2.179663 0,0.923674 0.22044,1.753891 0.55437,2.087813 0.59682,0.596829 2.97341,0.772304 2.97341,0.21954 z m 15.05765,-2.553543 c -0.11261,-0.281421 -0.19621,-0.197831 -0.21313,0.213138 -0.0153,0.371884 0.0681,0.580245 0.18528,0.463021 0.11723,-0.117228 0.12976,-0.421499 0.0279,-0.676159 z m -1.43495,-7.3432026 c -0.28936,-1.809532 -1.98936,-5.290651 -2.58369,-5.290651 -0.61947,0 -0.58659,0.128528 0.40751,1.593423 0.47475,0.69959 1.11419,2.135389 1.42097,3.190667 0.65316,2.2468096 1.07918,2.5325626 0.75521,0.506561 z m 2.64862,-5.563179 c 1.28513,-1.305316 3.08465,-3.48455503 3.99893,-4.84275 2.05842,-3.057853 3.81701,-4.9665536 5.25945,-5.7083924 1.63146,-0.8390572 6.56363,-5.818235 7.98419,-8.060277 1.59775,-2.521725 3.90642,-5.551697 4.52193,-5.93472 0.4528,-0.281778 1.48001,-2.342131 1.47138,-2.951252 -0.002,-0.151753 -0.401,0.227843 -0.88633,0.843546 -0.48533,0.615704 -1.3567,1.22363 -1.93637,1.350947 -0.57967,0.127317 -1.05395,0.378058 -1.05395,0.557202 0,0.793573 -5.50635,7.516329 -7.1653,8.748186 -1.00679,0.747596 -2.14766,1.714191 -2.53525,2.14799 -0.3876,0.4338 -1.18135,1.0426626 -1.76389,1.3530273 l -1.05917,0.5643033 1.02923,0.1933293 c 0.56608,0.1063343 1.09488,0.3906802 1.17512,0.631885 0.11009,0.3309338 -0.3589,0.3888458 -1.91117,0.2359942 -2.04826,-0.2016901 -2.06063,-0.1971992 -2.88811,1.0488189 -0.45708,0.6882554 -1.53585,1.8289024 -2.39727,2.5347724 -0.86142,0.705869 -2.17379,2.100304 -2.91638,3.09874297 -0.74259,0.998439 -1.76726,2.26008203 -2.27704,2.80365603 -0.50978,0.543574 -0.92688,1.080459 -0.92688,1.193084 0,0.371527 1.46374,2.581267 1.70447,2.573157 0.1297,-0.0044 1.28728,-1.075933 2.57241,-2.38125 z m -18.34048,-1.419835 c -0.45894,-0.07219 -0.97987,0.01418 -1.15761,0.191911 -0.19572,0.195714 0.13339,0.247484 0.83444,0.131265 0.97963,-0.162405 1.02932,-0.212094 0.32317,-0.323176 z m 3.12749,-2.55183603 c 1.06715,-1.02160897 2.55067,-2.13278097 3.29671,-2.46927197 0.7717,-0.348068 1.1899,-0.714717 0.97014,-0.85054 -0.21246,-0.131307 -0.54039,-0.143503 -0.72873,-0.02709 -0.18834,0.116399 -0.44835,-0.231419 -0.57781,-0.772929 -0.12945,-0.5415139 -0.39167,-1.1830051 -0.5827,-1.4255399 -0.6591,-0.8367924 0.51307,-0.4701398 1.3361,0.4179324 0.54141,0.5841859 1.0339,0.7966995 1.53976,0.6644115 0.94486,-0.2470859 0.93349,-0.4439606 -0.0893,-1.5470439 -1.05781,-1.1408022 -1.72218,-2.3742015 -1.48531,-2.7574699 0.10102,-0.1634529 -0.3545,-0.9142346 -1.01226,-1.6684126 -0.963,-1.104164 -1.28417,-1.285347 -1.64901,-0.930261 -0.2492,0.242534 -0.73518,0.440972 -1.07996,0.440972 -0.34478,0 -0.88602,0.395512 -1.20276,0.878915 -0.3234,0.493582 -0.7523,0.7732222 -0.97827,0.637837 -0.22131,-0.132593 -0.17247,0.042018 0.10852,0.3880238 0.281,0.3460062 0.47527,1.1582841 0.43171,1.8050634 -0.0436,0.6467792 0.0688,1.2674388 0.24973,1.3792447 0.18091,0.1118058 0.24593,0.5206259 0.14451,0.908491 -0.13773,0.5266795 -0.4813,0.7052025 -1.35718,0.7052025 -0.64501,0 -1.27247,0.16134 -1.39434,0.358532 -0.12187,0.197192 -0.35543,0.275812 -0.51902,0.17471 -0.55473,-0.342844 -0.14621,0.868496 0.66121,1.96058 0.75549,1.021859 0.83143,1.0483 1.27367,0.443494 0.53244,-0.72814 1.07867,-0.434149 0.75595,0.406859 -0.31634,0.82436397 -1.23335,1.04270497 -1.91681,0.456399 -0.33232,-0.28508 -0.88571,-0.618261 -1.22974,-0.740399 -0.53526,-0.190028 -0.5703,-0.118883 -0.24282,0.493024 0.21049,0.39330197 0.7301,0.84860697 1.15469,1.01178797 0.42459,0.163181 1.16886,0.476582 1.65393,0.696443 0.80102,0.363072 0.75601,0.384094 -0.49057,0.229126 -0.75488,-0.09385 -1.67784,-0.0072 -2.05102,0.1925 -0.4919,0.26325703 -0.8421,0.23511303 -1.27332,-0.102326 -0.52936,-0.414232 -0.54353,-0.399923 -0.12879,0.130041 0.36166,0.46214903 0.91464,0.57015503 2.46944,0.48233103 1.87543,-0.105932 2.12738,-0.231831 3.9437,-1.97063403 z m -3.29259,-2.34098697 c -0.12935,-0.12935 -0.23519,-0.399225 -0.23519,-0.599723 0,-0.22105 0.16432,-0.200222 0.41746,0.05292 0.2296,0.229602 0.33543,0.499477 0.23518,0.599723 -0.10024,0.100248 -0.2881,0.07644 -0.41745,-0.05292 z m 3.64537,-4.5518428 c 0,-0.7366917 1.44658,-2.2685269 2.14227,-2.2685269 0.84478,0 0.86588,0.3102437 0.0626,0.9200268 -0.55792,0.4235239 -0.5611,0.4697272 -0.033,0.479866 0.41102,0.0079 0.52898,0.2228956 0.3977,0.724909 -0.14681,0.5613964 -0.44088,0.6965703 -1.37808,0.6334548 -0.6553,-0.044132 -1.19145,-0.2645093 -1.19145,-0.4897297 z m -5.29167,7.25961677 c 0,-0.129424 -0.83343,-0.619178 -1.85208,-1.08834797 -1.01865,-0.469166 -2.04547,-1.091614 -2.28184,-1.383217 -0.36232,-0.447001 -0.43151,-0.377155 -0.44097,0.445135 -0.008,0.725516 0.27811,1.151273 1.11838,1.66227097 1.05212,0.639833 3.45651,0.893145 3.45651,0.364159 z m -2.6666,-0.521092 c -0.87697,-0.66330297 -0.25159,-0.67107797 0.90271,-0.01122 0.56531,0.323155 0.68451,0.508653 0.33201,0.516664 -0.30246,0.0069 -0.85809,-0.220574 -1.23472,-0.505446 z m 1.15687,-1.57717097 c 0.0332,-0.440284 -0.28576,-0.818137 -0.89506,-1.060443 -0.93211,-0.370677 -0.93295,-0.373902 -0.0546,-0.21082 0.67417,0.12517 0.97572,-0.02508 1.23472,-0.615251 0.20112,-0.458272 0.66283,-0.785245 1.11764,-0.791464 1.10437,-0.0151 1.45495,-0.508882 0.53256,-0.7500938 -0.42809,-0.1119505 -0.77835,-0.3267922 -0.77835,-0.4774319 0,-0.5133234 1.06221,-0.6831965 2.03154,-0.3248942 0.82765,0.3059324 0.74529,0.1584043 -0.57128,-1.0232743 -0.95436,-0.8565726 -1.38961,-1.4726708 -1.14653,-1.6229048 0.21551,-0.1331912 0.38655,-0.4312341 0.38009,-0.662318 -0.007,-0.2310844 -0.32763,-0.040839 -0.71372,0.4227661 -0.38609,0.4636046 -0.61669,1.1116574 -0.51244,1.4401147 0.20352,0.6412477 -0.89357,1.8724104 -1.51527,1.7004348 -0.20462,-0.056603 -0.60703,0.2124957 -0.89426,0.5979936 -0.48098,0.6455478 -0.44812,0.7345748 0.41607,1.1272098 0.86559,0.393273 0.82212,0.41064 -0.561,0.224148 -1.0559,-0.142374 -1.49931,-0.07473 -1.49931,0.22873 0,0.236993 0.3175,0.51392 0.70556,0.6154 0.38805,0.10148 0.70555,0.390888 0.70555,0.643132 0,0.252243 0.43657,0.61807 0.97014,0.812948 0.53358,0.194878 0.97605,0.366857 0.98326,0.382174 0.007,0.01531 0.0363,-0.27995 0.0647,-0.656156 z m -1.46854,-0.341425 c -0.10874,-0.175934 0.12002,-0.236791 0.50834,-0.135244 0.82373,0.215409 0.92786,0.455122 0.1977,0.455122 -0.27959,0 -0.59731,-0.143944 -0.70604,-0.319878 z m 14.10011,-1.728657 c -0.10862,-0.108617 -0.39328,-2.26e-4 -0.63258,0.24087 -0.34581,0.34841 -0.30529,0.38893 0.19749,0.197485 0.34791,-0.132479 0.5437,-0.329738 0.43509,-0.438355 z m -14.67981,-3.9486876 c 0.0172,-0.4703692 -0.0186,-0.4703692 -0.32258,0 -0.18809,0.2910417 -0.33325,0.8466667 -0.32258,1.2347223 l 0.0194,0.7055555 0.30319,-0.7055555 c 0.16675,-0.3880556 0.31191,-0.9436806 0.32258,-1.2347223 z m 1.56262,-0.088194 c 0.30153,-0.7276042 0.43728,-1.321913 0.30166,-1.3206861 -0.41462,0.00375 -1.49844,2.1540848 -1.27111,2.5219156 0.27107,0.4386016 0.30972,0.3907084 0.96945,-1.2012295 z m 4.4648,-0.024155 c 0,-0.232918 -0.3175,-0.6217708 -0.70556,-0.8641151 -0.44109,-0.2754665 -0.70555,-0.3031243 -0.70555,-0.073787 0,0.2017607 0.23812,0.458216 0.52916,0.5698984 0.29104,0.1116859 0.52917,0.3504142 0.52917,0.5305073 0,0.1844604 -0.34661,0.1594837 -0.79375,-0.057203 -0.75233,-0.3645817 -0.75883,-0.356616 -0.12442,0.1526752 0.70574,0.5665541 1.27095,0.4518272 1.27095,-0.2579758 z m -5.82084,-1.6515398 c 0.11992,-0.194028 0.0499,-0.352778 -0.15556,-0.352778 -0.20548,0 -0.3736,0.15875 -0.3736,0.352778 0,0.1940278 0.07,0.3527778 0.15557,0.3527778 0.0856,0 0.25368,-0.15875 0.37359,-0.3527778 z m 2.99862,-1.178408 c 0.48506,-0.116969 1.06875,-0.62106 1.29707,-1.120202 0.38626,-0.844427 0.36173,-0.891517 -0.35278,-0.677228 -0.86369,0.25903 -3.41374,2.581383 -3.41374,3.1089277 0,0.1884719 0.35719,0.018337 0.79375,-0.3780747 0.43656,-0.396414 1.19063,-0.816454 1.6757,-0.933423 z m 2.64583,0.472852 c 0.35118,-0.388055 0.47977,-0.705555 0.28574,-0.705555 -0.19403,0 -0.64011,0.3175 -0.9913,0.705555 -0.35118,0.388056 -0.47977,0.705556 -0.28574,0.705556 0.19403,0 0.64011,-0.3175 0.9913,-0.705556 z m 40.09945,-13.522098 c 0.88878,-1.051464 1.942,-3.997098 1.56424,-4.374858 -0.0947,-0.09474 -0.51861,0.564615 -0.94194,1.465219 -0.70462,1.499017 -2.09259,2.831977 -2.09259,2.009658 0,-0.184685 0.19844,-0.409362 0.44098,-0.499281 0.32297,-0.119743 0.27578,-0.33663 -0.17639,-0.810549 -0.59293,-0.621446 -0.61736,-0.591315 -0.61736,0.761152 0,0.774516 -0.26368,1.784655 -0.58594,2.244754 -0.58268,0.831887 -0.58023,0.835112 0.43894,0.579314 0.56369,-0.141477 1.45022,-0.760411 1.97006,-1.375409 z m 2.18507,-1.11818 c 0.11168,-0.291042 0.0493,-0.529167 -0.13865,-0.529167 -0.18794,0 -0.34171,0.238125 -0.34171,0.529167 0,0.291042 0.0624,0.529167 0.13865,0.529167 0.0763,0 0.23002,-0.238125 0.34171,-0.529167 z m -0.13817,-7.856737 c 1.22649,-1.992872 2.16363,-3.689763 2.08252,-3.770868 -0.15602,-0.156026 -0.62015,0.499935 -3.35981,4.748438 -2.26273,3.508927 -2.63155,4.237811 -2.36364,4.671285 0.1239,0.200485 0.49205,-0.173225 0.81811,-0.830467 0.32605,-0.657241 1.59632,-2.825516 2.82282,-4.818388 z m 1.77098,3.623404 c 0,-0.194028 -0.39038,0.123472 -0.86751,0.705555 -0.47713,0.582084 -0.8675,1.217084 -0.8675,1.411111 0,0.194028 0.39037,-0.123472 0.8675,-0.705555 0.47713,-0.582084 0.86751,-1.217084 0.86751,-1.411111 z m -1.05483,-0.205103 c 0,-0.413077 -1.26709,-1.056048 -1.54112,-0.782022 -0.12252,0.122525 -0.22277,0.4918 -0.22277,0.820612 0,0.447468 0.22183,0.555433 0.88194,0.429244 0.48507,-0.09273 0.88195,-0.303252 0.88195,-0.467834 z m 5.82083,-1.740429 c 1.40379,-0.864251 2.19867,-2.288617 2.48602,-4.454786 0.33159,-2.499663 -0.40885,-3.810994 -2.77355,-4.911988 -2.16829,-1.009544 -2.44266,-1.027367 -4.58389,-0.297776 -2.92182,0.995566 -4.55403,3.920294 -3.9581,7.092451 l 0.25223,1.342631 0.86842,-1.058334 c 0.47762,-0.582083 1.18438,-1.66138 1.57055,-2.398438 0.38618,-0.737057 0.93512,-1.429505 1.21986,-1.538773 0.49818,-0.191169 1.56707,0.42563 1.56707,0.904272 0,0.127632 -0.7097,1.335248 -1.5771,2.68359 -0.90515,1.407001 -1.44515,2.583485 -1.26741,2.761228 1.03957,1.039569 4.41562,0.971961 6.1959,-0.124077 z M 44.509235,123.27861 c 0.35797,-0.68145 0.35189,-0.8934 -0.0324,-1.13092 -0.32907,-0.20337 -0.23283,-0.2742 0.31635,-0.23284 0.9955,0.075 1.00798,0.66414 0.0324,1.53033 -0.75536,0.67068 -0.75599,0.67035 -0.31635,-0.16657 z m 1.61366,-16.27111 c 0.11105,-0.48507 0.29443,-1.48113 0.40752,-2.21346 0.11308,-0.73234 0.34054,-1.41492 0.50546,-1.51685 0.37461,-0.23151 0.005,1.73457 -0.63419,3.37753 -0.26438,0.6791 -0.38984,0.83785 -0.27879,0.35278 z m 1.22887,-11.356268 c 0.003,-0.25398 0.15929,-0.69992 0.34738,-0.99096 0.27802,-0.4302 0.34298,-0.38461 0.34737,0.24376 0.003,0.42512 -0.15334,0.87105 -0.34737,0.99097 -0.19403,0.11991 -0.35035,0.0102 -0.34738,-0.24377 z m 4.06697,-4.86971 c 0.21942,-1.76675 1.12564,-3.56097 1.92809,-3.81738 0.3918,-0.1252 0.35967,0.0194 -0.12599,0.56681 -0.35856,0.40417 -0.54333,0.91057 -0.4106,1.12532 0.13272,0.21476 0.0558,0.61402 -0.17098,0.88725 -0.22676,0.27323 -0.3091,0.8219 -0.18298,1.21927 0.16078,0.50658 0.0729,0.72248 -0.29424,0.72248 -0.28795,0 -0.6173,0.19844 -0.73189,0.44097 -0.11459,0.24254 -0.11972,-0.27259 -0.0114,-1.14472 z m -1.9557,-0.25517 c 0,-1.01817 0.35448,-1.8633 0.78154,-1.8633 0.20829,0 0.25495,0.39815 0.11368,0.97014 -0.31867,1.29034 -0.89522,1.86556 -0.89522,0.89316 z m 4.46852,-4.56793 c -0.48466,-0.48465 -0.20102,-0.71666 0.91134,-0.74547 1.0765,-0.0279 1.1047,0.001 0.46174,0.47548 -0.76312,0.56296 -1.02803,0.61505 -1.37308,0.26999 z m -0.5849,-2.428287 c 0.005,-1.825124 0.4389,-4.744861 0.70452,-4.744861 0.35449,0 -0.0118,5.036118 -0.39646,5.450417 -0.18504,0.199323 -0.30988,-0.0866 -0.30806,-0.705556 z m 0.93518,-14.779519 c -0.12647,-0.329583 0.16073,-1.348514 0.65509,-2.324079 0.48416,-0.955456 1.05126,-2.534356 1.26021,-3.508671 0.40165,-1.872823 1.02701,-2.396554 1.02701,-0.860111 0,0.801916 -1.62191,5.322739 -2.42346,6.755031 -0.2534,0.452808 -0.32451,0.444285 -0.51885,-0.06217 z m -2.52575,-39.354231 c -0.11991,-0.194028 -0.0499,-0.352778 0.15557,-0.352778 0.20548,0 0.3736,0.15875 0.3736,0.352778 0,0.194028 -0.07,0.352778 -0.15557,0.352778 -0.0856,0 -0.25368,-0.15875 -0.3736,-0.352778 z m -3.0868,-0.381035 c -0.33955,-0.197768 -0.61736,-0.614419 -0.61736,-0.925894 0,-0.513507 0.0602,-0.511873 0.64514,0.01753 0.35482,0.321116 0.84044,0.583844 1.07915,0.583844 0.23871,0 0.3359,0.15875 0.21598,0.352778 -0.26992,0.436753 -0.53423,0.431108 -1.32291,-0.02826 z m 5.02708,-2.695491 c -0.48507,-0.08702 -1.03276,-0.303526 -1.21708,-0.481125 -0.18433,-0.177596 -0.59322,-0.322905 -0.90865,-0.322905 -0.31543,0 -0.90598,-0.357187 -1.31234,-0.79375 -0.85794,-0.921702 -1.98507,-3.574323 -1.78008,-4.189296 0.0772,-0.231669 0.4229,0.318491 0.76818,1.22258 0.34527,0.904092 0.78032,1.6438 0.96677,1.6438 0.18645,0 0.76701,0.396875 1.29013,0.881944 0.52313,0.485069 1.30058,0.881944 1.72767,0.881944 0.4271,0 0.87465,0.15875 0.99457,0.352778 0.11991,0.194028 0.77365,0.352778 1.45275,0.352778 0.73331,0 1.14618,0.14326 1.01669,0.352778 -0.2192,0.354672 -1.36141,0.392183 -2.99861,0.09847 z m 0.79375,-2.125317 c -0.63059,-0.313834 -1.14653,-0.700556 -1.14653,-0.859384 0,-0.393531 0.29773,-0.359812 1.94028,0.219745 1.21788,0.429715 1.51811,0.428989 2.19245,-0.0053 0.9203,-0.592687 1.15894,-0.625531 1.15894,-0.159473 0,0.401475 -1.87035,1.430567 -2.54012,1.397611 -0.25217,-0.01242 -0.97443,-0.279337 -1.60502,-0.593172 z m 0.66613,-2.423706 c -1.37239,-0.961256 -0.34337,-1.358527 1.32037,-0.509754 0.7992,0.40772 1.45308,0.817457 1.45308,0.910527 0,0.410174 -2.03563,0.116018 -2.77345,-0.400773 z m 3.12623,-0.06501 c 0,-0.155222 0.14217,-0.433035 0.31592,-0.617361 0.47562,-0.50455 -0.20945,-1.960848 -1.02241,-2.173446 -0.38754,-0.101343 -0.70462,-0.395983 -0.70462,-0.654752 0,-0.25877 -0.27781,-0.632305 -0.61736,-0.830072 -0.33955,-0.197771 -0.46714,-0.364409 -0.28355,-0.370308 0.67675,-0.02175 3.01758,1.86804 3.01758,2.436139 0,0.322862 0.17983,0.766851 0.39962,0.986642 0.51225,0.512251 0.13955,1.50538 -0.56494,1.50538 -0.29713,0 -0.54024,-0.127 -0.54024,-0.282222 z m -4.05694,-4.303889 c -0.11992,-0.194028 0.11821,-0.352778 0.52916,-0.352778 0.41096,0 0.64909,0.15875 0.52917,0.352778 -0.11992,0.194028 -0.35804,0.352778 -0.52917,0.352778 -0.17112,0 -0.40925,-0.15875 -0.52916,-0.352778 z m 0.50757,-1.451458 c -0.23894,-0.446461 -0.30686,-1.361609 -0.1692,-2.279622 0.1265,-0.843548 0.0729,-1.827262 -0.11911,-2.186033 -0.42313,-0.790628 0.95713,-5.7153666 1.60342,-5.7209796 0.22637,-0.0021 0.49165,-0.202011 0.58951,-0.444546 0.11094,-0.27493 0.18843,-0.219526 0.20579,0.14714 0.0153,0.323466 -0.30682,1.355341 -0.71586,2.293056 -0.5992,1.373653 -0.74246,2.4075666 -0.73724,5.3209146 0.004,1.988785 -0.0531,3.615973 -0.12582,3.615973 -0.0728,0 -0.31193,-0.335658 -0.53149,-0.745903 z m 3.69469,-0.08981 c -0.26478,-0.690009 0.096,-1.280954 0.78198,-1.280954 0.34635,0 0.49342,0.268182 0.42015,0.766117 -0.13688,0.930282 -0.91486,1.263463 -1.20213,0.514837 z M 44.878675,8.6995444 c -0.003,-0.785802 0.43731,-1.549513 1.09808,-1.903148 0.36523,-0.195467 0.65835,-0.230741 0.65137,-0.07839 -0.0214,0.466608 -1.74758,2.421823 -1.74945,1.981542 z m 2.2913,-0.822604 c 0.11992,-0.194028 0.53553,-0.352778 0.92359,-0.352778 0.38805,0 0.60744,0.15875 0.48752,0.352778 -0.11991,0.194028 -0.53553,0.352778 -0.92358,0.352778 -0.38806,0 -0.60744,-0.15875 -0.48753,-0.352778 z m 2.46945,-2.022785 c 0.58208,-0.564406 1.4552,-1.546486 1.94027,-2.1824 1.11533,-1.462158 2.16667,-2.497592 2.53597,-2.497592 0.48521,0 0.32468,0.38457 -0.68388,1.6383 -2.12837,2.645745 -3.12591,3.609262 -3.96875,3.833374 -0.87023,0.231398 -0.86789,0.220882 0.17639,-0.791682 z m 6.17361,-5.75914703 c 0,-0.205479 0.15875,-0.275484 0.35277,-0.155568 0.19403,0.119917 0.35278,0.288036 0.35278,0.373599 0,0.08556 -0.15875,0.155568 -0.35278,0.155568 -0.19402,0 -0.35277,-0.16812 -0.35277,-0.373599 z m 1.23472,0.02082 c -0.22232,-0.359724 -0.1738,-0.38366 1.05833,-0.522093 0.38806,-0.0436 1.06275,-0.192786 1.49931,-0.331527 1.23917,-0.39381597 0.93903,0.381173 -0.31723,0.819108 -1.37749,0.480198 -1.95942,0.489162 -2.24041,0.03451 z M 71.894865,-13.510357 c 3.47998,-3.549183 3.26706,-2.501355 -0.26789,1.318336 -0.51865,0.560429 -1.18619,1.018962 -1.48342,1.018962 -0.30915,0 0.44031,-1.000227 1.75131,-2.337298 z"
       style="fill:#000000;stroke-width:0.35277778" />
  </g>
</svg>
