<?xml version="1.0" encoding="UTF-8" standalone="no"?>
<svg
   xmlns:dc="http://purl.org/dc/elements/1.1/"
   xmlns:cc="http://creativecommons.org/ns#"
   xmlns:rdf="http://www.w3.org/1999/02/22-rdf-syntax-ns#"
   xmlns:svg="http://www.w3.org/2000/svg"
   xmlns="http://www.w3.org/2000/svg"
   id="svg958"
   version="1.1"
   viewBox="0 0 121.18633 282.43753"
   height="282.43753mm"
   width="121.18633mm">
  <defs
     id="defs952" />
  <metadata
     id="metadata955">
    <rdf:RDF>
      <cc:Work
         rdf:about="">
        <dc:format>image/svg+xml</dc:format>
        <dc:type
           rdf:resource="http://purl.org/dc/dcmitype/StillImage" />
        <dc:title></dc:title>
      </cc:Work>
    </rdf:RDF>
  </metadata>
  <g
     transform="translate(-16.112662,-7.9098668)"
     id="layer1">
    <path
       id="path1584"
       d="m 19.758022,289.85752 c -1.478686,-0.75394 -2.623097,-1.87833 -2.623097,-2.5772 0,-0.33047 -0.238125,-0.79849 -0.529166,-1.04003 -0.792279,-0.65754 -0.64239,-1.16775 0.540871,-1.84112 0.84739,-0.48222 1.0234,-0.77444 0.859589,-1.42711 -0.168776,-0.67246 0.130508,-1.10446 1.656695,-2.39136 1.919609,-1.61864 4.500446,-3.15741 5.305157,-3.16308 0.251423,-0.002 1.250882,-0.39369 2.221021,-0.87092 0.970138,-0.47722 1.922911,-0.87265 2.117272,-0.87872 0.194361,-0.006 0.721243,-0.70445 1.17085,-1.55197 0.449607,-0.84751 1.357106,-2.07783 2.016665,-2.73403 0.65956,-0.65619 1.204239,-1.38252 1.2104,-1.61405 0.0062,-0.23153 0.298106,-0.62841 0.648767,-0.88195 0.38195,-0.27616 1.031346,-1.87534 1.61975,-3.98875 0.540203,-1.94028 1.211674,-4.33292 1.492158,-5.31699 0.280485,-0.98406 0.410069,-2.04954 0.287965,-2.36774 -0.122104,-0.3182 0.103425,-1.97369 0.501176,-3.67885 1.132744,-4.8561 1.762864,-10.11993 1.785843,-14.91837 0.01161,-2.42535 0.189144,-4.96535 0.394511,-5.64444 0.205366,-0.6791 0.514383,-1.9491 0.686704,-2.82223 0.779066,-3.9474 1.3719,-6.07423 1.848144,-6.6303 0.855135,-0.99847 2.035072,-3.76136 2.035072,-4.76523 0,-0.75324 0.262058,-1.05172 1.306589,-1.48815 2.367782,-0.98932 2.355582,-1.01802 2.342036,5.50995 -0.0067,3.21977 -0.125351,6.03728 -0.263708,6.26115 -0.401924,0.65033 -1.562,0.47094 -1.977708,-0.30582 -0.209827,-0.39206 -0.281499,-0.87465 -0.159271,-1.07243 0.331999,-0.53718 0.457123,-7.03417 0.135469,-7.03417 -0.304974,0 -0.329437,0.0693 -1.368341,3.87347 -0.396342,1.45131 -0.720622,3.06949 -0.720622,3.59597 0,0.57837 -0.298982,1.16664 -0.755413,1.48634 -0.917546,0.64267 -1.365147,3.77134 -0.660939,4.61985 0.261989,0.31568 0.325195,0.7755 0.15785,1.14836 -0.363637,0.81019 -0.417642,1.29651 -0.656689,5.91352 -0.110504,2.1343 -0.361535,5.54743 -0.557847,7.58472 -0.322353,3.34532 -0.482153,4.37398 -1.233079,7.9375 -0.12266,0.58208 -0.361542,1.85208 -0.530849,2.82222 -0.788446,4.51785 -1.064107,5.59928 -1.56968,6.15794 -0.298845,0.33022 -0.543354,0.95526 -0.543354,1.38897 0,0.8302 -1.147509,3.38871 -2.694423,6.00755 -0.869643,1.47226 -0.88631,1.58573 -0.296278,2.01717 0.343861,0.25144 0.761489,0.37293 0.928063,0.26998 0.592358,-0.3661 2.768194,0.68636 2.768194,1.33899 0,0.34907 0.119062,0.6346 0.264583,0.63451 0.470368,-3.2e-4 4.089049,-1.40398 6.163926,-2.39094 l 2.018788,-0.96028 -0.0016,-1.76389 c -8.82e-4,-0.99416 -0.22519,-2.05947 -0.514056,-2.44125 -0.557112,-0.7363 -0.510606,-1.48396 0.410518,-6.59979 0.393888,-2.18762 0.444555,-3.23721 0.18012,-3.73131 -0.290107,-0.54207 -0.222979,-0.8116 0.317362,-1.27425 0.376928,-0.32273 0.68531,-0.97702 0.68531,-1.45399 0,-0.47698 0.396875,-1.29546 0.881945,-1.81886 0.563548,-0.60808 0.881944,-1.36437 0.881944,-2.0949 0,-0.92216 0.376174,-1.5092 1.945012,-3.03529 2.115668,-2.05803 3.699432,-4.43137 3.699432,-5.54375 0,-0.38713 0.375596,-1.15261 0.834659,-1.70107 1.243389,-1.48553 3.045897,-5.03435 3.045897,-5.99683 0,-0.46384 0.238125,-0.93473 0.529167,-1.04641 0.291041,-0.11169 0.529166,-0.45139 0.529166,-0.75491 0,-0.30351 0.22582,-0.80246 0.501827,-1.10878 0.296827,-0.32943 0.538737,-1.47353 0.592186,-2.80071 0.07235,-1.7966 -0.02766,-2.30981 -0.501826,-2.57517 -0.478547,-0.26781 -0.593224,-0.88654 -0.597588,-3.22429 -0.0061,-3.27458 -0.333318,-4.1661 -1.307472,-3.56241 -0.345073,0.21384 -0.682734,0.76947 -0.750355,1.23472 -0.183716,1.26397 -2.191882,4.44251 -3.12083,4.93967 -0.447242,0.23935 -0.813164,0.62705 -0.813164,0.86155 0,0.2345 -0.220486,0.60935 -0.489973,0.833 -0.714071,0.59263 -1.357178,3.30832 -1.594993,6.73531 l -0.208089,2.99861 h -1.058334 c -1.056368,0 -1.059363,0.006 -1.614025,3.175 -0.305632,1.74625 -0.644101,3.41312 -0.752154,3.70417 -0.671566,1.80885 -1.05285,3.54822 -0.877799,4.00439 0.298274,0.77729 -0.432748,3.11855 -0.923778,2.9586 -0.230095,-0.075 -0.563022,-1.03669 -0.739838,-2.1372 -0.331803,-2.06516 -0.251777,-2.53704 1.218503,-7.18497 0.379764,-1.20052 0.69048,-2.47336 0.69048,-2.82852 0,-0.35516 0.386274,-1.2142 0.858386,-1.90897 0.555562,-0.81759 0.945318,-2.03158 1.104795,-3.44118 0.135523,-1.19787 0.384249,-2.26313 0.552725,-2.36726 0.168472,-0.10412 0.306317,-0.70473 0.306317,-1.33468 0,-1.28004 1.388967,-3.42123 2.481488,-3.82538 0.38143,-0.1411 0.693511,-0.52697 0.693511,-0.8575 0,-0.33052 0.214539,-0.85157 0.476755,-1.15789 0.262216,-0.30632 0.85072,-1.27132 1.307786,-2.14445 0.457066,-0.87312 1.410292,-2.30324 2.118279,-3.17804 0.707989,-0.87481 1.405787,-1.98606 1.550663,-2.46945 0.144875,-0.48339 0.538621,-1.35986 0.874994,-1.94771 0.33637,-0.58785 0.723494,-1.51472 0.860277,-2.0597 0.239631,-0.95476 0.209582,-0.98229 -0.824195,-0.75524 -1.444575,0.31728 -1.350592,-0.0898 0.36357,-1.57468 1.173811,-1.01682 1.472557,-1.53461 1.633886,-2.83184 0.108585,-0.87313 0.451281,-1.87857 0.761545,-2.23433 0.395785,-0.45381 0.575927,-1.41081 0.603691,-3.20711 0.02177,-1.40817 0.150668,-2.74005 0.286449,-2.95976 0.135784,-0.2197 -0.07738,-0.67709 -0.473689,-1.01642 -0.915169,-0.78359 -0.921413,-1.89528 -0.01503,-2.67136 0.388056,-0.33227 0.705556,-0.88785 0.705556,-1.23463 0,-0.34679 0.270094,-1.01613 0.600209,-1.48744 0.445103,-0.63547 0.668881,-2.01977 0.865946,-5.35674 0.19485,-3.2995 0.434682,-4.79755 0.899096,-5.61598 0.348347,-0.61389 0.855762,-1.53275 1.127584,-2.0419 0.271822,-0.50915 0.708385,-1.05268 0.970139,-1.20784 0.261754,-0.15516 0.475915,-0.44168 0.475915,-0.63671 0,-0.19504 0.306257,-1.02688 0.680571,-1.84856 0.374315,-0.82167 0.731503,-1.9639 0.79375,-2.53828 0.09584,-0.88437 -0.02191,-1.06277 -0.768766,-1.1647 -0.485069,-0.0662 -1.120069,-0.32467 -1.411111,-0.57439 -0.291042,-0.24971 -1.084792,-0.56091 -1.763889,-0.69154 -4.802399,-0.92379 -7.398899,-1.29629 -11.035065,-1.58309 -3.921107,-0.30929 -4.225741,-0.38913 -5.392137,-1.41324 -0.67993,-0.59699 -1.429149,-1.08896 -1.664935,-1.09328 -0.235765,-0.004 -0.825553,-0.31828 -1.310622,-0.69771 -0.485069,-0.37943 -1.040694,-0.69333 -1.234722,-0.69756 -0.215464,-0.005 -0.374414,1.84598 -0.408363,4.75465 -0.05353,4.5859 -0.02876,4.76236 0.668527,4.76236 0.687432,0 0.711045,0.12955 0.466157,2.55764 -0.536037,5.31485 0.120482,10.14327 2.098561,15.43403 0.326439,0.87312 0.676127,2.026 0.777081,2.56195 0.100951,0.53595 0.323998,1.06126 0.495656,1.16735 0.171655,0.10609 0.312103,0.32529 0.312103,0.48711 0,0.57568 -1.167303,0.72874 -2.335661,0.30626 -0.959192,-0.34685 -1.230255,-0.66892 -1.415673,-1.68208 -0.126131,-0.6892 -0.444929,-1.56623 -0.708442,-1.94895 -0.263512,-0.38272 -0.479485,-0.93835 -0.47994,-1.23472 -4.59e-4,-0.29638 -0.448504,-1.06264 -0.995664,-1.70281 -0.828586,-0.96943 -1.004574,-1.51726 -1.053105,-3.27816 -0.03205,-1.16283 -0.201708,-2.3853 -0.377022,-2.71662 -0.503095,-0.95077 -0.958055,-4.94675 -0.883965,-7.76401 0.0756,-2.87462 -0.414,-3.70747 -2.496766,-4.24716 -0.886896,-0.22982 -1.103086,-0.49889 -1.281179,-1.59454 -0.184872,-1.13736 -1.945831,-3.61145 -2.877444,-4.04272 -0.14552,-0.0674 -0.264583,-0.55537 -0.264583,-1.08445 0,-0.59313 -0.405821,-1.37705 -1.058434,-2.04455 -0.869581,-0.88943 -1.06366,-1.3892 -1.087726,-2.801 -0.06693,-3.92629 1.318621,-8.96849 2.579996,-9.38895 0.298248,-0.0994 0.07268,-0.57689 -0.674591,-1.42799 -1.181876,-1.34608 -1.773356,-3.62813 -1.414312,-5.45669 0.195344,-0.99486 -0.656584,-4.17923 -1.209515,-4.52096 -0.170729,-0.10552 -0.310418,-0.51568 -0.310418,-0.91147 0,-0.39578 -0.222884,-1.21985 -0.495299,-1.83126 -0.781813,-1.7547 -1.621367,-4.51837 -1.621367,-5.33727 0,-0.4117 -0.131989,-0.89936 -0.293308,-1.08368 -0.740805,-0.84646 -1.138815,-3.74233 -1.284686,-9.34724 -0.08702,-3.34349 -0.01744,-6.34211 0.15462,-6.6636 0.329095,-0.61492 0.430781,-3.92493 0.212037,-6.90208 -0.268045,-3.64815 -0.276531,-16.975484 -0.01146,-17.991667 0.151839,-0.582084 0.516125,-1.42893 0.809526,-1.881879 0.424156,-0.654805 0.454588,-1.052354 0.148529,-1.940278 -0.211708,-0.614204 -0.495266,-2.148608 -0.630127,-3.409788 -0.413782,-3.869574 -0.468652,-4.190789 -0.831754,-4.869255 -0.239917,-0.448289 -0.206672,-1.49249 0.104584,-3.284884 0.505201,-2.909249 0.869402,-3.761158 2.159443,-5.051199 0.480538,-0.480537 0.873705,-1.05264 0.873705,-1.271341 0,-0.218701 0.555625,-1.075704 1.234722,-1.904453 0.679097,-0.828746 1.234722,-1.754167 1.234722,-2.056483 0,-0.604087 1.673274,-2.13722 3.129096,-2.867029 1.298946,-0.651168 5.220483,-1.357846 6.058704,-1.091802 0.823287,0.261299 1.88197,2.136514 1.608519,2.849119 -0.25356,0.660763 -1.592369,0.637712 -1.849301,-0.03186 -0.232583,-0.606101 -0.920715,-0.679736 -1.808055,-0.193478 -0.336916,0.184626 -1.230122,0.610144 -1.984903,0.945586 -1.925734,0.855849 -5.109568,4.052517 -5.379252,5.400936 -0.120154,0.600771 -0.592148,1.446481 -1.048874,1.879357 -0.674184,0.638976 -0.831558,1.152511 -0.836506,2.72965 -0.0034,1.068434 -0.162695,2.488643 -0.354096,3.156018 -0.263462,0.91864 -0.227754,1.396933 0.146991,1.968863 0.272245,0.415502 0.494992,1.481325 0.494992,2.368498 0,0.887169 0.154204,1.905134 0.342676,2.262138 0.550899,1.043517 1.195374,4.641148 0.962722,5.374171 -0.117454,0.370064 -0.597785,0.769278 -1.067403,0.887145 -0.617286,0.154929 -0.911287,0.53117 -1.061163,1.35799 -0.520674,2.872396 -0.681662,7.548045 -0.415921,12.079795 0.486959,8.30425 0.468921,12.35134 -0.05788,12.98609 -0.392753,0.47324 -0.382699,0.68928 0.0616,1.3236 0.460976,0.65814 0.466636,0.94037 0.04294,2.14126 -0.349928,0.9918 -0.389202,1.64313 -0.138792,2.30175 0.192077,0.5052 0.362685,1.87434 0.379129,3.04253 0.04463,3.17064 0.999996,7.95187 2.235833,11.1895 0.333281,0.87312 0.689099,2.06375 0.790705,2.64583 0.101607,0.58209 0.475825,1.378 0.831597,1.76871 0.833316,0.91513 1.697884,2.99271 1.898963,4.56325 0.08693,0.67894 0.304645,1.51637 0.483821,1.86096 0.179177,0.34459 0.209597,0.94403 0.0676,1.33208 -0.141997,0.38806 -0.09536,1.06541 0.103645,1.50523 0.279378,0.61747 0.237046,0.8988 -0.185789,1.23472 -0.301184,0.23928 -0.635883,0.83193 -0.743776,1.317 -0.107892,0.48507 -0.381252,1.65467 -0.607465,2.59911 -0.3125,1.30469 -0.312848,1.90113 -0.0014,2.48298 0.433461,0.80993 0.0628,2.39151 -0.666034,2.84196 -0.206,0.12733 -0.374542,0.39946 -0.374542,0.60476 0,0.38379 4.710531,5.22954 5.083617,5.22954 0.48608,0 0.150732,-1.94974 -0.522783,-3.03951 -0.832144,-1.34644 -0.788743,-2.53071 0.113472,-3.09627 1.121375,-0.70295 1.839532,0.13552 1.724081,2.01291 -0.141937,2.30812 0.168146,3.06453 1.256266,3.06453 0.861367,0 0.890555,-0.0628 0.61437,-1.32291 -0.159478,-0.72761 -0.306484,-3.01373 -0.326682,-5.08027 -0.02492,-2.54967 -0.186677,-3.93803 -0.503267,-4.3195 -0.263849,-0.31792 -0.38633,-0.98177 -0.281915,-1.52798 0.106294,-0.55605 -0.05906,-1.41756 -0.389728,-2.0305 -0.463447,-0.85908 -0.576264,-2.19529 -0.584227,-6.91965 -0.0073,-4.359 -0.130477,-6.0003 -0.481907,-6.42374 -0.522545,-0.62963 -0.481177,-0.92826 0.889118,-6.41851 1.13592,-4.55119 1.253161,-7.25721 0.409423,-9.44986 -0.827522,-2.15051 -0.925259,-6.9543 -0.141491,-6.9543 0.736401,0 0.975139,0.54304 1.46402,3.33011 0.240294,1.3699 0.626309,3.12572 0.857812,3.90183 0.60767,2.03721 0.603599,6.5896 -0.009,10.05417 -0.552716,3.12595 -0.540376,9.17222 0.01872,9.17222 0.481363,0 1.737753,-2.80642 1.973241,-4.40767 0.114305,-0.77724 0.510075,-1.94363 0.879489,-2.59198 0.500698,-0.87876 0.709232,-2.091 0.819257,-4.7625 0.170173,-4.13194 0.612402,-6.40768 1.605055,-8.25975 0.386369,-0.72089 0.702493,-1.49213 0.702493,-1.71388 0,-0.22174 0.346876,-0.63348 0.770837,-0.91498 l 0.770837,-0.51181 -1.166392,-1.62418 c -1.062669,-1.47974 -1.131214,-1.72507 -0.770834,-2.75885 0.623217,-1.78776 0.474634,-2.67867 -0.662781,-3.97412 -0.582084,-0.66295 -1.06182,-1.42254 -1.066081,-1.68797 -0.0043,-0.26542 -0.354926,-1.19696 -0.779254,-2.07009 -0.424328,-0.87312 -0.857404,-2.06375 -0.962391,-2.64583 -0.104987,-0.58209 -0.386202,-1.05834 -0.624923,-1.05834 -0.589184,0 -1.859018,2.56693 -1.859018,3.75794 0,0.52961 -0.146536,1.05349 -0.325636,1.16418 -0.1791,0.11069 -0.433877,0.71537 -0.566171,1.34374 -0.347539,1.65072 -1.439258,4.83424 -2.126248,6.20028 -0.325627,0.64749 -0.583305,1.81073 -0.57262,2.58498 l 0.01943,1.40773 -1.477571,-0.24442 c -0.812664,-0.13444 -1.616956,-0.32742 -1.787316,-0.42885 -0.17036,-0.10143 -0.212648,-1.15468 -0.09397,-2.34056 0.18631,-1.86172 0.370829,-2.28821 1.351352,-3.12343 0.933226,-0.79493 1.141613,-1.23497 1.169439,-2.46944 0.03392,-1.50463 0.241486,-2.15175 1.576522,-4.91496 0.39387,-0.81521 0.716127,-1.65318 0.716127,-1.86215 0,-0.20896 0.301901,-0.94321 0.670892,-1.63167 0.515007,-0.96089 0.719848,-2.29964 0.88159,-5.761679 0.115883,-2.48046 0.101649,-4.686377 -0.03163,-4.902031 -0.433988,-0.702204 -0.376245,-5.183826 0.06679,-5.183826 0.674479,0 1.940136,1.579682 1.940136,2.421506 0,0.433694 0.244049,1.260468 0.54233,1.837281 0.359489,0.695176 0.525537,1.90835 0.492521,3.59845 -0.034,1.74056 0.129063,2.88557 0.513831,3.60804 0.310001,0.582079 0.564616,1.485529 0.565811,2.007659 0.0012,0.52212 0.160924,1.04743 0.354952,1.16734 0.194027,0.11992 0.360402,0.56585 0.369722,0.99096 0.0093,0.42512 0.318653,1.32856 0.687408,2.00766 0.820526,1.51107 1.290941,2.47696 2.323825,4.77144 0.438933,0.97505 1.11996,2.06414 1.513392,2.42019 0.644331,0.58311 0.664725,0.7246 0.205447,1.42554 -0.440447,0.67221 -0.44184,0.87107 -0.01023,1.46036 0.345222,0.47134 0.438284,1.20179 0.301096,2.3633 -0.155529,1.3168 -0.06125,1.83282 0.435067,2.38125 0.799638,0.88358 1.099883,0.88237 1.332043,-0.005 0.124989,-0.47797 0.481192,-0.70556 1.104265,-0.70556 0.505865,0 1.223098,-0.18944 1.593846,-0.42097 0.530786,-0.33149 1.45868,-0.29398 4.364803,0.17639 4.364355,0.70639 5.324771,0.73463 6.348723,0.18662 0.422105,-0.2259 1.71777,-0.37195 2.879248,-0.32455 2.057901,0.084 2.096237,0.069 1.502396,-0.58718 -1.397861,-1.54464 -0.270545,-3.26366 2.140271,-3.26366 h 1.459375 l 0.23399,1.76389 0.233987,1.76389 2.159413,3.6e-4 c 3.252452,7e-4 11.32216,1.01625 12.72192,1.6011 0.67808,0.28333 1.62809,0.51514 2.11112,0.51514 0.58085,0 1.21183,0.41808 1.86341,1.23471 0.54185,0.67909 1.13599,1.23471 1.32032,1.23472 0.18433,1e-5 0.14464,-0.19049 -0.0882,-0.42332 -0.23284,-0.23284 -0.42334,-0.6569 -0.42334,-0.94236 0,-0.28547 -0.25568,-0.80156 -0.56818,-1.14687 -0.39018,-0.43114 -0.59102,-1.40511 -0.64108,-3.1089 -0.0401,-1.36459 -0.18129,-2.58946 -0.31376,-2.72194 -0.48493,-0.48492 -0.22204,-2.15369 0.46387,-2.94454 0.52337,-0.60346 0.60634,-0.93113 0.32241,-1.27325 -0.50541,-0.60898 -0.0658,-1.27548 0.68425,-1.03742 0.58574,0.18591 0.84369,-0.25499 2.73197,-4.66961 0.27253,-0.63717 0.49552,-1.46738 0.49552,-1.84491 0,-0.44566 0.49496,-0.93893 1.41111,-1.40632 0.77611,-0.39594 1.41109,-0.75635 1.41105,-0.80092 -3e-5,-0.0446 -0.23816,-1.325299 -0.52916,-2.846089 -0.29101,-1.5207 -0.52911,-3.83581 -0.52911,-5.144596 0,-1.308788 -0.10862,-2.488241 -0.24139,-2.621005 -0.13276,-0.132765 -0.72807,0.2242 -1.32291,0.793256 -0.59484,0.569052 -1.39903,1.080304 -1.78709,1.136114 -1.20827,0.173771 -2.58883,-0.364681 -2.82248,-1.100836 -0.33018,-1.0403 -1.30299,-0.924215 -1.03988,0.124089 0.30361,1.209704 -1.41069,1.834272 -4.81209,1.753179 -2.9068,-0.0693 -8.034091,-0.931369 -9.176788,-1.54292 -0.773857,-0.414154 -0.709626,-1.291766 0.08006,-1.093988 1.25693,0.314797 2.571574,0.360909 3.026777,0.106161 0.825031,-0.461709 -0.350206,-1.169882 -2.277318,-1.37226 -1.933392,-0.203038 -3.615778,-1.506753 -3.615778,-2.801945 0,-1.187919 1.21522,-1.052329 2.172448,0.24239 0.430353,0.582084 1.036538,1.058334 1.347081,1.058334 0.672303,0 3.031011,1.164541 3.842738,1.897239 0.78292,0.706692 6.99409,1.303228 7.4795,0.718347 0.23736,-0.286 0.16998,-0.483944 -0.21502,-0.631684 -0.38951,-0.149468 -0.52689,-0.565958 -0.44997,-1.364114 0.10088,-1.046847 0.22697,-1.158607 1.4187,-1.257554 1.63636,-0.135865 2.67628,0.401729 2.95943,1.529892 0.31125,1.240088 0.66533,1.082668 1.19849,-0.532811 0.48117,-1.457957 1.53291,-2.144671 2.22489,-1.452694 0.62906,0.629063 1.09111,0.449348 1.72961,-0.67274 0.59525,-1.046088 1.45354,-1.374733 1.86242,-0.713144 0.11658,0.188631 -0.10087,1.022068 -0.48322,1.852084 l -0.69519,1.509123 0.94502,0.115341 c 0.51976,0.06344 1.06785,0.233892 1.21797,0.378792 0.42699,0.412111 1.72649,8.48661 1.70892,10.61837 -0.009,1.036729 0.93281,4.104619 1.56958,5.115279 0.2445,0.38805 0.63695,1.41993 0.87211,2.29305 0.23516,0.87313 0.64575,2.08775 0.91242,2.69915 0.26667,0.61141 0.48485,1.20455 0.48485,1.31809 0,0.11354 0.72052,1.50904 1.60116,3.10112 0.88064,1.59208 1.74713,3.53894 1.92553,4.32636 0.1784,0.78742 0.62405,2.335 0.99033,3.43906 0.73132,2.20442 0.57555,2.8787 -0.62323,2.69779 -0.55773,-0.0842 -0.93259,-0.53257 -1.27924,-1.53017 -0.26969,-0.77612 -0.41445,-1.61787 -0.3217,-1.87057 0.17973,-0.48968 -0.85867,-2.32704 -1.15031,-2.0354 -0.0952,0.0952 -0.23933,1.48917 -0.32039,3.09782 -0.0811,1.60864 -0.22494,4.03606 -0.31974,5.39426 -0.1732,2.48143 -0.21835,4.45853 -0.17816,7.80108 0.0228,1.89449 1.21478,6.30581 1.80199,6.66872 0.18876,0.11666 0.3432,0.80418 0.3432,1.52782 0,0.72363 0.30472,1.91337 0.67715,2.64387 0.60587,1.18839 0.64339,1.68487 0.3565,4.71724 -0.21779,2.30197 -0.20198,3.53203 0.0493,3.83477 0.41431,0.49921 -0.14204,3.13471 -0.73971,3.50409 -0.18876,0.11666 -0.3432,0.67764 -0.3432,1.24663 0,0.65246 -0.26057,1.19725 -0.70555,1.47515 -0.52673,0.32895 -0.70556,0.82269 -0.70556,1.94806 0,2.13503 0.5553,2.88899 1.95991,2.66105 0.61896,-0.10045 1.2277,-0.0171 1.35275,0.18524 0.35257,0.57047 -0.46684,7.18501 -1.01489,8.19252 -0.30047,0.55236 -0.37084,1.08815 -0.18286,1.3923 0.23305,0.37708 0.86823,-0.11332 2.6765,-2.06641 2.26207,-2.44325 2.42922,-2.5517 3.64045,-2.36203 1.08775,0.17032 1.36626,0.0645 1.94503,-0.73881 0.5942,-0.82477 0.62513,-1.11139 0.25698,-2.38167 -0.23018,-0.79423 -0.57396,-2.44163 -0.76395,-3.66087 -0.33823,-2.17061 -0.95349,-3.88538 -1.82546,-5.08769 -0.33851,-0.46676 -0.34417,-0.8624 -0.0252,-1.76389 0.22614,-0.63919 0.44337,-2.74967 0.48274,-4.68995 0.0493,-2.43153 0.45048,-5.33659 1.29092,-9.34861 0.9486,-4.52831 1.2394,-6.80981 1.3096,-10.27464 0.0496,-2.44959 0.19194,-4.61836 0.31624,-4.81948 0.1243,-0.20112 0.2439,-2.05324 0.26578,-4.11583 0.0318,-2.99894 -0.0745,-3.87643 -0.5307,-4.38052 -0.33768,-0.37313 -0.57047,-1.24415 -0.57047,-2.13444 0,-0.94178 -0.24976,-1.8216 -0.66808,-2.3534 -0.56566,-0.71913 -0.61558,-1.07916 -0.32566,-2.3487 0.4778,-2.09224 -0.81347,-12.47921 -1.77465,-14.275179 -0.22364,-0.41787 -0.40661,-1.09413 -0.40661,-1.5028 0,-0.40867 -0.35719,-1.22621 -0.79375,-1.81677 -0.644,-0.87115 -0.78483,-1.49661 -0.74643,-3.315038 0.0341,-1.617377 -0.0886,-2.293472 -0.44097,-2.428688 -0.64138,-0.246119 -0.62952,-1.588583 0.0162,-1.836378 1.85656,-0.712428 1.56177,-8.47227 -0.47227,-12.431735 -0.4337,-0.84424 -2.06735,-2.85647 -3.63035,-4.471621 -2.99737,-3.097404 -5.78831,-4.805282 -8.57273,-5.245983 -5.37592,-0.850872 -6.35,-1.130028 -6.35,-1.819836 0,-0.79508 -1.64898,-1.912585 -1.86517,-1.264013 -0.20164,0.604925 -1.68608,0.482289 -2.23677,-0.184792 -0.26629,-0.322573 -1.19854,-0.900836 -2.07167,-1.285025 -0.87312,-0.384189 -2.03624,-1.072766 -2.58471,-1.530167 -0.54847,-0.457405 -1.38755,-0.831642 -1.86463,-0.831642 -0.91854,0 -1.58423,-1.172803 -2.833353,-4.991771 -0.307802,-0.941052 -0.700119,-1.711007 -0.871813,-1.711007 -0.171696,0 -0.312173,-0.413858 -0.312173,-0.919689 0,-0.741288 -0.119754,-0.868472 -0.617361,-0.655662 -0.339548,0.145214 -1.092351,0.344608 -1.672893,0.443096 -0.580545,0.09848 -1.45367,0.46984 -1.940278,0.825228 -1.302565,0.951312 -3.443171,1.201036 -4.225589,0.492958 -0.414497,-0.375112 -0.938721,-0.496277 -1.518074,-0.350869 -0.496612,0.12464 -0.98837,0.05476 -1.120637,-0.159255 -0.129632,-0.209751 -0.926588,-0.381363 -1.771015,-0.381363 -1.309246,0 -1.670078,-0.168825 -2.450482,-1.146528 -1.203636,-1.507931 -2.045593,-2.381197 -2.29609,-2.381469 -0.111569,-1.2e-4 -0.148064,0.79042 -0.0811,1.756756 0.135001,1.948046 -1.394287,6.611405 -2.279527,6.951106 -0.268439,0.103007 -0.488068,0.477509 -0.488068,0.83222 0,0.354715 -0.64099,1.091795 -1.424425,1.637955 -0.783434,0.54616 -1.854997,1.360184 -2.38125,1.808942 -0.783949,0.668507 -1.228534,0.781156 -2.46067,0.623485 -1.190837,-0.152382 -1.982022,0.02656 -3.801198,0.859773 -1.263541,0.578711 -2.442754,1.052206 -2.620472,1.052206 -0.177716,0 -0.418779,0.154774 -0.535693,0.343947 -0.129995,0.210337 0.512847,0.313115 1.654873,0.264584 1.027095,-0.04365 2.304009,0.04272 2.837586,0.191939 0.742205,0.207564 0.970138,0.149155 0.970138,-0.248595 0,-0.801776 1.966634,-0.999466 5.748073,-0.577812 4.014667,0.447661 7.128316,1.381475 7.128316,2.137852 0,0.857239 -1.825159,1.545741 -2.936773,1.107835 -0.907591,-0.357537 -4.139148,-0.490859 -7.470171,-0.308194 -1.409016,0.07727 -1.600175,-0.0021 -1.70023,-0.706695 -0.119479,-0.841266 -0.618596,-1.069217 -0.846184,-0.386458 -0.08564,0.256929 -1.233607,0.433836 -3.109538,0.479196 -2.881948,0.06968 -3.003939,0.03961 -3.950579,-0.973765 -0.537241,-0.57512 -0.976802,-1.164453 -0.976802,-1.309628 0,-0.786183 1.882299,-2.113054 3.73755,-2.634675 2.204751,-0.619891 3.719085,-1.286405 5.868634,-2.583004 0.723749,-0.436563 1.755623,-0.798798 2.293056,-0.804969 1.180923,-0.01355 1.946426,-0.557501 3.028413,-2.151902 1.345223,-1.982294 2.414895,-9.494207 1.569029,-11.018715 -0.229754,-0.414091 -0.519765,-1.936592 -0.644472,-3.38334 -0.17616,-2.043684 -0.372918,-2.712577 -0.882061,-2.998612 -1.534922,-0.862314 -2.675368,-2.293013 -2.434008,-3.053476 0.225199,-0.709541 0.02254,-1.354116 -1.113839,-3.542725 -0.576785,-1.110856 -0.635914,-2.829736 -0.115249,-3.3504 0.408139,-0.40814 1.996637,-0.220391 2.300922,0.271952 0.105601,0.170861 0.381067,0.309867 0.612151,0.308904 0.231083,-9.53e-4 -0.05143,-0.379067 -0.627804,-0.84023 -0.863494,-0.690888 -0.971546,-0.930543 -0.613868,-1.361522 0.600971,-0.724122 0.642567,-4.401918 0.06765,-5.981186 -0.495371,-1.360757 -0.321681,-1.864964 2.284578,-6.631979 0.2652,-0.48507 0.65151,-1.318507 0.858463,-1.852084 0.288209,-0.743063 0.611382,-0.970139 1.380688,-0.970139 0.61523,0 1.325432,-0.341721 1.832945,-0.881944 1.028823,-1.095134 2.209934,-1.1306 2.937079,-0.08819 l 0.553692,0.793749 0.01849,-0.769727 c 0.0332,-1.380212 3.080138,-2.915772 3.722687,-1.876106 0.119916,0.194028 1.266641,0.352778 2.548283,0.352778 1.975471,0 2.737672,0.199988 5.006262,1.313556 1.471807,0.722456 3.055909,1.397143 3.520228,1.499305 0.464323,0.102162 1.019943,0.500631 1.234723,0.885486 0.21478,0.384855 0.81326,1.345895 1.32997,2.135644 1.31004,2.002317 1.87764,5.215158 1.17143,6.63079 -0.29229,0.585902 -0.43529,1.368193 -0.31778,1.738425 0.20328,0.640488 -1.6816,4.752338 -2.39777,5.230714 -0.17088,0.114141 -0.065,0.411392 0.23518,0.660557 0.30022,0.249166 0.54586,0.765987 0.54586,1.148492 0,0.633397 -0.16032,0.673414 -1.796409,0.448394 -1.684884,-0.231731 -1.774349,-0.205843 -1.441023,0.416978 0.549444,1.026649 -0.121881,1.880551 -1.478467,1.880551 -1.098409,0 -4.103543,-1.863726 -4.103543,-2.544939 0,-0.152506 -0.493458,-0.277284 -1.096578,-0.277284 -1.019566,0 -1.07951,-0.06799 -0.853581,-0.968165 0.45442,-1.810565 0.793708,-1.959632 4.004359,-1.759326 1.623554,0.10129 3.127291,0.359537 3.341635,0.573883 0.568378,0.568378 2.201687,0.520612 1.752557,-0.05125 -0.522731,-0.665572 -0.822092,-2.677742 -0.434061,-2.917559 0.187674,-0.115987 0.341224,-0.741784 0.341224,-1.390659 0,-0.894926 -0.361995,-1.576661 -1.499305,-2.823602 -1.400383,-1.535372 -1.662236,-1.667643 -3.96875,-2.004737 -5.205006,-0.76071 -6.879166,-1.688422 -6.879166,-3.811997 0,-1.141541 -0.289063,-1.288858 -1.415898,-0.721591 -0.385424,0.194027 -1.030708,0.520642 -1.433968,0.725809 -0.992424,0.504916 -1.736245,-0.145232 -1.736245,-1.51759 0,-1.017559 -0.03044,-1.038042 -0.79375,-0.533737 -0.96726,0.639066 -1.27871,2.031073 -0.454438,2.031073 1.486493,0 0.699364,2.714182 -1.435551,4.950096 -1.17123,1.226634 -1.187256,1.286349 -1.035121,3.856303 0.165128,2.789442 0.599133,3.44039 2.042202,3.063019 0.4044,-0.105753 1.701148,0.05125 2.881659,0.348889 1.180514,0.297642 2.563988,0.526709 3.074387,0.509038 1.349968,-0.04674 2.178145,1.322785 1.674171,2.768497 -0.462651,1.327158 -1.15425,1.385276 -1.954308,0.164231 l -0.603127,-0.920486 -0.917292,1.123913 c -0.906996,1.111299 -0.940813,1.120627 -3.013163,0.831208 -2.03713,-0.284501 -2.120812,-0.33914 -2.985633,-1.949461 -1.156112,-2.152715 -1.418925,-2.373042 -1.418925,-1.189545 0,0.535311 0.32892,1.391443 0.730928,1.902517 0.623072,0.792109 0.696721,1.223965 0.499102,2.926659 -0.150431,1.296137 -0.09741,2.080508 0.151018,2.234044 0.210562,0.130136 0.382841,0.812998 0.382841,1.517472 0,1.613657 0.664468,5.277089 1.167825,6.43861 0.210213,0.48507 0.390634,1.213334 0.400939,1.618365 0.02445,0.960381 1.973707,3.343053 3.731591,4.561269 1.108149,0.767948 2.006311,1.024827 4.44892,1.272406 l 3.060467,0.310208 1.907261,-1.47144 c 2.338306,-1.803989 2.921885,-2.604036 2.921885,-4.005693 0,-0.597119 0.144392,-1.236483 0.320869,-1.420809 0.176474,-0.184326 0.419298,-2.002014 0.539606,-4.039306 0.442291,-7.489862 0.422052,-7.408334 1.839206,-7.408334 0.60501,0 0.95536,0.234082 1.08345,0.723891 0.18839,0.720387 0.19333,0.72011 1.0209,-0.05736 0.58729,-0.551725 0.72747,-0.906725 0.47714,-1.208345 -0.63922,-0.770218 -0.0171,-1.593972 1.01741,-1.347185 1.39899,0.333729 1.46253,0.413016 1.46253,1.824954 0,0.891037 -0.20848,1.435629 -0.65676,1.715582 -0.36121,0.225582 -0.83023,1.097207 -1.04227,1.936943 -0.21204,0.839736 -0.78962,2.073573 -1.28352,2.741859 -0.49391,0.668285 -0.89801,1.51216 -0.89801,1.875275 0,0.363116 -0.15743,0.954385 -0.34986,1.313931 -0.19242,0.359548 -0.36243,2.778383 -0.37779,5.375195 -0.0313,5.29166 0.46468,7.289229 1.98151,7.980342 0.47455,0.216218 0.86281,0.638581 0.86281,0.938583 0,0.300006 0.36614,0.684668 0.81364,0.854805 0.44749,0.170142 1.2823,0.7037 1.85511,1.18569 0.90846,0.764424 3.74475,1.790552 6.96812,2.520965 0.57924,0.131258 1.24011,0.654342 1.58423,1.253941 0.72225,1.25844 1.94215,1.625103 2.98247,0.896433 0.9629,-0.674444 1.57721,-0.676172 2.85828,-0.008 0.55576,0.289846 1.47149,0.526994 2.03497,0.526994 1.25474,0 4.43376,1.613097 4.90154,2.487136 0.18796,0.351222 0.69929,0.689363 1.13628,0.75142 0.55724,0.07914 0.79731,0.354771 0.80383,0.922917 0.006,0.505072 0.33787,0.971814 0.88195,1.239629 0.47995,0.236252 1.13576,0.954236 1.45736,1.595526 0.3216,0.641287 0.81561,1.432828 1.0978,1.758982 0.28218,0.32615 0.75061,1.307377 1.04096,2.180502 0.29035,0.873125 1.02066,2.363195 1.62292,3.311268 0.8866,1.395681 1.02373,1.856976 0.72045,2.423657 -0.24487,0.457543 -0.29352,2.242669 -0.1405,5.1554 0.12875,2.450529 0.21397,5.723961 0.18938,7.274289 -0.0409,2.580832 0.3221,4.888432 1.05499,6.706222 0.95147,2.359949 1.1234,3.119599 0.9763,4.313609 -0.0902,0.73196 -0.0166,1.72771 0.1634,2.21278 0.18004,0.48507 0.31406,2.68968 0.29782,4.89913 -0.0162,2.20945 0.10947,4.19382 0.27935,4.40972 0.16988,0.2159 0.39406,1.34504 0.49816,2.50921 0.10411,1.16416 0.50325,2.83993 0.88698,3.72393 0.58256,1.34203 0.64577,1.92419 0.38307,3.52778 -0.17305,1.05628 -0.32606,4.22239 -0.34002,7.03579 -0.0245,4.92911 -0.47186,9.31873 -1.02473,10.05417 -0.14586,0.19402 -0.53331,2.1784 -0.861,4.40972 -0.32769,2.23132 -0.77039,4.65389 -0.98379,5.3835 -0.29737,1.01674 -0.28242,1.52381 0.064,2.17116 0.39024,0.72918 0.34348,1.06194 -0.34217,2.43481 -0.85585,1.71368 -0.82793,2.2204 0.27564,5.00359 2.46256,6.2105 2.65756,9.44119 0.65427,10.8397 -1.4585,1.01819 -2.16593,1.83386 -2.692,3.10389 -0.23908,0.5772 -0.56198,1.04946 -0.71754,1.04946 -0.15556,0 -0.7766,0.49377 -1.38009,1.09725 -1.05738,1.05738 -1.15377,1.08302 -2.6528,0.70556 -0.85555,-0.21544 -2.09935,-0.3917 -2.76399,-0.3917 -1.15388,0 -1.21747,0.0673 -1.4084,1.49073 -0.10997,0.81991 -0.0549,1.66552 0.12238,1.87913 0.19479,0.2347 0.19243,0.79645 -0.006,1.41968 -0.18056,0.56721 -0.47988,2.06317 -0.66516,3.32435 -0.18527,1.26118 -0.52262,2.92805 -0.74967,3.70416 -0.22704,0.77612 -0.63135,2.68112 -0.89845,4.23334 -0.26711,1.55222 -0.59349,3.18936 -0.72529,3.63808 -0.17934,0.61054 -0.0454,0.95193 0.53227,1.35654 0.89328,0.62568 2.84971,4.68311 2.84971,5.91 0,0.45803 0.23714,1.28749 0.52699,1.84325 0.73055,1.40076 0.6629,2.27684 -0.1931,2.50068 -0.64125,0.16769 -0.70247,0.3867 -0.53316,1.90726 0.149,1.3381 0.0806,1.7178 -0.30935,1.7178 -0.27536,0 -0.55137,0.35719 -0.61338,0.79375 -0.0826,0.58142 -0.34865,0.79375 -0.99467,0.79375 h -0.88194 v -5.34162 c 0,-4.22153 -0.11096,-5.47909 -0.52917,-5.99722 -0.83574,-1.03543 -1.47733,-2.29448 -1.27324,-2.49857 0.10272,-0.10272 -0.0563,-0.65685 -0.35344,-1.23141 -0.7273,-1.40646 -0.47147,-8.13232 0.37133,-9.76212 0.56619,-1.09491 0.68797,-1.55895 1.76945,-6.74267 0.54396,-2.60736 0.46,-4.32833 -0.25441,-5.2145 -0.26363,-0.32702 -0.17921,-0.59044 0.30532,-0.95268 0.65142,-0.48701 0.64803,-0.51617 -0.12404,-1.06732 -1.01564,-0.72502 -1.06223,-1.93773 -0.0745,-1.93773 0.6764,0 0.71321,-0.18239 0.61737,-3.05833 -0.0621,-1.8637 -0.25664,-3.10955 -0.49799,-3.18943 -0.51566,-0.17068 -0.9185,1.37016 -0.47433,1.81432 0.4473,0.4473 0.44311,3.37511 -0.005,3.37511 -0.34719,0 -0.49509,-0.48449 -0.87767,-2.87497 -0.35713,-2.23144 -0.67434,-2.27582 -5.89561,-0.82473 -2.57396,0.71536 -4.9973,1.52293 -5.38518,1.79462 -0.38789,0.27168 -1.1403,0.49397 -1.67203,0.49397 -0.53172,0 -1.80609,0.33833 -2.83192,0.75185 -5.05826,2.039 -5.23119,2.08091 -6.30207,1.52714 -0.547847,-0.28331 -1.321471,-0.5151 -1.719161,-0.5151 -1.224255,0 -0.995302,2.89694 0.448864,5.67947 0.644567,1.24192 1.387147,2.9724 1.650187,3.84553 0.26303,0.87312 0.65475,1.82562 0.87047,2.11667 0.66956,0.90332 1.54246,3.04363 1.79899,4.41107 0.2497,1.33101 1.95209,4.83758 2.83876,5.84726 0.69453,0.79088 0.60561,1.64893 -0.21646,2.08889 -0.82723,0.44272 -0.9448,1.96544 -0.21577,2.79444 0.27625,0.31412 0.5863,1.76709 0.71115,3.33257 0.23704,2.97217 0.57793,3.68767 3.07436,6.45282 0.72861,0.80704 1.49591,2.10301 1.70512,2.87995 0.26722,0.9924 0.94629,1.92983 2.2828,3.15132 1.17252,1.07163 2.39295,2.67368 3.18094,4.17561 0.70319,1.3403 1.74298,3.0719 2.31066,3.84801 0.56767,0.77612 1.00551,1.56987 0.97298,1.76389 -0.0325,0.19403 0.12042,0.67621 0.3399,1.07151 0.21948,0.3953 0.57148,2.3003 0.78222,4.23333 0.33496,3.07232 0.49383,3.60506 1.26246,4.23342 0.9132,0.74652 1.17423,2.32579 0.548,3.31545 -0.26561,0.41975 -0.41571,0.42745 -0.87654,0.045 -0.30583,-0.25382 -0.55606,-0.6525 -0.55606,-0.88596 0,-0.23346 -0.3777,-0.77931 -0.83934,-1.213 -0.57455,-0.53976 -0.91552,-1.36278 -1.08081,-2.6088 -0.13281,-1.00114 -0.54885,-2.73273 -0.92455,-3.84795 -0.37569,-1.11523 -0.68307,-2.26463 -0.68307,-2.55424 0,-0.2896 -0.30469,-0.81055 -0.67708,-1.15765 -0.3724,-0.34711 -0.89935,-1.26611 -1.17101,-2.04222 -0.82782,-2.36498 -3.87988,-6.85194 -4.67058,-6.8664 -0.94389,-0.0173 -3.20986,-2.56319 -4.26335,-4.79009 -0.47281,-0.99943 -0.85965,-1.92478 -0.85965,-2.05633 0,-0.13156 -0.64947,-1.26756 -1.44326,-2.52444 -1.71132,-2.70968 -2.53317,-5.4231 -2.06073,-6.80367 0.6324,-1.84796 0.60111,-4.75736 -0.0652,-6.06324 -1.5029,-2.9454 -2.42801,-5.12242 -2.42801,-5.71371 0,-0.34996 -0.14806,-0.63629 -0.32901,-0.63629 -0.180949,0 -0.427876,-0.31153 -0.548723,-0.69229 -0.120848,-0.38076 -0.845922,-1.83149 -1.611274,-3.22385 -0.765351,-1.39236 -1.391549,-2.90418 -1.391549,-3.3596 0,-0.76705 -0.203317,-1.78095 -1.137225,-5.67118 -0.19563,-0.81491 -0.654788,-1.75232 -1.020347,-2.08315 -0.370247,-0.33507 -0.670189,-1.08513 -0.677153,-1.69336 -0.0069,-0.60051 -0.239374,-1.48872 -0.516664,-1.97379 -0.27729,-0.48507 -0.509792,-1.39788 -0.516664,-2.02847 -0.0069,-0.63059 -0.1562,-1.14653 -0.331827,-1.14653 -0.17563,0 -0.239811,0.91281 -0.142624,2.02847 0.244111,2.80238 -0.803931,5.2979 -2.355271,5.60817 -0.788868,0.15777 -1.12551,0.45915 -1.272978,1.13962 -0.251636,1.16116 -0.780016,2.69832 -1.449959,4.21822 -0.285199,0.64704 -0.421693,1.56232 -0.303322,2.03395 0.128059,0.51022 -0.13662,1.89118 -0.653517,3.40969 -0.741602,2.17865 -1.28621,4.34269 -1.441309,5.72716 -0.02173,0.19403 -0.137449,0.5909 -0.257147,0.88194 -0.119693,0.29104 -0.406145,1.16417 -0.636566,1.94028 -0.230417,0.77611 -0.770512,2.05644 -1.200217,2.84517 -0.752581,1.38139 -0.772654,1.66645 -0.546562,7.76111 0.223365,6.02118 0.03316,8.33716 -0.723156,8.80457 -0.186841,0.11548 -0.339714,0.69203 -0.339714,1.28123 0,0.58921 -0.217886,1.49265 -0.484194,2.00766 -1.284598,2.48427 -1.562386,5.09152 -0.926667,8.69749 0.362998,2.05903 -0.224888,7.57396 -0.864936,8.11389 -0.230008,0.19402 -0.433938,0.98777 -0.453179,1.76388 -0.103618,4.17992 -0.502041,5.78428 -1.817465,7.31851 -0.707785,0.82552 -1.495774,1.91217 -1.751094,2.41479 -0.255315,0.50261 -0.926821,1.45511 -1.492232,2.11666 -0.565411,0.66155 -1.028393,1.37269 -1.028848,1.5803 -3.53e-4,0.20761 -0.564261,1.03571 -1.252897,1.84023 -1.111091,1.29806 -2.981265,5.61308 -2.981265,6.87863 0,0.25659 -0.380721,1.25176 -0.846049,2.21148 -1.095425,2.25929 -2.066731,7.3371 -1.826373,9.54796 0.102962,0.9471 0.28956,2.719 0.414655,3.93756 0.174029,1.69519 0.390295,2.30271 0.920799,2.58663 0.505619,0.27059 0.636446,0.59779 0.483182,1.20845 -0.115595,0.46056 -0.02533,1.52845 0.200568,2.37309 0.878449,3.28442 -0.631916,4.61318 -5.823031,5.12286 -2.368249,0.23252 -3.616661,0.53112 -4.334102,1.03664 -0.554237,0.39052 -1.404579,0.82887 -1.889649,0.97411 -0.485069,0.14523 -1.720086,0.64231 -2.744482,1.10462 -1.024396,0.4623 -2.046039,0.84055 -2.270318,0.84055 -0.22428,0 -0.764003,0.33465 -1.199387,0.74367 -1.447728,1.36007 -11.295687,2.17634 -13.387715,1.10967 z m 8.832108,-3.35475 c 1.566898,0.0495 2.289933,-0.0913 2.822222,-0.54941 0.393595,-0.33876 1.454606,-1.12618 2.3578,-1.74984 1.442065,-0.99575 1.833578,-1.10769 3.212937,-0.91863 1.120496,0.15358 1.812705,0.0583 2.414772,-0.33247 0.464204,-0.30128 1.955258,-0.8876 3.313452,-1.30295 1.358195,-0.41534 2.985382,-1.00607 3.615972,-1.31273 1.034009,-0.50284 1.146528,-0.70912 1.146528,-2.10192 0,-1.38791 -0.06548,-1.50931 -0.646375,-1.19843 -0.355506,0.19026 -0.851195,0.59272 -1.101529,0.89436 -0.250335,0.30163 -0.892579,0.54843 -1.427209,0.54843 -0.53463,0 -1.50738,0.22216 -2.161665,0.49369 -0.654286,0.27153 -2.396063,0.60544 -3.870616,0.74203 -2.179253,0.20187 -2.897729,0.13627 -3.839026,-0.35049 -0.761624,-0.39385 -1.53451,-0.52253 -2.257884,-0.3759 -0.604924,0.12261 -1.841065,0.34556 -2.74698,0.49544 -0.905915,0.14988 -1.858415,0.43861 -2.116667,0.64161 -0.258252,0.20301 -1.471681,0.56057 -2.69651,0.79457 -1.259527,0.24064 -2.523867,0.72238 -2.910417,1.10892 -0.3759,0.3759 -0.910882,0.68346 -1.188848,0.68346 -0.937654,0 -1.027871,1.37387 -0.13887,2.11479 0.451359,0.37618 0.954363,0.68924 1.117787,0.69569 0.163424,0.006 0.71859,0.34326 1.233701,0.74844 0.777372,0.61149 1.176598,0.68811 2.348699,0.45077 0.776673,-0.15727 2.360099,-0.25601 3.518726,-0.21943 z m 32.289238,-66.93749 c 0,-0.19403 -0.15875,-0.35278 -0.352778,-0.35278 -0.194028,0 -0.352778,0.15875 -0.352778,0.35278 0,0.19403 0.15875,0.35278 0.352778,0.35278 0.194028,0 0.352778,-0.15875 0.352778,-0.35278 z m 50.894912,-49.82987 c -0.2338,-1.83797 -0.71131,-2.83077 -1.21252,-2.521 -0.23096,0.14273 -0.2934,0.8402 -0.16143,1.80302 0.25085,1.83016 0.44114,2.21729 1.0899,2.21729 0.35329,0 0.42597,-0.38364 0.28405,-1.49931 z m -37.626009,0.37668 c 0.156633,-0.25344 -0.213614,-0.77247 -0.943702,-1.32292 -0.660809,-0.49821 -1.835577,-1.59355 -2.610594,-2.43408 -0.775021,-0.84054 -1.928488,-1.74525 -2.563255,-2.01048 -0.634771,-0.26522 -1.15413,-0.70384 -1.15413,-0.97472 0,-0.62892 -0.991457,-1.50238 -2.084458,-1.83638 -0.467357,-0.14281 -1.703846,-0.95533 -2.747758,-1.80561 -1.043908,-0.85028 -2.010904,-1.54865 -2.148872,-1.55194 -0.137971,-0.003 -1.044606,-0.7567 -2.014745,-1.67426 -0.970139,-0.91755 -2.160764,-1.89167 -2.645833,-2.16471 -2.441776,-1.37442 -3.380945,-1.79949 -3.975834,-1.79949 -0.358408,0 -1.272977,-0.49932 -2.032374,-1.10959 -1.221177,-0.98136 -1.453183,-1.0527 -2.007786,-0.61736 -1.724695,1.35382 -1.615541,1.59083 2.069565,4.49362 2.931678,2.30932 4.263492,3.0158 3.145331,1.6685 -0.237705,-0.28642 -0.33612,-0.82347 -0.218694,-1.19344 0.126044,-0.39713 -0.0065,-0.85528 -0.323631,-1.11846 -1.442018,-1.19676 0.09732,-1.45681 1.605308,-0.27119 0.555261,0.43656 1.654034,1.27 2.441712,1.85208 3.519184,2.60062 5.646357,4.61126 5.646378,5.33706 1.7e-5,0.49902 0.34931,0.89563 1.04116,1.18221 0.572625,0.23719 1.290658,0.81207 1.595631,1.27752 0.402827,0.61479 0.878195,0.84627 1.737893,0.84627 0.675195,0 1.391313,0.25232 1.667563,0.58756 0.266291,0.32316 1.317604,1.12179 2.336249,1.77473 1.388597,0.89008 1.852084,1.39869 1.852084,2.0324 0,1.06595 1.793067,1.70598 2.332792,0.83268 z m -30.555013,-0.46487 c 0,-0.29104 -0.238125,-0.52917 -0.529167,-0.52917 -0.291042,0 -0.529167,0.23813 -0.529167,0.52917 0,0.29104 0.238125,0.52917 0.529167,0.52917 0.291042,0 0.529167,-0.23813 0.529167,-0.52917 z m 23.586615,-1.35293 c -2.242704,-1.83892 -3.975583,-3.27788 -4.637042,-3.85054 -0.392197,-0.33955 -0.953371,-0.61736 -1.247051,-0.61736 -0.674109,0 1.60136,2.08346 4.058151,3.71571 1.005804,0.66824 1.934513,1.38613 2.063799,1.59532 0.129286,0.2092 0.338233,0.27691 0.464326,0.15048 0.12609,-0.12643 -0.18989,-0.57355 -0.702183,-0.99361 z m 23.315267,0.91196 c -0.0203,-0.30586 -3.26222,-3.00414 -3.84133,-3.19718 -0.96307,-0.32102 0.49567,1.63129 1.85556,2.48341 1.56414,0.9801 2.01418,1.14186 1.98577,0.71377 z m -7.037995,-0.24377 c 0,-0.37235 -0.67702,-0.52878 -0.878389,-0.20296 -0.12187,0.19719 0.02589,0.35853 0.328401,0.35853 0.302493,0 0.549988,-0.07 0.549988,-0.15557 z m -28.574999,-0.54092 c 0,-0.18905 -0.47625,-0.59 -1.058333,-0.89101 -0.582084,-0.30101 -1.05947,-0.66227 -1.060856,-0.80281 -0.0014,-0.14054 -1.186667,-1.20168 -2.633955,-2.3581 -2.118405,-1.69265 -2.594939,-2.24798 -2.444244,-2.8484 0.190225,-0.75791 -0.322544,-1.42252 -1.26116,-1.63461 -0.418851,-0.0946 -0.528079,0.41139 -0.567757,2.63033 -0.04201,2.34917 0.04615,2.7985 0.608033,3.09922 0.689537,0.36902 0.970523,-0.14338 0.304383,-0.55507 -0.656627,-0.40582 -0.357712,-0.88195 0.553689,-0.88195 0.605644,0 1.658387,0.67318 3.17222,2.02848 2.371248,2.12291 4.38798,3.14044 4.38798,2.21392 z m 38.099994,-0.15115 c 0,-0.83026 -6.57577,-4.78107 -7.97811,-4.79336 -0.21637,-0.002 -0.82005,-0.33904 -1.341498,-0.74922 -1.431731,-1.1262 -1.504632,-0.52564 -0.110451,0.9099 0.929529,0.9571 1.480479,1.24568 2.264249,1.18595 0.69588,-0.053 1.49174,0.27058 2.42512,0.98606 4.16041,3.1892 4.74069,3.4904 4.74069,2.46067 z m -12.915211,-2.41555 c 0.125762,-0.53358 0.159244,-0.97014 0.0744,-0.97014 -0.08484,0 -0.38578,-0.0889 -0.66875,-0.19743 -0.689695,-0.26466 -1.139804,1.48915 -0.561132,2.1864 0.502518,0.6055 0.843499,0.30485 1.155482,-1.01883 z m 14.326331,1.18427 c 0,-0.35761 -1.07449,-0.84474 -1.32054,-0.59869 -0.0887,0.0887 -0.0566,0.33054 0.0713,0.53748 0.28145,0.45539 1.24923,0.50281 1.24923,0.0612 z m -19.755559,-1.48045 c 0,-0.36531 -2.023191,-2.25026 -3.397762,-3.16561 -0.455393,-0.30325 -2.298128,-1.92282 -4.094973,-3.59903 -1.796842,-1.67622 -4.339209,-4.03359 -5.649705,-5.2386 -2.584125,-2.37613 -2.882779,-3.11807 -0.625422,-1.55372 1.092345,0.757 1.524096,0.88908 1.89635,0.58014 0.374153,-0.31052 0.787365,-0.15734 1.846912,0.68469 0.773112,0.61439 1.421151,0.91602 1.494603,0.69566 0.07132,-0.21397 -0.321811,-0.73678 -0.873633,-1.1618 -0.551822,-0.42503 -1.876439,-1.58901 -2.943592,-2.58664 -2.817093,-2.63357 -4.888706,-3.54511 -2.579832,-1.13516 1.067781,1.11452 0.64848,1.33464 -0.635787,0.33377 -0.462728,-0.36063 -1.357263,-0.92033 -1.987853,-1.24379 -1.005918,-0.51598 -1.146528,-0.52209 -1.146528,-0.0499 0,0.76451 -0.575948,0.66615 -1.184179,-0.20222 -0.57186,-0.81645 -2.477358,-2.17705 -3.578321,-2.55507 -0.388055,-0.13324 0.445382,0.84459 1.852084,2.17295 1.406701,1.32837 2.557638,2.65486 2.557638,2.94777 0,0.32009 0.592452,0.71007 1.484966,0.97747 0.816729,0.2447 1.967667,0.95051 2.557638,1.56848 0.589972,0.61797 1.667987,1.56222 2.395591,2.09834 0.727604,0.53611 1.322994,1.24448 1.323089,1.57416 1.91e-4,0.66006 2.939041,3.34498 4.379951,4.0015 0.596322,0.2717 0.911543,0.69644 0.911543,1.22823 0,0.48686 0.318371,0.97667 0.79375,1.2212 0.436562,0.22457 1.234023,0.81903 1.772133,1.32104 1.583909,1.47764 3.431339,2.0624 3.431339,1.08612 z m -17.11168,-15.49279 c -0.943137,-1.04216 -0.438227,-1.20606 0.53243,-0.17284 0.454981,0.48431 0.66542,0.88056 0.467642,0.88056 -0.197777,0 -0.647809,-0.31848 -1.000072,-0.70772 z m 44.628349,15.54816 c 0,-0.43146 -1.30263,-0.83802 -1.76649,-0.55134 -0.19893,0.12295 -0.27036,0.37132 -0.15872,0.55194 0.26455,0.42806 1.92521,0.42754 1.92521,-7e-4 z m -6.26266,-1.87586 c -1.17497,-1.19448 -1.92734,-1.67569 -2.61995,-1.67569 -0.65156,0 -1.56042,-0.52294 -2.75906,-1.5875 -0.98309,-0.87313 -2.02502,-1.5875 -2.31539,-1.5875 -0.8893,0 0.8566,2.02681 2.74884,3.19111 0.92577,0.56963 1.68322,1.27762 1.68322,1.57331 0,0.8262 1.91009,1.79995 3.49151,1.77993 l 1.41916,-0.018 -1.64833,-1.67569 z m 9.08488,1.18427 c 0,-0.31509 -0.82955,-0.7433 -1.43997,-0.7433 -0.17815,0 -0.32392,0.23813 -0.32392,0.52917 0,0.32926 0.33318,0.52917 0.88194,0.52917 0.48507,0 0.88195,-0.14177 0.88195,-0.31504 z m -47.272222,-1.05748 c 0,-0.34584 -3.316044,-2.50804 -3.846428,-2.50804 -0.218062,0 -0.694284,0.18598 -1.058266,0.41329 -0.553646,0.34576 -0.884347,0.24014 -2.023688,-0.64635 -2.054973,-1.59891 -2.389015,-1.75571 -1.935621,-0.90854 0.208234,0.38909 1.205907,1.40044 2.217053,2.24744 1.614805,1.35266 2.098727,1.56286 3.978116,1.72795 2.212932,0.19439 2.668834,0.13874 2.668834,-0.32575 z m 47.477462,-0.39137 c 0.57334,0 0.69515,-1.60184 0.14754,-1.94028 -0.19403,-0.11992 -0.35278,-0.52616 -0.35278,-0.90277 0,-0.44954 -0.24234,-0.68473 -0.70556,-0.68473 -0.90421,0 -0.88969,0.28769 0.0659,1.30485 0.57473,0.61177 0.6695,0.92309 0.37168,1.22091 -0.29782,0.29783 -1.28163,-0.45354 -3.85825,-2.94665 -3.18058,-3.07752 -4.90463,-4.42418 -5.23765,-4.09115 -0.18083,0.18083 3.08237,3.50817 4.07908,4.15926 1.64728,1.07607 3.24528,2.62641 3.55978,3.45362 0.21775,0.57271 0.50479,0.78196 0.87684,0.63919 0.30421,-0.11674 0.77826,-0.21225 1.05343,-0.21225 z m -24.551081,-0.44097 c -0.0021,-0.24254 -1.034168,-1.29524 -2.293055,-2.33932 -2.814962,-2.33467 -3.142964,-3.5409 -0.436799,-1.60634 1.018646,0.7282 2.394183,1.73439 3.056745,2.23597 0.662566,0.50159 1.138816,0.74355 1.058333,0.53769 -0.164676,-0.42122 -3.649732,-3.5179 -5.051901,-4.48892 -1.015619,-0.70333 -1.243121,-2.012 -0.349772,-2.012 0.502716,0 2.587311,1.60433 7.019234,5.40209 1.343916,1.15162 2.998606,1.96316 2.998606,1.47066 0,-0.12669 -0.89735,-1.06554 -1.99412,-2.08634 -3.90862,-3.63786 -0.620064,-2.22496 3.84456,1.65178 1.96132,1.70306 2.3829,1.94011 2.3829,1.33987 0,-0.18471 -0.75406,-0.85155 -1.6757,-1.48187 -0.92163,-0.63032 -2.98236,-2.30482 -4.57939,-3.72111 -1.59704,-1.4163 -3.065477,-2.57508 -3.263198,-2.57508 -0.527072,0 -0.438292,0.55376 0.169675,1.05833 0.291042,0.24154 0.529167,0.58116 0.529167,0.7547 0,0.34249 -4.419537,-3.02811 -4.851573,-3.70009 -0.532169,-0.82773 -2.884632,-2.34628 -3.63475,-2.34628 -0.651923,0 -0.702741,0.0838 -0.326045,0.5377 1.151541,1.38752 -0.765026,0.77063 -2.264558,-0.72891 -0.554933,-0.55493 -0.553201,-0.62139 0.02723,-1.04581 0.574855,-0.42034 0.540713,-0.52711 -0.470638,-1.47185 -1.792682,-1.67462 -6.000315,-5.05224 -6.293767,-5.05224 -0.150177,0 -0.618987,-0.35719 -1.041798,-0.79375 -0.422808,-0.43656 -1.076011,-0.99886 -1.451564,-1.24957 -0.651905,-0.43517 -0.646882,-0.44865 0.110931,-0.29761 0.436562,0.087 0.79375,0.0642 0.79375,-0.0506 0,-0.37278 -1.523086,-1.84168 -1.913576,-1.8455 -0.208714,-0.002 -1.328858,-0.71641 -2.489207,-1.5875 -1.160346,-0.87109 -2.262251,-1.58379 -2.448676,-1.58379 -0.186422,0 -0.0308,0.22678 0.345838,0.50397 0.639946,0.47097 0.644183,0.51971 0.06471,0.74434 -0.880216,0.34121 -3.530113,-2.352 -3.577808,-3.63629 -0.04959,-1.33529 -1.108414,-1.47953 -1.430828,-0.19493 -0.217876,0.86808 -0.03111,1.17217 1.633019,2.65915 1.033466,0.92344 2.351144,2.10376 2.928175,2.62293 0.577032,0.51917 2.298562,1.78987 3.825624,2.82377 4.106753,2.78049 6.340786,4.88548 6.074706,5.72383 -0.171714,0.54102 0.480752,1.29097 3.129044,3.59652 2.740939,2.3862 3.28695,3.02328 3.019467,3.52308 -0.264174,0.49361 -0.09213,0.72136 0.900935,1.1926 0.675107,0.32035 1.227465,0.70731 1.227465,0.8599 0,0.63144 -0.511845,0.6908 -1.694769,0.19655 -0.8792,-0.36736 -1.363377,-0.41227 -1.624908,-0.15074 -0.261532,0.26153 0.195378,0.89465 1.533405,2.12476 1.048268,0.96373 2.037767,1.75223 2.198885,1.75223 0.161117,0 0.292943,0.3175 0.292943,0.70555 0,0.55575 0.235186,0.70556 1.107637,0.70556 0.633635,0 1.294571,0.25565 1.544465,0.5974 0.410467,0.56135 0.472881,0.56135 1.034228,0 0.778037,-0.77804 0.855232,-0.7605 1.252558,0.28454 0.347846,0.9149 1.06147,1.21342 1.05416,0.44098 z M 58.772918,139.4985 c -0.285422,-0.18051 -0.400706,-0.44644 -0.256184,-0.59096 0.144523,-0.14453 0.531128,0.006 0.85913,0.33359 0.637604,0.63761 0.255916,0.80053 -0.602946,0.25737 z m 28.988112,23.199 c -0.22636,-0.22637 -0.52868,-0.29447 -0.67182,-0.15133 -0.14313,0.14313 -0.0313,0.40173 0.24849,0.57466 0.65884,0.40719 0.95635,0.10968 0.42333,-0.42333 z m 10.16,0.49265 c 0,-0.31783 -3.62748,-3.59581 -4.53221,-4.09555 -1.07406,-0.59325 -4.64001,-3.48289 -4.64001,-3.75998 0,-0.15059 0.687,-0.24722 1.52668,-0.21472 1.37045,0.053 2.70665,-0.59765 2.70665,-1.31806 0,-0.10844 -0.67468,-0.61889 -1.4993,-1.13434 -0.82462,-0.51544 -2.05493,-1.39979 -2.73403,-1.96522 -4.22666,-3.51919 -5.511022,-4.50886 -5.855048,-4.51165 -0.212845,-0.002 -0.753075,-0.32064 -1.200506,-0.70869 -0.447432,-0.38806 -1.067036,-0.70477 -1.376895,-0.7038 -0.663212,0.002 0.574012,1.10696 3.464598,3.09406 1.051221,0.72265 2.400601,1.65334 2.998611,2.06821 1.89518,1.31477 3.91812,3.22334 3.67772,3.4698 -0.34281,0.35145 -2.02365,-0.6138 -3.82515,-2.19663 -0.87312,-0.76715 -2.09554,-1.65622 -2.71649,-1.97572 -0.620945,-0.3195 -1.255945,-0.79838 -1.411111,-1.06418 -0.26428,-0.45272 -1.635873,-1.28168 -4.649685,-2.81015 -1.76264,-0.89393 -4.011891,-2.38662 -4.533759,-3.00877 -0.239063,-0.28501 -0.953438,-0.51282 -1.5875,-0.50625 -1.293131,0.0134 -2.387561,-0.7526 -2.387561,-1.67104 0,-0.518 -2.055936,-2.45664 -2.605264,-2.45664 -0.256151,0 0.557118,1.80819 1.194153,2.65504 0.291042,0.3869 1.072233,1.15099 1.735981,1.69799 0.94579,0.77943 1.441757,0.95134 2.293055,0.79483 0.927714,-0.17055 1.317921,0.0201 2.673742,1.30655 0.873125,0.82843 2.460625,2.13079 3.527777,2.89414 2.091288,1.49591 2.514138,1.93539 2.259133,2.348 -0.236802,0.38316 0.935266,1.68194 2.044876,2.26596 1.340294,0.70542 2.072823,0.6086 0.899463,-0.11889 -0.533576,-0.33081 -0.970139,-0.73906 -0.970139,-0.9072 0,-0.59364 2.293559,1.15902 2.329019,1.77976 0.0757,1.32586 0.15552,1.5116 0.64943,1.5116 1.09852,0 3.07453,1.53582 3.57915,2.78184 0.38575,0.95248 1.07202,1.60622 2.71236,2.58377 1.20778,0.71976 2.88382,1.95007 3.72453,2.73402 1.41344,1.31801 2.52773,1.8214 2.52773,1.14191 z m 0.85049,-1.86543 c -0.74055,-0.75839 -1.52776,-1.37889 -1.74935,-1.37889 -0.22159,0 -0.70269,-0.33127 -1.0691,-0.73615 -0.83626,-0.92406 -3.58117,-2.79163 -4.10306,-2.79163 -0.36188,0 1.62655,1.93709 3.88046,3.78027 0.52571,0.42992 1.66484,1.35885 2.5314,2.0643 1.99556,1.62455 2.3589,0.95591 0.50965,-0.9379 z m -25.199229,0.90564 c -0.245435,-0.29573 -0.518894,-0.46504 -0.607688,-0.37625 -0.244648,0.24465 0.25243,0.91394 0.678779,0.91394 0.233927,0 0.207162,-0.20242 -0.07109,-0.53769 z M 57.3372,159.24031 c -1.71626,-1.50674 -2.465316,-1.75078 -2.436399,-0.79379 0.01771,0.58575 3.47455,2.67617 3.847511,2.32666 0.0891,-0.0835 -0.545899,-0.77329 -1.411112,-1.53287 z m 48.23363,-0.64177 c -0.0675,-0.13212 -0.38498,-0.81422 -0.70539,-1.51579 -0.49897,-1.0925 -3.30145,-3.8397 -3.91697,-3.8397 -0.11287,0 -0.20521,0.23067 -0.20521,0.5126 0,0.64851 4.30177,5.48397 4.67402,5.2539 0.15201,-0.0939 0.2211,-0.2789 0.15355,-0.41101 z m -37.363975,-1.54108 c -0.218041,-0.65413 -0.977487,-0.76262 -0.977487,-0.13964 0,0.30721 0.251354,0.55856 0.558563,0.55856 0.307213,0 0.495727,-0.18851 0.418924,-0.41892 z m 40.362185,-1.06862 c -0.25314,-0.25314 -0.41745,-0.27397 -0.41745,-0.0529 0,0.2005 0.10583,0.47037 0.23518,0.59972 0.12935,0.12936 0.31721,0.15317 0.41746,0.0529 0.10025,-0.10025 -0.006,-0.37012 -0.23519,-0.59972 z m 2.40477,-0.1 c 0,-0.29104 -0.14938,-0.52916 -0.33196,-0.52916 -0.44484,0 -0.76344,0.55089 -0.4816,0.83274 0.3973,0.39729 0.81356,0.24196 0.81356,-0.30358 z m -51.502706,-0.44097 c 0.0014,-0.14552 -0.870328,-1.07336 -1.937544,-2.06185 -1.915604,-1.77432 -4.564729,-3.28618 -4.998339,-2.85257 -0.361128,0.36113 0.475143,1.14384 2.572174,2.40743 1.080787,0.65124 2.385059,1.53625 2.898383,1.96668 0.969391,0.81285 1.460443,0.99392 1.465326,0.54031 z m -12.842488,-1.05098 c -0.358604,-0.35861 -0.65449,0.18129 -0.360263,0.65736 0.222263,0.35962 0.305357,0.3599 0.424851,0.001 0.0817,-0.24511 0.05264,-0.54156 -0.06459,-0.65879 z m 17.77853,-0.27193 c -0.241544,-0.29105 -0.677295,-0.52917 -0.968337,-0.52917 -0.430371,0 -0.447174,0.0988 -0.09,0.52917 0.241544,0.29104 0.677295,0.52916 0.968336,0.52916 0.430372,0 0.447174,-0.0988 0.09,-0.52916 z m 46.652524,-0.95422 c 0.16833,-1.14696 -0.6966,-5.32702 -1.29459,-6.25649 -0.17973,-0.27936 -0.37758,-1.43964 -0.43967,-2.57841 -0.0621,-1.13876 -0.28557,-2.39312 -0.49661,-2.78746 -0.21104,-0.39433 -0.46678,-1.9328 -0.56831,-3.41881 -0.10153,-1.48601 -0.39974,-3.36454 -0.66269,-4.17451 -0.5186,-1.59744 -0.64302,-8.80705 -0.15718,-9.10732 0.15747,-0.0973 0.39948,-1.32851 0.53781,-2.73598 0.13833,-1.40747 0.40931,-2.75415 0.60219,-2.99263 0.23362,-0.28886 0.22195,-0.80288 -0.035,-1.53983 -0.48569,-1.39326 -0.24281,-1.79475 0.9106,-1.50527 0.88628,0.22245 0.87455,0.18119 -0.47613,-1.6744 -0.76164,-1.04635 -1.84634,-3.00509 -2.41043,-4.35274 -0.5641,-1.34766 -1.31207,-2.73672 -1.66216,-3.08681 -0.35008,-0.35008 -0.63895,-1.07308 -0.64192,-1.60666 -0.003,-0.53357 -0.14397,-1.18891 -0.31334,-1.45631 -0.38175,-0.60271 -1.09237,-0.21212 -1.09237,0.60041 0,0.33097 -0.29386,1.15504 -0.65303,1.83127 -0.35917,0.67622 -0.92514,2.05568 -1.25773,3.06547 -0.3967,1.20449 -1.16192,2.4012 -2.22479,3.47932 -1.37469,1.39442 -1.64486,1.90108 -1.78359,3.34477 -0.14348,1.49328 -0.0504,1.80626 0.76116,2.55835 1.0369,0.96097 1.1434,1.76227 0.4526,3.4052 -0.44183,1.0508 -0.4108,1.18824 0.48469,2.14687 1.07075,1.14624 1.93164,3.80738 1.79069,5.53529 -0.0512,0.6273 0.22347,1.73684 0.61126,2.46945 1.72792,3.26439 2.59283,5.43989 2.42217,6.09249 -0.10153,0.38825 -0.0584,0.7059 0.0959,0.7059 0.15427,0 0.38305,0.54668 0.5084,1.21484 0.13146,0.70078 0.48686,1.29702 0.83988,1.40907 0.66802,0.21202 1.67678,1.92757 2.03541,3.46151 0.1754,0.75023 0.0982,0.97013 -0.3406,0.97013 -0.60583,0 -0.68085,0.46578 -0.25152,1.56171 0.24519,0.6259 0.28495,0.63112 0.50187,0.0658 0.12958,-0.33765 0.39064,-0.5181 0.58015,-0.40097 0.3105,0.1919 1.35858,3.41514 1.92405,5.91719 0.3219,1.4243 1.4863,1.31458 1.70279,-0.16047 z m -29.895581,0.25365 c -0.388055,-0.27595 -0.94368,-0.72517 -1.234722,-0.99827 -0.291042,-0.2731 -0.88278,-0.68094 -1.314975,-0.90632 -1.384646,-0.72206 -0.566131,0.38758 1.06947,1.44985 1.510838,0.98124 2.760454,1.36514 1.480227,0.45474 z m 22.736461,-1.79021 c -0.42514,-0.51227 -2.09896,-0.71964 -2.09896,-0.26005 0,0.13629 0.51594,0.78225 1.14653,1.43548 l 1.14652,1.18769 0.11369,-0.92765 c 0.0625,-0.5102 -0.076,-1.15616 -0.30778,-1.43547 z m -6.68507,1.47564 c 0,-0.0733 -0.27782,-0.35107 -0.61736,-0.61737 -0.55953,-0.43881 -0.57201,-0.42633 -0.1332,0.1332 0.46086,0.58764 0.75056,0.77452 0.75056,0.48417 z m -2.93926,-1.60813 c 0.50624,0.19247 0.98091,0.28948 1.05482,0.21558 0.29127,-0.29128 -5.23,-5.17704 -5.85044,-5.17704 -0.73796,0 -3.55401,-1.80775 -3.55401,-2.28149 0,-0.25285 0.61918,-0.54956 1.41111,-0.6762 0.96225,-0.15387 1.41111,-0.40465 1.41111,-0.78839 0,-0.36821 0.1929,-0.48872 0.55802,-0.34861 0.30691,0.11778 0.70333,0.21414 0.88093,0.21414 0.1776,0 0.95892,0.5746 1.73627,1.27689 1.1471,1.03633 1.50964,1.19699 1.92437,0.85279 0.68467,-0.56823 1.64643,-0.21586 3.39252,1.24296 0.79883,0.66741 1.57464,1.21347 1.72402,1.21347 0.14938,0 0.80904,0.47006 1.46593,1.04459 2.19791,1.92234 3.84254,2.37844 2.70134,0.74916 -0.67097,-0.95795 -4.69735,-3.92575 -6.39618,-4.71456 -0.92943,-0.43156 -1.28628,-0.78988 -1.14181,-1.14653 0.71177,-1.75711 0.985,-1.32708 -2.78846,-4.38865 -0.97014,-0.78712 -2.00202,-1.63576 -2.29306,-1.88588 -0.99133,-0.85194 -3.34774,-2.55911 -4.93889,-3.57811 -1.974997,-1.26483 -1.17077,-0.19233 0.94985,1.26669 1.11217,0.7652 1.5196,1.28381 1.5196,1.93429 0,0.75016 -0.12379,0.85526 -0.79375,0.67389 -0.73216,-0.19821 -0.72532,-0.17388 0.0882,0.31355 0.48507,0.29063 1.1351,0.45313 1.44452,0.36111 0.32376,-0.0963 1.56944,0.60997 2.9344,1.6637 2.07854,1.60461 2.29252,1.87487 1.73048,2.18564 -0.35274,0.19503 -0.82765,0.60426 -1.05536,0.90939 -0.44843,0.6009 -0.41357,0.62236 -2.88515,-1.77696 -0.52159,-0.50635 -1.34066,-1.04514 -1.82015,-1.19733 -0.4795,-0.15218 -1.58756,-0.86426 -2.46236,-1.58239 -2.750561,-2.25795 -4.22544,-3.0026 -4.995081,-2.52195 -0.532074,0.33229 -0.706991,0.31692 -0.857508,-0.0753 -0.103998,-0.27101 -0.735397,-0.78696 -1.403106,-1.14654 -0.66771,-0.35959 -1.214018,-0.92712 -1.214018,-1.26117 0,-0.76504 -2.114846,-2.40718 -3.100101,-2.40718 -0.407243,0 -0.948574,-0.27781 -1.202951,-0.61736 -0.538815,-0.71923 -2.102387,-1.85058 -3.69764,-2.6755 -0.616839,-0.31898 -1.23093,-0.93889 -1.364644,-1.37758 -0.370473,-1.21545 -1.23651,-2.03234 -2.154618,-2.03234 -0.60506,0 -0.827267,0.19888 -0.827267,0.74041 v 0.74039 l -1.224855,-0.72267 c -0.697227,-0.41138 -1.314055,-0.57836 -1.431929,-0.38763 -0.113894,0.18428 -0.534649,0.33506 -0.935009,0.33506 -0.607053,0 -0.655003,0.0879 -0.288763,0.52916 0.241544,0.29105 0.742816,0.52917 1.113942,0.52917 0.670327,0 2.161751,0.81597 3.058706,1.67343 0.796781,0.76171 1.749792,1.15535 2.292717,0.94701 0.311775,-0.11964 2.151564,1.00854 4.604403,2.82348 2.246831,1.66252 4.286853,3.02561 4.533384,3.02911 0.246529,0.004 0.994968,0.6645 1.663196,1.46889 l 1.214959,1.46254 -1.214959,-0.22799 -1.21496,-0.22797 0.970139,0.72879 c 0.533577,0.40083 0.970139,0.89889 0.970139,1.10681 0,0.2089 -0.276211,0.13848 -0.617361,-0.15739 -0.339549,-0.29448 -1.159729,-0.6379 -1.822623,-0.76315 -0.662894,-0.12526 -1.723862,-0.6233 -2.357712,-1.10676 -1.293986,-0.98697 -1.905081,-1.11279 -1.905081,-0.39224 0,0.26773 0.912812,1.16993 2.028472,2.00488 1.115659,0.83495 2.107847,1.62282 2.204861,1.75081 0.09701,0.12799 0.935965,0.80823 1.864338,1.51163 1.30163,0.98621 1.909551,1.23459 2.656184,1.08527 1.027091,-0.20542 2.338313,0.54585 6.549076,3.75231 1.14058,0.86853 2.56933,1.91751 3.175,2.33105 0.60568,0.41354 1.48609,1.1676 1.95648,1.67569 1.17367,1.26776 0.13499,1.26622 -1.37224,-0.002 -0.60517,-0.50922 -1.17973,-0.84642 -1.2768,-0.74936 -0.0971,0.0971 0.58433,0.72765 1.51421,1.40129 1.28515,0.931 1.75666,1.11379 1.9657,0.76204 0.20464,-0.34433 0.51055,-0.37319 1.19546,-0.11279 z m -8.70241,-9.54757 c -0.87312,-0.76453 -1.762117,-1.39479 -1.97554,-1.40058 -0.580348,-0.0157 -3.316125,-2.0758 -3.316125,-2.49706 0,-0.40758 3.131132,1.27435 3.739797,2.00888 0.225438,0.27206 0.949398,0.4336 1.725458,0.385 0.81728,-0.0512 1.39769,0.0877 1.49307,0.35723 0.0876,0.24759 -0.12335,0.44097 -0.48103,0.44097 -0.55128,0 -0.53149,0.0739 0.14699,0.54917 0.73975,0.51815 1.09397,1.57983 0.51946,1.55697 -0.14552,-0.006 -0.97895,-0.63605 -1.85208,-1.40058 z m -35.013192,8.79119 c -0.339548,-0.19777 -0.617361,-0.58574 -0.617361,-0.86216 0,-0.27642 -0.47625,-0.74885 -1.058333,-1.04986 -0.582083,-0.30101 -1.058333,-0.39602 -1.058333,-0.21113 0,0.42133 2.502831,2.50797 2.990793,2.49346 0.198328,-0.006 0.08278,-0.17254 -0.256766,-0.37031 z m 14.195972,-1.47105 c -0.0018,-0.0485 -1.351206,-1.49829 -2.998611,-3.22175 -1.647402,-1.72345 -2.995278,-3.35063 -2.995278,-3.61597 0,-0.31847 -0.430473,-0.48242 -1.266652,-0.48242 -0.998869,0 -1.683949,-0.35426 -3.240546,-1.67569 -1.15861,-0.98358 -1.873969,-1.40879 -1.731962,-1.02948 0.133068,0.35541 0.241938,0.7879 0.241938,0.96108 0,0.17317 0.436563,0.54077 0.970139,0.81687 0.533577,0.27611 3.100959,2.26456 5.705299,4.41879 4.052104,3.35177 5.332504,4.27396 5.315673,3.82857 z m -15.518888,-2.52879 c 0,-0.0811 -0.09636,-0.39864 -0.214133,-0.70555 -0.302479,-0.78825 -0.844201,-0.69358 -0.844201,0.14753 0,0.39198 0.235186,0.70556 0.529167,0.70556 0.291042,0 0.529167,-0.0664 0.529167,-0.14754 z m 6.80062,-1.70454 c -0.182919,-0.92424 -3.978398,-3.09639 -3.978398,-2.27684 0,0.81106 2.716815,3.03177 3.743441,3.05986 0.21947,0.006 0.322898,-0.33869 0.234957,-0.78302 z m 15.365581,-0.24173 c -0.06467,-0.18145 -1.705091,-1.52351 -3.645369,-2.98236 -1.940277,-1.45883 -3.955714,-2.98218 -4.478746,-3.3852 -2.15888,-1.66352 -4.624691,-3.18029 -5.169898,-3.18011 -0.842324,2.8e-4 2.154378,2.8168 5.102775,4.79596 1.336061,0.89685 2.723225,1.97055 3.082582,2.386 0.983146,1.13659 3.471792,2.64737 4.403101,2.67299 0.452734,0.0125 0.770234,-0.12582 0.705555,-0.30728 z m -22.166201,-0.72841 c 0,-0.19403 -0.15875,-0.35278 -0.352778,-0.35278 -0.194028,0 -0.352778,0.15875 -0.352778,0.35278 0,0.19403 0.15875,0.35278 0.352778,0.35278 0.194028,0 0.352778,-0.15875 0.352778,-0.35278 z m 30.338887,0.0377 c 0,-0.17327 -0.225601,-0.4016 -0.501336,-0.50741 -0.275734,-0.10582 -2.123873,-1.43249 -4.106978,-2.94816 -4.182802,-3.1969 -5.940736,-4.45924 -6.680574,-4.79717 -0.291042,-0.13294 -0.886354,-0.50143 -1.322917,-0.81888 -0.436562,-0.31745 -0.79375,-0.41202 -0.79375,-0.21015 0,0.20187 0.515938,0.68828 1.146528,1.0809 0.63059,0.39263 1.408917,1.00089 1.729613,1.35169 0.320696,0.35081 1.168252,1.0347 1.883456,1.51977 0.715204,0.48507 1.80219,1.29576 2.415526,1.80154 1.904841,1.57081 5.326817,3.84196 5.78946,3.84244 0.242535,2.6e-4 0.440972,-0.1413 0.440972,-0.31457 z m -28.454726,-3.21274 c -0.343845,-0.58209 -0.749695,-1.05834 -0.90189,-1.05834 -0.520094,0 -0.27783,1.1561 0.340645,1.62559 1.014254,0.76993 1.225194,0.55673 0.561245,-0.56725 z m 46.995127,-2.05501 c -0.12168,-0.38339 -0.59776,-0.79157 -1.05795,-0.90707 -0.46019,-0.1155 -1.76418,-0.96597 -2.89777,-1.88993 -1.13359,-0.92396 -2.85482,-2.22579 -3.82496,-2.89296 -0.97014,-0.66716 -1.89616,-1.42949 -2.05783,-1.69405 -0.16166,-0.26456 -1.43166,-1.20762 -2.82222,-2.0957 -1.390552,-0.88807 -3.049744,-2.06919 -3.687086,-2.6247 -0.637339,-0.55552 -1.337289,-1.01003 -1.555443,-1.01003 -0.80868,0 -4.187211,-2.85915 -4.087668,-3.45927 0.13765,-0.82985 -1.755634,-1.05459 -2.066202,-0.24527 -0.260949,0.68003 1.488278,2.64207 3.511039,3.9382 0.95087,0.60929 1.327555,1.08966 1.283867,1.63723 -0.113986,1.42861 0.0097,1.64263 1.515572,2.6217 0.824618,0.53615 1.658056,1.15122 1.852084,1.36682 0.397238,0.4414 1.587499,0.9197 1.587499,0.63792 0,-0.10081 -0.562874,-0.69896 -1.25083,-1.32921 -0.817121,-0.74858 -1.176182,-1.34043 -1.035547,-1.70692 0.252017,-0.65675 1.436458,-0.46569 1.721736,0.27773 0.104344,0.27192 0.512201,0.4944 0.906349,0.4944 0.39414,0 0.71663,0.21858 0.71663,0.48573 0,0.26715 0.80302,0.83118 1.7845,1.2534 0.98148,0.42222 2.7128,1.47364 3.84738,2.3365 1.13457,0.86285 2.20161,1.56882 2.3712,1.56882 0.16958,0 0.8461,0.57014 1.50338,1.26698 1.16239,1.23236 3.60087,2.9932 3.84311,2.77514 0.0662,-0.0596 0.0208,-0.42207 -0.10084,-0.80546 z m -34.981619,-2.23828 c -0.171513,-0.27751 -0.06276,-0.33893 0.33196,-0.18746 0.32287,0.1239 0.587037,0.0809 0.587037,-0.0956 0,-0.50042 -0.682593,-0.7996 -1.291347,-0.566 -0.446144,0.1712 -0.468446,0.31251 -0.1163,0.73682 0.51737,0.62339 0.852071,0.70029 0.48865,0.11226 z m 37.255109,-0.97756 c 0,-0.80587 -0.5562,-1.25345 -0.88883,-0.71524 -0.29635,0.4795 0.0488,1.39998 0.52498,1.39998 0.20012,0 0.36385,-0.30813 0.36385,-0.68474 z m -2.36849,-1.16735 c 0.0879,-0.24253 -0.0796,-0.71581 -0.37207,-1.05171 -0.43668,-0.50149 -0.45074,-0.70844 -0.0786,-1.15687 0.37862,-0.45622 0.31843,-0.68963 -0.36559,-1.41773 -0.45035,-0.47938 -0.98959,-0.87298 -1.1983,-0.87466 -0.20872,-0.002 -0.9642,-0.55731 -1.67885,-1.23473 -0.71465,-0.67741 -1.42903,-1.23242 -1.5875,-1.23335 -0.15847,-0.001 -0.89228,-0.55655 -1.63068,-1.23472 -0.7384,-0.67817 -1.49037,-1.23303 -1.67104,-1.23303 -0.18067,0 -1.13865,-0.8059 -2.12883,-1.7909 -0.99019,-0.98498 -1.87641,-1.71482 -1.96938,-1.62185 -0.31864,0.31864 0.67421,1.47336 2.56953,2.98845 2.11801,1.69311 2.70251,3.05701 0.8381,1.95568 -0.58208,-0.34385 -1.05833,-0.73576 -1.05833,-0.87092 0,-0.13517 -1.01273,-0.96842 -2.2505,-1.85168 -1.23778,-0.88326 -2.344044,-1.84969 -2.458373,-2.14763 -0.232466,-0.6058 -1.480156,-0.7348 -1.818107,-0.18798 -0.146138,0.23646 -0.437748,0.23646 -0.879574,0 -1.530893,-0.81931 -1.96561,0.0874 -0.619142,1.29136 0.731985,0.65451 3.564184,2.23547 4.004733,2.23547 0.104853,0 -0.400682,-0.55769 -1.123407,-1.23931 -0.722728,-0.68162 -1.192928,-1.35631 -1.044889,-1.49931 0.148036,-0.143 0.509295,0.0972 0.802792,0.53375 0.293501,0.43657 0.760264,0.79375 1.037258,0.79375 0.276991,0 1.075729,0.55563 1.774979,1.23473 0.69924,0.67909 1.48512,1.23472 1.7464,1.23472 0.26128,0 0.47505,0.15875 0.47505,0.35278 0,0.19402 -0.23812,0.35277 -0.52917,0.35277 -1.03695,0 -0.49831,0.70328 1.61245,2.10528 2.21757,1.47295 2.64035,1.67202 2.26657,1.06723 -0.12076,-0.1954 0.0355,-0.45314 0.34719,-0.57275 0.51494,-0.1976 0.5118,-0.27821 -0.0343,-0.88162 -1.09116,-1.20572 -0.21393,-1.10454 1.93763,0.22348 3.43988,2.12321 4.57635,3.90338 1.3356,2.0921 -1.45821,-0.81502 -1.69621,-0.85723 -2.16877,-0.38467 -0.47256,0.47256 -0.33352,0.74666 1.26694,2.49783 1.58098,1.72984 1.96008,1.96701 3.14406,1.96701 0.75666,0 1.41628,-0.19313 1.50607,-0.44097 z m -8.21485,-5.56498 c 0,-0.19883 -0.39687,-0.5124 -0.88194,-0.69682 -0.48507,-0.18443 -0.88194,-0.50697 -0.88194,-0.71677 0,-0.21926 0.45,-0.11563 1.05833,0.24372 0.8917,0.52674 1.47029,1.53138 0.88194,1.53138 -0.097,0 -0.17639,-0.16268 -0.17639,-0.36151 z m -28.927772,5.34359 c 0,-0.17027 -0.243988,-0.51207 -0.542191,-0.75956 -0.298207,-0.24749 -0.496644,-0.73948 -0.440972,-1.09331 0.0701,-0.44556 -0.357382,-0.88988 -1.390541,-1.4453 -0.820466,-0.44108 -2.614976,-1.57392 -3.987793,-2.51741 -1.37282,-0.9435 -2.589463,-1.62202 -2.70365,-1.50783 -0.309174,0.30917 0.55463,1.22153 1.415084,1.49463 1.347822,0.42778 4.845296,3.76373 4.636311,4.42219 -0.117948,0.37161 0.112349,0.80947 0.608548,1.15702 0.855635,0.59931 2.405204,0.7601 2.405204,0.24957 z m 11.641666,-0.34121 c 0,-0.46696 -1.146058,-1.3562 -2.116666,-1.64235 -0.881659,-0.25993 -0.88161,-0.25965 0.154195,0.84022 0.98527,1.04621 1.962471,1.44563 1.962471,0.80213 z M 57.35159,132.84898 c 0,-0.15715 -1.042754,-0.99059 -2.317235,-1.85208 -1.274476,-0.86149 -2.519905,-1.70879 -2.767619,-1.88288 -0.726803,-0.5108 -2.218284,0.0526 -2.446157,0.92394 -0.338501,1.29442 0.361308,1.51857 0.983661,0.31507 0.312536,-0.60438 0.677224,-1.09887 0.810418,-1.09887 0.133195,0 0.883179,0.6259 1.666635,1.39088 1.832893,1.78968 4.070297,3.00117 4.070297,2.20394 z m 7.761111,-0.78062 c -0.679097,-0.58248 -2.016855,-1.57303 -2.972798,-2.20121 -0.955943,-0.62819 -1.940514,-1.29529 -2.187942,-1.48246 -0.247424,-0.18716 -0.551346,-0.23881 -0.675382,-0.11478 -0.874261,0.87426 3.080674,4.358 4.798818,4.22708 0.545006,-0.0415 1.090101,0.085 1.211322,0.28111 0.121218,0.19614 0.409469,0.35497 0.640553,0.35297 0.231084,-0.002 -0.135474,-0.48022 -0.814571,-1.06271 z m 12.347222,-1.40309 c -1.603164,-1.48003 -3.189647,-1.98988 -2.435811,-0.78279 0.544104,0.87125 2.473329,2.14555 3.288259,2.17198 0.514206,0.0167 0.31012,-0.31591 -0.852448,-1.38919 z m 19.514927,-2.9776 c -0.35272,-0.48443 -0.83336,-0.88577 -1.06807,-0.89187 -0.23472,-0.006 -1.01428,-0.64609 -1.73236,-1.4222 -1.56953,-1.69635 -2.79281,-1.98094 -1.40002,-0.32571 0.50231,0.59697 0.9133,1.2915 0.9133,1.54341 0,0.2519 0.46723,0.55145 1.03829,0.66566 0.59375,0.11875 1.38671,0.68024 1.85208,1.31145 0.59135,0.80208 0.84445,0.95295 0.92595,0.55192 0.0617,-0.30353 -0.17645,-0.94823 -0.52917,-1.43266 z m -24.222775,-0.006 c -0.114892,-0.29942 -0.378216,-0.54439 -0.585159,-0.54439 -0.260901,0 -0.255531,0.22559 0.0175,0.73577 0.437903,0.81823 0.895829,0.66384 0.567647,-0.19139 z m -17.164374,-0.54439 c -0.20768,-0.38805 -0.518586,-0.70555 -0.690901,-0.70555 -0.172314,0 -0.801729,-0.41099 -1.398696,-0.91331 -0.677246,-0.56986 -1.081123,-0.73569 -1.074025,-0.44097 0.0089,0.36713 2.980182,2.7535 3.440617,2.76325 0.05533,0.001 -0.06931,-0.31536 -0.276995,-0.70342 z m 20.44779,0.0249 c 0.298288,-0.55735 0.190221,-0.81758 -0.596512,-1.43642 -0.559333,-0.43997 -1.013453,-0.59778 -1.08682,-0.37767 -0.353769,1.0613 -2.007514,-0.19991 -2.007514,-1.53101 0,-0.53794 -0.190383,-0.70728 -0.705555,-0.62757 -0.388056,0.06 -0.966273,0.14839 -1.28493,0.19633 -0.318653,0.0479 -0.953653,0.34087 -1.411111,0.65095 -0.678219,0.45972 -0.748721,0.64975 -0.381959,1.02956 0.355529,0.36817 0.592095,0.37689 1.128952,0.0416 0.568279,-0.3549 0.840447,-0.28946 1.666889,0.40074 0.965295,0.80616 3.560688,2.28754 4.062109,2.31854 0.138694,0.009 0.416098,-0.2907 0.616451,-0.66507 z m -17.879052,-2.57952 c -0.679415,-0.75075 -1.425258,-0.83875 -0.808313,-0.0954 0.352591,0.42485 0.328415,0.56617 -0.126732,0.74082 -0.450606,0.17292 -0.484981,0.36056 -0.172886,0.94371 0.387093,0.72329 0.393591,0.72253 1.029455,-0.12045 0.58656,-0.77762 0.593104,-0.90005 0.07848,-1.4687 z m -1.951211,-0.003 c -0.08075,-0.24253 -0.446119,-0.49897 -0.811918,-0.56985 -0.575415,-0.11151 -0.601327,-0.0521 -0.192154,0.44097 0.559576,0.67425 1.213608,0.7582 1.004072,0.12888 z m 38.540802,-0.61721 c 0,-0.19403 -0.16812,-0.35278 -0.3736,-0.35278 -0.20547,0 -0.27548,0.15875 -0.15556,0.35278 0.11991,0.19403 0.28803,0.35278 0.3736,0.35278 0.0856,0 0.15556,-0.15875 0.15556,-0.35278 z m -15.684101,-0.68208 c -0.285478,-0.46192 -1.249228,-0.49998 -1.249228,-0.0493 0,0.1798 0.277812,0.38871 0.617361,0.46423 0.769863,0.17124 0.929382,0.0665 0.631867,-0.41489 z m -21.004783,-2.64849 c 0,-0.0856 -0.15875,-0.25368 -0.352778,-0.3736 -0.194028,-0.11991 -0.352778,-0.0499 -0.352778,0.15557 0,0.20548 0.15875,0.3736 0.352778,0.3736 0.194028,0 0.352778,-0.07 0.352778,-0.15557 z m 3.095148,-87.469448 c -0.212425,-0.692141 -0.796159,-1.619349 -1.297192,-2.060463 -0.72252,-0.636115 -0.795796,-0.656071 -0.354227,-0.09647 0.840161,1.064743 1.486263,2.914482 1.241135,3.553277 -0.119739,0.312036 -0.111675,0.738904 0.01792,0.948595 0.465311,0.752889 0.775025,-1.09811 0.392363,-2.344941 z M 76.754367,16.345424 c 0,-0.444997 -3.140978,-1.895667 -3.445383,-1.591261 -0.338377,0.338375 0.426392,0.919664 1.901906,1.44561 0.7519,0.268013 1.406776,0.494264 1.455283,0.502781 0.04851,0.0085 0.08819,-0.152192 0.08819,-0.35713 z m 3.211269,-2.304904 c -0.243625,-0.882344 -0.249802,-1.474912 -0.01827,-1.75388 0.249421,-0.300533 0.11998,-0.483731 -0.451523,-0.639044 -0.565845,-0.153775 -0.940358,-0.01551 -1.274975,0.470695 -0.356654,0.518231 -0.727318,0.63772 -1.499305,0.483323 -0.564042,-0.112807 -1.025525,-0.09545 -1.025525,0.03857 0,0.579184 0.782542,1.624911 1.507391,2.014358 0.790593,0.42477 2.804238,0.961055 3.016243,0.803302 0.06265,-0.04662 -0.05166,-0.684416 -0.254032,-1.417328 z m 46.737014,271.12612 c -0.56546,-0.1691 -1.1615,-0.22501 -1.32454,-0.12425 -0.16303,0.10076 -1.24974,-0.30124 -2.4149,-0.89333 -1.16516,-0.59209 -2.79162,-1.18024 -3.61435,-1.307 -0.82274,-0.12676 -2.52776,-0.78599 -3.78894,-1.46496 -2.02624,-1.09086 -2.70354,-1.26198 -5.82083,-1.47069 -1.94028,-0.12991 -3.92465,-0.45237 -4.40972,-0.71659 -0.48507,-0.26421 -1.3582,-0.57822 -1.94028,-0.6978 -0.93239,-0.19153 -1.088,-0.40464 -1.30762,-1.79082 -0.13711,-0.86538 -0.15737,-2.68466 -0.045,-4.04286 0.18184,-2.19842 0.32016,-2.56321 1.26025,-3.32383 1.47414,-1.19272 2.24724,-0.66975 2.10549,1.42425 -0.057,0.84151 0.0928,2.19496 0.33274,3.00767 0.45738,1.54906 0.4653,1.55358 3.71593,2.11949 1.00697,0.1753 1.10286,0.11896 0.92899,-0.54591 -0.17621,-0.67383 -0.0463,-0.74139 1.42571,-0.74139 1.42954,0 1.68153,0.1198 2.14751,1.0209 0.68464,1.32394 2.57846,3.21243 3.2215,3.21243 0.27612,0 0.50203,0.3175 0.50203,0.70556 0,0.38805 0.19844,0.70339 0.44097,0.70074 1.09822,-0.012 1.97845,-0.47137 2.14838,-1.12118 0.16557,-0.63313 0.34616,-0.6763 1.70831,-0.40835 1.78202,0.35054 6.35057,0.25484 7.87317,-0.16492 1.19626,-0.3298 1.42299,-1.23129 0.35278,-1.40267 -1.64348,-0.26318 -5.6257,-2.10103 -6.9063,-3.18736 -1.62358,-1.37727 -1.73325,-1.8246 -0.44736,-1.8246 0.89637,0 0.91067,-0.0287 0.33274,-0.66728 -0.33926,-0.37487 -0.88685,-0.5933 -1.24959,-0.49843 -0.35513,0.0929 -0.7465,0.006 -0.8697,-0.1936 -0.14105,-0.22822 -0.58037,-0.25041 -1.18634,-0.0599 -0.52929,0.16638 -2.13795,0.39842 -3.57481,0.51565 -1.82184,0.14865 -2.73977,0.38725 -3.03312,0.78844 -0.32581,0.44556 -0.74771,0.52298 -1.8711,0.34334 -1.78874,-0.28603 -4.69743,-1.95031 -5.21463,-2.98368 -0.21125,-0.42208 -0.64782,-1.05883 -0.97014,-1.41499 -0.32232,-0.35617 -0.58604,-0.83351 -0.58604,-1.06077 0,-0.22725 -0.16734,-0.41319 -0.37186,-0.41319 -0.23788,0 -0.34538,-1.11207 -0.29836,-3.08681 0.0917,-3.85036 -0.12132,-5.86804 -0.69203,-6.5557 -0.24329,-0.29316 -0.76254,-1.37883 -1.15387,-2.41261 -0.39134,-1.03378 -1.10815,-2.91148 -1.59293,-4.17266 -0.48478,-1.26118 -1.01904,-2.73508 -1.18726,-3.27533 -0.16821,-0.54026 -0.6905,-1.43943 -1.16064,-1.99815 -1.33196,-1.58295 -4.42666,-7.85591 -4.69092,-9.50851 -0.1557,-0.97366 -0.0784,-1.78549 0.22363,-2.34991 0.4109,-0.76778 0.37089,-0.95877 -0.36496,-1.74204 -0.58391,-0.62155 -0.85368,-1.37179 -0.91922,-2.55637 -0.29239,-5.28456 -0.20579,-8.82554 0.22232,-9.09013 0.18944,-0.11708 0.34443,-0.60038 0.34443,-1.074 0,-0.61721 0.19395,-0.86112 0.68474,-0.86112 0.3766,0 0.77703,0.14934 0.88983,0.33186 0.11281,0.18252 0.25283,2.76221 0.31115,5.73264 0.1109,5.648 0.40037,7.10287 2.21666,11.14123 0.46008,1.02295 0.83651,2.03198 0.83651,2.24229 0,0.21032 0.48176,0.99066 1.07057,1.7341 0.79968,1.00967 1.01496,1.5733 0.85078,2.22744 -0.16033,0.63879 0.21816,1.7237 1.39887,4.00977 0.89027,1.72372 1.61867,3.2942 1.61867,3.48994 0,0.19575 0.39688,1.17859 0.88195,2.18409 0.48507,1.0055 0.88699,2.0274 0.89316,2.27089 0.006,0.24348 0.2443,0.75085 0.52917,1.12749 0.28487,0.37663 0.51794,1.14113 0.51794,1.69888 0,0.55776 0.16733,1.32675 0.37183,1.70887 0.2045,0.38211 0.42323,2.47512 0.48606,4.65111 l 0.11424,3.95635 2.60074,1.05871 c 1.43041,0.58229 3.03459,1.35283 3.56484,1.71231 0.80444,0.54536 1.1491,0.58911 2.08112,0.26421 0.61436,-0.21417 1.5419,-0.3894 2.06121,-0.3894 0.5403,0 1.28415,-0.36186 1.73892,-0.84594 0.85123,-0.90609 0.86904,-0.81145 -0.63739,-3.38739 -0.17021,-0.29104 -0.58831,-1.16417 -0.92912,-1.94028 -0.34081,-0.77611 -0.74343,-1.64923 -0.89471,-1.94028 -0.36218,-0.69678 -2.39544,-4.83732 -3.01492,-6.13961 -0.61806,-1.29932 -0.62574,-2.64884 -0.0164,-2.88266 0.39118,-0.15011 0.39271,-0.49153 0.009,-2.0174 -0.25401,-1.0102 -0.6189,-3.18609 -0.81086,-4.83533 -0.34934,-3.00136 -0.769,-5.95906 -1.23218,-8.68408 -0.21749,-1.27961 -0.16025,-1.47477 0.48178,-1.64267 0.72204,-0.18881 0.95449,-1.198 0.77011,-3.34339 -0.0375,-0.43656 0.0965,-0.79375 0.29791,-0.79375 0.20137,0 0.36613,-0.23812 0.36613,-0.52916 0,-0.29229 -0.31283,-0.52917 -0.69883,-0.52917 -0.73268,0 -0.99634,-0.6167 -1.2066,-2.82222 -0.14722,-1.54431 -0.77931,-4.21628 -1.54293,-6.52229 -0.81578,-2.4635 -0.99594,-1.08401 -0.25389,1.94399 0.61238,2.49888 0.51946,3.27742 -0.35128,2.94329 -1.07127,-0.41108 -2.21041,-3.04887 -2.2247,-5.15152 -0.008,-1.11321 -0.11883,-2.50241 -0.24724,-3.0871 -0.18043,-0.82147 -0.0953,-1.11612 0.37478,-1.29649 0.36067,-0.1384 0.76701,-0.0206 0.99823,0.28933 0.21448,0.28751 0.8461,0.51175 1.40359,0.4983 1.16434,-0.0281 1.35521,0.24966 2.16505,3.15054 0.32501,1.16417 0.81432,2.61691 1.08737,3.22832 0.27305,0.6114 0.49645,1.44982 0.49645,1.86315 0,0.41333 0.22842,0.83916 0.50761,0.9463 0.27918,0.10713 0.61502,0.69746 0.74629,1.31184 0.13128,0.61438 0.35676,1.27581 0.50108,1.46984 0.48663,0.65423 0.6792,2.53998 0.29829,2.92089 -1.1064,1.1064 -0.93581,9.78568 0.23726,12.07216 0.24887,0.48507 0.56203,1.69691 0.69594,2.69298 0.13389,0.99607 0.46144,2.42482 0.72788,3.175 0.44521,1.25355 0.42871,1.41139 -0.20385,1.94968 -0.37855,0.32214 -0.68828,0.80994 -0.68828,1.08399 0,0.27406 0.63347,2.07423 1.40771,4.0004 0.77423,1.92617 1.40923,3.84713 1.41111,4.2688 0.002,0.42168 0.40028,1.23835 0.88535,1.81482 0.48507,0.57647 0.88194,1.25103 0.88194,1.49903 0,0.24799 0.86545,1.29586 1.92322,2.32861 1.14534,1.11822 2.05881,2.36875 2.25844,3.09175 0.38096,1.37971 2.41733,4.08106 3.07645,4.08106 1.105,0 6.14745,2.71232 6.14745,3.3067 0,0.12667 0.74135,1.0158 1.64746,1.97584 1.46788,1.55526 1.6574,1.94205 1.73863,3.54842 0.12991,2.56913 -1.23926,3.84924 -2.96459,2.77176 -0.47521,-0.29678 -1.03286,-0.25402 -2.30059,0.17639 -1.8118,0.61512 -3.69756,0.68598 -5.32263,0.20002 z m 5.09995,-3.69806 c 0.35116,-0.21703 0.27511,-1.40588 -0.11488,-1.79586 -0.12966,-0.12967 -0.4744,-0.0377 -0.76608,0.20438 -0.34819,0.28897 -1.85976,0.44847 -4.40114,0.46441 -2.12895,0.0134 -3.78977,0.15542 -3.69071,0.31569 0.0991,0.16028 0.47009,0.29142 0.82451,0.29142 0.35443,0 1.06092,0.21609 1.56999,0.48019 0.9075,0.47082 5.83269,0.50059 6.57831,0.0398 z m -21.12161,-19.9827 c 0.0776,-0.54799 0.39043,-0.86079 0.93842,-0.93842 0.68397,-0.0969 0.80243,0.0216 0.70555,0.70556 -0.0776,0.54799 -0.39042,0.8608 -0.93841,0.93842 -0.68397,0.0969 -0.80244,-0.0216 -0.70556,-0.70556 z m -65.738844,-2.23652 c -0.381707,-0.38171 1.08223,-3.87986 1.674334,-4.00091 0.488758,-0.0999 0.555391,0.0361 0.345711,0.70555 -0.142859,0.45614 -0.297071,1.14684 -0.342691,1.5349 -0.180602,1.53622 -1.020295,2.41752 -1.677354,1.76046 z m 64.083724,-10.79117 c -0.14242,-0.64846 -0.0821,-1.25123 0.14836,-1.48166 0.51671,-0.51671 0.94577,-0.0123 1.21494,1.42834 0.18042,0.96562 0.10871,1.14652 -0.45448,1.14652 -0.46091,0 -0.74332,-0.33971 -0.90882,-1.0932 z m -1.1565,-7.09124 c -0.60524,-0.60524 -0.54961,-2.75167 0.0713,-2.75167 0.47253,0 1.26923,1.69385 1.26923,2.69848 0,0.59052 -0.77257,0.62118 -1.34055,0.0532 z m -55.245788,-16.7695 c -0.434496,-0.43449 -0.185149,-1.48267 0.58287,-2.45025 0.436562,-0.55 0.969514,-1.31625 1.184338,-1.70277 0.466161,-0.83873 1.549689,-1.13975 1.549689,-0.43053 0,0.2752 -0.31817,0.7883 -0.707044,1.14023 -0.388874,0.35192 -0.866846,1.23333 -1.062161,1.95868 -0.334472,1.24212 -1.077478,1.95486 -1.547692,1.48464 z m -1.32697,-8.52966 c -0.472155,-0.3714 -1.324198,-0.72858 -1.893429,-0.79375 -0.877182,-0.10042 -1.188654,-0.44117 -2.043074,-2.23515 -0.55446,-1.16417 -1.264296,-2.40303 -1.577412,-2.75304 -0.392849,-0.43912 -0.600764,-1.46182 -0.670805,-3.29957 -0.08287,-2.17435 0.02014,-2.81785 0.561206,-3.5057 0.36449,-0.46337 0.768768,-1.40785 0.898398,-2.09883 0.255511,-1.36199 1.020759,-1.89262 1.915502,-1.32823 0.474003,0.29899 0.546033,0.97971 0.449283,4.2459 -0.108948,3.67808 -0.06547,3.96863 0.798657,5.3375 0.502631,0.79622 0.913875,1.67677 0.913875,1.95678 0,0.28001 0.396875,0.98077 0.881944,1.55724 0.48507,0.57648 0.881945,1.20422 0.881945,1.39499 0,0.19076 0.238125,0.54447 0.529166,0.78602 1.468582,1.21881 -0.125109,1.93159 -1.645256,0.73584 z m 51.827888,-3.23355 c -1.27455,-0.74235 -0.51747,-1.73563 1.32292,-1.73563 1.87578,0 2.61288,1.02632 1.25792,1.75148 -0.85262,0.4563 -1.77998,0.45061 -2.58084,-0.0158 z M 56.822424,201.21387 c -0.970139,-0.57314 -2.002014,-1.13645 -2.293056,-1.25181 -0.291041,-0.11536 -0.898825,-0.35785 -1.350627,-0.53888 -1.098204,-0.44002 -0.780764,-1.20096 0.501008,-1.20096 0.992568,0 1.022255,-0.0498 0.910865,-1.52737 -0.105978,-1.40583 -0.0527,-1.51812 0.66953,-1.41111 0.818356,0.12125 1.052385,0.43008 1.744373,2.3019 0.350936,0.94929 0.620162,1.14428 1.704827,1.23472 1.206591,0.10062 1.290849,0.18553 1.33188,1.34214 0.04561,1.28584 -0.375778,2.12495 -1.057133,2.10505 -0.218779,-0.006 -1.191528,-0.48055 -2.161667,-1.05368 z m 37.383176,-0.0285 c -0.29604,-0.93273 0.10371,-1.33853 1.47596,-1.49831 1.29004,-0.1502 1.88139,-0.47505 1.90163,-1.04464 0.0173,-0.48822 2.27598,-2.00765 2.98436,-2.00765 0.62382,0 1.0417,1.32055 0.59143,1.86901 -0.19146,0.23322 -0.40302,0.79446 -0.47012,1.2472 -0.095,0.6407 -0.54907,0.97303 -2.04873,1.4993 -2.61225,0.91672 -4.13003,0.8945 -4.43453,-0.0649 z m -28.509055,-84.5708 c -0.321116,-0.35482 -0.583844,-0.90676 -0.583844,-1.22652 0,-1.29287 -1.593755,-4.50566 -2.327744,-4.69241 -1.027934,-0.26153 -1.905589,-2.29259 -1.905589,-4.40987 0,-1.5025 0.0956,-1.75968 0.617361,-1.66084 0.417936,0.0792 0.655161,0.51441 0.734377,1.34736 0.137559,1.44638 0.54833,2.03186 1.531028,2.18222 0.574385,0.0879 0.986306,0.92889 2.09623,4.27981 0.759753,2.29374 1.290292,4.31781 1.178976,4.49792 -0.303477,0.49104 -0.692298,0.39891 -1.340795,-0.31767 z m 21.675715,-0.10459 c -0.64502,-0.69235 -0.65647,-0.81386 -0.14956,-1.5875 0.56072,-0.85577 1.0384,-1.00278 2.02642,-0.62363 0.63907,0.24523 0.72672,1.28092 0.19284,2.2785 -0.47557,0.88861 -1.20107,0.86499 -2.0697,-0.0674 z m -4.510773,-2.29494 c -0.121402,-0.31637 0.06545,-1.10664 0.41523,-1.75614 0.52149,-0.96835 0.593784,-1.63475 0.40163,-3.70224 -0.130944,-1.40892 -0.0907,-2.69642 0.09121,-2.91817 0.179049,-0.21826 0.380433,-0.79371 0.447533,-1.27878 0.0684,-0.49454 0.35444,-0.88194 0.65117,-0.88194 0.37529,0 0.59571,0.54525 0.75802,1.87516 0.20331,1.66581 0.65309,2.96592 0.65309,1.8878 0,-0.22636 0.31447,-0.41157 0.69883,-0.41157 0.79495,0 1.26201,1.28392 0.93745,2.57705 -0.33615,1.33934 -2.14015,3.76381 -3.34641,4.49738 -1.368392,0.83217 -1.429649,0.83617 -1.70775,0.11145 z m 3.412483,-5.51019 c 0.003,-0.14552 -0.15335,-0.26458 -0.34738,-0.26458 -0.19403,0 -0.35035,0.35719 -0.34738,0.79375 0.004,0.64186 0.0708,0.69249 0.34738,0.26458 0.18809,-0.29104 0.34441,-0.64823 0.34738,-0.79375 z m 9.81831,-3.26469 c -0.22139,-0.48588 -0.28438,-1.00157 -0.13999,-1.14597 0.30441,-0.3044 1.26319,0.88548 1.26319,1.56767 0,0.77589 -0.69673,0.51431 -1.1232,-0.4217 z m -22.614527,-0.0665 c -0.397026,-0.67219 -0.622134,-2.55889 -0.407395,-3.41448 0.299089,-1.19166 0.903235,-1.17706 1.775573,0.0429 0.931164,1.30225 0.672599,3.38947 -0.439526,3.54796 -0.418253,0.0596 -0.836146,-0.0198 -0.928652,-0.17639 z m 8.433816,-7.075729 c -1.882704,-1.93524 -2.505414,-3.2632 -1.530188,-3.2632 0.80161,0 4.605669,4.12047 4.370309,4.73381 -0.34189,0.890959 -0.746438,0.681489 -2.840121,-1.47061 z m -14.898052,-3.42485 c -0.645153,-0.47175 -0.639209,-0.51568 0.189149,-1.397437 1.287004,-1.369963 2.464826,-1.067837 1.965858,0.504267 -0.335005,1.05551 -1.354911,1.47823 -2.155007,0.89317 z M 51.001591,91.3378 c -0.679098,-0.46669 -1.487932,-0.857677 -1.797407,-0.86886 -0.309477,-0.01119 -0.850019,-0.337837 -1.201204,-0.725893 -0.351186,-0.388056 -0.854711,-0.705556 -1.118945,-0.705556 -0.698585,0 -3.643555,-3.187541 -3.643555,-3.943668 0,-0.942978 0.643901,-0.785255 1.697889,0.41589 0.647278,0.737652 1.252273,1.058609 1.996641,1.05924 0.597613,3.53e-4 1.986194,0.554585 3.152847,1.258059 2.822318,1.701818 5.037268,2.433772 5.992975,1.980445 0.998089,-0.473428 3.510393,-1.04799 5.76828,-1.319202 1.01843,-0.122329 1.940612,-0.366296 2.049293,-0.542145 0.360715,-0.583654 1.214296,-0.330638 1.214296,0.359935 0,0.965726 -3.523576,2.951153 -4.709311,2.653549 -0.493649,-0.123895 -1.388308,0.01115 -2.051763,0.309714 -0.647033,0.291173 -2.287676,0.616617 -3.64587,0.723213 -2.208276,0.173309 -2.600028,0.104065 -3.704166,-0.654721 z m 1.065586,-3.424982 c -1.085705,-0.401648 -2.12392,-1.3171 -2.12392,-1.872774 0,-0.230258 0.629088,-0.607131 1.39797,-0.837491 1.132766,-0.339386 1.626532,-0.323346 2.60277,0.08455 0.662637,0.276871 1.322335,0.693579 1.465993,0.926024 0.561329,0.908252 -1.98391,2.20241 -3.342813,1.699691 z m 14.943468,-0.09315 c -0.29144,-0.759488 0.149522,-1.251616 1.121488,-1.251616 0.609716,0 0.861123,0.194969 0.861123,0.667812 0,1.031825 -1.626859,1.510876 -1.982611,0.583804 z m 7.73278,-1.046868 c -0.155163,-0.275442 -0.229884,-1.704192 -0.166049,-3.175 0.101734,-2.344 0.198211,-2.674193 0.781339,-2.674193 1.244808,0 1.686355,1.898438 1.169222,5.027083 -0.159315,0.963856 -0.392878,1.322917 -0.860531,1.322917 -0.353028,0 -0.768819,-0.225361 -0.923981,-0.500807 z M 104.859,87.038416 c -0.12936,-0.12935 -0.23519,-0.655391 -0.23519,-1.168975 0,-0.513588 -0.71073,-2.352443 -1.57941,-4.086346 -1.58631,-3.166325 -1.86962,-4.176272 -1.27465,-4.543986 0.6938,-0.428791 1.50023,0.326337 2.3774,2.226151 1.00265,2.171577 2.31771,7.045309 2.02766,7.51463 -0.21774,0.352298 -0.98779,0.386553 -1.31581,0.05853 z M 42.44736,83.096208 c -0.919009,-0.55463 -1.402329,-2.172606 -0.649,-2.172606 0.176973,0 0.424594,-0.608616 0.550269,-1.35248 0.266506,-1.577435 1.360758,-3.517742 2.155947,-3.822887 0.304976,-0.117031 0.781579,0.01429 1.059117,0.291832 0.416514,0.416517 0.436064,0.871474 0.111976,2.605881 -0.416214,2.227432 -1.556167,5.121611 -1.996024,5.067622 -0.144527,-0.01775 -0.699055,-0.295551 -1.232285,-0.617362 z m 27.733078,0.123773 c -0.328298,-0.855536 0.08569,-5.12147 0.541218,-5.577001 0.289225,-0.289225 0.532179,-0.254434 0.918086,0.131469 0.784694,0.784698 0.265688,5.735067 -0.619079,5.904848 -0.340138,0.06527 -0.718238,-0.141421 -0.840225,-0.459316 z M 92.79596,66.477396 c -0.55981,-0.55347 -1.36893,-0.725893 -4.14093,-0.882446 -1.89484,-0.107015 -3.72047,-0.34532 -4.05695,-0.529568 -0.33647,-0.184249 -1.524581,-0.433571 -2.640241,-0.554052 -1.690394,-0.182545 -2.028472,-0.332137 -2.028472,-0.897555 0,-0.589478 0.266139,-0.680011 2.028472,-0.690019 1.11566,-0.0063 2.266601,-0.01743 2.557641,-0.02462 0.29104,-0.0072 1.95791,0.238188 3.70416,0.545313 3.82369,0.672504 6.30195,1.794944 6.46273,2.927065 0.14458,1.01794 -0.90435,1.076812 -1.88641,0.105879 z M 76.889502,58.189142 c -0.339418,-0.884513 0.02448,-2.125973 0.658615,-2.246835 0.491857,-0.09374 0.617361,0.130927 0.617361,1.105183 0,1.272166 -0.912569,2.08867 -1.275976,1.141652 z m -6.960753,-0.842483 c -0.320492,-0.354143 -0.582715,-0.930155 -0.582715,-1.280033 0,-0.349874 -0.337629,-1.182433 -0.750288,-1.850129 -0.581557,-0.940978 -0.65526,-1.307352 -0.327737,-1.629138 0.32519,-0.319494 0.579353,-0.223252 1.103065,0.417681 0.374283,0.458061 0.680516,1.028768 0.680516,1.268244 0,0.239472 0.3175,0.722739 0.705555,1.073926 0.816219,0.738667 0.912679,1.681988 0.229937,2.248613 -0.361428,0.29996 -0.615519,0.240136 -1.058333,-0.249164 z m 2.063118,-9.48295 c -0.93618,-0.225181 -1.402023,-0.701174 -1.407015,-1.437682 -0.0028,-0.395153 -0.339354,-0.642394 -0.974234,-0.715444 -0.747787,-0.08604 -0.970139,-0.299395 -0.970139,-0.930878 0,-0.667555 0.244958,-0.865029 1.322916,-1.066472 0.727604,-0.135968 1.514062,-0.405148 1.747683,-0.59817 0.603518,-0.498648 4.144376,0.588825 5.037034,1.54698 1.232599,1.323043 0.938164,1.74366 -1.037156,1.481624 -0.961933,-0.127603 -2.033495,-0.117171 -2.381249,0.02318 -0.571705,0.230741 -0.556236,0.284515 0.161466,0.561269 0.436562,0.168339 0.79375,0.549314 0.79375,0.84661 0,0.54029 -0.81909,0.643517 -2.293056,0.288978 z m -0.529166,-7.509556 c -1.296134,-1.296136 -0.573613,-2.745106 0.764854,-1.533864 0.455379,0.412094 1.255349,0.651919 2.174564,0.651919 1.058916,0 1.484972,0.155404 1.567512,0.571749 0.2303,1.161684 -3.405223,1.411903 -4.50693,0.310196 z m 3.250628,-3.613042 c -0.210675,-0.253848 -0.488728,-1.258209 -0.617894,-2.231915 -0.181835,-1.370754 -0.112878,-1.871601 0.305495,-2.21882 0.746348,-0.619415 1.184141,0.27218 1.346179,2.741579 0.127374,1.941132 -0.280966,2.616242 -1.03378,1.709156 z"
       style="fill:#000000;stroke-width:0.35277778" />
  </g>
</svg>
