<?xml version="1.0" encoding="UTF-8" standalone="no"?>
<svg
   xmlns:dc="http://purl.org/dc/elements/1.1/"
   xmlns:cc="http://creativecommons.org/ns#"
   xmlns:rdf="http://www.w3.org/1999/02/22-rdf-syntax-ns#"
   xmlns:svg="http://www.w3.org/2000/svg"
   xmlns="http://www.w3.org/2000/svg"
   id="svg8"
   version="1.1"
   viewBox="0 0 116.99031 115.56225"
   height="115.56226mm"
   width="116.9903mm">
  <defs
     id="defs2" />
  <metadata
     id="metadata5">
    <rdf:RDF>
      <cc:Work
         rdf:about="">
        <dc:format>image/svg+xml</dc:format>
        <dc:type
           rdf:resource="http://purl.org/dc/dcmitype/StillImage" />
        <dc:title></dc:title>
      </cc:Work>
    </rdf:RDF>
  </metadata>
  <g
     transform="translate(-7.2037879,22.865855)"
     id="layer1">
    <path
       id="path5683"
       d="m 69.425311,92.400329 c -0.38124,-0.149049 -1.203744,-0.214733 -1.82778,-0.145962 -0.624039,0.06877 -1.23456,-0.03668 -1.356716,-0.234329 -0.148442,-0.240186 -0.470803,-0.226261 -0.972034,0.04199 -0.641822,0.343493 -0.856794,0.267342 -1.491149,-0.528214 l -0.741211,-0.929566 h -8.639502 c -6.834344,0 -8.786835,0.103194 -9.344633,0.493892 -0.794744,0.556662 -3.796312,0.494796 -6.683805,-0.137763 C 36.578828,90.568321 14.259708,90.739492 10.448996,91.174499 8.2698025,91.423264 7.0665195,91.109669 7.2162855,90.331995 7.3143055,89.823046 8.7931345,89.776599 22.1839,89.86189 l 14.858853,0.09465 0.220387,-0.878092 c 0.121214,-0.482953 0.313459,-1.120634 0.427212,-1.417069 0.169746,-0.442352 -0.06714,-0.517719 -1.321412,-0.420402 -0.84053,0.06522 -7.719485,0.173944 -15.286568,0.241617 -13.5641625,0.12131 -13.7583335,0.113087 -13.7583335,-0.58251 0,-0.606644 0.222551,-0.700243 1.5875,-0.667653 0.873125,0.02085 7.7337215,0.06632 15.2457685,0.101057 l 13.658266,0.06315 1.334788,-0.871724 c 0.734133,-0.47945 1.992142,-1.13054 2.795576,-1.446869 l 1.460789,-0.575137 0.202893,-2.358355 c 0.111591,-1.297096 0.305333,-3.286386 0.430541,-4.42064 0.131244,-1.18895 0.04618,-2.981674 -0.200872,-4.233334 -0.548894,-2.780915 -0.708512,-8.321399 -0.264749,-9.189705 0.427708,-0.836895 -0.738822,-4.54418 -1.355414,-4.307572 -0.223923,0.08593 -0.943797,-0.175349 -1.599721,-0.580613 -0.737372,-0.455587 -1.669955,-0.705626 -2.443206,-0.655051 -1.346078,0.08803 -4.376331,-1.231311 -5.343826,-2.326658 -0.655378,-0.741984 -2.603719,-4.850296 -2.944902,-6.209679 -0.297922,-1.187013 1.24546,-3.969128 2.396748,-4.320399 0.435929,-0.133008 1.457835,-0.540078 2.270905,-0.904603 1.175387,-0.526966 1.679254,-0.586374 2.458958,-0.289931 0.96854,0.368237 1.580716,0.005 1.972474,-1.170227 0.06289,-0.18868 0.545356,-0.39037 1.072141,-0.448194 1.079154,-0.118463 3.513878,-1.227035 5.926374,-2.698379 1.421874,-0.867181 1.93815,-0.981044 4.233334,-0.933634 1.437682,0.0297 3.040302,0.172452 3.561376,0.317236 1.224269,0.340162 4.701663,-0.71584 5.370844,-1.630998 0.344029,-0.470486 0.393735,-0.871682 0.161706,-1.305228 -0.258967,-0.483888 -0.117814,-0.827222 0.621972,-1.512831 0.526334,-0.48779 1.332071,-0.981033 1.790527,-1.096099 0.458459,-0.115065 1.074663,-0.675449 1.369342,-1.245298 0.945656,-1.828698 2.035835,-2.831874 4.202088,-3.866734 1.164166,-0.556147 2.298121,-1.011301 2.519895,-1.011453 0.221777,-1.51e-4 0.497625,-0.24627 0.612997,-0.546929 0.115376,-0.300658 1.084859,-0.933654 2.15441,-1.406662 1.121548,-0.496002 1.944642,-1.085871 1.944642,-1.393628 0,-0.29349 0.159787,-0.533615 0.355078,-0.533615 0.195294,0 1.266856,-0.913306 2.38125,-2.029566 2.326195,-2.330093 4.406523,-3.954547 5.293403,-4.13343 1.79504,-0.362056 4.307,-1.820577 5.67601,-3.295667 2.43408,-2.622696 2.63249,-3.695308 1.4637,-7.9130171 -0.9716,-3.506163 -0.91715,-5.70301258 0.18935,-7.638682 0.48752,-0.8528519 1.03857,-2.5197269 1.22455,-3.7041666 0.18599,-1.1844398 0.58941,-3.0266517 0.8965,-4.0938047 0.74703,-2.5959986 0.45382,-5.9541066 -0.72141,-8.2622736 -0.83336,-1.636748 -0.84982,-1.773475 -0.28821,-2.394054 0.74464,-0.822814 3.45792,-2.043672 4.54193,-2.043672 0.44778,0 1.20886,0.150074 1.69131,0.333499 0.63609,0.241841 1.59844,0.137434 3.501536,-0.379886 2.58986,-0.704001 2.65404,-0.704674 4.87844,-0.05113 1.73816,0.510684 2.2784,0.828689 2.36039,1.389415 0.0802,0.548488 -0.22317,0.873286 -1.23472,1.321884 -0.73758,0.327101 -1.57918,0.750114 -1.87022,0.940029 -0.29105,0.189916 -1.41081,0.777687 -2.48839,1.30616 -3.780606,1.854128 -4.643306,4.524965 -4.366696,13.5188541 0.128,4.16198932 0.0395,6.0526757 -0.36318,7.7611111 -0.67878,2.8796167 -0.68508,5.7346237 -0.0175,7.9352428 0.85712,2.825439 0.74186,3.217877 -1.65282,5.627437 -1.20219,1.209664 -2.82938,3.312283 -3.61597,4.672496 -1.71687,2.968872 -2.86257,4.46968 -5.66351,7.41886 -3.47134,3.655074 -4.2624,4.429753 -5.494089,5.380309 l -1.174253,0.90623 1.389932,1.662804 1.38993,1.6628 0.7061,-0.98153 c 1.20732,-1.678259 3.42954,-3.980039 3.84468,-3.982318 0.21782,-0.0011 0.81665,-0.221629 1.33072,-0.489853 0.51408,-0.268224 2.2089,-0.979068 3.76627,-1.579654 3.75092,-1.446502 5.93274,-2.970361 7.2217,-5.043876 0.582566,-0.937136 1.194226,-1.703888 1.359246,-1.703888 0.16503,0 0.30005,-0.224787 0.30005,-0.499523 0,-0.620314 2.54391,-2.675477 3.31175,-2.675477 0.73101,0 2.68547,2.696877 2.68547,3.705585 0,0.898334 1.48484,2.644415 2.24876,2.644415 0.64662,0 3.39031,3.154369 3.39341,3.901323 10e-4,0.302465 0.23535,0.85809 0.52022,1.234723 0.61087,0.807639 0.6904,1.785154 0.17135,2.105945 -0.68679,0.424459 -3.92425,-0.246387 -4.63915,-0.961294 -1.92116,-1.921154 -5.9809,-2.287845 -8.35618,-0.754761 -0.55191,0.356221 -1.681956,1.441425 -2.511226,2.411564 -0.82926,0.970139 -2.31931,2.446048 -3.31121,3.279796 -0.99191,0.833748 -2.36523,2.024373 -3.05183,2.645833 -0.68661,0.621461 -1.83754,1.649713 -2.55764,2.285009 -0.7201,0.635296 -1.30928,1.276911 -1.30928,1.425808 0,0.608027 -2.51957,2.887165 -3.19174,2.887165 -0.39812,0 -1.17209,-0.231793 -1.71994,-0.515098 -0.54784,-0.283302 -1.08845,-0.42273 -1.20134,-0.309838 -0.11289,0.112889 -1.233351,0.01125 -2.489906,-0.225827 -1.825989,-0.344537 -2.55511,-0.340875 -3.631833,0.01824 -0.74095,0.247128 -1.625681,0.471766 -1.966066,0.499191 -0.340388,0.02741 -0.843527,0.357085 -1.11809,0.732571 -0.316315,0.432587 -0.919152,0.682703 -1.645465,0.682703 -0.908442,0 -1.267623,0.219572 -1.731225,1.058333 -0.32173,0.582084 -0.951294,1.242357 -1.399025,1.467274 -0.447735,0.22492 -1.626465,1.186014 -2.619403,2.135766 l -1.805344,1.726819 0.984571,1.465992 c 0.541514,0.806295 1.463403,1.806949 2.048644,2.223679 1.375688,0.979575 2.486579,2.763516 3.500462,5.621277 0.447343,1.260891 1.206094,2.826011 1.686112,3.478047 0.858287,1.16586 0.86808,1.256541 0.590606,5.468055 -0.155187,2.355395 -0.292188,6.028786 -0.304454,8.163091 l -0.0223,3.880556 21.688016,0.09557 c 29.066366,0.12809 30.416476,0.159279 30.598746,0.706871 0.11859,0.356274 -0.8645,0.407893 -4.73331,0.248532 -9.26525,-0.381645 -53.749908,-0.442785 -53.977715,-0.07419 -0.344572,0.557527 0.915332,1.191535 2.528059,1.272173 0.485069,0.02427 1.160215,0.32191 1.500328,0.661458 0.571814,0.570869 2.172462,0.62695 21.254862,0.7447 33.462616,0.206485 32.997276,0.198286 32.807306,0.578217 -0.097,0.194028 -0.81139,0.345754 -1.5875,0.337168 -0.77611,-0.0086 -12.54325,-0.140611 -26.149196,-0.293388 L 71.08953,90.54664 70.710555,91.633774 c -0.208439,0.597927 -0.426925,1.07598 -0.485525,1.062341 -0.0586,-0.01365 -0.418472,-0.146741 -0.799715,-0.29579 z m 0.516781,-1.023098 c 0,-0.350972 -0.233077,-0.946284 -0.517948,-1.322917 -0.574749,-0.75989 -0.705697,-0.279269 -0.318033,1.167296 0.254402,0.9493 0.835981,1.057564 0.835981,0.155621 z m -4.20448,-0.06743 c 0.178157,0 0.323925,-0.555625 0.323925,-1.234722 0,-0.819171 -0.165104,-1.234722 -0.49057,-1.234722 -0.537668,0 -0.981713,-2.389999 -0.499427,-2.688068 0.156443,-0.09669 0.284441,0.04279 0.284441,0.309933 0,0.338046 0.373757,0.456293 1.229293,0.388916 1.617863,-0.127413 2.756083,-0.75656 2.513305,-1.389225 -0.105971,-0.276161 -0.03891,-0.502112 0.149028,-0.502112 0.187938,0 0.341707,0.396875 0.341707,0.881945 0,0.938068 0.810038,1.214882 1.290408,0.440972 0.150541,-0.242535 0.278973,-2.285919 0.285401,-4.540853 0.009,-3.138481 -0.09171,-4.060282 -0.429281,-3.931007 -0.581971,0.222871 -0.540032,-0.571535 0.08819,-1.670501 0.294372,-0.51495 0.509366,-1.865475 0.516665,-3.24551 0.01065,-2.012816 -0.135428,-2.58868 -0.984353,-3.880555 -0.548266,-0.834344 -1.339303,-2.436838 -1.757856,-3.561094 -0.802827,-2.156439 -2.171485,-4.220048 -3.526211,-5.316679 -0.447079,-0.361904 -1.059628,-1.274717 -1.361222,-2.028472 -0.55149,-1.378303 -1.1773,-1.825509 -1.1773,-0.841301 0,0.291041 -0.15875,0.529166 -0.352778,0.529166 -0.595782,0 -0.391738,-0.913722 0.35494,-1.589457 0.795292,-0.719731 0.740629,-1.007506 -0.128058,-0.674159 -0.318812,0.12234 -0.57966,0.437854 -0.57966,0.701143 0,0.707975 -2.482895,2.268029 -3.609668,2.268029 -0.537044,0 -0.976443,-0.15875 -0.976443,-0.352778 0,-0.194028 0.501499,-0.352778 1.11444,-0.352778 0.873424,0 1.436899,-0.351229 2.6055,-1.624072 1.115455,-1.214963 1.664045,-1.569173 2.17776,-1.406126 0.455288,0.144504 0.91469,-0.0373 1.36325,-0.539475 0.675125,-0.75583 0.674691,-0.756825 -0.205394,-0.470722 -0.48507,0.157688 -1.314524,0.321444 -1.843232,0.363908 -1.276008,0.102478 -4.040022,1.45954 -4.287785,2.105198 -0.10826,0.282127 -0.36994,0.512956 -0.581508,0.512956 -0.211568,0 -0.310561,-0.119062 -0.219978,-0.264583 0.09058,-0.145521 -0.940283,-0.21154 -2.290805,-0.146713 -2.064339,0.09909 -2.38979,0.197037 -2.043052,0.614831 0.226839,0.273325 1.010454,0.657987 1.74136,0.854798 0.730906,0.196812 1.525602,0.594826 1.765992,0.884478 0.581674,0.700874 3.296147,0.699103 3.878452,-0.0025 0.492556,-0.593492 1.411111,-0.713606 1.411111,-0.18452 0,0.739062 -1.760156,1.493707 -3.170311,1.359228 -0.77869,-0.07432 -1.4158,-0.03643 -1.4158,0.08415 0,0.309153 1.085159,1.21883 2.049354,1.717947 0.654794,0.338956 0.7937,0.330545 0.70795,-0.04286 -0.05867,-0.255506 0.05099,-0.502461 0.243703,-0.548784 0.192708,-0.04632 0.694732,0.872662 1.115607,2.042195 0.864129,2.401256 2.495779,4.467715 4.413955,5.590208 l 1.298624,0.759937 0.112487,-0.976041 c 0.06187,-0.536822 0.350612,-1.010885 0.641653,-1.053469 1.051747,-0.153896 3.296765,3.793416 2.453795,4.314398 -0.174042,0.107566 -0.424617,-0.24748 -0.556831,-0.788991 -0.132211,-0.541514 -0.603599,-1.422001 -1.047531,-1.956646 l -0.807145,-0.972076 -0.291448,1.473754 c -0.324559,1.641182 -0.966925,2.136232 -1.269678,0.9785 -0.10866,-0.415513 -0.341309,-0.666638 -0.517,-0.558056 -0.421813,0.260696 0.1031,4.082923 0.63094,4.594299 0.304997,0.295483 0.379853,0.173105 0.298139,-0.487398 -0.06001,-0.485069 0.0454,-0.920471 0.234241,-0.967556 0.188842,-0.04709 0.360998,0.750605 0.382563,1.772652 0.02155,1.022046 0.134225,2.17182 0.250356,2.555056 0.116131,0.383237 0.01912,2.117979 -0.2156,3.854986 l -0.426745,3.158198 -1.483618,0.714417 c -1.793501,0.863639 -2.108192,2.031813 -0.897632,3.332124 0.436563,0.468926 0.791319,1.027853 0.788349,1.242052 -0.0089,0.643527 -0.643008,1.446142 -0.922038,1.167113 -0.143136,-0.143136 -0.07239,-0.448098 0.157209,-0.6777 0.509922,-0.509923 0.541009,-0.981897 0.06467,-0.981897 -0.194027,0 -0.352777,0.264583 -0.352777,0.587964 0,0.653394 -0.352429,0.448433 -0.500468,-0.291056 -0.05212,-0.260315 -0.206333,-0.870172 -0.34271,-1.355242 l -0.247957,-0.881944 -7.832904,0.06462 c -4.308098,0.03554 -8.038558,0.07523 -8.289912,0.08819 -0.604802,0.03122 -2.18875,1.631999 -2.18912,2.212407 -2.33e-4,0.365224 1.863584,0.436065 9.280399,0.352739 l 9.28069,-0.104267 0.487204,0.91035 c 0.288519,0.539108 0.687765,0.833392 0.979011,0.721628 0.270492,-0.103797 0.637572,-0.188722 0.815731,-0.188722 z m 1.948928,-6.203089 c -0.131843,-0.343574 -0.053,-0.504853 0.204791,-0.418923 0.527347,0.175782 0.8177,0.977568 0.354013,0.977568 -0.189438,0 -0.440898,-0.25139 -0.558804,-0.558645 z m 2.280349,-2.50734 c -0.01364,-1.39525 0.133953,-2.634932 0.327981,-2.754848 0.436065,-0.269505 0.436065,3.571331 0,4.586111 -0.20852,0.485256 -0.310932,-0.08653 -0.327981,-1.831263 z M 66.620404,65.645221 c -0.284674,-0.533576 -0.924567,-1.432345 -1.421988,-1.997258 -0.971147,-1.102932 -0.950267,-1.683724 0.03147,-0.875235 0.745264,0.613749 2.595541,3.139285 2.595541,3.542785 0,0.64691 -0.714234,0.249618 -1.205021,-0.670292 z m 0.616362,24.694444 c 0.120033,-0.63059 0.08148,-1.146527 -0.08568,-1.146527 -0.333869,0 -0.720863,2.014985 -0.440789,2.295063 0.240146,0.240142 0.277742,0.158125 0.526464,-1.148536 z m 1.294215,0.243763 c 0,-0.629603 -0.14696,-0.988328 -0.352778,-0.861124 -0.194028,0.119917 -0.352778,0.605536 -0.352778,1.079155 0,0.473618 0.15875,0.861123 0.352778,0.861123 0.194028,0 0.352778,-0.48562 0.352778,-1.079154 z M 41.367092,88.970143 c 0,-1.281645 -0.542216,-1.247859 -1.016345,0.06333 -0.526191,1.455152 -0.172847,2.356683 0.541027,1.380402 0.261426,-0.357519 0.475318,-1.007198 0.475318,-1.443732 z m 1.453071,1.369522 c 0.135406,-1.992319 0.0929,-2.334595 -0.306543,-2.468551 -0.268288,-0.08997 -0.44286,0.174459 -0.445788,0.675266 -0.0028,0.45273 -0.100541,1.180334 -0.217537,1.616897 -0.156382,0.58354 -0.06168,0.79375 0.357597,0.79375 0.313672,0 0.589192,-0.277813 0.612271,-0.617362 z m 1.662818,-0.705555 c 0.05637,-0.876406 0.348615,-1.528639 0.86585,-1.932432 0.429419,-0.335234 0.659543,-0.613047 0.51139,-0.617361 -0.38808,-0.01129 -1.801692,0.812027 -2.106478,1.226876 -0.325233,0.442683 -0.349105,2.096343 -0.03478,2.410647 0.482353,0.482357 0.681256,0.199186 0.764036,-1.08773 z m -5.544933,-0.529167 c 0.229901,-0.436562 0.582466,-0.900712 0.783478,-1.031444 0.246806,-0.160518 0.230651,-0.400153 -0.04975,-0.738015 -0.623286,-0.751015 -0.141529,-0.960935 0.926506,-0.403715 1.239696,0.646779 3.242465,0.631666 4.18943,-0.03161 0.415463,-0.291003 1.008433,-0.431994 1.31771,-0.313313 0.57241,0.21965 1.611672,-0.40241 1.611672,-0.964681 0,-0.170272 -0.3175,-0.309584 -0.705556,-0.309584 -0.388055,0 -0.705555,-0.15875 -0.705555,-0.352778 0,-0.194027 0.124523,-0.352777 0.276715,-0.352777 0.152196,0 0.540615,-0.446744 0.863156,-0.992763 0.585914,-0.991873 0.778534,-1.666039 1.329059,-4.651682 0.160994,-0.873125 0.466235,-2.037383 0.678307,-2.587244 0.212076,-0.549857 0.285627,-1.161482 0.163453,-1.359164 -0.487779,-0.789242 -0.419256,-6.135766 0.09977,-7.785026 0.582182,-1.849939 0.432375,-3.136396 -0.184679,-1.585927 -0.212354,0.533576 -0.527858,0.970139 -0.701117,0.970139 -0.429505,0 -1.466333,3.804176 -1.466333,5.380037 0,0.702247 0.165682,1.712581 0.36818,2.245191 0.427673,1.124867 -0.236587,6.133105 -0.813456,6.133105 -0.210227,0 -0.247396,-0.454847 -0.09369,-1.146528 0.325787,-1.466038 0.320012,-1.621962 -0.111082,-2.998611 -0.329893,-1.053475 0.04495,-1.710944 0.402255,-0.705555 0.08619,0.242534 0.06146,-0.03528 -0.05496,-0.617361 -0.42764,-2.138112 -0.13583,-5.964277 0.580422,-7.610302 0.783375,-1.800289 3.074614,-4.500845 3.477141,-4.098315 0.143076,0.143076 0.004,0.516251 -0.309002,0.829278 -0.436446,0.436446 -0.479626,0.712481 -0.185201,1.183929 0.285764,0.457585 0.236908,1.144309 -0.191068,2.685652 -0.316255,1.138978 -0.513422,2.388369 -0.438153,2.776424 0.07527,0.388056 0.159064,1.419931 0.18621,2.293056 0.09587,3.083955 0.717828,0.12325 0.91428,-4.35228 0.102422,-2.333378 0.271452,-4.380409 0.375623,-4.54896 0.252258,-0.40816 -0.869322,-2.740427 -1.317861,-2.740427 -0.580997,0 -2.084081,-1.686584 -2.084081,-2.338514 0,-0.520192 0.121539,-0.492517 0.852403,0.194095 l 0.852403,0.800791 -0.289666,-1.180271 c -0.159318,-0.649146 -0.548714,-1.974017 -0.865322,-2.944156 -1.386053,-4.247096 -1.60612,-4.982337 -1.711911,-5.719565 -0.110895,-0.772785 -2.112207,-2.395249 -3.240419,-2.627002 -0.813371,-0.167083 -1.9249,-2.100697 -1.330127,-2.313887 0.242535,-0.08694 0.440972,-0.585806 0.440972,-1.108598 0,-0.522795 0.3175,-1.222385 0.705556,-1.554649 0.388055,-0.332264 0.700507,-0.804107 0.694337,-1.04854 -0.0073,-0.290153 -0.163816,-0.243914 -0.450804,0.133191 -0.241769,0.317691 -1.09045,0.797634 -1.885961,1.066543 -0.795506,0.268908 -2.091167,1.071453 -2.879245,1.783432 -1.293263,1.168386 -1.441943,1.476929 -1.526019,3.166791 -0.05123,1.029759 0.08758,2.199728 0.308477,2.599941 0.463616,0.839964 3.467746,3.682065 3.891982,3.682065 0.156859,0 0.266831,-0.553512 0.244387,-1.23003 -0.03076,-0.926988 0.126951,-1.283275 0.64014,-1.446153 0.495487,-0.157261 0.575197,-0.321881 0.292661,-0.604418 -0.478998,-0.478998 -0.509341,-1.30551 -0.04792,-1.30551 0.187201,0 0.511273,0.319345 0.72016,0.709655 0.289193,0.54036 0.2404,1.003409 -0.20453,1.941032 -0.445078,0.937931 -0.525512,1.702132 -0.337517,3.206782 0.351505,2.813339 0.51568,3.689336 0.938714,5.008718 0.449781,1.402792 1.243055,1.293897 1.056224,-0.144992 -0.297907,-2.294407 -0.210665,-3.426675 0.276824,-3.592643 0.346407,-0.117937 0.428269,0.01034 0.269928,0.422956 -0.247011,0.643707 0.401094,3.632637 0.947745,4.370797 0.186153,0.251364 0.551148,0.375408 0.811103,0.275653 0.606689,-0.232808 0.601631,-0.175253 -0.210654,2.39601 -1.073394,3.397787 -1.428009,6.872196 -0.908558,8.901741 0.243236,0.950348 0.321264,1.807277 0.173393,1.904291 -0.14787,0.09701 -0.360037,1.922639 -0.471476,4.056944 -0.236146,4.522636 -0.241106,4.552453 -0.533044,3.204104 -0.247707,-1.144044 -0.988632,-1.638734 -0.982754,-0.656149 0.01531,2.560356 -0.07075,2.722743 -1.799054,3.394675 -3.055998,1.188117 -3.897532,1.736753 -4.103884,2.675523 -0.109635,0.498764 -0.301047,1.264035 -0.425362,1.700597 -0.134739,0.47317 -0.07194,0.79375 0.155484,0.79375 0.209831,0 0.569612,-0.357187 0.799513,-0.79375 z M 39.324407,50.241557 C 38.37177,49.156561 37.793323,47.56536 38.351533,47.56536 c 0.344519,0 2.352979,3.222459 2.232932,3.582606 -0.07026,0.210775 -0.637284,-0.197111 -1.260058,-0.906409 z m 23.450162,36.151682 c 0.22946,-0.01228 0.517969,-0.339824 0.641134,-0.727879 0.123166,-0.388056 0.429952,-0.705556 0.681754,-0.705556 0.251799,0 0.855172,-0.312557 1.340827,-0.694573 0.760578,-0.598273 0.916884,-1.082915 1.12733,-3.495407 0.232194,-2.661857 0.190743,-2.90696 -0.835435,-4.93981 -0.880448,-1.744158 -1.079754,-2.570194 -1.079754,-4.47512 0,-2.035535 -0.09033,-2.359766 -0.70202,-2.519726 -0.760272,-0.198815 -3.531313,-4.00086 -3.531313,-4.845184 0,-0.284176 -0.426339,-0.80191 -0.947423,-1.150518 -0.521081,-0.348604 -1.592644,-1.297488 -2.38125,-2.10863 -0.788603,-0.811138 -1.886299,-1.586403 -2.439324,-1.722811 -0.553025,-0.136409 -1.539921,-0.782433 -2.193103,-1.435615 -0.653182,-0.653183 -1.500413,-1.187606 -1.88274,-1.187606 -0.60265,0 -0.669265,0.176008 -0.50069,1.322917 0.106944,0.727604 0.59824,2.196042 1.091773,3.263194 0.842818,1.822408 0.893205,2.247759 0.829423,7.001764 -0.06406,4.774618 -0.124234,5.174503 -1.061755,7.055556 -0.564844,1.133309 -1.184896,3.21231 -1.436437,4.816292 -0.243424,1.552222 -0.620791,3.139722 -0.838589,3.527777 -0.217802,0.388056 -0.409022,1.282764 -0.424939,1.988238 l -0.02893,1.282683 7.077136,-0.113831 c 3.892423,-0.06261 7.264876,-0.123878 7.494333,-0.136155 z m -17.586608,-9.28274 -0.05969,-3.263195 -0.220902,2.998611 c -0.121497,1.649237 -0.164642,3.117674 -0.09588,3.263195 0.339383,0.718234 0.431098,-0.01228 0.376474,-2.998611 z m 0.203923,-5.049623 c -0.580072,-1.388311 -0.502077,-2.579094 0.53103,-8.107193 0.146667,-0.784821 0.157698,-1.737321 0.02452,-2.116666 -0.205892,-0.586405 -0.36019,-0.458435 -1.030157,0.854389 -0.69832,1.368379 -0.774541,1.970588 -0.669781,5.291666 0.09719,3.080974 0.24372,3.913982 0.823775,4.683153 0.927845,1.230348 1.017168,1.06171 0.320626,-0.605349 z M 42.072648,57.619527 c 0,-0.291042 -0.225143,-0.529167 -0.500313,-0.529167 -0.275174,0 -0.791111,-0.09415 -1.146528,-0.209229 -0.461511,-0.149426 -0.394134,-3.53e-4 0.23573,0.521324 1.05375,0.872861 1.411111,0.927834 1.411111,0.217072 z m -4.649059,-1.468526 c -0.06366,-0.527145 0.08007,-1.004468 0.327531,-1.08773 0.256416,-0.08628 0.440972,0.150505 0.440972,0.56576 0,0.392772 0.181903,0.826555 0.404228,0.963962 0.284482,0.175817 0.334744,-0.02702 0.169668,-0.684739 -0.280589,-1.117956 -0.355966,-1.106127 1.459466,-0.229005 1.748292,0.84468 1.847194,0.854364 1.847194,0.180813 0,-0.288608 -0.608475,-0.908851 -1.352162,-1.378324 -0.743691,-0.46947 -1.741482,-1.31626 -2.217315,-1.881756 -0.475833,-0.565496 -1.080451,-0.956405 -1.343597,-0.86869 -0.344834,0.114945 -0.430881,-0.08934 -0.308121,-0.73152 0.09368,-0.490051 -0.03698,-1.264832 -0.29035,-1.721736 -0.253371,-0.456904 -0.466301,-0.65979 -0.473177,-0.450857 -0.0073,0.22074 -0.459563,0.314258 -1.079717,0.223238 -0.915529,-0.13437 -1.003277,-0.234178 -0.617361,-0.702211 0.400767,-0.486047 0.353617,-0.494147 -0.432089,-0.07423 l -0.881944,0.471353 1.651208,0.678737 c 1.199212,0.49294 1.637361,0.862567 1.600622,1.350293 -0.02782,0.369354 -0.215242,0.669124 -0.416486,0.666153 -0.68119,-0.01005 -1.339628,-0.619019 -1.095832,-1.013491 0.139952,-0.226445 -4.23e-4,-0.392219 -0.332117,-0.392219 -0.3965,0 -0.536996,0.245953 -0.453417,0.79375 0.06661,0.436563 0.315774,0.754063 0.553703,0.705556 0.237928,-0.04851 0.432597,0.229305 0.432597,0.617361 0,0.470369 -0.235186,0.705556 -0.705556,0.705556 -0.388056,0 -0.705556,0.168119 -0.705556,0.373598 0,0.205479 0.136591,0.289179 0.303535,0.186002 0.166945,-0.103177 0.592395,0.452981 0.945445,1.235908 0.353051,0.782923 1.049897,1.645366 1.548549,1.916539 1.189345,0.646776 1.150593,0.662658 1.020079,-0.418073 z m 14.748932,-0.750577 c -0.09991,-0.161657 0.80131,-0.496948 2.002709,-0.745092 2.119492,-0.437776 4.125196,-1.336854 4.125196,-1.849169 0,-0.639279 -1.1664,-1.346567 -1.912031,-1.159425 -0.824657,0.206974 -4.305342,-0.75916 -4.630512,-1.28529 -0.100001,-0.161808 -0.08068,-0.697152 0.04293,-1.189658 0.187181,-0.745783 0.380627,-0.864288 1.15732,-0.708971 0.856029,0.171186 0.877203,0.149247 0.257975,-0.267289 -0.37103,-0.249579 -0.962705,-0.727957 -1.31483,-1.063057 -0.607272,-0.57791 -0.658813,-0.574562 -1.001096,0.065 -0.482194,0.900988 -0.462728,0.992128 0.256498,1.200958 0.339549,0.09859 0.141111,0.160821 -0.440972,0.138289 -1.695302,-0.06562 -2.645834,0.393139 -2.645834,1.276967 0,0.953576 1.407048,5.259857 1.80521,5.52486 0.480247,0.319634 2.490202,0.373765 2.297441,0.06187 z m -1.728819,-0.811918 c -0.343631,-0.200053 -0.534709,-0.509475 -0.424618,-0.687603 0.214662,-0.347331 1.578564,0.348089 1.578564,0.804873 0,0.36164 -0.40139,0.320848 -1.153946,-0.11727 z m 0.91508,-0.885137 c -0.356743,-0.929658 1.330311,-1.648979 1.859443,-0.792826 0.138105,0.223464 -0.04162,0.620338 -0.399384,0.881944 -0.849686,0.621306 -1.195546,0.600195 -1.460059,-0.08912 z m 5.249351,1.656972 c 0.445693,-0.175401 1.585916,-0.593615 2.53383,-0.929372 1.330868,-0.471399 1.596834,-0.681341 1.167536,-0.921586 -0.376241,-0.210555 -0.990357,-0.06435 -1.899871,0.4523 -0.739157,0.419883 -2.058299,0.963912 -2.931424,1.208952 -1.243203,0.348901 -1.380698,0.452367 -0.63396,0.477068 0.524447,0.01736 1.318197,-0.111964 1.763889,-0.287362 z m 10.915992,-4.318409 c 1.693943,-1.685054 1.714263,-1.73035 0.92838,-2.069656 -0.441907,-0.190792 -1.041594,-0.484857 -1.332635,-0.653475 -0.291042,-0.168617 -1.045104,-0.472704 -1.675695,-0.675752 -1.060714,-0.341549 -1.146527,-0.310403 -1.146527,0.416119 0,0.431916 -0.47625,1.241576 -1.058334,1.799247 -0.582083,0.557672 -1.058333,1.211676 -1.058333,1.453339 0,0.241667 -0.3175,0.540163 -0.705555,0.663328 -1.00523,0.319049 -0.873164,0.881945 0.206921,0.881945 0.637823,0 1.593949,-0.654382 3.176471,-2.173993 1.245193,-1.195698 2.38228,-2.055704 2.526859,-1.911125 0.144583,0.144579 -0.213268,0.70092 -0.795217,1.23631 -0.58195,0.535393 -1.498561,1.447853 -2.036914,2.027689 l -0.978828,1.054248 1.10878,-0.162733 c 0.721505,-0.105896 1.713675,-0.764455 2.840627,-1.885491 z m -7.257637,0.799504 0.842631,-0.66281 -0.963376,-0.19904 c -1.130512,-0.233571 -3.988382,-2.027778 -3.776356,-2.370843 0.08019,-0.129749 -0.254994,-0.15929 -0.744848,-0.06565 l -0.890647,0.170261 0.813128,0.867918 c 0.44722,0.477354 1.329066,1.084079 1.959656,1.348278 0.63059,0.264199 1.146528,0.726588 1.146528,1.027529 0,0.732335 0.588923,0.690121 1.613284,-0.115643 z M 55.255975,50.361342 C 54.736577,49.841941 54.17627,49.662758 53.325497,49.743981 l -1.198682,0.114434 1.5875,0.57288 c 2.176568,0.78546 2.387501,0.775889 1.54166,-0.06995 z m 6.416608,-0.13893 c 0.642602,-0.486037 0.605066,-0.518637 -0.609276,-0.529167 -0.711736,-0.0062 -1.584861,-0.107336 -1.940278,-0.224818 -0.35542,-0.117479 -0.169964,0.119602 0.412119,0.526842 1.263336,0.883867 1.268451,0.88441 2.137435,0.227143 z m -3.732012,-1.430857 c -0.623538,-0.751321 -0.130422,-1.103301 0.622276,-0.444171 0.751402,0.657994 4.13919,1.025253 4.659344,0.5051 0.744248,-0.744249 0.331117,-1.834064 -1.352984,-3.569085 -1.683177,-1.734075 -3.492863,-5.451337 -3.023563,-6.210681 0.288198,-0.466309 -0.272574,-0.404717 -1.683837,0.184944 -1.331482,0.556331 -2.981131,0.673816 -5.768572,0.410831 -2.919622,-0.275456 -6.452684,0.87969 -6.487281,2.121034 -0.0061,0.218775 -0.249209,0.595401 -0.540251,0.836944 -0.320569,0.266051 -0.529166,1.038461 -0.529166,1.959451 0,1.304213 0.158711,1.633294 1.116718,2.315457 1.323085,0.942118 3.328168,1.228588 4.131208,0.590233 1.706178,-1.356283 2.165544,-1.427226 3.517445,-0.543215 2.610862,1.707247 3.454943,1.417342 1.416766,-0.4866 -0.608711,-0.568621 -1.010543,-1.130071 -0.892955,-1.247659 0.324679,-0.324675 2.052641,0.921833 1.81374,1.308386 -0.114649,0.185505 0.03408,0.33728 0.330465,0.33728 0.361777,0 0.466686,-0.202921 0.319172,-0.617361 -0.146519,-0.411646 0.146868,-0.276108 0.880473,0.40676 0.605116,0.56327 1.012416,1.166185 0.905108,1.339811 -0.278493,0.450614 0.123155,1.340235 0.605095,1.340235 0.290396,0 0.279164,-0.15409 -0.0392,-0.537694 z M 46.48237,46.859804 c -0.119916,-0.194027 0.117263,-0.352777 0.527064,-0.352777 0.409801,0 1.329143,-0.396875 2.04299,-0.881945 1.281962,-0.871118 2.202977,-1.131785 2.181295,-0.617361 -0.01789,0.424402 -3.143286,2.204861 -3.870386,2.204861 -0.364613,0 -0.761047,-0.15875 -0.880963,-0.352778 z m 13.229167,-0.919688 c 0,-0.372011 0.19184,-0.493293 0.55802,-0.352778 0.30691,0.117775 0.703785,0.214133 0.881945,0.214133 0.178156,0 0.323924,0.15875 0.323924,0.352778 0,0.194028 -0.396875,0.352778 -0.881945,0.352778 -0.574862,0 -0.881944,-0.19739 -0.881944,-0.566911 z m -8.113889,-0.83179 c 0,-0.187201 0.3175,-0.510286 0.705556,-0.717966 0.388055,-0.20768 0.705555,-0.617456 0.705555,-0.910611 0,-0.40168 0.369415,-0.517624 1.499306,-0.47056 0.824618,0.03436 1.658055,0.0039 1.852083,-0.06762 0.509764,-0.18796 2.645833,0.764664 2.645833,1.179961 0,0.211497 -0.315644,0.240329 -0.79375,0.07251 -1.481042,-0.519857 -4.091216,-0.250078 -5.076129,0.524654 -1.005883,0.791228 -1.538454,0.926109 -1.538454,0.389636 z m 34.143876,1.978424 0.80636,-0.726426 -1.13352,-0.544008 c -1.13567,-0.545045 -1.76796,-1.425956 -1.0235,-1.425956 0.21806,0 0.85037,0.33559 1.40515,0.745754 l 1.00869,0.745759 1.85249,-1.862261 c 1.01886,-1.024245 1.55789,-1.749217 1.19783,-1.611052 -0.36005,0.138169 -1.3762,0.345401 -2.25809,0.460523 -0.8819,0.115119 -2.03213,0.425126 -2.55607,0.688905 -1.17574,0.591922 -1.79689,0.614221 -1.61143,0.05786 0.1536,-0.460816 1.08017,-0.781395 4.37097,-1.512287 3.51097,-0.779791 6.01077,-2.275922 9.0212,-5.399194 l 2.71423,-2.815978 -1.00661,-0.896899 c -0.55364,-0.493296 -1.15134,-1.155509 -1.32823,-1.471591 -0.29394,-0.525233 -0.41054,-0.527071 -1.35484,-0.02138 -0.56828,0.304327 -2.77948,1.279782 -4.91379,2.167678 -4.35604,1.81217 -5.3522,2.5928 -7.10001,5.563845 -0.67028,1.139399 -1.56949,2.36443 -1.99823,2.722291 -0.851129,0.710421 -2.197809,0.880572 -2.543421,0.321356 -0.119917,-0.194028 0.07515,-0.352778 0.433479,-0.352778 0.358327,0 1.179473,-0.440767 1.824772,-0.979484 l 1.17326,-0.979487 -2.635063,-2.636485 C 72.939888,30.174336 72.13492,29.660501 69.80865,30.764388 c -1.802112,0.855158 -2.27826,2.719762 -1.476237,5.780959 0.342512,1.307324 0.73666,3.233522 0.87588,4.280436 0.192934,1.450855 0.48273,2.100982 1.218692,2.734028 1.760745,1.514532 1.978642,0.901485 0.308857,-0.868962 -0.59435,-0.630181 -0.563979,-1.229272 0.04439,-0.875662 0.66928,0.389012 2.336857,2.422839 2.336857,2.850106 0,0.637456 1.915026,1.626842 3.704166,1.913735 0.970139,0.155564 2.833606,0.382951 4.14104,0.505305 1.316669,0.123218 2.554199,0.435783 2.773999,0.700638 0.43389,0.522792 0.78588,0.400226 2.00523,-0.698225 z m -8.190718,-2.197224 c -0.257711,-1.026812 0.03124,-2.263055 0.528948,-2.263055 0.18095,0 0.329004,0.463268 0.329004,1.02948 0,0.566215 0.09636,1.28059 0.214133,1.5875 0.136553,0.355857 0.02261,0.55802 -0.314533,0.55802 -0.290767,0 -0.631667,-0.410376 -0.757552,-0.911945 z m 6.149618,-3.05817 c 0,-0.749618 2.71734,-4.398885 3.66533,-4.922383 2.61537,-1.444251 4.4483,-2.396391 4.61322,-2.396391 0.10346,0 0.18812,0.161318 0.18812,0.358486 0,0.197167 -0.59042,0.63373 -1.31203,0.970139 -1.46385,0.682427 -1.63639,0.809184 -4.22347,3.102758 -1.00723,0.892958 -1.88035,1.955327 -1.94028,2.360821 -0.12343,0.8353 -0.99089,1.296271 -0.99089,0.52657 z m -4.834547,-2.85653 c -0.358835,-0.456184 -1.107398,-1.067809 -1.663471,-1.359165 -0.61886,-0.324252 -0.858682,-0.623905 -0.61826,-0.772491 0.570921,-0.352852 2.442019,0.716484 2.705329,1.546098 0.123839,0.390182 0.373214,0.709425 0.554168,0.709425 0.18095,0 0.329004,0.15875 0.329004,0.352778 0,0.613184 -0.630372,0.383254 -1.30677,-0.476645 z M 36.71285,46.321303 c -0.108616,-0.108617 -0.305875,0.08718 -0.438354,0.435092 -0.191447,0.502778 -0.150926,0.543299 0.197483,0.197485 0.241095,-0.239304 0.349487,-0.52396 0.240871,-0.632577 z m 29.877853,0.538501 c -0.119916,-0.194027 -0.486473,-0.341619 -0.814571,-0.327981 -0.4863,0.02021 -0.466157,0.08082 0.109016,0.327981 0.944001,0.405652 0.95626,0.405652 0.705555,0 z M 34.851392,45.518176 c -0.237043,-0.237042 -1.245411,0.642839 -1.245411,1.086722 0,0.200342 0.318474,0.07604 0.707719,-0.276218 0.389245,-0.352263 0.631206,-0.716989 0.537692,-0.810504 z m 29.093478,0.283295 c 0,-0.194028 -0.16812,-0.352778 -0.373599,-0.352778 -0.205479,0 -0.275484,0.15875 -0.155568,0.352778 0.119917,0.194028 0.288036,0.352778 0.373599,0.352778 0.08556,0 0.155568,-0.15875 0.155568,-0.352778 z m 2.318194,-1.017658 C 66.077793,44.48404 63.94487,44.026417 63.94487,44.286439 c 0,0.18277 1.504795,0.760751 2.049293,0.787114 0.253986,0.01231 0.374989,-0.118085 0.268901,-0.28974 z M 62.533759,44.39036 c 0,-0.194028 -0.16812,-0.352778 -0.373599,-0.352778 -0.205479,0 -0.275484,0.15875 -0.155568,0.352778 0.119916,0.194028 0.288036,0.352778 0.373599,0.352778 0.08556,0 0.155568,-0.15875 0.155568,-0.352778 z m -1.060588,-1.412505 c -0.329332,-0.203538 -0.317471,-0.310871 0.05053,-0.457217 0.303583,-0.120731 0.325977,-0.201511 0.06074,-0.219093 -0.231084,-0.01531 -0.518266,0.130898 -0.638182,0.324926 -0.301011,0.487045 0.142998,1.120609 0.591206,0.843601 0.242044,-0.149592 0.22026,-0.31635 -0.06429,-0.492217 z m 4.588366,-0.351384 c -1.206208,-0.386295 -2.133678,-0.386295 -1.234723,0 0.388056,0.166755 1.023056,0.298521 1.411111,0.292816 0.567193,-0.0083 0.5326,-0.06576 -0.176388,-0.292816 z m 2.628194,-0.313129 c -0.494503,-0.462023 -2.187219,-0.914047 -1.74625,-0.466319 0.194028,0.197001 0.670278,0.434555 1.058333,0.527893 0.388056,0.09334 0.776993,0.188126 0.864306,0.210633 0.08731,0.02251 0.0079,-0.09998 -0.176389,-0.272207 z m -5.935955,-0.833399 c -0.08943,-0.838761 -0.733916,-1.281197 -0.770827,-0.529166 -0.02004,0.408005 0.496122,1.322916 0.74633,1.322916 0.06002,0 0.07104,-0.357187 0.02448,-0.79375 z m 1.448329,-0.830499 c -0.117228,-0.117224 -0.421499,-0.129755 -0.676159,-0.02783 -0.281421,0.112614 -0.19783,0.196208 0.213138,0.213134 0.371884,0.01531 0.580245,-0.06806 0.463021,-0.185286 z m 2.35772,-2.15e-4 c 0.759583,-0.291482 0.343453,-0.851387 -0.607304,-0.817128 -0.425111,0.01531 -0.573504,0.108249 -0.329759,0.206519 0.243745,0.09827 0.353438,0.323861 0.243763,0.501315 -0.233197,0.377321 -0.07157,0.402802 0.6933,0.109294 z m -6.142733,-0.492202 c 0,-0.194028 -0.168119,-0.352778 -0.373598,-0.352778 -0.205479,0 -0.275485,0.15875 -0.155568,0.352778 0.119916,0.194027 0.288036,0.352777 0.373598,0.352777 0.08556,0 0.155568,-0.15875 0.155568,-0.352777 z m 3.351389,-0.352778 c -0.119916,-0.194028 -0.486473,-0.350347 -0.814571,-0.347377 -0.514092,0.0047 -0.523406,0.05267 -0.06737,0.347377 0.690869,0.446475 1.15788,0.446475 0.881944,0 z m 4.409722,-0.352778 c 0,-0.194028 -0.15875,-0.352778 -0.352778,-0.352778 -0.194027,0 -0.352777,0.15875 -0.352777,0.352778 0,0.194028 0.15875,0.352778 0.352777,0.352778 0.194028,0 0.352778,-0.15875 0.352778,-0.352778 z m -3.657318,-0.952687 c -0.486826,-0.486826 -4.11215,-1.435862 -4.303331,-1.126525 -0.107184,0.173429 -0.06645,0.322329 0.09052,0.330891 0.156972,0.0086 1.079154,0.235973 2.049293,0.505358 2.053787,0.570286 2.503918,0.630678 2.163515,0.290276 z m 1.71704,-0.811202 c -0.120092,-0.194313 0.147867,-0.363915 0.596541,-0.377574 0.763467,-0.02325 0.770307,-0.0424 0.109015,-0.30545 -0.388056,-0.154361 -0.75995,-0.138768 -0.826431,0.03464 -0.06649,0.173415 -0.701485,0.210436 -1.411111,0.08226 -1.565596,-0.282776 -1.264889,0.184284 0.367555,0.570897 0.640436,0.151673 1.213489,0.292022 1.273447,0.311883 0.05996,0.01986 0.0109,-0.122639 -0.109016,-0.316667 z m -4.976392,-2.322534 c 0.131844,-0.343573 0.053,-0.504853 -0.204791,-0.418923 -0.527346,0.175782 -0.8177,0.977568 -0.354013,0.977568 0.189439,0 0.440899,-0.251389 0.558804,-0.558645 z m 1.798895,-0.142871 c 0.123592,-0.199976 -0.01803,-0.259115 -0.331957,-0.138645 -0.611159,0.234523 -0.722979,0.487383 -0.215533,0.487383 0.182577,0 0.428949,-0.156933 0.54749,-0.348738 z m 3.883053,-0.709595 c -0.119916,-0.194028 -0.684911,-0.352778 -1.255543,-0.352778 -0.570632,0 -1.037513,0.15875 -1.037513,0.352778 0,0.194028 0.564995,0.352778 1.255544,0.352778 0.747193,0 1.167264,-0.142833 1.037512,-0.352778 z m 15.340503,-1.639496 c 1.1671,-1.095752 2.122,-2.157328 2.122,-2.359057 0,-0.201732 -0.43657,0.03545 -0.97014,0.527061 -1.14639,1.056227 -2.603072,2.060381 -2.988916,2.060381 -0.150855,0 -0.274281,-0.238125 -0.274281,-0.529167 0,-0.291041 0.198437,-0.530585 0.440972,-0.53232 0.612683,-0.0044 4.539605,-3.099636 5.733765,-4.51944 0.74154,-0.881666 1.05806,-1.056089 1.28032,-0.705555 0.16239,0.256106 0.29768,0.297349 0.30065,0.09165 0.003,-0.205701 0.45367,-0.840701 1.00155,-1.411111 0.54788,-0.57041 1.69882,-2.301071 2.55764,-3.84591 0.85882,-1.544838 2.39205,-3.648844 3.40717,-4.675572 2.02055,-2.043634 2.51144,-3.217876 1.90326,-4.552685 -0.21865,-0.479894 -0.39755,-1.529995 -0.39755,-2.333563 0,-1.4429621 -0.008,-1.4522991 -0.65784,-0.7549271 -0.90579,0.9722591 -1.45883,2.0710581 -1.45883,2.8984941 0,0.522037 -0.17613,0.649658 -0.70555,0.511214 -1.08556,-0.28388 -0.85925,-0.916658 1.05833,-2.9591321 1.53737,-1.637505 1.76022,-2.061712 1.73534,-3.303292 l -0.0286,-1.424515 -0.72105,1.675694 c -0.39658,0.921632 -0.85998,1.675695 -1.02978,1.675695 -0.4252,0 -0.38713,-0.486042 0.0742,-0.947382 0.21062,-0.210615 0.78279,-1.869552 1.27151,-3.6865274 0.69696,-2.5912283 0.89965,-4.23511772 0.93998,-7.6235571 l 0.0514,-4.3199664 -2.02848,-0.00155 c -2.10524,-0.00162 -2.40845,0.171975 -1.48269,0.8489029 0.48004,0.3510178 0.41041,0.653106 -0.57819,2.5083358 -0.61819,1.1600903 -1.49878,2.6620441 -1.95689,3.337675 -1.03967,1.53334682 -1.05503,2.8293899 -0.0817,6.8985282 1.03391,4.322514 0.79556,5.8041161 -1.33762,8.3147221 -1.67267,1.968624 -3.69248,3.434426 -5.67125,4.115703 -2.674952,0.92096 -8.911773,6.290358 -8.911773,7.672305 0,0.441804 1.035236,2.24501 2.300523,4.007125 1.265287,1.762114 2.396381,3.683134 2.513542,4.268932 0.117161,0.585798 0.27015,1.065089 0.339982,1.065089 0.06983,0 1.08186,-0.896525 2.248956,-1.992274 z m -3.608318,-2.797298 c -0.616048,-0.616049 2.953678,-6.052753 5.483508,-8.3514 1.38387,-1.25741 2.71625,-1.733286 2.71625,-0.970139 0,0.194028 -0.14158,0.352778 -0.31462,0.352778 -1.03343,0 -6.358668,6.10037 -6.396003,7.326989 -0.01531,0.503407 -1.257737,1.873169 -1.489135,1.641772 z m -1.678019,-5.670381 c 0,-0.340162 3.197147,-3.29838 3.564784,-3.29838 0.173673,0 0.315772,0.15875 0.315772,0.352777 0,0.194028 -0.238125,0.352778 -0.529167,0.352778 -0.291042,0 -0.529167,0.173006 -0.529167,0.384461 0,0.543927 -1.849042,2.437761 -2.380103,2.437761 -0.243166,0 -0.442119,-0.10323 -0.442119,-0.229397 z m 10.406947,-3.651158 c -0.11992,-0.194028 -0.0499,-0.352778 0.15557,-0.352778 0.20547,0 0.37359,0.15875 0.37359,0.352778 0,0.194028 -0.07,0.352778 -0.15556,0.352778 -0.0856,0 -0.25369,-0.15875 -0.3736,-0.352778 z m 2.29305,-3.877487 c 0,-0.192341 0.45279,-0.787654 1.0062,-1.322916 0.5534,-0.535266 1.19637,-1.334841 1.42881,-1.77684 0.23244,-0.441995 0.57164,-0.711531 0.75377,-0.598963 0.37615,0.232473 -0.40617,1.623264 -1.73153,3.078289 -0.91061,0.999684 -1.45725,1.232419 -1.45725,0.62043 z m 4.62604,-2.24802 c -0.32588,-0.392655 -0.13873,-0.481058 1.01841,-0.481058 1.15713,0 1.34428,0.0884 1.01841,0.481058 -0.21959,0.264584 -0.67787,0.481062 -1.01841,0.481062 -0.34054,0 -0.79883,-0.216478 -1.01841,-0.481062 z m -1.80382,-7.7386601 c 0,-0.252236 0.14986,-0.609424 0.33302,-0.79375 0.56526,-0.568881 1.11647,-5.0687378 0.91085,-7.435954 -0.20829,-2.3981 -0.0343,-2.8239187 0.53833,-1.3177124 0.85545,2.25001658 0.58697,5.6763274 -0.71263,9.0945494 -0.36099,0.949475 -1.06957,1.249494 -1.06957,0.452867 z m 2.46945,-9.8192095 c 0,-1.4376802 0.72202,-3.8332904 1.15532,-3.8332904 0.18762,0 0.22963,0.3532541 0.0944,0.79375 -0.13403,0.4365625 -0.33149,1.5478125 -0.43881,2.4694445 -0.2179,1.8712702 -0.81091,2.2881769 -0.81091,0.5700959 z M 110.30681,34.314406 c -1.54701,-1.083377 -2.89824,-2.493264 -3.47979,-3.630853 -0.33268,-0.650758 -1.22705,-2.079508 -1.98749,-3.175 -0.76045,-1.095491 -1.38284,-2.362221 -1.38309,-2.814951 -3.6e-4,-0.916069 -0.61768,-0.887402 -1.20998,0.0562 -0.29863,0.475739 -0.0598,1.211997 1.13762,3.506781 1.89835,3.638137 2.15427,3.970037 3.27655,4.249317 0.50138,0.124771 1.5154,0.706692 2.25337,1.293157 0.73797,0.586468 1.51838,1.05798 1.73423,1.047803 0.21586,-0.0102 0.0622,-0.249781 -0.34142,-0.532451 z m 2.17048,-1.162643 c -1.15233,-2.27402 -2.58131,-3.930848 -3.39028,-3.930848 -0.77017,0 -2.45603,-2.068142 -2.45603,-3.012948 0,-0.921998 -1.73939,-3.324309 -2.26181,-3.12384 -0.79296,0.304289 -0.1482,2.37616 1.42967,4.594088 0.84573,1.188808 1.53769,2.334221 1.53769,2.545362 0,1.079606 4.29002,4.537403 5.73858,4.625358 0.14879,0.009 -0.12023,-0.754694 -0.59782,-1.697172 z m -48.356031,1.008041 c 0.119916,-0.194027 0.05928,-0.352777 -0.134751,-0.352777 -0.194027,0 -0.450888,0.15875 -0.570805,0.352777 -0.119916,0.194028 -0.05928,0.352778 0.134751,0.352778 0.194028,0 0.450889,-0.15875 0.570805,-0.352778 z m 1.5875,-0.861123 c 0,-0.37235 -0.67702,-0.528782 -0.878389,-0.202964 -0.12187,0.197192 0.02589,0.358532 0.328401,0.358532 0.302493,0 0.549988,-0.07001 0.549988,-0.155568 z m 1.70803,-1.055988 c -0.414302,-0.344766 -2.060808,-0.509576 -2.060808,-0.206276 0,0.197725 0.391894,0.359498 0.870874,0.359498 0.667339,0 0.826008,0.144283 0.678918,0.617362 -0.170826,0.549405 -0.146629,0.546491 0.219798,-0.02646 0.226462,-0.3541 0.357512,-0.688957 0.291218,-0.744124 z m 32.812741,0.351388 c -0.0687,-0.06078 -0.502006,-0.226621 -0.962866,-0.368525 -0.57502,-0.177053 -0.76219,-0.13546 -0.59654,0.132566 0.13276,0.214814 0.47014,0.390571 0.74973,0.390571 0.27959,0 0.52088,0.198438 0.5362,0.440972 0.0209,0.330133 0.0744,0.324591 0.213126,-0.02205 0.10191,-0.254663 0.12907,-0.512752 0.0603,-0.573536 z m 2.29924,-0.624176 c -0.095,-0.153748 -0.83809,-0.260763 -1.65125,-0.237808 -1.379126,0.03894 -1.407366,0.05886 -0.42016,0.296467 1.35411,0.325914 2.29266,0.299336 2.07141,-0.05866 z m -4.014256,-0.987337 c -0.90703,-0.786659 -1.18489,-0.744767 -0.84993,0.128132 0.12234,0.318812 0.54724,0.57966 0.94423,0.57966 0.69587,0 0.69248,-0.02543 -0.0943,-0.707792 z m 5.999796,0.552224 c 0,-0.08556 -0.15875,-0.253683 -0.35278,-0.373599 -0.19403,-0.119916 -0.35278,-0.04991 -0.35278,0.155568 0,0.205479 0.15875,0.373599 0.35278,0.373599 0.19403,0 0.35278,-0.07 0.35278,-0.155568 z m -3.35139,-0.902765 c -1.650736,-0.841598 -2.708636,-0.926938 -2.428106,-0.19588 0.10757,0.28032 0.77728,0.571133 1.488236,0.646253 0.71095,0.07512 1.52465,0.163262 1.80821,0.19588 0.28356,0.03261 -0.10719,-0.258198 -0.86834,-0.646253 z m -32.45555,0 c 0.119916,-0.194028 0.05928,-0.352778 -0.134751,-0.352778 -0.194028,0 -0.450889,0.15875 -0.570805,0.352778 -0.119916,0.194027 -0.05928,0.352777 0.134751,0.352777 0.194028,0 0.450889,-0.15875 0.570805,-0.352777 z m -1.5875,-0.352778 c 0,-0.194028 -0.247495,-0.352778 -0.549988,-0.352778 -0.302493,0 -0.451873,0.15875 -0.331957,0.352778 0.119917,0.194028 0.367411,0.352778 0.549988,0.352778 0.182577,0 0.331957,-0.15875 0.331957,-0.352778 z m 36.51249,0 c -0.11991,-0.194028 -0.80397,-0.350347 -1.52012,-0.347377 -0.97058,0.004 -1.16737,0.09247 -0.77293,0.347377 0.70407,0.455005 2.57426,0.455005 2.29305,0 z M 69.942092,29.573693 c 0,-0.194028 -0.30813,-0.352778 -0.684735,-0.352778 -0.376604,0 -0.782849,0.15875 -0.902765,0.352778 -0.123656,0.200082 0.172727,0.352778 0.684735,0.352778 0.49652,0 0.902765,-0.15875 0.902765,-0.352778 z m 4.938889,-0.155568 c 0,-0.08556 -0.15875,-0.253682 -0.352778,-0.373598 -0.194028,-0.119917 -0.352778,-0.04991 -0.352778,0.155567 0,0.205479 0.15875,0.373599 0.352778,0.373599 0.194028,0 0.352778,-0.07 0.352778,-0.155568 z M 103.1032,29.187222 c 0,-0.128165 -0.35719,-0.497865 -0.79375,-0.82156 -0.43656,-0.323695 -0.59531,-0.492439 -0.35278,-0.374985 0.5432,0.263052 0.5506,0.09294 0.0443,-1.018297 -0.2345,-0.514667 -0.59509,-0.79449 -0.88195,-0.684413 -0.68712,0.263673 -0.60241,0.809607 0.1321,0.851447 0.40429,0.02304 0.322,0.117708 -0.23842,0.274313 -0.88226,0.246545 -1.456866,1.101633 -0.74029,1.101633 0.22165,0 0.30488,-0.15875 0.18496,-0.352778 -0.11991,-0.194028 0.0295,-0.352778 0.33196,-0.352778 0.30249,0 0.54999,0.238125 0.54999,0.529167 0,0.371888 -0.3932,0.536536 -1.32292,0.553963 -1.052056,0.01972 -1.178456,0.08562 -0.617356,0.321892 0.812266,0.34204 3.704166,0.320485 3.704166,-0.02759 z M 71.353203,28.51536 c 0,-0.194028 -0.32687,-0.352778 -0.726377,-0.352778 -0.399506,0 -0.628261,0.15875 -0.508345,0.352778 0.119916,0.194028 0.446786,0.352778 0.726376,0.352778 0.279591,0 0.508346,-0.15875 0.508346,-0.352778 z m 0.881944,-0.848769 c -0.582083,-0.255291 -1.194343,-0.38704 -1.360579,-0.292771 -0.470323,0.266714 0.555918,0.779138 1.536968,0.767447 0.85477,-0.01019 0.849334,-0.0248 -0.176389,-0.474676 z m 1.940278,0.143213 c 0,-0.194027 -0.07001,-0.352777 -0.155568,-0.352777 -0.08556,0 -0.253682,0.15875 -0.373599,0.352777 -0.119916,0.194028 -0.04991,0.352778 0.155568,0.352778 0.205479,0 0.373599,-0.15875 0.373599,-0.352778 z M 92.760854,-6.8285638 c -0.11261,-0.2814225 -0.19621,-0.1978293 -0.21313,0.2131367 -0.0153,0.3718863 0.068,0.5802457 0.18528,0.4630208 0.11723,-0.1172252 0.12976,-0.421496 0.0278,-0.6761575 z m 3.63957,-2.7560766 c 0.3036,-0.1962 0.35349,-0.344276 0.11705,-0.347375 -0.22667,-0.003 -0.68927,-0.1117546 -1.02801,-0.2417416 -0.45587,-0.174932 -0.53999,-0.113525 -0.32376,0.2363386 0.21526,0.348293 0.13283,0.411549 -0.31323,0.240381 -0.35958,-0.137984 -0.51785,-0.09071 -0.38983,0.116438 0.27336,0.4423099 1.25025,0.4402726 1.93778,-0.004 z m 0.64083,-1.6018016 c 0.0614,-0.05029 -0.02,-0.172779 -0.18081,-0.272198 -0.16087,-0.09942 -0.68737,0.04472 -1.17,0.32032 l -0.87752,0.501084 1.05833,-0.228885 c 0.58209,-0.125887 1.10859,-0.270031 1.17,-0.320321 z m -1.00375,-0.87764 c 0.31955,-0.173495 -0.0394,-0.259622 -0.93387,-0.224095 -0.79909,0.03174 -1.38885,0.163207 -1.31058,0.292156 0.0783,0.128949 -0.0571,0.325518 -0.30085,0.436821 -0.24374,0.111302 0.11246,0.106642 0.79155,-0.01036 0.6791,-0.116999 1.46829,-0.339535 1.75375,-0.494525 z m 0.24118,-1.239939 c 0.3102,-0.80835 0.0508,-0.888273 -1.4856,-0.457727 -1.18885,0.333153 -1.28862,0.430809 -0.68572,0.671198 1.13284,0.451686 1.94679,0.371663 2.17132,-0.213471 z m 1.52745,-1.152133 c 0.003,-0.253986 -0.15335,-0.363679 -0.34738,-0.243764 -0.19402,0.119916 -0.35034,0.565848 -0.34737,0.990959 0.004,0.62838 0.0694,0.673968 0.34737,0.243764 0.18809,-0.291042 0.34441,-0.736974 0.34738,-0.990959 z m -2.99321,-0.583801 c 0.58208,-0.266531 0.82021,-0.490336 0.52917,-0.497343 -0.29104,-0.007 -1.00542,0.205331 -1.5875,0.471862 -0.58209,0.266532 -0.82021,0.490336 -0.52917,0.497343 0.29104,0.007 1.00542,-0.20533 1.5875,-0.471862 z m 3.54855,-0.706927 c 0.62682,-0.473968 0.58368,-0.48982 -0.50966,-0.187274 -1.44226,0.399102 -1.8207,0.705072 -0.87206,0.705072 0.38331,0 1.00508,-0.233009 1.38172,-0.517798 z m -1.68163,-0.369884 c 0.43289,-0.347596 -1.83177,-0.317004 -2.62465,0.03546 -0.93689,0.41648 -0.88473,0.433503 0.75773,0.247273 0.97014,-0.11 1.81025,-0.237227 1.86692,-0.282728 z m 0.24975,-1.103789 c 2.97625,-0.05412 5.250706,-0.796248 6.760896,-2.205994 0.42003,-0.39209 1.17559,-0.816272 1.67903,-0.942627 1.13126,-0.283929 1.5466,-0.857131 0.62107,-0.857131 -0.37511,0 -1.33286,-0.22963 -2.12833,-0.510288 -0.87073,-0.307213 -1.52844,-0.377409 -1.65267,-0.176389 -0.1135,0.183645 0.19988,0.333899 0.6964,0.333899 0.49652,0 0.90276,0.15875 0.90276,0.352778 0,0.194028 -0.22514,0.352778 -0.50031,0.352778 -0.27517,0 -0.75142,0.09636 -1.05833,0.214132 -0.36618,0.140515 -0.55802,0.01923 -0.55802,-0.352778 0,-0.3118 -0.17574,-0.56691 -0.39053,-0.56691 -0.21478,0 -0.30629,0.219487 -0.20335,0.487749 0.12052,0.314073 -0.28594,0.701089 -1.141486,1.086891 -1.28002,0.577209 -1.37267,0.572316 -2.53068,-0.133652 -0.6611,-0.403037 -1.04326,-0.738215 -0.84923,-0.744841 0.19403,-0.0066 0.10121,-0.159166 -0.20625,-0.33898 -0.72488,-0.423928 -2.76585,0.195837 -4.07035,1.236012 l -0.98945,0.788959 0.86914,1.278559 c 0.615,0.904718 1.02386,1.201162 1.3983,1.013857 0.29104,-0.145586 1.79916,-0.287797 3.35139,-0.316024 z m 2.82222,-3.652974 c 0.898946,-0.386295 -0.0285,-0.386295 -1.23472,0 -0.70899,0.227058 -0.74358,0.284482 -0.17639,0.292818 0.38805,0.0057 1.02305,-0.126065 1.41111,-0.292818 z"
       style="fill:#000000;stroke-width:0.35277778" />
  </g>
</svg>
