<?xml version="1.0" encoding="UTF-8" standalone="no"?>
<svg
   xmlns:dc="http://purl.org/dc/elements/1.1/"
   xmlns:cc="http://creativecommons.org/ns#"
   xmlns:rdf="http://www.w3.org/1999/02/22-rdf-syntax-ns#"
   xmlns:svg="http://www.w3.org/2000/svg"
   xmlns="http://www.w3.org/2000/svg"
   id="svg8"
   version="1.1"
   viewBox="0 0 262.69275 111.04307"
   height="111.04308mm"
   width="262.69275mm">
  <defs
     id="defs2" />
  <metadata
     id="metadata5">
    <rdf:RDF>
      <cc:Work
         rdf:about="">
        <dc:format>image/svg+xml</dc:format>
        <dc:type
           rdf:resource="http://purl.org/dc/dcmitype/StillImage" />
        <dc:title></dc:title>
      </cc:Work>
    </rdf:RDF>
  </metadata>
  <g
     transform="translate(75.890258,-61.528619)"
     id="layer1">
    <path
       id="path2016"
       d="m 43.618471,172.23296 c -5.868151,-1.68006 -6.420802,-1.90242 -6.873811,-2.76566 -0.25455,-0.48507 -1.272702,-1.61614 -2.262558,-2.51349 -0.989859,-0.89736 -1.799742,-1.78802 -1.799742,-1.97925 0,-0.19123 0.404721,-0.94408 0.899383,-1.673 1.077591,-1.58793 0.797556,-2.17358 -0.383308,-0.80162 -1.081404,1.2564 -2.1087,1.22809 -3.341951,-0.0921 -0.545758,-0.58424 -1.522265,-1.2924 -2.170011,-1.57369 l -1.177723,-0.51145 0.987657,-0.0138 c 1.173131,-0.0164 2.63628,0.68689 3.565769,1.71396 0.36916,0.40792 0.851348,0.74167 1.071523,0.74167 0.220172,0 1.108382,-0.80598 1.973795,-1.79107 0.865414,-0.98509 2.294358,-2.61228 3.175431,-3.61597 0.881073,-1.0037 2.0118,-2.4599 2.512726,-3.23601 1.335359,-2.06895 2.724203,-3.44234 3.269478,-3.23309 0.263027,0.10093 0.840306,-0.20189 1.282837,-0.67295 0.766819,-0.81624 0.771895,-0.85646 0.108112,-0.85646 -0.995895,0 -6.401,-3.80544 -8.850534,-6.23118 -3.00912,-2.97989 -6.927927,-5.56153 -10.507906,-6.92243 -0.776111,-0.29503 -2.204861,-0.85419 -3.174999,-1.24258 -3.03886,-1.21659 -8.525418,-2.23247 -11.089244,-2.05327 -2.5539457,0.17852 -4.2330585,0.51572 -4.8098996,0.96592 -0.6879342,0.53691 -6.28863047,1.80412 -8.7291647,1.97506 -3.2180846,0.22541 -3.7842083,0.0312 -4.8919054,-1.67796 -1.471997,-2.27131 -4.1700633,-3.99661 -4.1700633,-2.6666 0,0.27029 -0.225802,0.57808 -0.501784,0.68398 -0.324291,0.12444 -0.430586,0.48095 -0.30051,1.00788 l 0.20127,0.81533 -0.868754,-0.79375 c -0.819566,-0.74881 -2.763555,-1.11422 -2.763555,-0.51947 0,0.15086 0.247128,0.62711 0.549169,1.05834 0.540463,0.77161 0.526475,0.78405 -0.881944,0.78405 -1.036916,0 -1.431114,-0.14576 -1.431114,-0.52917 0,-0.29398 0.313581,-0.52916 0.705556,-0.52916 0.388055,0 0.705555,-0.0898 0.705555,-0.19959 0,-0.19178 -0.689144,-1.60917 -0.906522,-1.86448 -0.110441,-0.1297 -0.241949,-0.0332 -2.315051,1.69902 -0.704709,0.58883 -1.467482,1.0706 -1.695048,1.0706 -1.50797,0 -6.548688,3.16806 -6.845275,4.30221 -0.133714,0.51133 -0.371828,0.64002 -0.883659,0.47757 -0.810743,-0.25732 -1.211227,0.19763 -0.896334,1.01822 0.160245,0.4176 0.339273,0.46997 0.669565,0.19585 0.24796,-0.20579 0.665984,-0.3289 0.928941,-0.27359 0.262957,0.0553 0.499481,-0.13755 0.525607,-0.42859 0.02614,-0.29104 0.06582,-0.67857 0.08819,-0.86118 0.02237,-0.1826 0.23913,-0.0646 0.481665,0.26229 0.391149,0.52715 0.779766,0.55419 3.439583,0.23934 3.370499,-0.39898 5.716132,-0.21919 9.399178,0.72045 1.386004,0.3536 3.251316,0.75258 4.145139,0.88662 0.8938193,0.13403 1.6251273,0.38442 1.6251273,0.55642 0,0.50378 -1.108311,0.37411 -6.0745373,-0.71072 -5.112109,-1.1167 -6.891954,-1.09904 -13.122059,0.13018 -1.535836,0.30303 -3.043961,0.47197 -3.351389,0.37544 -1.024844,-0.32182 -3.715155,-0.63571 -5.321458,-0.62089 -2.121489,0.0196 -7.472105,1.00617 -9.877778,1.82133 -2.293983,0.77731 -4.501455,1.26169 -8.113888,1.78039 -1.455209,0.20896 -3.082396,0.45067 -3.615972,0.53714 -0.690912,0.11196 -0.970139,0.007 -0.970139,-0.36313 0,-0.3787 0.41688,-0.52035 1.531432,-0.52035 0.842288,0 2.294408,-0.22962 3.226934,-0.51027 0.932525,-0.28065 2.584943,-0.61941 3.672038,-0.7528 1.087099,-0.13339 2.373415,-0.39463 2.858484,-0.58051 0.48507,-0.18589 1.25337,-0.40844 1.707332,-0.49456 0.453961,-0.0861 1.485836,-0.40689 2.293055,-0.71284 0.807219,-0.30595 2.182044,-0.64172 3.055169,-0.74617 2.578879,-0.30849 7.888248,-0.28295 8.549957,0.0411 0.47438,0.23234 0.689892,0.0963 0.955925,-0.60342 0.198127,-0.52111 0.9776,-1.22689 1.842054,-1.66791 1.365014,-0.69638 4.805891,-2.93346 5.232618,-3.40198 0.892803,-0.98025 -17.34525,3.15195 -19.330662,4.37975 -0.484762,0.29978 -1.121992,0.40169 -1.5875,0.25389 -1.154835,-0.36666 -6.049687,-0.20215 -6.186377,0.20792 -0.06498,0.19494 -0.858978,0.35675 -1.764441,0.35957 -1.796399,0.006 -4.657803,0.86318 -5.076521,1.52146 -0.626446,0.98485 -0.204266,1.06366 1.75453,0.32753 0.242535,-0.0911 0.438788,-0.0297 0.436117,0.13661 -0.0061,0.37783 -3.892731,1.6376 -4.176591,1.35374 -0.19525,-0.19524 0.391245,-0.69187 1.182836,-1.00158 0.215455,-0.0843 0.181124,-0.31998 -0.08819,-0.60546 -0.706148,-0.74852 -0.543215,-0.94121 1.318767,-1.55966 0.967857,-0.32148 1.850351,-0.73111 1.961098,-0.9103 0.110747,-0.1792 1.0707,-0.32581 2.133228,-0.32581 1.138037,0 2.269606,-0.22129 2.753783,-0.53854 0.599225,-0.39262 1.057176,-0.44909 1.690211,-0.20841 0.477563,0.18157 1.411803,0.21497 2.07609,0.0742 0.75686,-0.16035 1.628811,-0.0837 2.335449,0.20526 0.620212,0.25364 1.210649,0.32688 1.312083,0.16276 0.403934,-0.65359 7.672627,-2.86788 9.429238,-2.87247 0.457066,-0.001 1.241654,-0.21645 1.743534,-0.47835 1.235695,-0.64482 4.813977,-1.2547 8.380281,-1.42832 2.603327,-0.12675 3.00851,-0.23856 3.512513,-0.9693 1.006281,-1.45898 2.530972,-2.82824 2.983198,-2.67908 0.2416,0.0797 0.619326,0.5029 0.839389,0.94047 0.734572,1.46062 1.042674,1.57626 2.570702,0.96487 0.786162,-0.31456 1.749027,-0.89157 2.1397,-1.28224 0.390676,-0.39068 0.955657,-0.71032 1.255518,-0.71032 0.6911383,0 1.8511803,1.23458 2.9825773,3.17421 1.2736374,2.18349 1.6506334,2.47023 3.2477183,2.47023 1.8722798,0 5.8175981,-0.67476 7.1592261,-1.22444 3.9948871,-1.63674 6.0004499,-2.01507 9.8916093,-1.86596 4.313576,0.16529 8.58943,1.33069 14.120463,3.84858 0.788864,0.35911 1.542037,0.65293 1.673719,0.65293 0.407656,0 6.004482,4.11097 7.12254,5.23164 0.582084,0.58344 1.494896,1.25798 2.028473,1.49898 0.533576,0.24101 0.970138,0.63185 0.970138,0.86854 0,0.35618 3.285402,2.84429 5.57083,4.2189 0.322588,0.19403 0.748934,0.54134 0.947431,0.7718 0.198497,0.23046 0.824914,0.46859 1.392033,0.52917 0.567122,0.0606 1.098596,0.3155 1.181054,0.5665 0.109791,0.33419 -0.105555,0.39224 -0.804407,0.21684 -0.594999,-0.14934 -1.051656,-0.0821 -1.212797,0.17867 -0.142152,0.23001 -0.601363,0.44403 -1.02047,0.4756 -0.419104,0.0316 -0.762007,0.25356 -0.762007,0.49332 0,0.23975 -0.396875,0.86415 -0.881945,1.38755 -0.485069,0.5234 -0.876927,1.12689 -0.870796,1.34109 0.0061,0.2142 0.363319,-0.009 0.79375,-0.49541 1.139313,-1.28818 3.018088,-2.54711 3.521773,-2.35986 0.240199,0.0893 3.53e-4,0.33532 -0.53431,0.54811 -0.533576,0.21236 -0.970139,0.54878 -0.970139,0.74761 0,0.48416 0.468493,0.45746 0.981897,-0.0559 0.229602,-0.2296 0.484367,-0.34867 0.566148,-0.26459 0.08178,0.0841 -0.590264,0.78787 -1.493428,1.56398 -1.397127,1.20059 -1.5488,1.26638 -1.016624,0.44098 0.471879,-0.73188 0.509831,-0.97014 0.154538,-0.97014 -0.492757,0 -1.493266,1.24554 -2.356316,2.93339 -0.495466,0.96897 -0.514692,0.97451 -0.790949,0.22771 -0.186831,-0.50505 -0.472182,-0.69286 -0.838891,-0.55214 -0.305661,0.11729 -0.691713,0.21326 -0.857892,0.21326 -0.16618,0 -0.27226,0.43656 -0.23573,0.97014 0.04204,0.61408 -0.09543,0.93777 -0.374558,0.88194 -0.242535,-0.0485 -0.440972,0.19756 -0.440972,0.54681 0,0.34925 -0.139147,0.78581 -0.309214,0.97014 -0.617001,0.66873 -1.785711,4.39103 -1.561846,4.97442 0.184927,0.48191 0.09748,0.54401 -0.448945,0.31883 -0.373235,-0.15381 -0.877044,-0.2872 -1.119579,-0.29643 -0.242534,-0.009 -0.440972,-0.22844 -0.440972,-0.48715 0,-0.2587 -0.238125,-0.47037 -0.529166,-0.47037 -0.906692,0 -0.59369,0.68708 1.310188,2.87602 2.159007,2.48226 4.373746,4.07138 5.996287,4.30245 0.638105,0.0909 1.160191,0.18914 1.160191,0.21837 0,0.0615 1.578645,0.23641 4.586111,0.50816 2.102086,0.18994 2.110916,0.18684 1.281959,-0.4497 l -0.834708,-0.64095 0.821825,0.0324 c 0.757368,0.0299 0.814108,-0.0921 0.723494,-1.55509 -0.05408,-0.87313 -0.300341,-1.74625 -0.547247,-1.94028 -0.246902,-0.19403 -0.541514,-0.5909 -0.654685,-0.88195 -0.122064,-0.3139 -0.217099,-0.13452 -0.23362,0.44098 -0.01531,0.53357 -0.203277,0.97014 -0.417685,0.97014 -0.242044,0 -0.338815,0.53494 -0.255259,1.41111 0.07401,0.77611 0.01132,1.41111 -0.139334,1.41111 -0.15065,0 -0.276337,-0.35719 -0.279308,-0.79375 -0.0028,-0.43656 -0.15929,-1.03188 -0.347377,-1.32292 -0.264805,-0.40976 -0.351539,-0.29035 -0.384365,0.52917 l -0.04239,1.05833 -0.40398,-1.283 c -0.331213,-1.05187 -0.483419,-1.19754 -0.844956,-0.80863 -0.242535,0.26089 -0.440972,0.90439 -0.440972,1.42998 0,1.25171 -0.200628,0.9855 -0.498352,-0.66127 -0.197326,-1.09143 -0.137181,-1.32291 0.343722,-1.32291 0.355131,0 0.50872,-0.1933 0.393069,-0.49468 -0.104405,-0.27207 -0.09034,-0.59417 0.03126,-0.71577 0.295211,-0.29521 0.479622,-1.18847 0.533026,-2.58191 0.02416,-0.63059 0.161071,-1.14653 0.304235,-1.14653 0.143165,0 0.268274,-0.27781 0.278025,-0.61736 0.0097,-0.33955 0.11636,-1.21268 0.236911,-1.94028 0.231482,-1.39716 0.847545,-1.83077 0.847545,-0.59654 0,0.39951 0.15875,0.62826 0.352778,0.50835 0.53981,-0.33363 0.421566,1.37495 -0.174216,2.51731 -0.372607,0.71444 -0.527628,0.82351 -0.529167,0.37228 -0.0011,-0.351 -0.162609,-0.53903 -0.358697,-0.41784 -0.573405,0.35439 -0.352661,4.78094 0.249947,5.01218 0.278729,0.10696 0.686611,0.0146 0.906402,-0.20515 0.297649,-0.29765 0.246585,-0.39962 -0.200095,-0.39962 -0.376069,0 -0.599723,-0.27924 -0.599723,-0.74875 0,-0.62556 0.08707,-0.6765 0.529167,-0.30959 0.442101,0.36692 0.529167,0.31598 0.529167,-0.30958 v -0.74875 l 0.718421,0.71842 c 0.805875,0.80587 1.398245,0.64215 1.398245,-0.38646 0,-0.37661 0.15875,-0.68474 0.352778,-0.68474 0.194028,0 0.355208,0.51594 0.358179,1.14653 0.0088,1.86786 0.478836,2.24768 1.344577,1.08652 0.465032,-0.62371 0.749346,-0.79976 0.757686,-0.46916 0.0073,0.29104 0.255277,0.99309 0.550968,1.56011 0.430428,0.8254 0.44758,1.08809 0.08602,1.31752 -0.706025,0.44802 -1.075538,0.34763 -0.853189,-0.2318 0.123691,-0.32233 7.05e-4,-0.52916 -0.315034,-0.52916 -0.284953,0 -0.520528,0.27781 -0.523498,0.61736 -0.0046,0.52385 -0.05579,0.53766 -0.338088,0.0911 -0.533333,-0.84359 -1.240303,0.14954 -1.265978,1.77842 -0.02124,1.34756 0.555064,1.89071 1.089169,1.0265 0.124795,-0.20192 0.508674,-0.27769 0.853066,-0.16838 0.871541,0.27661 1.861263,-0.16515 1.64319,-0.73344 -0.09969,-0.25979 -0.043,-0.55779 0.125984,-0.66223 0.168984,-0.10443 0.374357,0.01 0.456392,0.25329 0.118607,0.35242 0.262823,0.34937 0.704278,-0.0149 0.357124,-0.29471 0.633741,-0.33091 0.775522,-0.1015 0.256477,0.41499 1.959088,-0.24163 1.959088,-0.75552 0,-0.17596 0.30414,-0.2234 0.675866,-0.10541 0.371729,0.11798 0.781964,0.0428 0.911634,-0.16697 0.129671,-0.20981 0.500218,-0.30283 0.82344,-0.20671 0.323218,0.0961 1.063921,-0.21413 1.646004,-0.68945 0.803508,-0.65614 0.909687,-0.86465 0.440973,-0.86598 -0.783308,-0.002 -0.839262,-1.49509 -0.07967,-2.12549 0.733739,-0.60895 0.397418,-0.84616 -0.510657,-0.36017 -0.546364,0.2924 -0.684702,0.61162 -0.530796,1.22482 0.114483,0.45614 0.04615,0.92947 -0.15186,1.05184 -0.198007,0.12238 -0.373486,-0.0587 -0.389957,-0.40249 -0.103498,-2.16033 -0.480417,-4.32916 -0.752359,-4.32916 -0.175302,0 -0.318731,0.61649 -0.318731,1.36997 0,1.07328 -0.152799,1.40992 -0.705556,1.55447 -0.517521,0.13534 -0.705555,0.0108 -0.705555,-0.4672 0,-0.35844 -0.15875,-0.74982 -0.352778,-0.86974 -0.405028,-0.25032 -0.433158,0.0166 -0.123574,1.17273 0.174995,0.6535 0.388852,0.77746 1.053514,0.61064 0.944686,-0.2371 1.214942,0.64078 0.304782,0.99004 -0.725551,0.27842 -1.5875,-0.0987 -1.5875,-0.69449 0,-0.27028 -0.15875,-0.49142 -0.352777,-0.49142 -0.364378,0 -0.533238,1.20036 -0.41275,2.93405 0.04137,0.59522 -0.07424,0.9052 -0.288259,0.77293 -0.196529,-0.12146 -0.357325,-0.5733 -0.357325,-1.00409 0,-0.43078 -0.3175,-1.01208 -0.705555,-1.29178 -0.463582,-0.33413 -0.705556,-0.91323 -0.705556,-1.68857 0,-0.64902 -0.155412,-1.47043 -0.345366,-1.82535 -0.250486,-0.46805 -0.203175,-0.76333 0.172216,-1.07488 0.705291,-0.58533 1.033469,0.30176 0.756429,2.04468 -0.243624,1.53267 0.262076,2.69888 0.804556,1.85541 0.181225,-0.28178 0.240774,-0.65588 0.13233,-0.83135 -0.340688,-0.55124 0.665378,-3.09299 1.092991,-2.76134 0.212001,0.16442 0.726577,0.38218 1.143504,0.48392 0.740022,0.18058 0.745437,0.1548 0.227729,-1.08425 -0.426166,-1.01996 -0.445569,-1.40494 -0.09879,-1.96021 0.35983,-0.57618 0.325444,-0.76855 -0.206964,-1.15785 -0.351166,-0.25678 -0.489081,-0.48519 -0.306476,-0.50757 0.182605,-0.0224 0.568156,-0.0621 0.856777,-0.0882 0.288883,-0.0261 0.609396,-0.52323 0.713035,-1.10584 0.125684,-0.70652 0.281837,-0.90983 0.469748,-0.6116 0.154813,0.2457 0.42926,0.35539 0.609882,0.24376 0.180619,-0.11163 0.328401,-0.0518 0.328401,0.13289 0,0.18472 -0.277813,0.44289 -0.617361,0.57371 -0.587964,0.22653 -0.587964,0.25436 0,0.58444 0.339548,0.19062 0.617361,0.57682 0.617361,0.85822 0,1.2191 0.686308,0.36362 0.93387,-1.16405 l 0.271547,-1.6757 0.212993,1.23472 0.212993,1.23473 0.352026,-1.5875 c 0.348915,-1.57347 0.354143,-1.55943 0.591312,1.5875 0.204446,2.71269 0.14181,7.66179 -0.111622,8.81944 -0.04247,0.19403 -0.05843,0.75731 -0.03545,1.25175 l 0.04178,0.89897 3.439584,-0.1328 c 1.89177,-0.073 3.836458,-0.14066 4.321527,-0.15026 1.428778,-0.0283 5.057214,-0.63129 5.820833,-0.96735 1.27472,-0.56098 5.979414,-2.14956 6.839656,-2.30946 0.463334,-0.0861 1.680213,-0.40014 2.704168,-0.69781 3.038877,-0.88343 10.702702,-0.79777 12.453429,0.1392 1.613433,0.86348 9.270462,1.20547 12.445142,0.55584 4.7225,-0.96636 7.24387,-1.79145 7.64056,-2.50029 0.34598,-0.61824 5.14024,-1.66744 6.60037,-1.44446 1.26046,0.19249 4.51154,-1.44555 4.24707,-2.13986 -0.0924,-0.24253 -0.0327,-0.44097 0.1326,-0.44097 0.16532,0 0.37752,0.40249 0.47156,0.89444 0.12583,0.6582 -0.0261,0.99992 -0.57529,1.29383 -0.47404,0.25369 -0.58496,0.45317 -0.30405,0.5468 0.24323,0.0811 0.3525,0.29261 0.24282,0.47006 -0.10967,0.17745 -0.0406,0.32265 0.15338,0.32265 0.56077,0 0.79658,-0.62749 0.30842,-0.8207 -0.247,-0.0978 0.0608,-0.37823 0.69527,-0.63359 1.26908,-0.51076 2.32234,-2.25434 1.88189,-3.11531 -0.15354,-0.30012 -0.20866,-0.78381 -0.12249,-1.07485 0.43266,-1.46138 0.57159,-1.5541 0.79285,-0.52916 0.22505,1.04249 0.24567,1.02481 1.37879,-1.18223 0.63268,-1.23231 1.23505,-2.15584 1.33859,-2.05229 0.10355,0.10355 -0.2171,0.95305 -0.71255,1.88778 -0.49546,0.93473 -0.94776,2.01344 -1.00512,2.39713 -0.11239,0.75174 -0.116,0.75712 -2.57493,3.83305 l -1.64777,2.06121 0.79778,0.8492 c 1.55788,1.65829 3.41413,0.9813 5.38319,-1.96332 0.62167,-0.92967 0.79072,-1.94344 0.27047,-1.62191 -0.66457,0.41073 -0.97146,-0.75248 -0.73806,-2.79751 0.13287,-1.16417 0.28319,-1.79917 0.33406,-1.41111 0.0509,0.38805 0.0613,1.00091 0.0231,1.36191 -0.0432,0.40862 0.1079,0.59669 0.40035,0.49829 0.25837,-0.0869 0.46975,-0.57715 0.46975,-1.08936 0,-0.51221 0.11907,-0.93488 0.26459,-0.93926 0.14552,-0.004 0.41229,-0.008 0.59282,-0.008 0.18054,0 0.37897,0.34476 0.44098,0.76612 0.062,0.42137 0.33363,0.83896 0.60363,0.92799 0.3625,0.11953 0.4445,-0.0808 0.3135,-0.76612 -0.0976,-0.51039 -0.0406,-0.92798 0.12647,-0.92798 0.16713,0 0.30386,0.3175 0.30386,0.70555 0,0.81455 0.28345,0.86975 1.13699,0.22145 0.57054,-0.43335 0.56384,-0.50887 -0.10923,-1.23132 -0.39437,-0.42331 -0.86633,-0.6774 -1.04879,-0.56463 -0.49457,0.30567 -0.40108,-0.39815 0.10923,-0.82226 0.24253,-0.20157 0.75373,-1.17351 1.13599,-2.15987 0.38226,-0.98635 0.82952,-1.79337 0.99391,-1.79337 0.33659,0 -0.0157,1.37178 -0.51221,1.99428 -0.72985,0.91515 -0.9553,2.54282 -0.41438,2.99174 0.422,0.35023 0.58691,0.33837 0.83307,-0.0599 0.25375,-0.41057 0.34729,-0.39136 0.54002,0.11089 0.31586,0.82311 0.59886,0.77007 1.93483,-0.36267 0.62931,-0.53358 1.69279,-1.43657 2.36329,-2.00664 0.6705,-0.57008 1.36227,-1.41307 1.53725,-1.87332 0.35729,-0.93975 1.11216,-0.75972 0.78444,0.18709 -0.29723,0.85874 -4.40825,5.01579 -4.96025,5.01579 -0.2523,0 -0.63956,0.39687 -0.86057,0.88194 -0.42539,0.93363 -0.81216,1.10902 -1.16973,0.53046 -0.30088,-0.48683 -2.29386,0.5819 -2.29386,1.23008 0,0.27923 -0.29775,0.66704 -0.66167,0.86181 -0.36392,0.19476 -1.18541,1.19254 -1.82551,2.21727 -1.40571,2.25037 -2.7819,3.80344 -3.37026,3.80344 -0.23856,0 -0.49885,0.19526 -0.5784,0.43392 -0.27059,0.81177 -2.98686,-0.74053 -3.61608,-2.06653 -0.31048,-0.65429 -0.79519,-1.18962 -1.07713,-1.18962 -0.28194,0 -0.51261,-0.15127 -0.51261,-0.33616 0,-0.79917 -6.71461,0.34657 -11.64167,1.98648 -2.03729,0.67808 -4.65667,1.39149 -5.82083,1.58536 -1.16417,0.19387 -2.91042,0.48606 -3.88056,0.64932 -3.46983,0.58391 -6.300302,0.41188 -8.335837,-0.50663 -3.486926,-1.57344 -9.447822,-1.96525 -11.419713,-0.75062 -0.388055,0.23904 -2.21368,0.8002 -4.056944,1.24704 -1.843264,0.44684 -3.986389,1.13459 -4.7625,1.52834 -0.967429,0.49082 -2.353934,0.76655 -4.409722,0.87697 -1.649236,0.0886 -3.088689,0.30145 -3.198787,0.47305 -0.115839,0.18056 -1.379175,0.18143 -2.998611,0.002 -1.577227,-0.17468 -3.057723,-0.17678 -3.392604,-0.005 -0.814095,0.41808 -4.617988,0.38497 -5.76247,-0.0502 -0.758631,-0.28843 -1.045132,-0.23177 -1.522268,0.30108 -0.984888,1.09989 -3.811827,1.73166 -7.819703,1.74757 -2.037292,0.008 -4.259792,-0.14437 -4.938889,-0.33879 z m 18.697222,-2.76566 c 0,-0.19403 -0.277813,-0.35035 -0.617362,-0.34738 -0.527596,0.005 -0.54042,0.0551 -0.08819,0.34738 0.665766,0.43025 0.705556,0.43025 0.705556,0 z m -12.347222,-2.11667 c 0,-0.38805 -0.15875,-0.70555 -0.352778,-0.70555 -0.194028,0 -0.352778,0.3175 -0.352778,0.70555 0,0.38806 0.15875,0.70556 0.352778,0.70556 0.194028,0 0.352778,-0.3175 0.352778,-0.70556 z m 11.294289,-4.49792 c 0.0035,-1.05062 0.116671,-1.50016 0.303686,-1.20514 0.23985,0.37837 0.340575,0.36034 0.514173,-0.0921 0.286893,-0.74764 -0.113298,-2.67156 -0.555706,-2.67156 -0.192391,0 -0.275601,0.38818 -0.184908,0.86261 0.150036,0.78486 0.07426,0.84447 -0.840818,0.66145 -0.820469,-0.16409 -1.005,-0.0793 -1.001832,0.46032 0.0084,1.42754 0.454949,3.28338 0.746692,3.10308 0.169267,-0.10461 0.307757,-0.0221 0.307757,0.18339 0,0.20548 0.15875,0.3736 0.352778,0.3736 0.194027,0 0.355208,-0.75406 0.358178,-1.6757 z M 36.22874,162.5392 c 0.194652,-0.51198 0.257119,-1.02766 0.138815,-1.14597 -0.268486,-0.26848 -1.21575,0.98994 -1.21575,1.61511 0,0.80659 0.709397,0.49757 1.076935,-0.46914 z m 0.334176,-2.69748 c 0,-0.20635 -0.391982,-0.007 -0.871072,0.44314 -0.47909,0.45008 -0.771292,0.97978 -0.649344,1.17709 0.238284,0.38556 1.520416,-0.98075 1.520416,-1.62023 z m 22.619083,0.13781 c 0.397281,-0.37012 0.565323,-0.76229 0.376615,-0.87891 -0.187409,-0.11583 -0.599895,0.18491 -0.916633,0.66832 -0.685249,1.04582 -0.453506,1.1362 0.540018,0.21059 z m 79.330931,-0.4782 c 10e-4,-0.14553 -0.13878,-0.26459 -0.31178,-0.26459 -0.17299,0 -0.43391,-0.43656 -0.57981,-0.97014 l -0.26528,-0.97014 -0.26697,0.88195 c -0.14683,0.48507 -0.28279,1.22419 -0.30213,1.6425 -0.0318,0.68692 0.05,0.72108 0.84403,0.35278 0.48356,-0.22428 0.88043,-0.52684 0.88194,-0.67236 z M 37.407356,158.6781 c 0.131844,-0.34358 0.053,-0.50486 -0.204791,-0.41893 -0.527346,0.17579 -0.8177,0.97757 -0.354012,0.97757 0.189438,0 0.440898,-0.25139 0.558803,-0.55864 z m 3.806391,-3.93927 c 1.202941,-1.29342 2.435758,-3.25992 1.660621,-2.6489 -0.305545,0.24085 -0.659021,0.33443 -0.785499,0.20795 -0.347158,-0.34716 -1.69521,1.00854 -1.50242,1.51095 0.09233,0.24059 -0.06083,0.62723 -0.340336,0.8592 -0.554298,0.46003 -0.677866,1.04093 -0.221421,1.04093 0.157727,0 0.692799,-0.43656 1.189055,-0.97013 z m 9.813057,15.25763 c 0,-0.29104 0.15875,-0.52916 0.352778,-0.52916 0.194028,0 0.352778,0.23812 0.352778,0.52916 0,0.29105 -0.15875,0.52917 -0.352778,0.52917 -0.194028,0 -0.352778,-0.23812 -0.352778,-0.52917 z m -9.877777,-1.38292 c 0,-0.46248 0.899273,-1.61569 1.259921,-1.61569 0.472542,0 0.04065,1.31043 -0.554366,1.68202 -0.582651,0.36387 -0.705555,0.35232 -0.705555,-0.0663 z m 15.69861,-0.20458 c -0.119916,-0.19402 0.03883,-0.35277 0.352778,-0.35277 0.313944,0 0.472694,0.15875 0.352778,0.35277 -0.119916,0.19403 -0.278666,0.35278 -0.352778,0.35278 -0.07411,0 -0.232862,-0.15875 -0.352778,-0.35278 z m -17.2269,-1.14652 c 0.153741,-0.71977 0.124107,-0.73858 -0.317916,-0.20181 -0.588786,0.71499 -1.449208,0.30872 -1.12661,-0.53195 0.300087,-0.78202 -0.421044,-0.75889 -0.879482,0.0282 -0.655468,1.12537 -0.418539,-0.3242 0.318346,-1.9477 0.376136,-0.82871 0.599289,-1.72719 0.495893,-1.99663 -0.103395,-0.26945 0.03984,-0.94079 0.318297,-1.49188 0.278458,-0.55109 0.427034,-1.22572 0.330165,-1.49917 -0.120064,-0.33894 0.0018,-0.42887 0.383216,-0.28255 0.375895,0.14425 0.499494,0.0587 0.376865,-0.26088 -0.100362,-0.26153 -0.01291,-0.58031 0.194356,-0.70841 0.614796,-0.37996 0.432932,0.8812 -0.364659,2.52881 -0.475774,0.98282 -0.661695,1.84962 -0.518824,2.41886 0.279767,1.11468 0.905919,0.78152 0.912347,-0.48543 0.0079,-1.55994 0.375377,-2.50416 0.896691,-2.30411 0.329812,0.12656 0.414408,0.53137 0.271363,1.2985 -0.229129,1.2288 0.389047,0.96404 0.692242,-0.29649 0.153367,-0.63761 0.173651,-0.62912 0.210633,0.0882 0.02289,0.44426 0.269042,0.79375 0.559019,0.79375 0.315591,0 0.438725,-0.20683 0.315034,-0.52916 -0.111686,-0.29104 -0.02734,-0.52917 0.187459,-0.52917 0.487045,0 0.49953,0.54826 0.03235,1.42117 -0.208376,0.38935 -0.577212,0.58517 -0.881945,0.46823 -0.368261,-0.14131 -0.532056,0.0459 -0.551638,0.6305 -0.01531,0.45732 -0.107922,0.63305 -0.205786,0.39052 -0.249001,-0.61709 -1.157535,-0.55064 -1.408363,0.10301 -0.114812,0.29919 -0.482371,0.49763 -0.816801,0.44097 -0.731276,-0.12388 -0.83767,0.0519 -0.524838,0.86713 0.289384,0.75412 1.219751,0.82139 1.219751,0.0882 0,-0.29104 0.155112,-0.52916 0.344692,-0.52916 0.189582,0 0.308645,0.63417 0.264583,1.40928 -0.04456,0.78387 -0.261147,1.4101 -0.488054,1.41111 -0.238354,0.001 -0.337464,-0.32815 -0.2384,-0.79192 z m 25.636847,0.17997 c 0.123204,-0.19935 0.74199,-0.3282 1.375085,-0.28634 0.633092,0.0419 1.722889,-0.1432 2.42177,-0.41124 0.698881,-0.26804 1.413256,-0.44946 1.5875,-0.40315 0.174244,0.0463 1.080576,-0.28541 2.014072,-0.73714 1.269474,-0.61432 1.798525,-0.72007 2.099028,-0.41956 0.300499,0.3005 0.236957,0.40176 -0.252113,0.40176 -0.359632,0 -1.46455,0.38351 -2.455372,0.85225 -1.905095,0.90125 -7.211476,1.68543 -6.78997,1.00342 z m -23.125503,-2.31353 c 0.08683,-0.74378 0.331579,-1.18844 0.654145,-1.18844 0.721505,0 0.491603,2.13405 -0.244905,2.27328 -0.428301,0.081 -0.517681,-0.15597 -0.40924,-1.08484 z m 10.305834,0.43704 c 0,-0.20548 0.15875,-0.27548 0.352778,-0.15557 0.194028,0.11992 0.352778,0.28804 0.352778,0.3736 0,0.0856 -0.15875,0.15557 -0.352778,0.15557 -0.194028,0 -0.352778,-0.16812 -0.352778,-0.3736 z m -1.058333,-1.68427 c 0,-0.80845 0.165943,-1.46991 0.368762,-1.46991 0.233461,0 0.281009,0.48539 0.129589,1.32292 -0.330976,1.8307 -0.498351,1.88007 -0.498351,0.14699 z m 1.114033,0.29398 c 0,-0.48507 0.08007,-0.68351 0.177938,-0.44097 0.09786,0.24253 0.09786,0.63941 0,0.88194 -0.09786,0.24254 -0.177938,0.0441 -0.177938,-0.44097 z M 75.929517,164.58 c -0.213445,-0.34537 0.775582,-0.83838 4.025064,-2.00641 2.490099,-0.89508 3.316901,-1.02813 5.468055,-0.8799 l 1.411111,0.0972 -1.5875,0.34537 c -2.862848,0.62284 -7.930447,2.11266 -8.272638,2.43207 -0.42273,0.39459 -0.804782,0.39885 -1.044092,0.0116 z M 43.79486,163.82285 c -0.140811,-0.22784 -0.09727,-0.573 0.09675,-0.76703 0.235186,-0.23518 0.438122,-0.21469 0.608802,0.0615 0.140812,0.22784 0.09727,0.573 -0.09675,0.76703 -0.235187,0.23518 -0.438122,0.21469 -0.608803,-0.0615 z m 42.292328,0.0663 c 0.372855,-0.6033 3.425021,-1.04573 5.950031,-0.8625 3.549654,0.25758 2.876053,0.66567 -1.058333,0.64118 -1.891771,-0.0118 -3.81665,0.11465 -4.277512,0.28096 -0.553833,0.19986 -0.76207,0.17964 -0.614186,-0.0596 z m 19.091002,6.8e-4 c -2.60342,-0.16141 -2.8709,-0.77371 -0.33514,-0.76718 2.07396,0.005 3.59007,0.44151 2.56958,0.73925 -0.25881,0.0755 -1.2643,0.0881 -2.23444,0.0279 z m 9.70139,-0.067 c 0,-0.19402 0.24749,-0.35277 0.54998,-0.35277 0.3025,0 0.45188,0.15875 0.33196,0.35277 -0.11992,0.19403 -0.36741,0.35278 -0.54999,0.35278 -0.18257,0 -0.33195,-0.15875 -0.33195,-0.35278 z m 1.76389,-0.35277 c 0,-0.19403 0.15875,-0.35278 0.35277,-0.35278 0.19403,0 0.35278,0.15875 0.35278,0.35278 0,0.19402 -0.15875,0.35277 -0.35278,0.35277 -0.19402,0 -0.35277,-0.15875 -0.35277,-0.35277 z m -68.926272,-1.25305 c -0.115548,-0.30112 -0.06256,-0.45631 0.117751,-0.34487 0.19287,0.1192 0.241289,-0.33074 0.117605,-1.09291 -0.161032,-0.99234 -0.06633,-1.40075 0.404671,-1.74516 0.338198,-0.24729 0.56127,-0.70812 0.495717,-1.02407 -0.166713,-0.80345 -0.738015,-0.84624 -0.852844,-0.0639 -0.14321,0.97577 -0.408859,1.07854 -0.669022,0.25884 -0.224719,-0.70802 -1.243161,-1.05252 -1.243161,-0.4205 0,0.59006 -1.404246,0.69631 -1.721051,0.13022 -0.460756,-0.82333 -1.584797,-0.27477 -1.341712,0.65479 0.105756,0.40441 0.106782,0.95811 0.0021,1.23043 -0.29296,0.76345 -1.066129,0.5863 -1.303273,-0.2986 -0.315592,-1.17763 -0.277376,-1.32292 0.347958,-1.32292 0.392106,0 0.513998,-0.21534 0.390091,-0.68916 -0.09912,-0.37904 0.05289,-0.97435 0.337796,-1.32292 0.284907,-0.34857 0.417498,-0.43532 0.294643,-0.19278 -0.284536,0.56172 0.250257,0.57343 0.806048,0.0176 0.253393,-0.2534 0.423333,-0.277 0.423333,-0.0588 0,0.2005 0.198438,0.37209 0.440973,0.38131 0.242534,0.009 0.707153,0.12759 1.032488,0.26302 0.416617,0.17342 0.729541,-0.0102 1.058334,-0.62088 0.256748,-0.47691 1.022441,-1.31317 1.701539,-1.85836 l 1.234722,-0.99125 -1.193194,1.27812 c -0.758863,0.81287 -1.114308,1.48369 -0.976478,1.84287 0.196134,0.51111 0.315722,0.51355 1.259018,0.0258 0.573268,-0.29645 1.140584,-0.69802 1.260708,-0.89238 0.120124,-0.19437 0.566752,-0.53243 0.992508,-0.75125 0.638204,-0.32801 0.696687,-0.31596 0.333132,0.0687 -0.648621,0.68619 -0.536589,1.10696 0.19105,0.71753 0.347613,-0.18603 0.925837,-0.31068 1.284948,-0.27699 0.35911,0.0337 0.722929,-0.13719 0.808485,-0.37972 0.09223,-0.26145 -0.143648,-0.44097 -0.579392,-0.44097 -0.404061,0 -0.73479,-0.16268 -0.73479,-0.36151 0,-0.19882 -0.396875,-0.5124 -0.881944,-0.69682 -0.48507,-0.18442 -0.881945,-0.498 -0.881945,-0.69682 0,-0.62333 -1.196474,-0.37305 -2.119587,0.44338 -0.486675,0.43044 -1.251546,1.29854 -1.699715,1.92913 -0.448169,0.63059 -1.061607,1.14653 -1.363193,1.14653 -0.440084,0 -0.464168,-0.10142 -0.121995,-0.51371 0.234488,-0.28254 0.323932,-0.67942 0.198762,-0.88195 -0.125169,-0.20252 -0.07167,-0.36823 0.118883,-0.36823 0.190553,0 0.796763,-0.4503 1.347128,-1.00066 0.550368,-0.55037 1.237266,-1.10599 1.526445,-1.23473 0.394165,-0.17547 0.415392,-0.28556 0.0848,-0.43984 -0.242534,-0.11318 -0.440972,-0.34355 -0.440972,-0.51192 0,-0.16837 0.66573,-0.008 1.479398,0.35622 1.362985,0.61023 1.512623,0.61691 1.901631,0.0849 0.341934,-0.46762 0.584839,-0.50335 1.277218,-0.18788 0.536229,0.24433 1.069206,0.26967 1.429586,0.068 1.004404,-0.5621 4.738405,-0.62886 5.495928,-0.0983 0.536568,0.37582 1.343671,0.41893 3.636949,0.19424 1.621038,-0.15883 3.582345,-0.24464 4.358456,-0.19069 5.657158,0.39327 7.347962,0.57518 9.525,1.0248 8.048159,1.66219 7.293458,1.59126 10.305019,0.96853 2.736169,-0.56578 2.835966,-0.56178 4.711844,0.18871 1.774607,0.70996 2.696207,0.77995 12.450275,0.94545 5.79361,0.0983 11.55579,0.35671 12.80486,0.57422 4.08533,0.71143 12.23879,-0.12959 14.10896,-1.45533 0.41731,-0.29582 0.93222,-1.18208 1.14423,-1.96945 0.28612,-1.06257 0.93909,-1.92422 2.53312,-3.3427 2.93268,-2.60968 3.45921,-2.65763 0.8219,-0.0748 -1.18269,1.15824 -2.32536,2.60797 -2.53929,3.22162 -0.40061,1.1492 -0.17628,1.43082 0.55625,0.69829 0.77107,-0.77107 0.75782,-0.0961 -0.0292,1.48995 -0.70558,1.42186 -0.91596,1.58436 -2.18515,1.68782 -0.77241,0.063 -1.57341,0.25476 -1.78,0.42621 -0.20658,0.17145 -0.68485,0.23187 -1.06281,0.13428 -0.37796,-0.0976 -1.71907,0.15647 -2.98025,0.56459 -2.04061,0.66035 -2.9727,0.73022 -8.46667,0.63469 -7.22954,-0.12572 -14.40721,-0.10663 -16.40415,0.0436 -2.751184,0.20699 -7.672846,-0.30696 -8.570239,-0.89495 -1.186854,-0.77766 -3.753714,-0.98448 -5.92056,-0.47705 -1.380701,0.32333 -2.188566,0.32375 -3.527777,0.002 -0.95534,-0.22965 -2.054483,-0.4128 -2.442538,-0.40699 -0.388056,0.006 -2.610556,-0.31945 -4.938889,-0.72279 -2.441952,-0.42302 -5.997681,-0.75359 -8.402778,-0.78118 -3.59657,-0.0412 -4.21586,0.035 -4.507248,0.55489 -0.187275,0.33414 -0.56944,0.51381 -0.857638,0.40323 -0.301632,-0.11575 -0.519835,0.003 -0.519835,0.28256 0,0.26513 -0.3175,0.68034 -0.705556,0.92268 -0.579533,0.36193 -0.705556,0.35232 -0.705556,-0.0538 0,-0.27193 0.238125,-0.58579 0.529167,-0.69748 0.291042,-0.11168 0.529167,-0.36679 0.529167,-0.56691 0,-0.44805 -1.646777,-0.48596 -1.91981,-0.0442 -0.108659,0.17582 -0.540709,0.22993 -0.960116,0.12025 l -0.762558,-0.19941 0.851105,-0.69639 0.851101,-0.69639 -0.879179,0.27425 c -0.759675,0.23697 -0.818786,0.20148 -0.434883,-0.26109 0.247661,-0.29841 0.335354,-0.81922 0.198148,-1.17678 -0.202734,-0.52831 -0.323507,-0.42731 -0.684805,0.57265 -0.323268,0.89472 -0.44572,1.01522 -0.465497,0.45808 -0.01475,-0.4158 -0.284096,-0.85473 -0.598523,-0.97538 -0.452688,-0.17371 -0.52977,-0.0531 -0.370321,0.57962 0.197509,0.78373 0.191195,0.78551 -0.330638,0.0934 -0.515616,-0.68383 -0.5435,-0.68524 -0.905615,-0.0459 -0.299191,0.52827 -0.432756,0.56399 -0.67049,0.17933 -0.234262,-0.37904 -0.38801,-0.38921 -0.729015,-0.0482 -0.50013,0.50013 -0.416232,0.61994 0.667346,0.95302 0.497769,0.153 0.79375,0.0958 0.79375,-0.15339 0,-0.21855 0.151818,-0.30354 0.337372,-0.18886 0.185554,0.11468 0.238284,0.46672 0.117179,0.78231 -0.183321,0.47773 -0.03969,0.53771 0.857814,0.35821 0.824957,-0.16499 1.2322,-0.0433 1.734901,0.5184 0.654533,0.73136 0.652131,0.73347 -0.666016,0.58328 -0.727604,-0.0829 -1.322917,-0.0278 -1.322917,0.12248 0,0.15027 -0.396875,0.12232 -0.881944,-0.0621 -0.688347,-0.26171 -0.881945,-0.22351 -0.881945,0.17405 0,0.3221 -0.20763,0.42968 -0.564769,0.29263 -0.310624,-0.11919 -0.700891,0.004 -0.867254,0.27271 -0.240902,0.38979 -0.391661,0.40025 -0.740509,0.0514 -0.523212,-0.52322 -1.135828,-0.58643 -0.826079,-0.0853 0.119917,0.19403 -0.11099,0.35278 -0.513129,0.35278 -0.544982,0 -0.961012,0.50252 -1.633865,1.97353 -0.92867,2.03027 -0.921082,2.69662 0.0218,1.9141 0.441509,-0.36642 0.537694,-0.35061 0.537694,0.0884 0,0.29405 -0.238125,0.626 -0.529167,0.73768 -0.291042,0.11169 -0.529167,0.44617 -0.529167,0.7433 0,0.70248 -0.569697,0.69757 -0.840161,-0.007 z m -4.275116,-5.09695 c 0.119916,-0.19403 0.04991,-0.35278 -0.155568,-0.35278 -0.205479,0 -0.373598,0.15875 -0.373598,0.35278 0,0.19402 0.07001,0.35277 0.155567,0.35277 0.08556,0 0.253683,-0.15875 0.373599,-0.35277 z m 2.293056,0.19721 c 0,-0.0856 -0.15875,-0.25369 -0.352778,-0.3736 -0.194028,-0.11992 -0.352778,-0.0499 -0.352778,0.15556 0,0.20548 0.15875,0.3736 0.352778,0.3736 0.194028,0 0.352778,-0.07 0.352778,-0.15556 z m 75.814992,-1.05259 c -0.40639,-0.40639 -13.08892,-1.1197 -16.81291,-0.94562 -0.43657,0.0204 -0.79375,0.1915 -0.79375,0.3802 0,0.3179 1.52225,0.38769 13.90532,0.63754 2.11813,0.0427 3.78374,0.0103 3.70134,-0.0721 z m 1.34779,-0.0633 c -0.11722,-0.11722 -0.4215,-0.12975 -0.67616,-0.0278 -0.28142,0.11261 -0.19783,0.19621 0.21314,0.21313 0.37189,0.0153 0.58025,-0.0681 0.46302,-0.18528 z m -19.66032,-0.6814 c 3.2e-4,-0.3791 -0.82991,-0.5209 -2.64552,-0.45185 -0.58208,0.0221 -1.891771,0.0563 -2.910417,0.076 -1.779972,0.0343 -2.34105,0.30695 -1.411111,0.68566 0.832683,0.33911 6.966738,0.0664 6.967048,-0.30977 z m -16.580242,-0.8866 2.293056,-0.69802 -2.116667,0.1668 c -2.003527,0.15789 -4.154791,-0.12897 -11.112499,-1.48179 -2.17018,-0.42195 -4.680878,-0.56827 -9.087785,-0.5296 -3.349043,0.0294 -6.24623,0.15049 -6.438194,0.26913 -0.191961,0.11864 -0.349021,0.43854 -0.349021,0.71089 0,0.38082 0.4278,0.46132 1.852083,0.34854 7.800428,-0.61767 10.367218,-0.58977 14.885056,0.1618 2.511471,0.41779 4.728577,0.85991 4.926908,0.98248 0.198329,0.12258 0.921615,0.33279 1.607302,0.46715 0.68569,0.13436 1.246706,0.25697 1.246706,0.27246 0,0.0155 1.031875,-0.28593 2.293055,-0.66984 z m 6.35,0.0555 c 0,-0.36148 -1.753182,-0.8721 -2.033122,-0.59216 -0.102288,0.10229 0.194257,0.33807 0.658989,0.52397 1.096204,0.43849 1.374133,0.45228 1.374133,0.0682 z m 40.365632,-1.14094 c -0.1976,-0.31972 -1.56008,0.40272 -1.56008,0.82721 0,0.1432 0.3919,0.0818 0.87088,-0.13645 0.47899,-0.21824 0.78913,-0.52908 0.6892,-0.69076 z m -83.592479,8.84508 c -0.12628,-0.20433 0.102475,-0.65951 0.508346,-1.01152 0.859998,-0.74587 0.969973,-1.25095 0.20878,-0.95885 -0.354421,0.136 -0.529166,-0.0154 -0.529166,-0.4584 0,-0.48777 0.185261,-0.61301 0.705555,-0.47695 0.388056,0.10148 0.705556,0.31176 0.705556,0.46729 0,0.15553 0.08835,0.51303 0.196342,0.79444 0.122745,0.31987 -0.07615,0.58291 -0.530624,0.70176 -0.488675,0.12779 -0.656297,0.37426 -0.511376,0.75192 0.238393,0.62124 -0.389121,0.77975 -0.753413,0.19031 z m 3.010182,-0.63216 c 0,-0.3415 1.171303,-1.46578 1.527083,-1.46578 0.527724,0 0.190624,1.05822 -0.445558,1.3987 -0.82804,0.44315 -1.081525,0.45887 -1.081525,0.0671 z m 3.202852,-0.61324 c 0.01693,-0.41097 0.10052,-0.49456 0.213134,-0.21313 0.101907,0.25465 0.08938,0.55893 -0.02783,0.67615 -0.117225,0.11723 -0.200604,-0.0911 -0.185286,-0.46302 z m 110.306385,0.0697 c -0.4024,-0.30553 -1.22393,-0.40788 -2.38125,-0.29668 -1.89297,0.18189 -2.06098,-0.0231 -1.55716,-1.90017 0.23199,-0.8643 2.78532,-2.25315 4.14231,-2.25315 0.5905,0 1.12743,-0.31143 1.48942,-0.86391 0.48254,-0.73644 0.5062,-1.15226 0.16036,-2.81815 -0.34874,-1.67987 -0.6944,-2.23842 -2.46191,-3.97824 -2.21568,-2.18095 -2.6349,-2.33413 -9.00796,-3.29146 -4.66547,-0.70083 -13.87187,-4.17286 -14.87959,-5.61157 -0.59708,-0.85246 -1.00945,-0.71209 -1.29917,0.44225 -0.42542,1.695 -2.00989,4.8611 -2.33284,4.66151 -0.19246,-0.11895 -0.0407,-0.69215 0.3552,-1.34143 0.38019,-0.62355 0.69186,-1.30429 0.69258,-1.51276 7.1e-4,-0.20847 -0.75274,-0.62028 -1.67437,-0.91513 -0.92163,-0.29485 -1.64168,-0.70258 -1.6001,-0.90608 0.0416,-0.2035 -0.69839,-1.14398 -1.64438,-2.08997 -2.00802,-2.00802 -2.39503,-3.34307 -1.8,-6.20932 0.38216,-1.84087 0.52322,-2.02152 3.10129,-3.97149 1.48551,-1.12359 3.46309,-2.28663 4.39463,-2.58452 l 1.6937,-0.54163 v -2.28886 c 0,-2.06283 0.25848,-3.39879 1.06684,-5.51396 0.24799,-0.6489 0.28993,-0.65575 0.52219,-0.0853 0.1432,0.35171 0.007,1.13842 -0.31547,1.8172 -0.39898,0.84079 -0.56801,2.19981 -0.56801,4.56685 v 3.36986 l 1.05611,-0.60095 c 0.97984,-0.55757 1.05897,-0.75379 1.09583,-2.71762 0.0218,-1.16417 0.0625,-2.3548 0.0904,-2.64584 0.10098,-1.05397 1.09337,-3.88055 1.36244,-3.88055 0.15166,0 0.27576,-0.42863 0.27576,-0.9525 0,-0.72122 0.0991,-0.85338 0.4082,-0.5443 0.30909,0.30909 0.21712,0.90442 -0.37877,2.45181 -0.43283,1.12398 -0.85728,2.6786 -0.94322,3.45471 -0.0859,0.77611 -0.22301,1.92705 -0.30461,2.55764 -0.0816,0.63059 -0.0393,1.14908 0.0941,1.15221 1.02747,0.0241 6.75428,-1.63552 6.65507,-1.9286 -0.0689,-0.20358 0.0859,-0.87778 0.34402,-1.49823 0.26607,-0.63956 0.44805,-2.24703 0.4202,-3.71193 -0.036,-1.89196 0.13802,-3.00688 0.64971,-4.16365 0.38435,-0.86889 0.63627,-1.76744 0.55982,-1.99679 -0.0764,-0.22934 0.10877,-0.89611 0.4116,-1.48171 0.60179,-1.16374 0.72788,-2.71245 0.24513,-3.01081 -0.33625,-0.20782 -0.29376,-0.5439 0.7171,-5.6713 0.81472,-4.132478 1.31286,-5.304708 2.91361,-6.856208 1.49684,-1.4508 1.9755,-0.84011 0.54326,0.69311 -1.39757,1.49611 -2.4574,2.99789 -2.4574,3.48216 0,0.21314 0.57789,-0.25212 1.2842,-1.03392 0.70631,-0.7818 1.36942,-1.33622 1.47359,-1.23206 0.10416,0.10417 -0.21006,0.6243 -0.69828,1.15585 -1.41598,1.54168 -2.30603,2.997558 -2.56556,4.196548 -0.23655,1.09276 -0.2031,1.1276 1.80393,1.87852 1.12472,0.42082 2.20562,0.89096 2.40201,1.04476 0.3195,0.25023 4.05489,0.71605 7.16421,0.89341 1.19955,0.0684 2.90349,1.2435 1.80316,1.2435 -0.29519,0 -2.26132,-0.31685 -4.36916,-0.70412 -2.10785,-0.38726 -3.89311,-0.64345 -3.96726,-0.5693 -0.30915,0.30915 -3.283,-0.85375 -3.9892,-1.55994 -0.42073,-0.42073 -0.89846,-0.63003 -1.06162,-0.46511 -0.16316,0.16492 -0.32729,1.85432 -0.36472,3.75422 -0.0789,4.00566 -0.0176,4.09946 3.30228,5.05444 1.15908,0.33341 1.97852,0.75608 1.89618,0.97806 -0.0797,0.21501 -0.36329,0.33054 -0.63007,0.25675 -0.26679,-0.0738 -1.19945,-0.28709 -2.07257,-0.47398 -0.87313,-0.18689 -1.77538,-0.57897 -2.00501,-0.87129 -0.52722,-0.67118 -1.16999,-0.2983 -1.16999,0.67873 0,0.40983 -0.26019,1.03266 -0.5782,1.38405 -0.44606,0.49289 -0.59397,1.47293 -0.64727,4.28869 -0.038,2.00739 -0.19828,3.85884 -0.35618,4.11433 -0.22312,0.36102 -0.0592,0.41136 0.73547,0.2259 0.56241,-0.13125 1.73694,-0.3242 2.61006,-0.42877 0.87313,-0.10458 2.20326,-0.5181 2.95585,-0.91895 0.75259,-0.40085 1.98291,-0.72881 2.73403,-0.72881 0.75112,0 1.36568,-0.1371 1.36568,-0.30467 0,-0.16757 0.23813,-0.30467 0.52917,-0.30467 0.6202,0 0.66629,-0.22024 0.16921,-0.80865 -0.19797,-0.23434 -0.99098,-1.42248 -1.76224,-2.64029 l -1.40229,-2.21422 0.88029,-0.33469 c 0.48417,-0.18408 0.8803,-0.58611 0.8803,-0.89341 0,-0.30832 0.16981,-0.45377 0.3789,-0.32455 0.20839,0.12879 0.76401,-0.12763 1.23472,-0.56984 1.45988,-1.37149 0.93912,-0.0588 -0.57889,1.45925 -1.14798,1.14799 -1.3524,1.5339 -1.02284,1.93099 0.35342,0.42585 0.55451,0.4225 1.41719,-0.0236 0.55293,-0.28593 1.32135,-0.51988 1.70758,-0.51988 0.38625,0 0.79287,-0.14661 0.90362,-0.3258 0.11074,-0.17919 1.03293,-0.58454 2.04929,-0.90076 1.01636,-0.31623 2.10103,-0.71116 2.41037,-0.87761 0.30934,-0.16646 2.37309,-0.80521 4.58611,-1.41945 2.21302,-0.61423 4.22211,-1.17897 4.46465,-1.25496 0.70607,-0.22122 0.52014,-0.96121 -0.70556,-2.80808 -0.63059,-0.95016 -1.51131,-2.3703 -1.95717,-3.15587 -0.44585,-0.78556 -1.27929,-1.9121 -1.85208,-2.50343 -0.57279,-0.59132 -1.04144,-1.23487 -1.04144,-1.43011 0,-0.19523 -0.55563,-0.8935 -1.23472,-1.551708 -0.6791,-0.6582 -1.23473,-1.34957 -1.23473,-1.53636 0,-0.1868 -0.72251,-1.14784 -1.60558,-2.13566 -0.88307,-0.98782 -2.42405,-2.74853 -3.4244,-3.9127 -1.97314,-2.29626 -4.35127,-4.39229 -5.84515,-5.1518 -0.5186,-0.26367 -1.51218,-0.84343 -2.20795,-1.28835 -1.92717,-1.23236 -6.71786,-2.97356 -7.58355,-2.75628 -0.86387,0.21681 -3.82534,-2.1335 -4.20819,-3.33975 -0.12097,-0.38114 -0.38498,-0.69299 -0.58669,-0.69299 -0.20171,0 -0.28041,0.22499 -0.17489,0.49997 0.10552,0.27499 -0.0466,0.59149 -0.3381,0.70334 -0.41672,0.15991 -0.4722,0.0342 -0.25966,-0.58817 0.28627,-0.83826 0.28682,-0.94256 0.0234,-4.44021 -0.15339,-2.03678 -0.26522,-2.29639 -1.24619,-2.89295 -0.85118,-0.51763 -1.04375,-0.84251 -0.91623,-1.54573 0.11922,-0.65747 0.0326,-0.8409 -0.33131,-0.70127 -0.27103,0.104 -0.91624,-0.20335 -1.4338,-0.68302 -1.34978,-1.250935 -0.4768,-1.564599 1.22329,-0.439529 0.76075,0.503439 1.54534,0.915349 1.74352,0.915349 0.19819,0 0.35791,0.27781 0.35494,0.61736 -0.004,0.48092 -0.0724,0.51158 -0.30868,0.13873 -0.44214,-0.69779 -0.71261,-0.01 -0.36142,0.9196 0.34998,0.92603 0.86232,1.02952 1.16693,0.23574 0.37577,-0.97924 0.23125,-2.26291 -0.35561,-3.158564 -0.76387,-1.165811 -0.30968,-1.105149 0.75326,0.100606 0.47038,0.533578 0.77231,1.202298 0.67095,1.486058 -0.10136,0.28375 -0.25995,1.68001 -0.35243,3.10279 -0.13604,2.09312 -0.0304,2.89819 0.55335,4.21792 0.39682,0.89707 1.03607,1.85138 1.42055,2.12068 0.38448,0.26931 0.69906,0.70976 0.69906,0.9788 0,0.58689 1.40009,1.63596 1.82931,1.37068 0.25725,-0.15899 2.6784,0.47311 4.52069,1.18024 0.29104,0.11171 0.68792,0.21845 0.88194,0.23721 1.56985,0.15173 6.37968,3.39262 9.34861,6.29913 1.58616,1.55282 5.85978,6.54735 6.52639,7.62732 0.19403,0.31434 0.86872,1.1673 1.49931,1.89547 0.63059,0.72816 1.14653,1.452288 1.14653,1.609168 0,0.15688 0.28436,0.59299 0.63192,0.96912 0.34755,0.37614 1.33469,1.63638 2.19364,2.80055 0.85895,1.16417 2.01767,2.65445 2.57493,3.31174 0.71249,0.84039 0.96344,1.45537 0.84554,2.07211 -0.12319,0.64446 0.006,0.9225 0.48795,1.04848 0.71659,0.1874 3.14864,4.99241 4.55361,8.99661 0.75939,2.16426 0.8,2.59412 0.45543,4.82021 -0.54619,3.52873 -1.66174,5.02001 -8.03886,10.7465 -0.77611,0.69693 -1.55454,1.27083 -1.72985,1.27533 -0.1753,0.005 -1.1278,0.38753 -2.11666,0.85119 -2.67968,1.25642 -5.08758,1.48846 -6.58677,0.63473 -1.17656,-0.67 -3.85422,-1.01117 -3.85422,-0.49108 0,0.30774 2.9813,2.08946 5.46806,3.26791 1.06379,0.50411 2.63901,0.89212 3.96875,0.97759 l 2.20486,0.14171 v 2.71105 2.71104 l -1.49931,1.41686 c -0.82461,0.77927 -1.79524,1.52716 -2.15695,1.66197 -0.51321,0.19127 -0.60537,0.4572 -0.41959,1.21085 0.13093,0.53117 0.32582,1.40232 0.4331,1.93589 0.10728,0.53358 0.42839,0.97014 0.71358,0.97014 0.28518,0 0.45181,0.19844 0.37028,0.44097 -0.0815,0.24254 0.30212,0.63175 0.85255,0.86492 1.28386,0.54386 1.37276,1.28752 0.0959,0.80205 -1.22993,-0.46762 -1.3736,-0.43497 -0.8519,0.19364 0.53718,0.64727 0.19486,1.12322 -0.43952,0.61109 -0.65006,-0.52478 -4.85922,0.20299 -4.85922,0.84016 0,0.26428 -0.15875,0.4805 -0.35278,0.4805 -0.19403,0 -0.35278,0.25877 -0.35278,0.57505 0,0.46841 0.27977,0.54351 1.50866,0.405 1.04859,-0.11819 1.6558,-0.0125 1.99119,0.34652 0.82658,0.88486 3.01671,0.33345 4.71196,-1.18632 1.89339,-1.6974 2.10969,-2.28492 1.82385,-4.95401 -0.25206,-2.35374 0.22969,-4.49822 1.12279,-4.99803 0.31922,-0.17864 0.6683,-1.27667 0.8981,-2.82494 0.48324,-3.25582 1.17264,-3.41249 0.82733,-0.18801 -0.18477,1.72536 -0.46603,2.57649 -1.06478,3.22221 -1.06622,1.14988 -1.29133,2.43139 -1.01312,5.76741 l 0.22911,2.74716 -1.63444,1.65786 c -1.31398,1.3328 -1.9635,1.71201 -3.31268,1.93406 -2.68815,0.44242 -6.54388,0.35145 -7.2315,-0.17062 z m 0.0852,-2.15695 c 0.18442,-0.48507 0.57737,-0.88194 0.87321,-0.88194 0.29585,0 0.5379,-0.16945 0.5379,-0.37655 0,-0.2071 -0.27781,-0.29808 -0.61736,-0.20216 -0.33955,0.0959 -1.29205,0.27932 -2.11667,0.40756 -1.28506,0.19985 -1.4993,0.35476 -1.4993,1.0841 0,0.73845 0.16437,0.85094 1.24345,0.85094 1.00175,0 1.30863,-0.17144 1.57877,-0.88195 z m 5.32922,-3.04729 c 0.16743,-0.26427 0.30685,-0.59955 0.30982,-0.74507 0.009,-0.42033 -0.62733,-0.30664 -0.77578,0.13869 -0.0739,0.2218 -0.15169,-0.71765 -0.1728,-2.08766 -0.0211,-1.37001 -0.13237,-2.78179 -0.24723,-3.1373 -0.31561,-0.97685 -2.30869,-2.16969 -4.09045,-2.4481 l -1.5875,-0.24805 1.86561,1.90683 c 1.65707,1.69369 1.90595,1.837 2.22654,1.28206 0.19851,-0.34363 0.50993,-0.5327 0.69203,-0.42015 0.58507,0.36159 0.35493,0.87694 -0.54428,1.21882 -0.76841,0.29215 -0.84543,0.47428 -0.63033,1.49057 0.28848,1.363 0.26864,2.28745 -0.0713,3.32078 -0.23453,0.71299 -0.17052,0.73786 1.23694,0.48049 0.81635,-0.14928 1.62125,-0.48764 1.78869,-0.75191 z m 2.67112,-8.11988 c 0.53347,-0.57434 0.84402,-1.5014 1.01571,-3.03213 0.13628,-1.21503 0.10807,-2.2222 -0.0628,-2.24348 -1.37279,-0.17094 -4.79442,-0.27111 -4.65972,-0.13642 0.0931,0.0931 0.79232,0.3975 1.55385,0.67646 1.03886,0.38055 1.18203,0.5134 0.57334,0.53205 -1.10524,0.0339 -2.67455,-0.82407 -3.326,-1.81831 -0.51969,-0.79314 -1.03393,-1.09911 -4.55529,-2.71033 -0.90035,-0.41196 -1.8326,-0.9847 -2.07167,-1.27276 -0.23907,-0.28806 -0.91867,-0.52374 -1.51022,-0.52374 -0.59156,0 -1.36496,-0.26191 -1.71868,-0.58202 -0.43162,-0.39061 -1.5221,-0.63843 -3.3158,-0.75354 -2.32474,-0.14919 -2.80328,-0.075 -3.6759,0.57019 -0.60153,0.44473 -1.43883,0.71114 -2.09114,0.66535 -1.45058,-0.10183 -1.37768,-0.46666 0.16687,-0.83507 0.6909,-0.1648 1.20684,-0.45838 1.14653,-0.65241 -0.16221,-0.52186 -2.42239,-0.26793 -3.10377,0.34871 -0.32407,0.29328 -1.05297,0.51635 -1.61978,0.49571 l -1.03055,-0.0375 0.97014,-0.38335 c 1.04805,-0.41414 1.29733,-0.95271 0.44097,-0.95271 -0.29104,0 -0.52917,-0.16363 -0.52917,-0.36362 0,-0.69002 11.43788,0.32698 13.53576,1.20353 0.82844,0.34615 2.51632,0.5889 4.33015,0.62276 1.63488,0.0305 3.05573,0.19016 3.15745,0.35475 0.43428,0.70268 0.85457,0.21082 0.72399,-0.84728 -0.35463,-2.87353 -1.51712,-6.61458 -2.05541,-6.61458 -0.18194,0 -0.23269,-0.15875 -0.11277,-0.35278 0.11991,-0.19403 0.0499,-0.35278 -0.15557,-0.35278 -0.20548,0 -0.37365,0.11907 -0.37371,0.26459 -7e-5,0.14552 -1.07163,0.24145 -2.38125,0.21318 -4.03289,-0.0871 -4.28279,-0.22111 -0.88127,-0.47269 1.79507,-0.13276 3.35459,-0.33222 3.4656,-0.44323 0.47592,-0.47592 -1.02016,-2.49568 -3.69426,-4.98739 -0.39137,-0.36468 -0.67875,-0.83716 -0.63862,-1.04996 0.0401,-0.2128 -0.28422,-0.44141 -0.72078,-0.50802 -0.43656,-0.0666 -0.79375,0.0487 -0.79375,0.25621 0,0.20752 0.19844,0.38847 0.44097,0.40211 0.9761,0.0549 -1.06274,0.63288 -2.31388,0.65596 -0.80076,0.0148 -1.25563,0.16735 -1.1257,0.37758 0.11991,0.19403 0.0102,0.36661 -0.24377,0.38352 -3.31751,0.22091 -4.37174,0.39481 -4.84272,0.79886 -0.30687,0.26327 -1.74671,0.6683 -3.19963,0.90008 -3.05125,0.48676 -5.13266,1.43138 -7.23867,3.28516 -1.33944,1.17903 -1.51481,1.52083 -1.72261,3.35752 -0.44994,3.97701 1.25797,7.17978 4.66962,8.75673 4.30493,1.98986 8.83057,3.33202 11.23522,3.33202 0.75781,0 1.52865,0.13772 1.71297,0.30606 0.40417,0.3691 5.41888,1.62685 8.70864,2.18424 1.7824,0.302 2.74695,0.69594 3.85949,1.57633 1.36415,1.07949 1.55572,1.13598 2.38623,0.70373 0.49665,-0.2585 1.24878,-0.84226 1.6714,-1.29726 z m -3.34808,-1.02571 c 0.0849,-0.25466 0.3627,-0.53247 0.61736,-0.61736 0.26458,-0.0882 0.39687,0.0441 0.30868,0.30868 -0.0849,0.25466 -0.3627,0.53247 -0.61736,0.61736 -0.26459,0.0882 -0.39688,-0.0441 -0.30868,-0.30868 z m 2.03684,-0.65795 c 0.20016,-0.374 0.26814,-0.92962 0.15106,-1.23472 -0.11708,-0.3051 -0.0371,-0.55472 0.17765,-0.55472 0.42444,0 0.51855,1.01977 0.17639,1.91142 -0.11777,0.30691 -0.36148,0.55802 -0.54158,0.55802 -0.18879,0 -0.17334,-0.28794 0.0365,-0.68 z m -9.7419,-1.83673 c 0.46681,-0.27134 0.76166,-0.2683 1.04069,0.0107 0.28393,0.28392 0.10758,0.38643 -0.65136,0.3786 -0.91232,-0.009 -0.96035,-0.0574 -0.38933,-0.38933 z m -5.53932,-0.88077 c -0.94212,-0.28937 -1.64977,-0.58932 -1.57255,-0.66654 0.0772,-0.0772 1.08618,0.15612 2.24212,0.51853 1.15594,0.36241 1.86359,0.66235 1.57255,0.66654 -0.29104,0.004 -1.3,-0.22915 -2.24212,-0.51853 z m -3.04955,-1.18861 c 0,-0.19403 0.14938,-0.35278 0.33196,-0.35278 0.18258,0 0.43007,0.15875 0.54999,0.35278 0.11991,0.19403 -0.0295,0.35278 -0.33196,0.35278 -0.30249,0 -0.54999,-0.15875 -0.54999,-0.35278 z m 4.05695,-1.38882 c -0.58209,-0.11309 -1.01865,-0.32311 -0.97014,-0.46673 0.18494,-0.54756 0.0659,-0.77216 -0.19323,-0.3645 -0.20904,0.32891 -0.5891,0.31236 -1.67029,-0.0727 -0.76982,-0.27418 -1.99499,-0.50547 -2.72259,-0.51399 -0.72761,-0.009 -1.32292,-0.17423 -1.32292,-0.36826 0,-0.19403 -0.24749,-0.35278 -0.54999,-0.35278 -0.31798,0 -0.44638,-0.16763 -0.30438,-0.39738 0.15901,-0.2573 0.96629,-0.33204 2.28992,-0.21202 2.38854,0.21659 3.10874,0.52925 2.39448,1.03955 -0.35715,0.25516 -0.31314,0.28818 0.17337,0.13007 0.35861,-0.11654 1.39049,0.046 2.29306,0.3612 1.50966,0.52721 2.1785,0.61987 5.66859,0.78533 0.66292,0.0314 1.11706,0.1454 1.00919,0.25328 -0.28568,0.28567 -4.85514,0.41982 -6.09507,0.17893 z m -4.05695,-2.13896 c -0.29104,-0.18809 -1.00541,-0.33325 -1.5875,-0.32258 -0.90865,0.0166 -0.95854,0.0623 -0.35277,0.32258 0.38805,0.16676 1.10243,0.31192 1.5875,0.32258 0.6951,0.0153 0.76983,-0.053 0.35277,-0.32258 z m -10.5726,-5.8416 c -0.006,-0.39948 0.23562,-1.03448 0.5367,-1.41111 0.52601,-0.65798 0.53815,-0.65026 0.31011,0.19716 -0.13053,0.48507 -0.37205,1.12007 -0.53671,1.41111 -0.23909,0.42261 -0.30154,0.38292 -0.3101,-0.19716 z m -3.89331,7.08011 c 0.39885,-0.74526 0.38693,-1.05226 -0.0788,-2.02848 -1.74446,-3.65679 -1.19963,-8.98888 1.04101,-10.18803 0.74816,-0.4004 1.13356,-1.37562 0.53909,-1.36409 -1.23278,0.0239 -5.38599,1.99913 -6.83631,3.25125 -1.65221,1.42642 -1.75208,6.42837 -0.16519,8.27324 0.75379,0.87633 3.92084,2.8573 4.64883,2.90781 0.20975,0.0146 0.59285,-0.36872 0.85134,-0.8517 z m 30.34091,-2.82601 c 0,-0.29104 -0.23812,-0.52917 -0.52916,-0.52917 -0.91809,0 -0.62057,0.69526 0.44097,1.03049 0.0485,0.0153 0.0882,-0.21028 0.0882,-0.50132 z m 1.41111,-0.17639 c 0,-0.19403 -0.15875,-0.35278 -0.35277,-0.35278 -0.19403,0 -0.35278,0.15875 -0.35278,0.35278 0,0.19403 0.15875,0.35278 0.35278,0.35278 0.19402,0 0.35277,-0.15875 0.35277,-0.35278 z m 1.94028,-0.35278 c 0.11992,-0.19402 0.65457,-0.35277 1.18812,-0.35277 1.04142,0 2.49001,-0.84919 2.10513,-1.23407 -0.12838,-0.12838 -0.65762,0.0445 -1.17608,0.38424 -0.73362,0.48068 -1.00362,0.51901 -1.21757,0.17284 -0.20358,-0.3294 -0.51196,-0.20775 -1.18858,0.46887 -0.58046,0.58046 -0.73413,0.91367 -0.42136,0.91367 0.27077,0 0.59043,-0.15875 0.71034,-0.35278 z m -2.99861,-1.23472 c 0.35805,-0.43142 0.33878,-0.52916 -0.10434,-0.52916 -0.80318,0 -1.65955,0.38356 -1.65955,0.7433 0,0.51454 1.28901,0.35806 1.76389,-0.21414 z m 7.40833,-0.88194 c 0,-0.19403 -0.07,-0.35278 -0.15556,-0.35278 -0.0856,0 -0.25369,0.15875 -0.3736,0.35278 -0.11992,0.19403 -0.0499,0.35278 0.15557,0.35278 0.20547,0 0.37359,-0.15875 0.37359,-0.35278 z m -3.89077,-0.339 c 0.28542,-0.18051 0.43259,-0.41456 0.32703,-0.52012 -0.10556,-0.10556 -0.49784,0.0395 -0.87173,0.32238 -0.74379,0.56271 -0.29183,0.72678 0.5447,0.19774 z m -4.22311,-0.29368 c 0,-0.50465 2.7476,-1.06472 3.1668,-0.64552 0.26959,0.2696 0.58712,0.24835 1.10298,-0.0738 0.56495,-0.35282 0.83656,-0.35931 1.23399,-0.0295 0.41262,0.34244 0.46929,0.31788 0.29777,-0.12908 -0.13274,-0.34592 0.0618,-0.69846 0.52109,-0.94426 0.40311,-0.21573 0.73292,-0.54907 0.73292,-0.74074 0,-0.19167 -0.3719,-0.10482 -0.82644,0.19301 -0.45454,0.29782 -1.76423,0.59386 -2.91041,0.65785 -1.14619,0.064 -2.3618,0.23783 -2.70134,0.38631 -0.71739,0.31371 -1.6757,0.0278 -1.6757,-0.5 0,-0.34322 1.72152,-0.55037 3.40879,-0.41019 0.60421,0.0502 0.7241,-0.0852 0.57621,-0.65069 -0.12441,-0.47578 -0.47993,-0.71408 -1.06528,-0.71408 -0.63599,0 -0.82248,0.14609 -0.67548,0.52916 0.23338,0.60816 -0.0718,0.67079 -0.83313,0.17099 -0.47037,-0.30878 -0.47037,-0.38597 0,-0.69475 0.44122,-0.28965 0.41191,-0.35166 -0.17639,-0.37312 -0.38805,-0.0141 0.4057,-0.32493 1.76389,-0.69062 3.10091,-0.8349 3.55845,-0.82989 1.76389,0.0193 -0.82582,0.39078 -1.13939,0.67159 -0.756,0.677 0.43804,0.006 0.58726,0.18603 0.45037,0.54278 -0.16269,0.42395 -0.0147,0.48584 0.72042,0.30133 0.65004,-0.16315 0.85087,-0.11199 0.67534,0.17202 -0.1374,0.22233 -0.0767,0.40423 0.13485,0.40423 0.21156,0 0.47569,-0.23721 0.58695,-0.52714 0.11125,-0.28993 0.36499,-0.42658 0.56386,-0.30367 0.20355,0.1258 0.28372,0.009 0.18343,-0.26661 -0.098,-0.26954 0.23862,-0.93828 0.74799,-1.48608 l 0.92612,-0.99599 -0.88194,0.0807 c -0.48507,0.0444 -1.19944,0.0536 -1.5875,0.0205 -0.59863,-0.0511 -0.62536,-0.11723 -0.17639,-0.43617 0.60463,-0.42952 -0.0457,-0.30434 -2.99861,0.57721 l -1.76389,0.52658 1.5875,-0.15907 c 1.23627,-0.12387 1.44169,-0.0771 0.92845,0.21149 -0.36247,0.2038 -1.27529,0.2879 -2.02847,0.18687 -0.75318,-0.10102 -1.36942,-0.04 -1.36942,0.13553 0,0.17557 -0.19994,0.31921 -0.44431,0.31921 -0.24437,0 -0.65125,0.33138 -0.90419,0.73639 -0.41853,0.67018 -0.39445,0.71562 0.26792,0.50539 0.5239,-0.16628 0.7278,-0.0761 0.7278,0.32195 0,0.30412 -0.21063,0.55294 -0.46807,0.55294 -0.56682,0 -0.35421,2.15152 0.25222,2.55224 0.51749,0.34194 0.92141,0.33759 0.92141,-0.01 z m 4.05694,-3.95343 c 0.11992,-0.19403 0.48647,-0.35035 0.81457,-0.34738 0.51409,0.005 0.52341,0.0527 0.0674,0.34738 -0.69087,0.44647 -1.15788,0.44647 -0.88194,0 z m 3.9614,3.66742 c -0.11722,-0.11723 -0.4215,-0.12976 -0.67616,-0.0278 -0.28142,0.11261 -0.19783,0.19621 0.21314,0.21314 0.37188,0.0153 0.58025,-0.0681 0.46302,-0.18529 z m -1.13918,-0.8452 c 0.11992,-0.19403 0.0499,-0.35278 -0.15557,-0.35278 -0.20548,0 -0.37359,0.15875 -0.37359,0.35278 0,0.19403 0.07,0.35278 0.15556,0.35278 0.0856,0 0.25369,-0.15875 0.3736,-0.35278 z m 2.15094,-0.61248 c 0.13697,0.13696 0.46594,-0.16907 0.73105,-0.68007 0.26511,-0.511 0.40354,-1.00757 0.30762,-1.10349 -0.0959,-0.0959 -0.27449,0.0865 -0.39683,0.40527 -0.12234,0.31881 -0.52295,0.57966 -0.89024,0.57966 -0.45896,0 -0.66613,0.24823 -0.66242,0.79375 0.004,0.62699 0.0744,0.68473 0.3336,0.2748 0.18051,-0.28542 0.44026,-0.40689 0.57722,-0.26992 z m -0.56344,-1.50419 c 0,-0.19402 -0.16812,-0.35277 -0.3736,-0.35277 -0.20548,0 -0.27548,0.15875 -0.15557,0.35277 0.11992,0.19403 0.28804,0.35278 0.3736,0.35278 0.0856,0 0.15557,-0.15875 0.15557,-0.35278 z m -9.30558,-2.11666 c 0.26738,0 0.48614,-0.15875 0.48614,-0.35278 0,-0.19403 0.51594,-0.35521 1.14653,-0.35818 0.88895,-0.004 1.02764,-0.0859 0.61736,-0.3635 -0.39261,-0.26568 -0.27881,-0.29993 0.44097,-0.13274 0.56046,0.13019 0.97014,0.0768 0.97014,-0.12647 0,-0.19351 0.19843,-0.33632 0.44097,-0.31736 0.8936,0.0699 3.8071,-0.55687 3.99391,-0.85913 0.25283,-0.40908 -3.83997,-0.40684 -4.27613,0.002 -0.18433,0.17293 -1.32191,0.38111 -2.52796,0.46262 -1.74761,0.11811 -2.11711,0.057 -1.81991,-0.30114 0.36019,-0.434 -0.0389,-0.45841 -2.79906,-0.17117 -0.25399,0.0264 -0.37289,0.1919 -0.26423,0.36772 0.10865,0.17581 0.5149,0.23667 0.90276,0.13524 0.39416,-0.10307 0.7052,-0.0107 0.7052,0.20951 0,0.21666 0.23813,0.39392 0.52917,0.39392 0.29104,0 0.52917,0.23813 0.52917,0.52917 0,0.29104 -0.14177,0.52917 -0.31504,0.52917 -0.17327,0 -0.40641,-0.23813 -0.51809,-0.52917 -0.11169,-0.29104 -0.48586,-0.52346 -0.8315,-0.51648 -0.49913,0.0101 -0.42095,0.18239 0.37995,0.83749 0.65035,0.53196 0.8675,0.91187 0.6116,1.07002 -0.21822,0.13487 -0.28745,0.4221 -0.15383,0.63829 0.15734,0.25459 0.42309,0.12173 0.75433,-0.37715 0.28128,-0.42375 0.73018,-0.77035 0.99755,-0.77035 z m 9.30558,1.01719 c 0,-0.22289 0.31264,-0.31217 0.72005,-0.20563 0.58335,0.15255 0.6793,0.0599 0.5054,-0.48802 -0.13241,-0.41717 -0.0479,-0.67632 0.22069,-0.67632 0.23944,0 0.35528,-0.0801 0.25743,-0.17792 -0.32213,-0.32212 -2.40912,0.92402 -2.40912,1.43848 0,0.27683 0.15875,0.50333 0.35277,0.50333 0.19403,0 0.35278,-0.17727 0.35278,-0.39392 z m 3.30258,-1.19358 c 0.12369,-0.32234 7e-4,-0.52917 -0.31504,-0.52917 -0.28495,0 -0.51809,0.23813 -0.51809,0.52917 0,0.29104 0.14176,0.52916 0.31503,0.52916 0.17327,0 0.40641,-0.23812 0.5181,-0.52916 z m 1.51642,-2.66339 c 0.0349,-0.96417 -0.0644,-1.6741 -0.22048,-1.57761 -0.40014,0.2473 -0.66046,2.30072 -0.29167,2.30072 0.16725,0 0.13975,0.30706 -0.0611,0.68236 -0.49613,0.92703 -0.46014,1.31759 0.0724,0.7851 0.24064,-0.24065 0.46605,-1.22641 0.5009,-2.19057 z m -3.37747,0.8113 c 0.76891,-0.89219 0.94691,-1.00705 0.54672,-0.35277 -0.32637,0.53357 -0.42866,0.97014 -0.22731,0.97014 0.20136,0 0.66826,-0.49687 1.03757,-1.10416 0.51734,-0.85069 0.57688,-1.20797 0.2594,-1.55639 -0.3325,-0.36491 -0.54833,-0.33067 -1.11763,0.1773 -0.38806,0.34626 -0.86431,0.69196 -1.05833,0.76824 -0.19403,0.0763 -0.98576,0.53127 -1.75939,1.01108 -1.09106,0.67667 -1.26131,0.90037 -0.75888,0.99713 0.35891,0.0691 1.1238,-0.32239 1.71533,-0.87798 1.03547,-0.97257 1.05298,-0.9762 0.58248,-0.12078 -0.26681,0.48507 -0.64385,0.99858 -0.83788,1.14113 -0.22262,0.16355 -0.19956,0.26117 0.0625,0.26458 0.22841,0.003 0.92834,-0.58991 1.55541,-1.31752 z m -1.41834,-1.15893 c 0.95287,-0.50996 0.85085,-0.98101 -0.19933,-0.92041 -0.48493,0.028 -0.88181,0.1793 -0.88194,0.33628 -1.4e-4,0.15697 -0.19869,0.16618 -0.44122,0.0205 -0.29964,-0.18002 -0.28579,-0.0736 0.0432,0.33195 0.56933,0.70188 0.59365,0.70569 1.4793,0.2317 z m -10.25374,-1.08884 c 0,-0.17043 0.16433,-0.30986 0.36518,-0.30986 0.2476,0 0.24361,0.22719 -0.0124,0.70555 -0.3445,0.64371 -0.26829,0.70556 0.86953,0.70556 0.68592,0 1.24713,-0.17727 1.24713,-0.39393 0,-0.22024 -0.31108,-0.31257 -0.70555,-0.20941 -0.38806,0.10148 -0.70556,0.0406 -0.70556,-0.13525 0,-0.17586 0.47625,-0.31975 1.05834,-0.31975 0.58208,0 1.05833,0.16705 1.05833,0.37122 0,0.22617 0.72367,0.32955 1.85208,0.26458 2.08545,-0.12006 2.50509,-0.75023 0.61878,-0.9292 -0.67832,-0.0644 -1.39269,-0.24091 -1.5875,-0.39233 -1.15632,-0.8988 -4.41113,-0.76567 -4.41113,0.18043 0,0.30662 -0.53801,0.583 -1.4047,0.72158 -0.77259,0.12355 -1.32913,0.3469 -1.23676,0.49635 0.21767,0.35221 2.99424,-0.3484 2.99424,-0.75554 z m -1.88563,-0.50147 c 0.1149,-0.29941 0.14067,-0.6126 0.0573,-0.69599 -0.29562,-0.29562 -2.77251,0.57834 -2.5696,0.90667 0.34029,0.55059 2.28269,0.3877 2.51231,-0.21068 z m 11.02845,-0.38139 c 0.0808,-0.0729 0.0599,-0.21966 -0.0466,-0.32612 -0.32147,-0.32147 -2.05148,0.24348 -1.83218,0.59832 0.17758,0.28734 1.46517,0.10079 1.87875,-0.2722 z m 2.13798,-0.82301 c 0.72097,-1.34715 0.33606,-1.54693 -0.68313,-0.35456 -0.5742,0.67177 -1.05045,1.34605 -1.05834,1.49839 -0.0246,0.47585 1.36211,-0.43498 1.74147,-1.14383 z m 4.5942,0.14046 c 0,-0.30249 -0.16134,-0.45027 -0.35854,-0.3284 -0.19719,0.12187 -0.2672,0.36937 -0.15556,0.54999 0.30241,0.48932 0.5141,0.39808 0.5141,-0.22159 z m -10.84792,-0.0364 c -0.24254,-0.0979 -0.63941,-0.0979 -0.88194,0 -0.24254,0.0979 -0.0441,0.17794 0.44097,0.17794 0.48507,0 0.6835,-0.0801 0.44097,-0.17794 z m -5.73264,-1.57344 c 0,-0.3643 -0.17573,-0.66236 -0.39052,-0.66236 -0.21479,0 -0.29915,0.23812 -0.18746,0.52916 0.12369,0.32234 7.1e-4,0.52917 -0.31503,0.52917 -0.53975,0 -0.68617,0.4199 -0.28598,0.82009 0.36236,0.36235 1.17899,-0.47995 1.17899,-1.21606 z m 10.47211,0.55766 c 1.48997,-0.6972 2.28538,-2.32379 2.00222,-4.09455 -0.14871,-0.92997 -0.38314,-1.33882 -0.7314,-1.27554 -0.3236,0.0588 -0.74676,-0.51797 -1.14795,-1.56466 -0.70522,-1.83991 -0.62421,-2.12503 0.52208,-1.83733 0.50972,0.12794 0.8529,0.0108 0.9862,-0.33654 0.15661,-0.40815 -0.0179,-0.50621 -0.74594,-0.41925 -0.52271,0.0624 -1.22819,0.13161 -1.56774,0.15374 -0.80021,0.0521 -0.77917,0.63112 0.0882,2.42636 0.75809,1.56906 0.90784,3.27948 0.3744,4.27623 -0.46594,0.87061 -3.0833,1.70596 -3.63055,1.1587 -0.31305,-0.31305 -0.31349,-0.41274 -0.002,-0.41274 0.226,0 0.60124,-0.35719 0.83386,-0.79375 0.37969,-0.71256 0.3645,-0.74554 -0.14852,-0.32241 -0.77406,0.63844 -1.18293,0.30562 -1.46379,-1.19154 -0.12972,-0.69143 -0.47206,-1.3478 -0.76077,-1.45859 -0.83689,-0.32114 -0.9129,0.0561 -0.26942,1.33726 1.0735,2.13728 1.11479,2.29128 0.77647,2.89583 -0.47471,0.84826 -0.0109,1.39056 0.97723,1.14257 0.98629,-0.24755 1.05002,-0.10244 0.28918,0.6584 -0.50386,0.50386 -0.4156,0.53742 0.97013,0.3689 0.83843,-0.10196 2.03,-0.42195 2.64792,-0.71109 z m -2.35822,-0.16169 c -0.42572,-0.27512 -0.36993,-0.34303 0.2854,-0.34738 0.45423,-0.003 0.71812,0.15066 0.59654,0.34738 -0.26218,0.42422 -0.22551,0.42422 -0.88194,0 z m 2.50562,-1.4787 c 0.22757,-0.42523 0.53702,-1.1793 0.68764,-1.6757 0.25142,-0.82855 0.27636,-0.79987 0.3042,0.34982 0.0286,1.18291 -0.45624,2.09903 -1.11098,2.09903 -0.16205,0 -0.10844,-0.34792 0.11914,-0.77315 z m -6.18152,1.74328 c 0.14614,-0.14552 -0.39575,-0.28839 -1.20419,-0.3175 -0.80845,-0.0291 -1.65512,-0.0688 -1.88149,-0.0882 -0.22636,-0.0194 -0.46416,0.12347 -0.52844,0.3175 -0.13551,0.40903 3.20993,0.49066 3.61412,0.0882 z m 11.08423,-0.0217 c 0,-0.25446 -0.27781,-0.77039 -0.61736,-1.14653 -0.33955,-0.37613 -0.66856,-1.396 -0.73114,-2.26637 -0.0626,-0.87038 -0.25083,-1.6672 -0.41832,-1.77071 -0.1675,-0.10352 -0.35442,-0.96649 -0.41539,-1.91771 -0.0703,-1.09719 -0.29262,-1.78942 -0.60803,-1.8934 -0.35618,-0.11742 -0.42783,0.0168 -0.25263,0.47339 0.13918,0.36272 0.0653,0.7481 -0.17159,0.89448 -0.22887,0.14145 -0.33383,0.47164 -0.23325,0.73376 0.10059,0.26211 0.20516,0.59448 0.23238,0.73858 0.0272,0.1441 0.36493,0.82362 0.75047,1.51003 0.75172,1.33837 0.92323,2.63768 0.3482,2.63768 -0.5477,0 -0.41682,0.83468 0.26458,1.68747 0.67831,0.84891 1.85208,1.05129 1.85208,0.31933 z m -12.80067,-1.87228 c -0.33828,-0.33829 -1.34422,0.58375 -1.08842,0.99764 0.12744,0.20621 0.43895,0.12195 0.76886,-0.20796 0.30504,-0.30504 0.44885,-0.6604 0.31956,-0.78968 z m 12.9934,-1.10111 c -0.14453,-0.37663 -0.33294,-0.44542 -0.57018,-0.20818 -0.23725,0.23725 -0.21261,0.69387 0.0745,1.38191 0.41374,0.99134 0.43385,0.99868 0.57018,0.20818 0.0777,-0.45068 0.0442,-1.07253 -0.0745,-1.38191 z m 1.21838,1.34019 c 0,-0.3766 -0.15875,-0.78285 -0.35277,-0.90276 -0.20009,-0.12366 -0.35278,0.17272 -0.35278,0.68473 0,0.49652 0.15875,0.90277 0.35278,0.90277 0.19402,0 0.35277,-0.30813 0.35277,-0.68474 z m -15.85934,-0.72638 c 0.36433,0 0.98697,-0.34837 1.38366,-0.77416 0.55912,-0.60014 0.81597,-0.67944 1.14263,-0.35278 0.56082,0.56082 0.98583,0.53336 0.98583,-0.0637 0,-0.5719 -1.72237,-0.67203 -2.38125,-0.13844 -0.32224,0.26097 -0.44699,0.17928 -0.46333,-0.30344 -0.0189,-0.55806 -0.0719,-0.5374 -0.34141,0.1332 -0.3464,0.86179 -1.21694,1.06029 -1.54711,0.35278 -0.16463,-0.35278 -0.24695,-0.35278 -0.41157,0 -0.24489,0.52476 -2.12817,0.59283 -2.44005,0.0882 -0.11992,-0.19403 -0.0499,-0.35278 0.15557,-0.35278 0.20548,0 0.3736,-0.15875 0.3736,-0.35277 0,-0.49876 -0.90337,-0.4386 -1.32432,0.0882 -0.19381,0.24253 -0.2419,0.74433 -0.10686,1.11509 0.18961,0.52063 0.61866,0.68517 1.88435,0.72264 0.90137,0.0267 1.76015,0.16981 1.90841,0.31806 0.14825,0.14826 0.32578,0.10088 0.39449,-0.10527 0.0687,-0.20616 0.42303,-0.37483 0.78736,-0.37483 z m 9.14584,-2.27228 c -0.0132,-1.32608 -0.49849,-0.63082 -0.84735,1.21395 -0.21922,1.15918 -0.20011,1.19282 0.31229,0.54994 0.30018,-0.37664 0.54096,-1.17039 0.53506,-1.76389 z m -1.03576,-0.90272 c 0.14457,-0.097 0.0659,-0.35907 -0.17491,-0.58235 -0.75699,-0.70201 -1.11634,-0.0106 -0.94444,1.81708 l 0.16589,1.76389 0.3453,-1.41112 c 0.18992,-0.77611 0.46359,-1.49048 0.60816,-1.5875 z m -1.89354,1.56204 c 0.11706,-0.30505 -0.12605,-1.013 -0.54024,-1.57322 -0.41419,-0.56022 -0.75307,-1.16677 -0.75307,-1.3479 0,-0.50094 0.8832,-0.73201 1.4431,-0.37757 0.27345,0.17311 0.81468,0.31234 1.20274,0.30942 0.65935,-0.005 0.66411,-0.0294 0.0727,-0.37356 -0.43704,-0.25431 -0.56087,-0.59494 -0.40026,-1.10097 0.17796,-0.56072 0.10739,-0.68471 -0.3006,-0.52815 -0.29324,0.11252 -1.18468,0.39979 -1.98099,0.63837 -1.43462,0.42983 -1.95694,1.02766 -0.89784,1.02766 0.30249,0 0.45205,0.15847 0.33234,0.35216 -0.11971,0.19368 0.0297,0.70526 0.33196,1.13682 0.30228,0.43157 0.5496,1.14622 0.5496,1.58812 0,0.9163 0.62132,1.08067 0.94053,0.24882 z m 8.93725,0.0802 c 0,-0.14657 -1.15087,-3.48137 -1.75378,-5.08185 -0.23755,-0.63059 -0.65451,-1.14653 -0.92657,-1.14653 -0.64996,0 -0.64248,0.0374 0.39896,1.99611 0.50706,0.95364 0.83592,2.06809 0.76023,2.5763 -0.0734,0.49261 -0.0666,0.69527 0.015,0.45036 0.21312,-0.63944 0.80057,-0.16798 0.80057,0.6425 0,0.3766 0.15875,0.68473 0.35278,0.68473 0.19403,0 0.35278,-0.0547 0.35278,-0.12162 z m -15.8683,-1.82673 c 0.37281,-0.44921 0.35099,-0.50083 -0.13319,-0.31503 -0.31849,0.12221 -0.57907,0.36397 -0.57907,0.53724 0,0.45366 0.20422,0.38994 0.71226,-0.22221 z m 3.1683,-0.16831 c 0,-0.19403 -0.16812,-0.35278 -0.3736,-0.35278 -0.20548,0 -0.27548,0.15875 -0.15557,0.35278 0.11992,0.19402 0.28804,0.35277 0.3736,0.35277 0.0856,0 0.15557,-0.15875 0.15557,-0.35277 z m 0.88194,-0.70556 c 0.11992,-0.19403 0.0499,-0.35278 -0.15556,-0.35278 -0.20548,0 -0.3736,0.15875 -0.3736,0.35278 0,0.19403 0.07,0.35278 0.15556,0.35278 0.0856,0 0.25369,-0.15875 0.3736,-0.35278 z m 7.16962,-0.9409 c -0.0627,-0.32347 -0.30001,-0.65004 -0.52727,-0.7257 -0.26286,-0.0875 -0.34416,0.12649 -0.22344,0.58813 0.22548,0.86225 0.91579,0.98876 0.75071,0.13757 z M 22.275416,159.69686 c -0.776111,-0.28379 -1.927048,-0.51928 -2.557638,-0.52332 -0.744055,-0.005 -1.146528,-0.18073 -1.146528,-0.50124 0,-0.27164 -0.119063,-0.50326 -0.264583,-0.51471 -0.145521,-0.0115 -0.832087,-0.0647 -1.525701,-0.11829 -0.693614,-0.0536 -2.122364,-0.50094 -3.175,-0.99407 -1.052635,-0.49313 -2.945757,-1.14969 -4.2069377,-1.45901 -7.3398588,-1.80023 -12.3472217,-3.47619 -12.3472217,-4.13262 0,-0.27838 0.9840136,-0.0231 5.4680553,1.41857 6.9152556,2.22334 14.4535091,3.21836 15.8925001,2.09776 0.564614,-0.43969 3.333888,-0.80726 3.333888,-0.44252 0,0.42575 -4.414866,1.54103 -6.085417,1.5373 -0.727604,-0.002 -1.322916,0.13857 -1.322916,0.31157 0,0.47229 1.616399,0.79657 4.768592,0.95664 2.658498,0.13501 2.9851,0.0685 5.439561,-1.10777 2.473802,-1.18554 3.550179,-1.3454 3.550179,-0.52726 0,0.20012 -0.357187,0.3683 -0.793749,0.37373 -0.979626,0.0122 -5.318478,1.92264 -5.482227,2.41389 -0.262079,0.78623 2.453559,0.8667 4.209718,0.12474 2.006516,-0.84772 2.209084,-0.54082 0.502296,0.76101 -1.343932,1.02507 -2.170931,1.08832 -4.256871,0.3256 z m 62.8605,0.16967 c -0.608609,-0.4533 -0.604351,-0.47895 0.08819,-0.53112 0.40023,-0.0302 0.727693,0.0941 0.727693,0.27604 0,0.18196 0.357187,0.31969 0.79375,0.30605 0.750594,-0.0235 0.755427,-0.0397 0.08888,-0.29989 -0.604594,-0.23597 -0.544512,-0.29864 0.422342,-0.44054 0.619965,-0.091 1.046847,-0.0354 0.94863,0.1235 -0.09822,0.15892 -0.01048,0.28895 0.195019,0.28895 0.205479,0 0.373599,-0.14138 0.373599,-0.31418 0,-0.34685 2.400459,-0.72703 3.064531,-0.48536 0.806686,0.29357 0.0917,0.97609 -1.039957,0.99274 -0.628446,0.009 -2.015755,0.13905 -3.082907,0.28846 -1.429717,0.20017 -2.108553,0.14632 -2.579776,-0.20465 z m -29.754042,-0.46861 c -0.114896,-0.29941 -0.130076,-0.62321 -0.03373,-0.71955 0.09634,-0.0963 0.259842,0.14863 0.363333,0.54438 0.219834,0.84065 -0.02441,0.97045 -0.3296,0.17517 z m -1.18007,-0.5066 c -0.462806,-0.29265 -0.451743,-0.41206 0.08819,-0.95214 0.588003,-0.58815 0.617362,-0.57198 0.617362,0.34002 0,1.07985 0.01439,1.06737 -0.705556,0.61212 z m -128.129671,-2.0223 c -0.524308,-0.0799 -1.026689,-0.41333 -1.116404,-0.74089 -0.930985,-3.39912 -1.029851,-4.2627 -0.605336,-5.28757 0.670346,-1.61836 1.762817,-2.41739 4.118628,-3.01235 2.277214,-0.57511 6.413513,-2.78817 6.724134,-3.59764 0.293289,-0.76429 2.373568,-1.29838 3.709198,-0.95228 1.767468,0.458 1.480466,1.18551 -0.517288,1.31126 -1.230328,0.0774 -2.205025,0.44644 -3.565848,1.34998 -1.029993,0.68388 -3.046208,1.84867 -4.480478,2.58844 -2.408522,1.24226 -2.527691,1.3547 -1.559746,1.47173 0.57641,0.0697 1.102601,-0.037 1.169313,-0.23717 0.190933,-0.5728 2.551807,-1.2436 2.95562,-0.83978 0.515846,0.51584 -1.225364,2.27137 -1.969591,1.98578 -0.322508,-0.12376 -0.561088,-0.0865 -0.530176,0.0829 0.126217,0.69138 -0.05695,0.98376 -0.338251,0.53993 -0.219977,-0.34708 -0.477543,-0.3775 -0.964737,-0.11395 -0.365552,0.19775 -0.942452,0.44553 -1.282001,0.55061 -0.339548,0.10509 -0.617361,0.3548 -0.617361,0.55492 0,0.46645 0.948031,0.47495 1.234722,0.0111 0.119916,-0.19403 0.586148,-0.35278 1.036071,-0.35278 0.449923,0 1.410212,-0.24742 2.133977,-0.54983 0.723764,-0.30241 1.396055,-0.46971 1.493979,-0.37179 0.254735,0.25474 -2.088271,1.62551 -2.423881,1.41809 -0.370917,-0.22924 -2.430787,0.83457 -3.224027,1.66504 -0.606373,0.63483 -0.606168,0.66072 0.0052,0.66072 0.34998,0 1.228714,-0.3175 1.952741,-0.70556 0.724028,-0.38806 1.515427,-0.70909 1.758665,-0.7134 0.243237,-0.004 0.839125,-0.31829 1.324194,-0.69772 0.923482,-0.72236 1.763889,-0.91593 1.763889,-0.40629 0,0.1646 -0.595312,0.56556 -1.322916,0.89104 -2.636037,1.17916 -3.994324,2.01069 -3.799454,2.326 0.183512,0.29692 2.345359,-0.40454 3.182093,-1.0325 0.683613,-0.51306 2.671873,-1.04056 3.182913,-0.84445 0.841023,0.32273 0.217807,0.83009 -1.01964,0.83009 -0.630562,0 -1.441944,0.21605 -1.80307,0.48011 -0.598163,0.43739 -0.51511,0.50133 0.933266,0.71853 2.112063,0.31673 4.358319,-0.81672 5.090263,-2.56851 0.605512,-1.44919 0.440967,-1.70152 -0.754397,-1.15688 -1.091876,0.49749 -1.219613,0.50501 -1.219613,0.0718 0,-0.18604 0.809738,-0.62261 1.799418,-0.97014 0.989679,-0.34752 2.172263,-1.00266 2.627963,-1.45585 0.792984,-0.78862 1.049741,-0.82375 5.982308,-0.81862 4.146313,0.004 5.191593,-0.0932 5.347281,-0.49893 0.118491,-0.30879 0.691755,-0.50526 1.478689,-0.50677 0.706843,-0.001 2.607046,-0.31937 4.222669,-0.70668 3.942524,-0.94516 8.860881,-1.18355 11.350004,-0.55015 1.067152,0.27156 1.622777,0.52226 1.234722,0.5571 -0.620501,0.0557 -4.724273,0.3223 -6.173611,0.40103 -0.291042,0.0158 -1.243542,-0.0507 -2.116667,-0.14772 -1.810635,-0.20128 -7.118928,0.7855 -7.303671,1.3577 -0.07997,0.24771 1.566274,0.50048 4.737079,0.72735 4.598956,0.32904 5.002364,0.30437 7.520072,-0.45994 1.976063,-0.59988 3.120824,-0.7531 4.450217,-0.59566 1.159242,0.1373 1.876076,0.0724 2.034703,-0.18429 0.148748,-0.24068 -0.04029,-0.41358 -0.481468,-0.44036 -1.189694,-0.0722 -1.359482,-0.1177 -1.667118,-0.44651 -0.170209,-0.18192 0.102178,-0.21931 0.646962,-0.0888 0.517518,0.12398 0.993768,0.0876 1.058334,-0.0809 0.06456,-0.16846 1.54614,-0.002 3.29239,0.36901 3.502296,0.74491 9.609906,0.74612 10.995804,0.002 0.466658,-0.2505 1.399508,-0.32385 2.3907863,-0.18798 1.791719,0.24558 1.837675,0.62439 0.0824,0.67921 -2.4002893,0.075 -7.1436053,0.60981 -7.6130853,0.85843 -0.284494,0.15065 0.83789,0.44896 2.645833,0.70321 1.72696,0.24285 3.700247,0.55561 4.385088,0.69503 1.2852263,0.26162 6.1119667,-0.65894 7.6619452,-1.4613 1.4212675,-0.73573 1.1806166,-0.0865 -0.3359961,0.90647 -1.7653,1.15578 -4.7036988,1.76863 -7.2430571,1.51067 -1.659858,-0.16861 -1.916553,-0.0991 -2.53414,0.68601 -0.377959,0.4805 -0.737457,0.99985 -0.798887,1.15412 -0.06143,0.15428 -0.544025,0.3864 -1.072433,0.51583 -0.768072,0.18814 -0.919685,0.12834 -0.756007,-0.2982 0.162387,-0.42318 -0.07669,-0.5249 -1.155925,-0.49179 -1.336178,0.0411 -1.341618,0.0466 -0.302327,0.3111 l 1.058333,0.2693 -0.970139,0.0417 c -1.088425,0.0468 -1.132734,0.13709 -0.577032,1.17543 0.367295,0.6863 0.321427,0.72019 -0.698609,0.51618 -0.859497,-0.1719 -1.169948,-0.0722 -1.459523,0.46892 -0.363989,0.68012 -0.375059,0.68001 -1.065283,-0.0102 -0.383607,-0.38362 -0.851513,-0.69748 -1.039791,-0.69748 -0.188281,0 -1.259843,-0.4333 -2.38125,-0.96289 -1.902107,-0.89828 -1.970391,-0.9712 -1.017587,-1.08671 1.136643,-0.13779 3.930537,0.79289 4.896022,1.63093 0.479672,0.41636 0.722549,0.44626 1.040695,0.12811 0.318145,-0.31815 0.295617,-0.4232 -0.09653,-0.45016 -0.28134,-0.0193 -0.114653,-0.15158 0.370417,-0.29385 0.779501,-0.22864 0.697547,-0.28908 -0.705556,-0.52033 -1.701757,-0.28047 -4.509815,-1.19872 -5.158757,-1.68693 -0.217943,-0.16397 -0.624833,-0.21041 -0.904205,-0.10321 -0.632396,0.24268 -1.911173,-1.06778 -1.368972,-1.40288 0.20633,-0.12751 0.728243,0.0155 1.15981,0.31776 1.009111,0.70681 1.466272,0.69957 1.19059,-0.0188 -0.155522,-0.40528 -0.06633,-0.51019 0.310737,-0.3655 0.29088,0.11163 1.328117,0.30897 2.304976,0.43856 0.976856,0.12958 1.876598,0.39821 1.999428,0.59696 0.144261,0.23342 -0.165922,0.28349 -0.876187,0.14144 -1.246791,-0.24936 -1.730096,0.16829 -0.946909,0.81828 0.417954,0.34687 0.758737,0.33851 1.671811,-0.041 1.181167,-0.49095 2.326883,-0.4751 2.86416,0.0396 0.593831,0.56889 4.456296,-0.36873 4.456296,-1.08177 0,-0.40192 -0.721914,-0.59277 -5.344643,-1.41296 -3.462539,-0.61435 -5.147635,-0.73008 -8.408804,-0.57752 -2.243166,0.10494 -4.47161,0.34252 -4.9521,0.52795 -4.38144,1.69091 -4.757928,1.71432 -12.162507,0.75622 -3.069442,-0.39715 -11.548339,-0.47979 -13.663998,-0.13317 -1.543845,0.25293 -3.092946,1.86382 -3.092946,3.21632 0,1.12783 -1.603608,2.65444 -3.416974,3.2529 -1.176296,0.38821 -1.63549,0.36653 -3.221106,-0.1521 -1.718182,-0.56199 -1.955601,-0.56424 -3.350013,-0.0317 -1.502215,0.57371 -1.711671,0.59304 -3.488805,0.3221 z m 52.282452,-2.57117 c -0.69087,-0.44647 -1.15788,-0.44647 -0.881945,0 0.119917,0.19403 0.486474,0.35035 0.814571,0.34738 0.514093,-0.005 0.523406,-0.0527 0.06737,-0.34738 z m -1.655064,1.91898 c -1.913287,-0.89974 -2.648081,-1.5662 -1.726787,-1.5662 0.768618,0 4.440184,1.78441 4.440184,2.15797 0,0.49567 -0.747765,0.33259 -2.713397,-0.59177 z m 78.384227,0.55047 c 0.119917,-0.19403 0.288036,-0.35278 0.373599,-0.35278 0.08556,0 0.155568,0.15875 0.155568,0.35278 0,0.19403 -0.16812,0.35278 -0.373599,0.35278 -0.205479,0 -0.275484,-0.15875 -0.155568,-0.35278 z m 2.293056,-0.17639 c 0,-0.29104 0.15875,-0.52917 0.352778,-0.52917 0.194027,0 0.352777,0.23813 0.352777,0.52917 0,0.29104 -0.15875,0.52917 -0.352777,0.52917 -0.194028,0 -0.352778,-0.23813 -0.352778,-0.52917 z m 17.398745,-0.30766 c -1.199233,-0.21884 -2.310483,-0.53976 -2.469444,-0.71315 -0.168399,-0.18369 0.226286,-0.21559 0.945698,-0.0764 0.679097,0.13135 2.158196,0.33663 3.286887,0.45618 1.300251,0.13772 1.881911,0.32531 1.5875,0.512 -0.537736,0.34098 -0.489391,0.34355 -3.350641,-0.1786 z m 62.329031,-0.55346 c 0,-0.18258 0.15693,-0.42895 0.34873,-0.54749 0.19998,-0.1236 0.25912,0.018 0.13865,0.33195 -0.23452,0.61116 -0.48738,0.72298 -0.48738,0.21554 z m -1.22122,-1.25482 c 0.22754,-1.09271 0.42331,-1.46048 0.642,-1.20605 0.0695,0.0808 -0.0961,0.62324 -0.36794,1.20532 l -0.49428,1.05834 z m 5.45455,0.20134 c 0,-0.6119 1.09356,-2.61788 1.64904,-3.02492 0.26526,-0.19437 0.51868,-0.86874 0.56315,-1.4986 0.0567,-0.80292 0.25729,-1.14541 0.67116,-1.1459 1.0544,-0.001 2.76109,-1.73885 2.76109,-2.81109 0,-0.54108 0.22299,-1.16884 0.49554,-1.39503 1.02327,-0.84925 -0.22568,2.58652 -1.43292,3.94185 -1.46731,1.64729 -1.50962,2.15607 -0.15453,1.85844 0.56361,-0.12379 1.11991,-0.0711 1.23622,0.1171 0.1169,0.18916 -0.45966,0.45128 -1.28934,0.58616 -1.49012,0.24225 -3.44108,1.65238 -3.44108,2.48717 0,0.23099 -0.23812,0.6176 -0.52916,0.85914 -0.38998,0.32365 -0.52917,0.33041 -0.52917,0.0257 z m -3.51656,-0.44583 c -0.006,-0.3281 0.15809,-0.70118 0.36503,-0.82908 0.6218,-0.38429 0.70898,0.0208 0.16049,0.74582 -0.45154,0.59685 -0.51567,0.60701 -0.52552,0.0833 z m -165.541905,-1.52153 c -0.921022,-0.85402 -1.561112,-2.18133 -1.217599,-2.52484 0.09901,-0.099 0.371468,0.19077 0.605462,0.64394 0.233994,0.45319 0.750193,1.18053 1.147103,1.61633 1.005583,1.1041 0.591354,1.30895 -0.534966,0.26457 z m 51.242233,0.54521 c 0.887056,-0.51953 2.546756,-0.5824 2.714882,-0.10283 0.110138,0.31415 -0.33577,0.43788 -1.550497,0.43024 -1.177339,-0.007 -1.537733,-0.10874 -1.164385,-0.32741 z M 9.9281949,152.72648 c -1.3581944,-0.24715 -3.8093578,-0.78845 -5.4470262,-1.20289 -1.637672,-0.41443 -3.93954687,-0.75594 -5.11527757,-0.75892 -1.30192993,-0.003 -1.95378913,-0.12198 -1.66730883,-0.30358 0.6296871,-0.39916 4.3199648,-0.11022 6.9379462,0.54323 3.437784,0.85807 5.5439025,1.19378 7.2319445,1.15275 2.257269,-0.0549 2.373294,-0.0141 1.608267,0.5645 -0.376632,0.28487 -0.773507,0.50362 -0.881944,0.48611 -0.108437,-0.0175 -1.308407,-0.23405 -2.6666011,-0.4812 z M 137.60022,151.5256 c 0.71899,-0.80831 0.91547,-0.91296 0.91547,-0.48761 0,0.14736 -0.35719,0.48735 -0.79375,0.75553 -0.79093,0.48588 -0.79137,0.48493 -0.12172,-0.26792 z m -154.483135,-0.05 c -0.131872,-0.21337 0.356055,-0.35278 1.234722,-0.35278 0.878667,0 1.366594,0.13941 1.234722,0.35278 -0.119916,0.19403 -0.675541,0.35278 -1.234722,0.35278 -0.559181,0 -1.114806,-0.15875 -1.234722,-0.35278 z m 39.507747,-0.57354 c 0.491786,-0.75057 0.51816,-0.9812 0.138984,-1.21554 -0.257383,-0.15907 -0.393188,-0.36357 -0.301794,-0.45443 0.09139,-0.0909 0.560659,0.1546 1.042807,0.54546 l 0.876635,0.71065 -0.827525,0.67009 c -1.17942,0.95504 -1.639608,0.82813 -0.929107,-0.25623 z m -40.507283,0.33835 c -0.129353,-0.12934 -0.235187,-0.39922 -0.235187,-0.59972 0,-0.22105 0.164314,-0.20022 0.417453,0.0529 0.229602,0.2296 0.335435,0.49948 0.235186,0.59972 -0.100249,0.10025 -0.288103,0.0764 -0.417452,-0.0529 z m 43.509256,-0.11759 c 0,-0.19402 0.14938,-0.35277 0.331957,-0.35277 0.182577,0 0.430071,0.15875 0.549988,0.35277 0.119916,0.19403 -0.02946,0.35278 -0.331957,0.35278 -0.302493,0 -0.549988,-0.15875 -0.549988,-0.35278 z m -90.304032,-1.24325 c 0.245434,-0.29573 0.518894,-0.46504 0.607688,-0.37624 0.24465,0.24465 -0.252428,0.91394 -0.678779,0.91394 -0.233925,0 -0.207162,-0.20242 0.07109,-0.5377 z m 200.017917,0.37244 c 0,-0.27259 3.63134,-2.82191 4.65564,-3.26841 1.16683,-0.50863 1.89472,-1.61655 2.19759,-3.34493 0.32329,-1.84491 0.87963,-2.00488 0.65673,-0.18884 -0.26046,2.12213 -0.86427,2.90197 -3.6092,4.66143 -1.32878,0.85172 -2.52129,1.71901 -2.65001,1.9273 -0.22795,0.36882 -1.25075,0.54337 -1.25075,0.21345 z m -114.299996,-2.1391 c 0,-0.74702 1.129852,-2.66814 1.494286,-2.54078 0.560454,0.19587 0.379514,1.29963 -0.346079,2.11114 -0.529339,0.59201 -1.148207,0.82358 -1.148207,0.42964 z m -70.555553,-1.22339 c 0,-0.19403 0.64437,-0.35278 1.431932,-0.35278 0.864786,0 1.345576,0.13973 1.213902,0.35278 -0.119917,0.19403 -0.764286,0.35278 -1.431932,0.35278 -0.667646,0 -1.213902,-0.15875 -1.213902,-0.35278 z m 84.019606,-0.17012 c -1.092772,-0.60212 -1.648001,-1.18019 -1.385591,-1.4426 0.20078,-0.20078 3.44376,1.51559 3.44376,1.82263 0,0.29178 -1.261738,0.0588 -2.058169,-0.38003 z m -79.786272,-0.0787 c 0.485069,-0.084 1.715381,-0.3648 2.734027,-0.62402 1.018646,-0.25923 1.852084,-0.34956 1.852084,-0.20073 0,0.31058 -3.631918,1.09749 -4.733142,1.0255 -0.591062,-0.0386 -0.562278,-0.0779 0.147031,-0.20075 z m 66.831172,-2.01542 c -0.807696,-0.5906 -0.388229,-1.22994 0.457108,-0.69672 0.660605,0.4167 1.013848,1.19704 0.541874,1.19704 -0.173112,0 -0.622653,-0.22514 -0.998982,-0.50032 z M 10.667049,143.7684 c -0.113249,-0.18324 0.105463,-0.70689 0.486022,-1.16366 0.681553,-0.81804 0.692104,-0.81924 0.703665,-0.0799 0.01323,0.84682 -0.866535,1.76647 -1.189687,1.2436 z m 4.034864,-0.0989 c -0.0062,-0.31579 0.226906,-0.77179 0.517948,-1.01333 0.678233,-0.56288 0.68537,0.0114 0.01122,0.90271 -0.43513,0.5753 -0.51974,0.59298 -0.529166,0.11062 z m 163.234477,-1.09217 c -1.281,-0.66407 -1.48184,-1.33227 -0.40042,-1.33227 0.86415,0 2.66267,1.06919 2.51975,1.49795 -0.20553,0.61659 -0.6822,0.57933 -2.11933,-0.16568 z m -180.6493971,0.19643 c -0.5394466,-0.53945 -0.1126384,-0.65909 2.14606363,-0.60158 2.83567347,0.0722 3.00210697,0.11569 1.85208317,0.48399 -1.10760927,0.35472 -3.6852117,0.43053 -3.9981468,0.11759 z m 5.4092579,-0.29398 c 0,-0.36335 0.2312106,-0.53638 0.6173611,-0.46201 0.7435991,0.1432 0.6967114,0.7693 -0.069561,0.92885 -0.3196096,0.0666 -0.5478004,-0.12792 -0.5478001,-0.46684 z m 2.8206064,0.17539 c -0.6770511,-0.41844 -0.2533509,-0.79014 0.7350936,-0.64487 0.6695969,0.0984 0.7139622,0.18266 0.2830442,0.53749 -0.3192463,0.26288 -0.7013293,0.30318 -1.0181378,0.10738 z m 13.5751208,-1.08392 c -0.264354,-0.83291 -0.04007,-1.21238 0.514135,-0.86987 0.4627,0.28597 0.501509,1.60201 0.04724,1.60201 -0.180954,0 -0.433575,-0.32946 -0.561379,-0.73214 z m -74.604059,-0.46289 c 0,-0.33768 0.53903,-0.54599 1.675695,-0.64757 0.921632,-0.0824 1.744486,-0.0957 1.828564,-0.0296 0.357212,0.28066 -0.612335,0.73975 -2.004953,0.94936 -1.162174,0.17492 -1.499306,0.11372 -1.499306,-0.27215 z m 67.733331,-0.48924 c 0,-1.07654 -0.420059,-1.19773 -1.296744,-0.37413 -0.681651,0.64038 -0.819922,0.67276 -0.819922,0.19203 0,-0.75514 1.094553,-1.32536 2.059633,-1.07299 0.783014,0.20477 1.048677,1.3098 0.409811,1.70464 -0.194028,0.11991 -0.352778,-0.0824 -0.352778,-0.44955 z m 4.586111,0.27787 c 0,-0.29254 0.85912,-0.71027 1.460782,-0.71027 0.189611,0 0.258477,0.13959 0.153035,0.3102 -0.258699,0.41858 -1.613817,0.75452 -1.613817,0.40007 z m -23.2833321,-0.1546 c 0,-0.50295 6.64423763,-3.55402 6.98891213,-3.20935 0.2947387,0.29474 -0.3247355,0.823 -1.2322034,1.05075 -0.52400203,0.13152 -1.89116753,0.70473 -3.03814683,1.27381 -1.9779685,0.98137 -2.7185619,1.22241 -2.7185619,0.88479 z m 12.6999995,-0.001 c 0,-0.0832 0.2509238,-0.40212 0.5576076,-0.7088 0.6825791,-0.68258 1.4248659,-0.35763 0.8274367,0.36223 -0.3768866,0.45412 -1.3850443,0.70638 -1.3850443,0.34657 z m 7.4083326,-0.13758 c 0,-0.42635 0.66929,-0.92343 0.913942,-0.67878 0.08879,0.0888 -0.08052,0.36226 -0.376249,0.60769 -0.335276,0.27837 -0.537693,0.30513 -0.537693,0.0712 z m 1.873289,-0.56901 c -0.230872,-0.26299 -0.324852,-0.57307 -0.208848,-0.68907 0.251114,-0.25112 1.157781,0.44153 1.157781,0.88448 0,0.45102 -0.465628,0.35513 -0.948933,-0.19541 z m -25.866724,-1.08278 c -0.100305,-2.95996 0.01637,-4.56265 0.35694,-4.90323 0.2679283,-0.26792 0.3524923,0.18364 0.2916493,1.55739 -0.04713,1.0641 0.0303,2.17741 0.172088,2.47402 0.146407,0.3063 0.03256,0.83973 -0.263521,1.23472 -0.4994423,0.66628 -0.5227923,0.65108 -0.5571563,-0.3629 z M -21.9367,136.90081 c -0.75776,-0.8066 -1.016021,-1.65506 -0.502465,-1.65073 0.145521,0.001 0.535012,0.47748 0.865537,1.05834 0.790984,1.39006 1.441319,1.36895 0.746311,-0.0242 -0.650751,-1.30447 -0.503378,-1.52026 0.720475,-1.05495 0.926447,0.35223 1.287773,1.07693 0.536949,1.07693 -0.220239,0 -0.312572,0.31109 -0.209416,0.70556 0.265211,1.01417 -1.169726,0.94039 -2.157391,-0.11093 z m 33.452395,-2.35895 c -0.470369,-0.31319 -0.470369,-0.39094 0,-0.69972 0.876826,-0.5756 1.829907,-0.43235 1.69751,0.25514 -0.139736,0.72559 -0.954842,0.93907 -1.69751,0.44458 z M 148.96673,121.20809 c -0.0957,-0.15478 -0.0281,-0.51197 0.15016,-0.79375 0.25305,-0.39999 0.32529,-0.3383 0.32951,0.28143 0.006,0.81599 -0.17368,1.00742 -0.47967,0.51232 z m 0.99778,-2.63532 c -0.13215,-0.34304 -0.0667,-1.05741 0.1455,-1.5875 0.21217,-0.53009 0.36896,-1.44005 0.34841,-2.02214 -0.0738,-2.09002 0.0604,-2.87448 0.60704,-3.54854 0.30543,-0.37663 0.43708,-0.45767 0.29256,-0.18007 -0.14452,0.27759 -0.32358,1.93412 -0.3979,3.68118 -0.1424,3.34736 -0.54508,4.82647 -0.99561,3.65707 z m -6.84466,-3.16866 c -0.72289,-2.05278 -1.2339,-8.05192 -0.81887,-9.6132 0.36243,-1.36336 0.37784,-1.3186 0.45568,1.32292 0.12471,4.23258 0.5293,7.40424 1.07447,8.42289 0.41238,0.77055 0.41496,1.01391 0.0107,1.01391 -0.17505,0 -0.49996,-0.51594 -0.72202,-1.14652 z m 2.62324,-3.19056 c -0.13981,-1.49192 -0.0714,-3.69966 0.16242,-5.24216 l 0.40393,-2.66478 -1.25104,-1.25104 c -0.68808,-0.68808 -1.24603,-1.46536 -1.2399,-1.7273 0.006,-0.27344 0.36653,-0.0727 0.84566,0.47138 0.96154,1.09187 1.47017,0.93602 0.7136,-0.21865 -0.74762,-1.14101 -1.0359,-4.792038 -0.53534,-6.779948 0.42435,-1.68525 0.42302,-1.69 -0.74595,-2.65957 -0.64409,-0.53422 -1.67719,-1.21662 -2.29578,-1.51645 -0.6186,-0.29983 -1.21574,-0.8319 -1.32698,-1.18238 -0.11124,-0.35048 -0.64232,-1.05885 -1.18019,-1.57416 l -0.97793,-0.93692 -2.40198,0.78094 c -2.36315,0.76832 -2.41001,0.76997 -2.89856,0.10183 -0.27313,-0.37351 -0.49659,-1.11781 -0.49659,-1.65399 0,-0.58324 -0.37408,-1.34895 -0.93122,-1.90609 -0.83695,-0.83695 -1.01783,-0.88486 -1.78683,-0.47331 -1.17506,0.62888 -1.58985,-0.0524 -1.4008,-2.30062 0.11724,-1.39424 -0.0556,-2.1386 -0.88477,-3.80974 -0.69325,-1.39725 -0.97654,-2.41918 -0.86567,-3.12271 0.10436,-0.66216 -0.0367,-1.24724 -0.38443,-1.59502 -0.49714,-0.49714 -0.47756,-0.69277 0.2064,-2.06229 0.41562,-0.83218 0.75566,-1.78136 0.75566,-2.109289 0,-0.726289 1.00883,-2.755736 1.54853,-3.115135 0.21546,-0.143483 0.59843,-0.184989 0.85104,-0.09224 0.25261,0.09275 0.36212,0.01141 0.24335,-0.180755 -0.11876,-0.192168 0.19279,-0.504793 0.69233,-0.69472 0.49955,-0.189928 1.38332,-0.69654 1.96393,-1.125806 0.79304,-0.586318 1.15617,-0.679973 1.45968,-0.376462 0.30352,0.303512 0.17821,0.50691 -0.50366,0.817595 -0.54183,0.246874 -0.83264,0.609165 -0.72148,0.898833 0.10705,0.278974 -0.0388,0.485262 -0.34318,0.485262 -0.55886,0 -3.78164,4.443557 -3.78025,5.212207 3.6e-4,0.24733 -0.3787,0.59399 -0.84256,0.77035 -0.83615,0.31791 -0.83964,0.34053 -0.40725,2.64142 0.23986,1.27642 0.52641,2.41106 0.63677,2.52142 0.11036,0.11036 0.53781,0.0202 0.9499,-0.20033 0.41209,-0.22054 1.41787,-0.35247 2.23508,-0.29316 1.20741,0.0876 1.46554,0.22726 1.37756,0.74525 -0.13309,0.78354 -1.31492,2.0084 -1.93785,2.0084 -0.25223,0 -0.63119,-0.17258 -0.84212,-0.38352 -0.64812,-0.64811 -0.885,0.23707 -0.62351,2.32994 0.13291,1.06377 0.29526,1.93413 0.36079,1.93413 0.51503,0 1.85554,-0.87113 1.70796,-1.10992 -0.10238,-0.16565 0.0614,-0.30119 0.36384,-0.30119 0.65278,0 0.72308,0.74413 0.12665,1.34056 -0.58374,0.58375 -0.0255,1.04592 1.48167,1.22663 1.09395,0.13116 1.14423,0.17894 0.44097,0.41907 -0.81945,0.27981 -1.02192,0.71164 -0.48828,1.04145 0.16801,0.10383 0.22528,0.60823 0.12728,1.12089 -0.1951,1.02059 -0.28101,1.01411 3.89364,0.29383 1.52796,-0.26363 2.05794,0.0644 3.31074,2.04892 0.46112,0.73045 1.09137,1.3281 1.40056,1.3281 0.30919,0 1.1882,0.49582 1.95335,1.10183 1.336,1.05814 1.41102,1.07562 1.89163,0.44097 0.65513,-0.86511 0.64573,-4.46725 -0.0164,-6.3053 -0.61271,-1.70073 -0.60214,-1.5875 -0.14822,-1.5875 0.69939,0 1.45508,2.53122 1.33417,4.46887 -0.0646,1.03515 -0.0148,1.88187 0.11059,1.88161 0.28258,-7.1e-4 2.23147,-2.19964 2.71472,-3.06314 0.19564,-0.3496 0.4651,-0.52625 0.59878,-0.39257 0.13369,0.13369 -0.0925,0.66971 -0.50271,1.19117 -0.41017,0.52145 -0.74577,1.1099 -0.74577,1.30765 0,0.19776 -0.60959,0.88134 -1.35463,1.51907 -1.01743,0.87088 -1.54432,1.73735 -2.11667,3.48083 -0.41912,1.27673 -0.76032,2.67518 -0.75822,3.10767 0.005,0.93017 0.83562,3.775088 1.42402,4.874538 0.49407,0.92316 0.51887,4.45125 0.0469,6.67152 -0.18561,0.87312 -0.22677,2.50966 -0.0915,3.63676 0.13529,1.12709 0.13117,2.12022 -0.009,2.20695 -0.14034,0.0867 -0.36385,-1.00212 -0.49669,-2.41968 z M 130.43065,77.392302 c 0.17816,0 0.32393,-0.16979 0.32393,-0.37731 0,-0.54834 -1.50236,-0.24247 -1.6962,0.34533 -0.11508,0.34896 0.0168,0.42784 0.44219,0.26459 0.33339,-0.12794 0.75192,-0.23261 0.93008,-0.23261 z m -1.01428,-9.677466 c 0.82723,-0.579418 0.65962,-1.127074 -0.23937,-0.782099 -0.63508,0.243701 -1.25907,1.689247 -1.21283,2.809615 0.0237,0.57531 0.11473,0.48403 0.35877,-0.35993 0.17982,-0.621901 0.67186,-1.372312 1.09343,-1.667586 z m 40.62907,43.416764 c 1.52323,-1.43019 1.81492,-1.5772 1.32222,-0.66638 -0.18368,0.33955 -0.86395,0.91723 -1.51172,1.28374 l -1.17775,0.66638 z m -4.15441,-0.0756 c 0.66049,-2.6638 0.78474,-2.86761 0.81656,-1.33952 0.0191,0.92056 -0.17246,1.6244 -0.52103,1.91369 -0.48553,0.40294 -0.52081,0.33439 -0.29553,-0.57417 z m -14.66433,-0.51618 c -0.006,-0.1045 0.30649,-0.81275 0.69454,-1.5739 0.38806,-0.76115 0.70556,-1.81722 0.70556,-2.34682 0,-0.52961 0.18376,-1.07649 0.40834,-1.2153 0.28631,-0.17694 0.34047,10e-4 0.18121,0.59654 -0.12493,0.4669 -0.23012,1.08704 -0.23377,1.37808 -0.006,0.48654 -1.73093,3.59204 -1.75588,3.1614 z m 10.21954,-1.33008 c 0,-1.58822 0.52045,-2.0166 0.78278,-0.6443 0.0877,0.45882 -0.0525,1.12416 -0.31165,1.47853 -0.42053,0.57511 -0.47113,0.48552 -0.47113,-0.83423 z m 14.72847,-1.20321 c -1.27373,-0.73828 -1.70682,-1.33366 -0.97014,-1.33366 0.19403,0 0.35278,0.13949 0.35278,0.30997 0,0.17049 0.47966,0.50866 1.06591,0.7515 1.03442,0.42847 1.73779,1.0635 1.15977,1.04709 -0.15697,-0.004 -0.88071,-0.35316 -1.60832,-0.7749 z m -10.23626,-3.24467 c -2.32086,-0.62427 -2.56524,-1.03004 -0.43526,-0.72271 1.92546,0.27782 4.12856,1.2026 2.82222,1.18467 -0.38806,-0.005 -1.46219,-0.21321 -2.38696,-0.46196 z M 149.09902,104.039 c 0,-0.44966 1.22665,-2.6578 1.47645,-2.6578 0.48216,0 0.32034,0.94463 -0.24173,1.41111 -0.29104,0.24154 -0.52917,0.65786 -0.52917,0.92514 0,0.26728 -0.15874,0.48597 -0.35277,0.48597 -0.19403,0 -0.35278,-0.074 -0.35278,-0.16442 z m -7.75329,-2.69653 c -1.0443,-1.959298 -1.13758,-2.375888 -0.96912,-4.327818 0.18151,-2.10299 1.6407,-6.10466 1.92189,-5.27056 0.0773,0.22938 -0.10493,0.89184 -0.40501,1.47214 -0.30008,0.5803 -0.64704,2.1465 -0.77102,3.48045 -0.2019,2.17235 -0.12503,2.63757 0.73684,4.459408 1.30115,2.7504 0.92566,2.88667 -0.51358,0.18638 z m 20.10051,1.80262 c 0,-0.19403 0.15875,-0.35278 0.35278,-0.35278 0.19403,0 0.35278,0.15875 0.35278,0.35278 0,0.19403 -0.15875,0.35278 -0.35278,0.35278 -0.19403,0 -0.35278,-0.15875 -0.35278,-0.35278 z m -9.69642,-3.08681 c 0.14127,-0.339548 0.33752,-1.374728 0.43612,-2.300408 0.22103,-2.07517 0.79363,-2.56829 0.79363,-0.68347 0,1.61933 -0.62221,3.601238 -1.13058,3.601238 -0.20172,0 -0.2447,-0.26755 -0.0992,-0.61736 z m 18.60373,-0.167858 c -0.60086,-0.73904 -1.85175,-3.08961 -1.85175,-3.47966 0,-0.726 0.7396,0.1222 1.61792,1.85548 0.86746,1.71185 0.98847,2.552348 0.23383,1.62418 z m -12.43509,-0.97866 c 0,-0.19403 0.2475,-0.35278 0.54999,-0.35278 0.30249,0 0.45187,0.15875 0.33196,0.35278 -0.11992,0.19402 -0.36741,0.35277 -0.54999,0.35277 -0.18258,0 -0.33196,-0.15875 -0.33196,-0.35277 z m 1.76389,-1.2458 c 0,-0.5687 0.93895,-1.10785 1.30021,-0.74659 0.25126,0.25126 -0.54594,1.28683 -0.99062,1.28683 -0.17028,0 -0.30959,-0.24311 -0.30959,-0.54024 z m 3.72181,-3.31535 c 0.18432,-0.1803 0.81139,-0.42924 1.39347,-0.5532 1.00619,-0.21429 1.0246,-0.19814 0.37355,0.32781 -0.73149,0.59093 -2.35205,0.79763 -1.76702,0.22539 z m -0.19403,-3.79387 c -3.20667,-3.14226 -5.79944,-4.68111 -8.37847,-4.97275 -0.82462,-0.0932 -1.49931,-0.32568 -1.49931,-0.5165 0,-0.70683 3.40165,0.17376 5.82084,1.50685 2.41881,1.33289 7.58472,5.86043 7.58472,6.64746 0,0.69042 -0.45196,0.34898 -3.52778,-2.66506 z m -20.91932,-2.14012 c -0.96746,-1.56112 -1.81719,-3.57484 -1.60008,-3.79194 0.0843,-0.0843 0.60319,0.79387 1.15301,1.95159 0.54982,1.15771 1.21656,2.10493 1.48164,2.10493 0.26509,0 0.48197,0.23812 0.48197,0.52917 0,0.92374 -0.66925,0.57346 -1.51654,-0.79375 z m -5.34043,-3.33246 c 0.56988,-0.62018 1.23458,-1.3459 1.47711,-1.6127 0.37417,-0.41161 0.44097,-0.4116 0.44097,6e-5 0,0.52826 -2.13141,2.74024 -2.64043,2.74024 -0.17258,0 0.15247,-0.50742 0.72235,-1.1276 z m 13.47156,-0.87947 c -0.33955,-0.0887 -0.61737,-0.31403 -0.61737,-0.50066 0,-0.19542 0.33662,-0.16419 0.79375,0.0737 1.32302,0.68835 1.27437,0.80613 -0.17638,0.427 z m -10.39107,-0.99804 c -0.62351,-1.12617 -0.95258,-3.34489 -0.49611,-3.34489 0.21562,0 0.39204,0.4445 0.39204,0.98777 0,0.54328 0.17363,1.16142 0.38586,1.37364 0.21222,0.21223 0.32434,0.68054 0.24915,1.0407 -0.12909,0.61831 -0.1587,0.61512 -0.53094,-0.0572 z m 3.07093,-4.05045 c -0.47037,-0.30398 -0.47037,-0.34197 0,-0.34197 0.29104,0 0.76729,0.15388 1.05833,0.34197 0.47037,0.30398 0.47037,0.34197 0,0.34197 -0.29104,0 -0.76729,-0.15388 -1.05833,-0.34197 z m -3.33988,-0.33416 c -0.12625,-0.20427 -0.0639,-0.3714 0.13864,-0.3714 0.54527,0 0.11401,-3.4904 -0.50813,-4.11254 -0.28521,-0.2852 -0.69912,-0.40696 -0.9198,-0.27056 -0.24487,0.15133 -0.33765,0.057 -0.23806,-0.2421 0.26551,-0.79733 1.11968,-0.7168 1.75548,0.16552 0.71387,0.99065 1.02607,4.8423 0.41005,5.05884 -0.22476,0.079 -0.51194,-0.0235 -0.63818,-0.22776 z m 4.92738,-0.3714 c -0.11992,-0.19402 -0.0593,-0.35277 0.13475,-0.35277 0.19403,0 0.45089,0.15875 0.5708,0.35277 0.11992,0.19403 0.0593,0.35278 -0.13475,0.35278 -0.19403,0 -0.45089,-0.15875 -0.5708,-0.35278 z m -0.88195,-1.43193 c 0,-0.20547 0.15875,-0.27548 0.35278,-0.15557 0.19403,0.11992 0.35278,0.28804 0.35278,0.3736 0,0.0856 -0.15875,0.15557 -0.35278,0.15557 -0.19403,0 -0.35278,-0.16812 -0.35278,-0.3736 z m -7.97983,-0.49145 c -0.10812,-0.28175 -0.10083,-0.6672 0.0162,-0.85655 0.11703,-0.18935 -0.119,-0.44957 -0.52449,-0.57827 -0.40549,-0.1287 -0.65952,-0.31174 -0.5645,-0.40675 0.27901,-0.27902 1.68192,0.59646 1.47981,0.92347 -0.10133,0.16396 0.053,0.38914 0.3429,0.50039 0.28993,0.11126 0.52714,0.36602 0.52714,0.56613 0,0.55563 -1.05389,0.43314 -1.27705,-0.14842 z m 3.21733,0.1595 c 0.11992,-0.19403 0.28804,-0.35278 0.3736,-0.35278 0.0856,0 0.15557,0.15875 0.15557,0.35278 0,0.19402 -0.16812,0.35277 -0.3736,0.35277 -0.20548,0 -0.27548,-0.15875 -0.15557,-0.35277 z m 2.55764,0.11914 c 0.24254,-0.0979 0.63941,-0.0979 0.88195,0 0.24253,0.0979 0.0441,0.17793 -0.44098,0.17793 -0.48507,0 -0.6835,-0.0801 -0.44097,-0.17793 z m 2.05239,-1.35387 c -0.51797,-0.67909 -0.80464,-1.23472 -0.63704,-1.23472 0.35642,0 2.20062,1.86393 2.20062,2.22417 0,0.59002 -0.69368,0.15105 -1.56358,-0.98945 z m -7.25586,-0.66781 c 0,-0.0763 0.24637,-0.23319 0.54749,-0.34874 0.31394,-0.12047 0.45555,-0.0613 0.33196,0.13865 -0.20718,0.33521 -0.87945,0.49581 -0.87945,0.21009 z m -1.05126,-1.08755 c -0.27825,-0.33527 -0.30502,-0.53769 -0.0711,-0.53769 0.42635,0 0.92343,0.66929 0.67878,0.91394 -0.0888,0.0888 -0.36225,-0.0805 -0.60769,-0.37625 z m 5.28459,0.0292 c 0,-0.0763 0.24637,-0.23319 0.54749,-0.34874 0.31395,-0.12047 0.45555,-0.0613 0.33196,0.13865 -0.20717,0.33521 -0.87945,0.49581 -0.87945,0.21009 z m -4.85069,-1.00492 c -0.63059,-0.3769 -1.14653,-0.83499 -1.14653,-1.01799 0,-0.3577 0.73422,-0.0276 1.93972,0.87214 1.08403,0.80906 0.49701,0.91699 -0.79319,0.14585 z m 5.73514,-0.26351 c -0.1236,-0.19997 0.018,-0.25911 0.33195,-0.13864 0.61116,0.23452 0.72298,0.48738 0.21554,0.48738 -0.18258,0 -0.42895,-0.15693 -0.54749,-0.34874 z m 0.0475,-0.89303 c -0.35627,-0.26051 -0.87045,-0.3882 -1.14264,-0.28376 -0.27218,0.10445 -0.49487,0.0142 -0.49487,-0.20061 0,-0.21479 -0.35719,-0.39296 -0.79375,-0.39593 -0.5856,-0.004 -0.66701,-0.0857 -0.31045,-0.31156 0.39023,-0.2472 0.35626,-0.37996 -0.17639,-0.68942 -0.49684,-0.28866 -0.52906,-0.38857 -0.13052,-0.40473 0.41862,-0.017 0.4002,-0.0966 -0.0882,-0.381032 -0.89896,-0.5236 -0.77123,-1.12646 0.17504,-0.826125 0.94052,0.29851 1.71522,1.217777 1.513,1.795327 -0.0793,0.22648 0.0758,0.4962 0.34474,0.59939 0.31938,0.12256 0.4209,0.0104 0.29276,-0.32358 -0.29148,-0.7596 -0.011,-0.62721 1.07697,0.50844 1.02858,1.0736 0.83999,1.72208 -0.26569,0.91359 z m -12.12668,-1.33377 c 0.0776,-0.23269 0.32623,-0.44291 0.55259,-0.46717 0.22637,-0.0243 0.57033,-0.0639 0.76436,-0.0882 0.19402,-0.0243 0.35277,-0.21983 0.35277,-0.43461 0,-0.21479 -0.24179,-0.297739 -0.53733,-0.18433 -0.42203,0.16195 -0.46556,0.0721 -0.20289,-0.41871 0.18394,-0.343694 1.1798,-0.989244 2.21302,-1.434555 1.03323,-0.445312 2.4739,-1.117775 3.20151,-1.494362 0.7276,-0.376588 1.32292,-0.526109 1.32292,-0.332268 0,0.193841 -0.87081,0.778829 -1.93512,1.299973 -1.06432,0.521145 -2.19382,1.233395 -2.51001,1.582777 -0.54631,0.603663 -0.50711,0.624964 0.78859,0.428505 0.74991,-0.113705 1.52223,-0.362654 1.71626,-0.55322 0.23161,-0.227476 0.065,-0.259299 -0.48515,-0.09265 -0.57295,0.173562 -0.76178,0.130615 -0.59712,-0.135807 0.13245,-0.214302 0.87022,-0.490286 1.6395,-0.613299 0.76928,-0.123012 1.47668,-0.349861 1.57201,-0.504108 0.0953,-0.154247 0.68608,-0.133395 1.31277,0.04634 1.39482,0.400029 1.32049,0.401492 1.32049,-0.02599 0,-0.194028 -0.2475,-0.352778 -0.54999,-0.352778 -0.30249,0 -0.45161,-0.159179 -0.33137,-0.353732 0.14614,-0.236457 0.43775,-0.236457 0.87958,0 0.36352,0.194553 0.97952,0.353732 1.36888,0.353732 0.38936,0 0.82035,0.181902 0.95775,0.404228 0.17582,0.284482 -0.027,0.334743 -0.68474,0.169668 -0.78266,-0.196438 -0.93456,-0.117322 -0.93456,0.486775 0,0.685221 -0.0521,0.694389 -1.04081,0.18311 -1.32495,-0.685159 -2.13419,-0.686046 -2.13419,-0.0023 0,0.403502 -0.23087,0.477942 -0.93456,0.301328 -0.66448,-0.166774 -0.86134,-0.116078 -0.68118,0.175422 0.13936,0.22549 0.40116,0.318649 0.58179,0.207019 0.18062,-0.111629 0.3284,-0.03484 0.3284,0.170635 0,0.205478 -0.38899,0.373597 -0.86442,0.373597 -0.47543,0 -1.02815,0.27781 -1.22826,0.61736 -0.31511,0.53465 -0.40986,0.54711 -0.70722,0.0931 -0.29314,-0.44762 -0.51338,-0.45658 -1.50576,-0.0613 -2.30859,0.91961 -3.15816,1.10482 -3.00851,0.65587 z m 5.71715,0.0907 c -0.11468,-0.18556 0.11836,-0.33737 0.51786,-0.33737 0.85181,0 0.93774,0.19618 0.20851,0.47601 -0.28483,0.1093 -0.6117,0.0469 -0.72637,-0.13864 z m 1.9498,0.0154 c 0,-0.19403 0.15875,-0.35278 0.35277,-0.35278 0.19403,0 0.35278,0.15875 0.35278,0.35278 0,0.19402 -0.15875,0.35277 -0.35278,0.35277 -0.19402,0 -0.35277,-0.15875 -0.35277,-0.35277 z m 5.82083,-2.268676 c -0.55207,-0.422636 -0.60505,-0.606519 -0.24353,-0.845258 0.34995,-0.231106 0.23383,-0.454628 -0.47869,-0.921492 -0.71861,-0.470854 -0.8426,-0.71273 -0.52518,-1.024504 0.31573,-0.310105 0.57001,-0.219179 1.0587,0.378577 0.53314,0.652132 0.71198,0.703786 1.04547,0.301959 0.30756,-0.370584 0.26888,-0.618174 -0.16424,-1.05129 -0.64422,-0.644222 -1.42743,-0.737083 -1.75442,-0.208009 -0.12187,0.197192 -0.37632,0.262901 -0.56544,0.146018 -0.18912,-0.116883 -0.57886,-0.01748 -0.86609,0.220905 -0.28724,0.238381 -0.63722,0.318443 -0.77774,0.177917 -0.14053,-0.140527 0.0352,-0.468048 0.39043,-0.727825 0.62161,-0.454537 0.61923,-0.48661 -0.0632,-0.851836 -0.78219,-0.418611 -1.5324,-0.234333 -2.9021,0.712849 -0.62327,0.431012 -1.28561,0.568258 -2.11667,0.438605 -1.58651,-0.247512 -1.78161,-0.475166 -0.4072,-0.475166 0.60296,0 1.19013,-0.151816 1.30481,-0.33737 0.11468,-0.185554 0.40642,-0.261426 0.64831,-0.168605 0.24188,0.09282 0.75274,-0.08425 1.13522,-0.393496 0.66739,-0.539589 0.65276,-0.554472 -0.3629,-0.369055 -0.58208,0.106264 -1.43677,0.300478 -1.89931,0.431585 -0.5873,0.166472 -0.79737,0.107547 -0.6964,-0.195347 0.16211,-0.486329 3.58702,-1.760645 4.77975,-1.778417 0.42512,-0.0063 0.86838,0.142919 0.98504,0.331674 0.11666,0.188755 0.81968,0.506794 1.56226,0.706752 1.76087,0.474152 3.20616,1.632177 3.20616,2.568897 0,0.409975 0.34518,1.112828 0.76705,1.561895 0.87331,0.92959 0.47944,1.085411 -0.68391,0.270569 -0.70343,-0.492705 -0.75898,-0.492705 -0.56992,0 0.13296,0.346464 0.0118,0.545918 -0.33155,0.545918 -0.29757,0 -0.59237,0.246081 -0.65511,0.546846 -0.10253,0.491614 -0.18532,0.492291 -0.81961,0.0067 z m -1.11369,-4.240665 c 0.21412,-0.558005 -1.51083,-1.604551 -2.64468,-1.604551 -1.2896,0 -0.61722,0.630562 0.91783,0.860758 1.1688,0.175272 1.51923,0.365521 1.37337,0.745611 -0.1077,0.280664 -0.11644,0.510297 -0.0194,0.510297 0.097,0 0.26482,-0.230452 0.37291,-0.512115 z m -8.5877,2.137359 c 0,-0.07625 0.24637,-0.233187 0.54749,-0.348737 0.31394,-0.120473 0.45555,-0.06133 0.33196,0.138645 -0.20718,0.335211 -0.87945,0.495811 -0.87945,0.210092 z m 4.85069,-1.153326 c 0.24254,-0.09786 0.63941,-0.09786 0.88195,0 0.24253,0.09786 0.0441,0.177936 -0.44097,0.177936 -0.48507,0 -0.68351,-0.08007 -0.44098,-0.177936 z"
       style="fill:#000000;stroke-width:0.35277778" />
  </g>
</svg>
