<?xml version="1.0" encoding="UTF-8" standalone="no"?>
<svg
   xmlns:dc="http://purl.org/dc/elements/1.1/"
   xmlns:cc="http://creativecommons.org/ns#"
   xmlns:rdf="http://www.w3.org/1999/02/22-rdf-syntax-ns#"
   xmlns:svg="http://www.w3.org/2000/svg"
   xmlns="http://www.w3.org/2000/svg"
   id="svg8"
   version="1.1"
   viewBox="0 0 97.467448 117.92554"
   height="117.92555mm"
   width="97.467438mm">
  <defs
     id="defs2" />
  <metadata
     id="metadata5">
    <rdf:RDF>
      <cc:Work
         rdf:about="">
        <dc:format>image/svg+xml</dc:format>
        <dc:type
           rdf:resource="http://purl.org/dc/dcmitype/StillImage" />
        <dc:title></dc:title>
      </cc:Work>
    </rdf:RDF>
  </metadata>
  <g
     transform="translate(-20.665611,14.175077)"
     id="layer1">
    <path
       id="path5932"
       d="m 37.588607,103.48858 c -0.106693,-0.17263 -0.107367,-3.885371 -0.0015,-8.25053 l 0.192491,-7.936653 -0.872099,-0.166712 c -0.479655,-0.09169 -2.097122,-0.202481 -3.594373,-0.246201 -2.987521,-0.08723 -3.835043,-0.433888 -4.400944,-1.800094 -0.287728,-0.694637 -0.246534,-1.21581 0.176036,-2.22716 0.848813,-2.031499 1.936325,-2.237497 7.587288,-1.437203 l 1.234722,0.174862 -0.07343,-3.776427 c -0.04039,-2.077032 -0.238823,-3.941819 -0.440972,-4.143967 -0.202164,-0.202149 -0.367558,-0.932604 -0.367558,-1.623237 0,-0.838171 -0.216276,-1.390763 -0.650447,-1.661908 -1.211293,-0.756464 -1.860313,-2.764433 -1.835745,-5.679521 0.05013,-5.948002 0.03285,-6.094465 -0.667406,-5.657148 -0.790097,0.493424 -1.926044,0.101576 -1.666474,-0.574855 0.386643,-1.007572 -0.856344,-1.357217 -6.035164,-1.697661 -3.056605,-0.200936 -5.296788,-0.502607 -5.440557,-0.732649 -0.274138,-0.438644 0.357431,-1.377474 0.75949,-1.128988 0.291972,0.180449 13.27996,1.713713 19.328664,2.281798 11.531031,1.082975 17.419819,1.66303 26.899307,2.649623 2.813403,0.292809 6.067778,0.618468 7.231945,0.723691 1.164167,0.10522 2.831042,0.269424 3.704167,0.364896 4.620751,0.505255 30.769832,2.684029 34.484032,2.873248 2.37684,0.121091 4.32152,0.366593 4.32152,0.54556 0,0.289772 -6.27379,0.131883 -10.40694,-0.261909 -0.77611,-0.07394 -5.45924,-0.388571 -10.406944,-0.69917 -4.947709,-0.3106 -9.858429,-0.716009 -10.912709,-0.90091 -2.651809,-0.465074 -3.198403,-0.42515 -3.198403,0.233602 0,0.807636 -2.357949,2.866482 -3.844975,3.357245 -0.689356,0.227507 -1.733433,0.706406 -2.320174,1.064215 -1.273912,0.776869 -2.62134,0.836654 -3.550119,0.157515 -0.650131,-0.475389 -0.653154,-0.544019 -0.07386,-1.675695 0.332221,-0.649005 1.110361,-1.774599 1.7292,-2.501321 0.618839,-0.726726 1.024452,-1.422026 0.901365,-1.545114 C 75.254974,61.466714 73.600608,61.231228 71.701694,61.066506 65.53977,60.531977 60.206542,60.031844 56.783843,59.667562 54.940579,59.471379 51.229587,59.094552 48.537195,58.83017 l -4.89526,-0.480699 -1.001879,1.024908 c -1.1827,1.209887 -1.575203,1.270032 -2.083992,0.319352 -0.207681,-0.388056 -0.508654,-0.705556 -0.668829,-0.705556 -0.364539,0 -0.861981,3.098603 -0.894283,5.570556 -0.02268,1.735941 0.0686,1.945523 1.306048,2.998611 1.325066,1.12765 2.020953,2.690964 2.020953,4.540077 0,0.518689 -0.169114,0.999444 -0.375808,1.068341 -0.233144,0.07771 -0.400546,1.736457 -0.440972,4.369481 l -0.06516,4.244213 7.937501,0.796527 c 4.365625,0.43809 11.509376,1.18842 15.875001,1.6674 4.365625,0.478981 8.73125,0.948274 9.701389,1.042875 0.970139,0.0946 2.240139,0.247918 2.822223,0.340706 0.582083,0.09279 3.439583,0.404795 6.35,0.693349 2.910417,0.288551 6.720417,0.69251 8.466667,0.897682 9.007916,1.058372 20.731796,1.904795 23.156456,1.671817 1.10294,-0.105981 1.84136,-0.01118 2.0713,0.265864 0.61651,0.742844 -0.40815,1.253473 -1.79147,0.892757 -0.66621,-0.173722 -2.32254,-0.400487 -3.68073,-0.503922 -1.3582,-0.103434 -4.77132,-0.357804 -7.58473,-0.565266 C 95.847154,88.321877 79.999391,86.784186 64.897732,85.111289 59.637864,84.52862 55.338198,84.067007 49.904676,83.501624 46.994259,83.198782 43.263634,82.806567 41.614397,82.63004 39.965161,82.453514 37.266411,82.21716 35.617175,82.104814 l -2.998611,-0.204262 -0.02761,1.927776 -0.02761,1.927779 2.320663,0.243624 c 1.276365,0.133992 2.717539,0.295364 3.202608,0.358606 0.485069,0.06324 4.215695,0.436894 8.290278,0.830344 4.074584,0.393453 8.837084,0.883722 10.583334,1.08949 1.74625,0.205772 7.064375,0.775092 11.818056,1.265164 4.753681,0.490068 10.706806,1.105066 13.229168,1.366654 19.789639,2.052348 27.047869,2.64675 32.346549,2.648973 2.07979,7.05e-4 3.51159,0.151641 3.65579,0.384951 0.48233,0.780443 -0.43605,0.978429 -3.01761,0.650533 -1.45521,-0.184831 -6.05896,-0.574118 -10.23056,-0.865082 C 100.59002,93.4384 95.510024,93.038428 93.472732,92.840537 87.322658,92.243157 86.682229,92.18268 84.300509,91.9744 82.059481,91.778422 79.727948,91.537432 71.705869,90.672601 l -3.95158,-0.426004 -0.74833,0.951343 c -0.818713,1.040825 -2.013113,1.256923 -2.333431,0.42218 -0.565369,-1.473327 -1.213309,0.475851 -1.310891,3.943512 -0.04835,1.718173 0.03582,1.907046 1.414886,3.175 1.244771,1.144478 2.590654,3.118678 2.590654,3.800078 0,0.10665 -0.220917,0.19391 -0.490923,0.19391 -0.270009,0 -0.588595,-0.38916 -0.707972,-0.86479 -0.119376,-0.47563 -1.00971,-1.64505 -1.978522,-2.598694 -1.625269,-1.599837 -1.761473,-1.86412 -1.761473,-3.417849 0,-1.068162 -0.189515,-1.827166 -0.518258,-2.07561 -0.285041,-0.215417 -0.555615,-0.986981 -0.601271,-1.714585 -0.04566,-0.727604 -0.206873,-1.322917 -0.35826,-1.322917 -0.151388,0 -0.254762,1.865313 -0.229719,4.145139 0.04713,4.291288 0.317719,5.356846 1.671391,6.581896 0.76478,0.69212 0.997828,1.62019 0.406848,1.62019 -0.439318,0 -1.991727,-2.04768 -2.433683,-3.210107 -0.57905,-1.52302 -0.83384,-8.69515 -0.316319,-8.90414 0.289349,-0.116847 0.252596,-0.186771 -0.107812,-0.205126 -0.300743,-0.01531 -0.753749,0.170586 -1.006676,0.413121 -0.370114,0.354901 -0.538808,0.309305 -0.864306,-0.233627 -0.828308,-1.381623 -1.660913,-1.971263 -2.785685,-1.972783 -0.63059,-7.06e-4 -4.559653,-0.395199 -8.73125,-0.876328 -4.171598,-0.481126 -7.703786,-0.877302 -7.849306,-0.880393 -0.145521,-0.0032 -0.264584,3.636261 -0.264584,8.087449 0,7.268494 -0.204049,9.231564 -0.85079,8.185114 z M 63.133843,92.149287 c 0,-0.582084 -0.06639,-1.058334 -0.147535,-1.058334 -0.08115,0 -0.398646,-0.09636 -0.705556,-0.214132 -0.430872,-0.16534 -0.55802,0.02222 -0.55802,0.823147 0,1.140953 0.228811,1.507652 0.940742,1.507652 0.287447,0 0.470369,-0.411575 0.470369,-1.058333 z m 3.527778,-1.718801 c 0,-0.356655 -1.50936,-0.621139 -5.468056,-0.958176 -3.674033,-0.312801 -3.254756,0.08816 0.741976,0.709553 3.849476,0.598505 4.72608,0.64462 4.72608,0.248623 z M 31.915965,83.847984 c 0.259877,-1.413323 -0.27037,-2.232882 -1.034403,-1.598788 -0.656799,0.545094 -0.734641,2.172059 -0.132721,2.773979 0.538923,0.538921 0.923062,0.152129 1.167124,-1.175191 z m 8.992877,-4.213489 v -2.284236 l -1.058334,0.211666 c -0.685104,0.137023 -1.058333,0.0686 -1.058333,-0.194027 0,-0.223132 0.47625,-0.500945 1.058333,-0.617361 0.963302,-0.192659 1.058334,-0.337806 1.058334,-1.616425 0,-1.136018 -0.106753,-1.363793 -0.55802,-1.190625 -0.306911,0.117775 -0.862536,0.214133 -1.234722,0.214133 -0.623818,0 -0.676703,0.287464 -0.676703,3.678301 0,3.904237 0.007,3.919587 1.852084,4.041888 0.528612,0.03503 0.617361,-0.287447 0.617361,-2.243314 z m -1.608268,0.707108 c 0.829206,-0.653327 1.366683,-0.698641 1.169061,-0.09857 -0.07987,0.242534 -0.529665,0.485327 -0.999537,0.539538 -0.827312,0.09545 -0.83267,0.08151 -0.169524,-0.440972 z M 40.7036,72.885154 c 0.371459,-0.142543 0.55802,-0.656061 0.55802,-1.535987 0,-1.400313 -0.756847,-2.476818 -2.557639,-3.637873 -0.880357,-0.567609 -0.970139,-0.820628 -0.970139,-2.734028 0,-1.855442 -0.08259,-2.108535 -0.688026,-2.108535 -0.378415,0 -0.849837,-0.277813 -1.047606,-0.617361 -0.522854,-0.897686 -0.499115,4.672524 0.02415,5.667636 0.222855,0.423806 0.77848,1.219302 1.234723,1.767766 0.515109,0.619227 0.829532,1.454951 0.829532,2.204861 0,1.099132 0.09251,1.207654 1.029481,1.207654 0.566214,0 1.280589,-0.09636 1.5875,-0.214133 z M 75.833844,63.92704 c 0.485069,-0.493466 1.184359,-1.250957 1.553982,-1.683315 0.66807,-0.781466 0.667029,-0.786013 -0.176389,-0.770823 -0.63712,0.01147 -1.173053,0.516686 -2.151842,2.028472 -1.544976,2.386295 -2.161797,3.975259 -0.921406,2.373588 0.447541,-0.577889 1.210585,-1.454453 1.695655,-1.947922 z m 1.543385,1.880432 c 1.985211,-0.865286 4.806615,-3.046455 4.806615,-3.715893 0,-0.154651 -0.748552,-0.281181 -1.663446,-0.281181 -1.586488,0 -1.757864,0.101713 -3.704167,2.198483 -2.847375,3.067501 -2.787879,3.258259 0.560998,1.798591 z M 38.371487,60.454165 c 0.05966,-0.806295 -0.04642,-1.46599 -0.235731,-1.46599 -0.189315,0 -0.595317,-0.09636 -0.902228,-0.214132 -0.463895,-0.178012 -0.55802,0.08939 -0.55802,1.585288 0,1.666226 0.05875,1.790587 0.79375,1.680122 0.654779,-0.09841 0.812743,-0.375966 0.902229,-1.585288 z m -2.253322,-0.923488 c -0.123585,-0.492404 -0.456955,-0.895279 -0.740822,-0.895279 -0.449803,0 -0.450686,0.06543 -0.0069,0.509252 0.297075,0.297074 0.445616,0.921752 0.356517,1.499306 -0.126677,0.821139 -0.08717,0.886999 0.231569,0.386027 0.211368,-0.332218 0.28319,-1.006906 0.159605,-1.499306 z m -0.965558,0.449686 c -0.112616,-0.281421 -0.196209,-0.197831 -0.213137,0.213138 -0.01532,0.371884 0.06806,0.580245 0.185286,0.463021 0.117225,-0.117229 0.129758,-0.421499 0.02785,-0.676159 z m 7.167346,-1.656017 c 0,-0.171079 -1.389063,-0.413342 -3.086806,-0.538367 -1.697743,-0.125021 -3.880556,-0.293602 -4.850694,-0.374629 -1.744587,-0.145704 -1.748448,-0.143788 -0.352778,0.174901 1.180484,0.26955 5.327636,0.809632 7.672917,0.999236 0.339548,0.02745 0.617361,-0.09006 0.617361,-0.261141 z m -1.557097,45.203034 c -0.134418,-0.13442 -0.590284,-0.24917 -1.013037,-0.255 -0.458952,-0.006 -0.819417,-0.27117 -0.894667,-0.65733 -0.102257,-0.52476 0.0629,-0.62457 0.875637,-0.52917 0.997242,0.11705 1.002129,0.10779 1.106978,-2.098305 0.104201,-2.192468 0.09622,-2.213596 -0.755264,-1.999887 -0.473318,0.118795 -0.959577,0.05581 -1.080575,-0.139975 -0.266914,-0.431874 1.039896,-0.900966 1.580008,-0.567161 0.25874,0.159911 0.364718,-0.266382 0.323219,-1.300145 -0.155474,-3.872911 0.0298,-8.064454 0.356465,-8.064454 0.440021,0 0.488374,15.396777 0.04921,15.668197 -0.166965,0.10319 -0.41355,0.0776 -0.547969,-0.0568 z m -1.71371,-10.180381 c -0.384235,-0.384235 0.08009,-0.844935 0.85158,-0.844935 0.41443,0 0.652515,0.185064 0.567308,0.440973 -0.167733,0.503766 -1.063933,0.758916 -1.418888,0.403962 z m 0.184001,-3.92491 c -0.769049,-0.26826 -0.475838,-0.80058 0.440972,-0.80058 0.48507,0 0.881945,0.141767 0.881945,0.315034 0,0.406111 -0.7556,0.683436 -1.322917,0.485546 z M 112.65897,59.99507 c -1.51423,-0.125303 -4.98216,-0.329131 -7.7065,-0.452949 C 99.443074,59.291727 84.735112,57.958911 61.899121,55.640678 58.988704,55.345223 55.893079,55.03245 55.019954,54.945624 53.545949,54.799049 50.404767,54.474059 32.620406,52.628139 28.934891,52.245604 25.018812,51.93262 23.918008,51.93262 c -2.323437,0 -3.117501,-0.234255 -3.117501,-0.919688 0,-0.566889 0.563339,-0.585252 4.233334,-0.138 1.455208,0.177342 6.614584,0.727862 11.465278,1.223377 4.850695,0.495515 9.21632,0.974305 9.70139,1.063974 0.485069,0.08967 1.993194,0.247982 3.351389,0.351808 1.358194,0.103826 3.263194,0.265476 4.233333,0.359223 0.970139,0.09375 2.557639,0.247304 3.527778,0.341238 4.72972,0.457959 9.207688,0.942436 13.052779,1.412198 5.337972,0.652152 6.173611,0.661282 6.173611,0.06746 0,-1.118492 -2.877601,-4.41875 -5.182507,-5.943699 -1.32122,-0.87413 -3.75159,-2.474369 -5.400827,-3.556084 -1.649236,-1.081712 -3.633611,-2.557124 -4.409722,-3.278689 -0.776111,-0.721564 -1.89979,-1.518694 -2.49706,-1.771396 -1.08089,-0.45732 -5.077492,-4.635895 -5.470042,-5.719102 -0.113295,-0.312625 -0.02057,-1.449173 0.20604,-2.525656 0.376996,-1.790835 1.250579,-3.484454 5.468006,-10.600821 1.549086,-2.613882 6.388651,-8.294325 8.276457,-9.714495 1.191863,-0.896623 1.458376,-1.329391 1.629396,-2.6458336 0.291394,-2.2430328 1.835086,-5.4222714 3.079545,-6.3423402 0.688721,-0.5091927 1.327013,-1.5109521 1.814336,-2.84748251 0.727216,-1.99446019 1.258115,-2.72574099 1.675691,-2.30816539 0.110388,0.1103877 -0.05892,0.59694905 -0.376248,1.08124697 -0.948132,1.44703412 -0.659973,1.48240113 0.762325,0.0935634 1.729758,-1.68906227 4.629249,-2.71597507 7.66856,-2.71597507 1.279726,0 2.234929,-0.1420026 2.127243,-0.316241 -0.569775,-0.9219159 -5.80008,-3.0351127 -10.53464,-4.2563037 -3.369105,-0.8689972 -4.644651,-0.8002556 -6.24084,0.3363298 -1.282287,0.9130701 -2.229274,0.9156386 -1.06238,0.00288 1.062211,-0.8308724 0.384944,-0.9227372 -1.108636,-0.1503764 -0.590479,0.3053485 -1.142058,0.4867208 -1.22573,0.4030489 -0.305163,-0.3051662 0.784984,-0.8971887 2.334366,-1.2677161 l 1.5875,-0.3796425 -2.001792,0.1681226 c -1.100987,0.092467 -2.795139,-0.015004 -3.764781,-0.2388246 -2.089922,-0.4824112 -3.231744,-0.1245739 -5.410271,1.6955343 -0.772558,0.6454546 -2.066314,1.4735465 -2.875015,1.8402036 -0.808701,0.3666568 -2.085629,1.2414493 -2.837622,1.943983 -0.751992,0.7025337 -1.50338,1.2773339 -1.669752,1.2773339 -0.166371,0 -0.70327,0.7908946 -1.193108,1.75754349 -0.489838,0.96664851 -1.32595,2.02803901 -1.858026,2.35864501 -0.532077,0.3306057 -2.171427,1.801899 -3.643,3.2695399 -1.471574,1.4676409 -3.278248,3.2240633 -4.014833,3.9031605 -0.736584,0.6790972 -1.942683,2.0467287 -2.680219,3.0391817 -1.491921,2.007578 -3.858527,6.460897 -3.858527,7.260716 0,0.283948 -0.693342,1.932319 -1.540759,3.663047 -0.847418,1.730728 -1.736377,3.980216 -1.975465,4.998861 -0.239087,1.018646 -0.560138,1.852084 -0.713446,1.852084 -0.528087,0 -1.69763,3.0217 -1.949361,5.036488 -0.222279,1.779062 -0.179397,2.019067 0.360745,2.019067 0.487709,0 0.52857,-0.101744 0.199906,-0.497759 -0.243892,-0.293874 -0.277967,-0.581279 -0.08319,-0.701661 0.181454,-0.112144 0.432802,-0.75233 0.558552,-1.422632 0.145931,-0.777882 0.481565,-1.299013 0.927853,-1.44066 0.384569,-0.122058 1.011785,-0.834609 1.393814,-1.583447 0.808855,-1.585485 1.410237,-2.078422 1.410237,-1.155933 0,0.654597 -0.822011,2.095913 -1.565614,2.745148 -0.463467,0.40465 -1.962164,2.794151 -1.962164,3.128444 0,0.122622 0.15875,0.222945 0.352777,0.222945 0.194028,0 0.352778,-0.238125 0.352778,-0.529167 0,-0.291042 0.153768,-0.529167 0.341706,-0.529167 0.187939,0 0.240395,0.277813 0.11657,0.617361 -0.202115,0.554236 -0.146876,0.548644 0.540239,-0.05468 0.420956,-0.369619 0.765374,-0.964931 0.765374,-1.322916 0,-0.362635 0.25106,-0.650879 0.56691,-0.650879 0.376394,0 0.493604,-0.191032 0.348777,-0.568445 -0.159655,-0.416055 -0.06747,-0.510628 0.343888,-0.352778 0.309111,0.118619 0.628411,0.215668 0.709556,0.215668 0.08114,0 0.147536,0.238125 0.147536,0.529166 0,0.291042 0.161774,0.529167 0.359499,0.529167 0.199568,0 0.268381,0.36304 0.154682,0.816056 -0.132927,0.529625 0.03996,1.117784 0.492569,1.675695 l 0.697386,0.859638 -0.31211,-1.674964 c -0.17166,-0.92123 -0.22343,-1.906059 -0.115045,-2.188503 0.108385,-0.282448 -0.134596,-1.399981 -0.539959,-2.483411 -0.405362,-1.083426 -0.737022,-2.310666 -0.737022,-2.727198 0,-1.279483 1.354075,-3.64254 3.22088,-5.620897 0.978595,-1.037071 2.168856,-2.488035 2.645024,-3.224367 0.476168,-0.736332 1.375198,-2.00663 1.997845,-2.822884 0.622647,-0.816254 1.604281,-2.38674 2.181409,-3.489968 0.946323,-1.808974 1.203626,-2.044724 2.621257,-2.401688 1.185851,-0.298601 2.138393,-0.953988 3.878275,-2.6684105 1.268489,-1.2499258 2.584111,-2.3607529 2.923605,-2.4685042 0.708009,-0.2247138 2.919203,-3.3305948 2.371173,-3.3305948 -0.198914,0 -0.26355,-0.15875 -0.143633,-0.3527778 0.416598,-0.6740701 -0.481436,-0.3473894 -1.575333,0.5730635 -0.605165,0.5092125 -1.212548,0.8135927 -1.349741,0.6764003 -0.382833,-0.3828331 1.955647,-2.3077971 2.803552,-2.3077971 0.412112,0 0.952253,-0.27756271 1.200316,-0.61680653 0.54332,-0.74303537 0.9147,-0.45434673 0.985569,0.76612393 0.02875,0.4953737 0.250741,0.9769475 0.493276,1.0701645 0.664386,0.2553543 0.529343,0.8962721 -0.176389,0.8371303 -1.244226,-0.1042691 -1.852084,0.07117 -1.852084,0.5345448 0,0.2609698 -0.3175,0.7618243 -0.705555,1.1130097 -0.388056,0.3511853 -0.705556,0.7991231 -0.705556,0.9954168 0,0.196294 0.0882,0.2687009 0.195993,0.1609044 0.107798,-0.1077965 1.566309,0.1034577 3.241135,0.4694544 2.084286,0.4554746 3.795103,1.1109946 5.42193,2.0774752 1.307236,0.7766149 2.575896,1.4120269 2.819238,1.4120269 0.899901,0 2.791884,0.8630472 2.672881,1.2192612 -0.143841,0.43057 -2.377839,0.282075 -2.86826,-0.190655 -0.184326,-0.177677 -0.533555,-0.32305 -0.776065,-0.32305 -0.24251,0 -1.123573,-0.451433 -1.957917,-1.0031845 C 62.228989,9.1026845 60.762404,8.4002348 59.804252,8.0934366 58.288976,7.6082458 57.968728,7.6010657 57.344509,8.0382872 56.1087,8.9038811 53.607594,8.5187699 52.819958,7.3416132 52.657992,7.0995494 51.72854,7.8359857 50.350513,9.2982373 c -1.50199,1.5937907 -2.572872,2.4210427 -3.343557,2.5828797 -1.243942,0.261219 -2.184187,1.26467 -4.44822,4.747237 -2.705916,4.162282 -3.161758,4.776613 -5.200546,7.008687 -1.115115,1.220833 -2.304607,2.803694 -2.643314,3.517466 -0.596563,1.257163 -0.591527,1.369843 0.16096,3.601138 0.427235,1.26685 0.787437,3.097114 0.800448,4.067253 0.01301,0.970139 0.1748,2.05185 0.359532,2.403799 0.481163,0.916714 -0.242332,1.69448 -1.238222,1.331101 -0.525012,-0.191565 -0.891106,-0.770794 -1.157358,-1.83116 -0.308584,-1.228954 -0.528314,-1.526529 -1.058333,-1.433286 -0.367892,0.06472 -0.797864,0.241317 -0.955492,0.39243 -0.416717,0.399496 -0.581206,2.808382 -0.207538,3.039321 0.986261,0.609544 -0.413621,2.624184 -1.823425,2.624184 -0.77376,0 -1.109205,-0.349437 -2.039951,-2.125039 -1.046298,-1.996044 -1.100197,-2.279784 -0.887931,-4.674305 0.19121,-2.156982 0.400205,-2.766409 1.358162,-3.960379 0.708248,-0.882738 1.205231,-1.965942 1.327281,-2.892887 0.107306,-0.814976 0.723762,-2.402476 1.369901,-3.527778 1.046843,-1.823159 1.821869,-3.650396 2.74686,-6.476126 1.132221,-3.458793 5.730127,-9.6054585 8.110234,-10.8420864 0.482226,-0.2505495 1.282552,-0.9649245 1.778501,-1.5875 0.495949,-0.6225755 1.487289,-1.7176299 2.202976,-2.4334541 L 46.862732,1.5282341 46.124427,0.00751031 C 45.425406,-1.4322975 45.406899,-1.7357097 45.776605,-5.6947721 c 0.395558,-4.2358966 0.895829,-5.6818579 2.120154,-6.1280049 0.328243,-0.119613 0.975402,-0.507956 1.438131,-0.862985 1.067893,-0.819342 2.104086,-0.902381 1.45173,-0.11634 -0.241543,0.291041 -0.299168,0.529166 -0.128055,0.529166 0.171112,0 0.497373,-0.298248 0.725022,-0.662773 0.483332,-0.773937 2.578033,-1.626868 2.578033,-1.049737 0,0.202099 -0.3175,0.450481 -0.705555,0.55196 -0.388056,0.101479 -0.705556,0.36593 -0.705556,0.587669 0,0.221739 -0.3175,0.601444 -0.705556,0.843789 -0.78909,0.492795 -0.939891,1.141389 -0.264583,1.137973 0.242535,-0.0012 0.715188,-0.484074 1.05034,-1.072995 0.654628,-1.150292 3.147892,-2.469661 3.375674,-1.786316 0.09219,0.276569 0.329194,0.279224 0.833483,0.0093 0.387565,-0.207419 0.954751,-0.281157 1.260415,-0.163863 0.483909,0.185694 0.468944,0.27896 -0.11576,0.721501 -0.648744,0.491006 -0.644599,0.50862 0.122237,0.519459 0.465385,0.0066 0.79375,0.23013 0.79375,0.540386 0,0.291042 0.139492,0.529167 0.309979,0.529167 0.170487,0 0.510678,0.484528 0.755975,1.076729 0.331516,0.8003531 0.59152,1.0091045 1.012938,0.8132715 0.311817,-0.1449017 1.201942,-0.2331889 1.978053,-0.1961942 0.776111,0.036995 3.077986,0.1375728 5.115278,0.2235063 4.275685,0.1803499 7.523047,0.8080347 11.740329,2.2692963 2.776657,0.9620948 8.293418,3.839373 9.363343,4.8834724 0.256392,0.2502052 0.812017,0.4594141 1.234723,0.4649086 0.422702,0.00549 1.532586,0.7198695 2.466403,1.58749999 0.933821,0.86763045 1.842555,1.57751001 2.019413,1.57751001 0.176858,0 0.572206,0.4846927 0.878548,1.0770944 0.306341,0.5924021 0.882533,1.4026399 1.280421,1.8005287 1.510107,1.5101077 3.464688,4.6777131 3.962508,6.421681 0.28467,0.997258 0.70302,3.400696 0.92967,5.340974 0.22664,1.940277 0.4608,3.607152 0.52035,3.704166 0.0596,0.09701 -0.0865,0.652639 -0.32466,1.234723 -0.42998,1.051073 -0.45246,1.058411 -3.276679,1.069639 -1.564051,0.0062 -3.060435,0.176061 -3.325298,0.377427 -1.019365,0.774993 -5.888944,1.896089 -8.684077,1.99929 l -2.205284,0.08142 -0.716143,2.151525 c -0.393879,1.183337 -0.87655,3.147547 -1.072603,4.364912 -0.221879,1.377749 -0.873513,3.162614 -1.726008,4.727642 -0.753254,1.38284 -1.633392,3.435178 -1.95586,4.560754 -0.32247,1.125573 -0.809833,2.474948 -1.083027,2.998611 -0.273199,0.52366 -0.497699,1.273129 -0.498895,1.665485 -0.0028,0.975127 1.791628,3.073153 3.801643,4.444414 1.533909,1.046456 1.885251,1.135098 4.486462,1.131937 2.241592,-0.0028 3.330272,-0.203358 5.291667,-0.975208 1.371145,-0.539577 3.205378,-0.982648 4.124138,-0.996213 l 1.654694,-0.02445 -0.0529,-1.326494 c -0.06214,-1.558216 0.578908,-2.915694 1.634617,-3.46147 0.669957,-0.34635 0.63458,-0.368529 -0.319638,-0.200392 -0.686432,0.120954 -1.92846,-0.132937 -3.447638,-0.704754 -4.316666,-1.624789 -9.409557,-0.95431 -12.215047,1.608109 -0.617739,0.564215 -1.257357,1.025849 -1.421374,1.025849 -0.49724,0 -0.156795,-7.454596 0.409925,-8.975975 0.688869,-1.849282 1.434994,-2.114067 0.80507,-0.285704 -0.257139,0.746351 -0.577885,2.842447 -0.71277,4.657989 l -0.245244,3.300992 1.10072,-0.783785 c 0.605398,-0.431062 1.100723,-0.907594 1.100723,-1.058943 0,-0.472003 2.578326,-1.449723 4.048852,-1.535353 1.183693,-0.06893 1.61211,-0.329871 2.74054,-1.669203 2.710442,-3.217023 4.410333,-6.182759 5.661714,-9.877778 1.468582,-4.336372 2.696799,-7.194687 2.972907,-6.918582 0.107587,0.10759 -0.291694,1.430471 -0.887292,2.939736 -0.595598,1.509268 -1.352018,3.696624 -1.68093,4.860791 -0.976249,3.455363 -2.255707,5.647348 -5.237067,8.972222 l -1.402317,1.563888 1.918882,0.42291 c 1.055384,0.232601 2.950753,0.733803 4.211934,1.113787 2.04705,0.616754 2.595831,0.647255 5.115283,0.2843 1.55222,-0.223615 3.06034,-0.501643 3.35139,-0.617834 1.23064,-0.491314 2.21179,-0.542251 3.44812,-0.179014 0.7229,0.212394 1.4227,0.360864 1.5551,0.329936 0.1324,-0.03094 0.58494,0.500715 1.00565,1.181435 0.89431,1.447017 0.80089,2.070926 -0.81024,5.411498 -0.81295,1.685597 -1.15305,2.978002 -1.30304,4.951677 -0.16189,2.130168 -0.39954,2.956373 -1.17413,4.081861 l -0.97117,1.411112 1.68249,0.213169 c 0.92537,0.117246 3.33795,0.244408 5.36128,0.282586 2.02334,0.03818 3.81186,0.151659 3.97451,0.252179 0.53661,0.331647 -0.088,0.830312 -0.93442,0.745974 -0.45699,-0.04554 -2.0698,-0.185318 -3.58403,-0.310625 z m -6.15935,-2.901922 c 0.9262,-1.61883 1.08423,-2.254295 1.08423,-4.360061 0,-2.063016 0.1726,-2.788486 1.05833,-4.448309 0.97433,-1.825855 1.37619,-4.030592 0.83357,-4.573217 -0.29519,-0.295191 -2.15017,1.035286 -2.59048,1.858006 -0.18939,0.353889 -0.50981,2.104048 -0.71204,3.889238 -0.25198,2.224362 -0.62985,3.715374 -1.20075,4.737953 -0.45818,0.820685 -0.9438,1.996363 -1.07916,2.61262 -0.13535,0.616253 -0.4099,1.120464 -0.6101,1.120464 -0.56441,0 0.003,-2.434128 0.97785,-4.193134 0.58992,-1.064708 0.96942,-2.536906 1.21674,-4.720181 0.36159,-3.191919 1.02649,-4.732528 2.3898,-5.537327 0.52364,-0.309114 0.53224,-0.397207 0.069,-0.706945 -0.8311,-0.555721 -1.0829,-0.453648 -2.46499,0.999228 -0.80689,0.848216 -1.47279,2.015275 -1.76127,3.086806 -0.52758,1.959592 -0.9669,2.62309 -1.34468,2.030843 -0.13744,-0.21547 -1.07209,-0.806436 -2.07701,-1.313261 -1.004914,-0.506825 -1.927096,-1.083271 -2.049291,-1.280986 -0.34265,-0.554422 -0.02872,-0.445928 2.116861,0.73158 1.09343,0.600086 2.08217,0.996961 2.19719,0.881945 0.24947,-0.249474 0.34751,-0.177959 -1.84069,-1.342757 -0.965702,-0.514057 -1.815991,-1.115152 -1.889528,-1.335769 -0.07354,-0.220616 0.721035,0.08127 1.765728,0.670853 1.85444,1.046583 1.90971,1.055511 2.33349,0.376926 0.23873,-0.382274 0.36632,-0.695043 0.28353,-0.695043 -0.0828,0 -0.44132,-0.109097 -0.79673,-0.24244 -0.56886,-0.213416 -0.58826,-0.171185 -0.16205,0.352778 0.68565,0.842917 0.33235,0.74634 -1.74024,-0.475707 -2.08666,-1.230337 -2.800873,-1.008411 -2.800873,0.870307 0,1.229377 0.832023,2.661186 1.283857,2.209352 0.155766,-0.155766 0.04968,-0.448303 -0.23574,-0.650085 -0.405119,-0.286399 -0.36419,-0.312103 0.186605,-0.117182 0.388056,0.137329 0.985923,0.330239 1.328591,0.428685 0.34267,0.09845 0.5808,0.437624 0.52917,0.753727 -0.0659,0.403458 0.12817,0.544297 0.65124,0.472602 0.64732,-0.08873 0.79784,0.165912 1.14689,1.940278 0.34874,1.772811 0.3086,2.368226 -0.30414,4.51073 -0.38825,1.357577 -0.70592,2.577832 -0.70592,2.711676 0,0.22401 1.15267,0.444073 3.06092,0.584376 0.58427,0.04296 1.02709,-0.396632 1.85208,-1.838569 z m -5.20023,-0.850949 c 0.91448,-2.928856 0.85425,-5.218529 -0.15374,-5.844854 -2.25329,-1.400115 -6.113953,-1.488295 -9.716953,-0.221943 -1.037841,0.364772 -2.600876,0.770276 -3.473408,0.901118 l -1.586421,0.237899 0.906099,0.945766 c 0.498355,0.52017 0.9061,1.141102 0.9061,1.379844 0,0.587837 -1.075592,2.217568 -1.934532,2.931192 -0.671191,0.557639 -0.620211,0.590158 1.234578,0.787499 4.257714,0.453002 12.880397,1.125555 13.029727,1.016296 0.0874,-0.06396 0.44226,-1.023726 0.78855,-2.132817 z m -15.940546,0.314276 c 0,-0.367298 0.198438,-0.746471 0.440972,-0.84261 0.242535,-0.09614 0.720228,-0.655997 1.061544,-1.244134 l 0.620571,-1.06934 -1.283613,-1.058062 c -0.705986,-0.581935 -1.473331,-0.985263 -1.705208,-0.896281 -0.542498,0.208177 -3.584858,-1.094289 -4.954708,-2.121165 -1.318331,-0.98825 -1.940669,-1.360128 -1.940669,-1.159633 0,0.08515 0.867731,0.809967 1.928294,1.610698 1.235487,0.932805 1.858733,1.63714 1.734693,1.960386 -0.230925,0.601779 -1.193543,0.32191 -1.193543,-0.347006 0,-0.257291 -0.706984,-1.047126 -1.571078,-1.755186 -1.540517,-1.262338 -1.584784,-1.274618 -2.27542,-0.631186 -1.450538,1.351378 -1.45058,2.191928 -2.33e-4,4.435894 0.735379,1.137779 1.250569,2.294065 1.144866,2.569524 -0.126196,0.32886 0.365263,0.189269 1.431227,-0.406509 1.288372,-0.720086 1.623416,-0.796816 1.623416,-0.371789 0,0.294555 -0.357188,0.649115 -0.79375,0.787915 -0.768488,0.244327 -0.771292,0.261137 -0.08819,0.528144 1.241227,0.485164 2.998611,0.37568 2.998611,-0.18681 0,-0.637625 2.40725,-3.015594 3.052727,-3.015594 0.750764,0 0.574012,0.315567 -0.93606,1.671182 -1.568405,1.407986 -1.698322,1.729807 -0.79375,1.966193 1.210183,0.316255 1.499305,0.234372 1.499305,-0.424631 z M 77.24365,54.224286 c -0.454981,-0.484304 -0.665421,-0.880555 -0.467643,-0.880555 0.45061,0 1.701906,1.354078 1.467715,1.588273 -0.09506,0.09506 -0.545095,-0.223415 -1.000072,-0.707718 z m 0.25153,-0.759316 c -0.929531,-0.697646 -1.621656,-1.336844 -1.538058,-1.420442 0.207804,-0.207804 3.4045,2.069599 3.4045,2.425446 0,0.398604 0.01309,0.405645 -1.866442,-1.005004 z m 0.558349,-0.771419 c -2.329985,-1.747859 -2.488379,-2.022507 -1.749323,-3.033226 0.449428,-0.61463 0.512223,-0.615826 1.411111,-0.02685 0.517412,0.339023 0.940749,0.767708 0.940749,0.95263 0,0.184927 -0.515938,-0.02208 -1.146528,-0.460046 -1.057568,-0.734491 -1.097393,-0.73968 -0.513267,-0.06687 0.348294,0.401171 1.380169,1.190243 2.293056,1.753492 1.590297,0.981209 1.685643,0.997776 2.277156,0.395626 0.339548,-0.345655 0.85531,-0.628463 1.146136,-0.628463 0.329738,0 0.0133,0.53116 -0.840662,1.411111 -0.753192,0.776111 -1.427703,1.396344 -1.498914,1.378292 -0.07121,-0.01806 -1.114993,-0.77211 -2.319514,-1.675694 z m 1.887671,0.167834 c -0.360331,-0.219781 -1.392206,-0.947942 -2.293055,-1.618139 -0.900854,-0.670196 -1.399787,-0.92185 -1.108746,-0.559227 0.736209,0.917283 3.656606,3.003847 3.876326,2.769556 0.09934,-0.105925 -0.114198,-0.372413 -0.474525,-0.59219 z m -4.582559,-4.220563 c 0.417735,-0.477488 1.037573,-1.023768 1.377418,-1.213957 0.771401,-0.431698 0.607159,-0.781072 -1.613264,-3.431745 -0.975201,-1.164167 -2.151232,-2.88453 -2.613402,-3.823028 -1.263188,-2.565069 -3.07865,-5.083747 -3.950784,-5.481119 -0.426695,-0.194416 -1.38128,-0.467067 -2.121298,-0.605896 -0.740019,-0.138829 -1.555288,-0.462216 -1.811712,-0.718636 -0.256423,-0.256424 -0.93509,-0.411632 -1.508157,-0.344908 -0.573063,0.06673 -1.041932,-0.01662 -1.041932,-0.185187 0,-0.520171 -0.970803,-0.337894 -1.185909,0.222663 -0.26568,0.692354 -1.283536,0.685429 -1.283536,-0.0087 0,-0.759114 1.293728,-1.160897 4.102965,-1.274212 1.889417,-0.07621 2.928704,-0.34792 4.71648,-1.23305 1.261181,-0.62441 3.563056,-1.5644 5.115278,-2.088865 1.552222,-0.524467 3.457222,-1.273235 4.233334,-1.663932 1.515272,-0.762791 4.97253,-3.321918 6.353849,-4.703241 0.465314,-0.465314 0.972305,-0.846028 1.126645,-0.846035 0.15434,-7e-6 0.733548,-0.567662 1.287131,-1.261459 l 1.006514,-1.261452 -0.776778,-0.82684 c -0.427225,-0.454763 -1.277031,-1.011598 -1.888458,-1.237411 -0.611424,-0.225813 -1.366161,-0.542852 -1.677194,-0.70453 -0.31103,-0.161678 -1.26353,-0.399679 -2.116667,-0.52889 -0.853133,-0.129194 -2.424279,-0.772064 -3.491431,-1.428582 -3.307532,-2.034812 -3.66738,-2.200609 -5.311285,-2.447127 -1.541869,-0.231218 -1.684147,-0.172062 -4.063157,1.689384 -4.020665,3.145954 -7.095949,7.095439 -10.904411,14.004157 -2.009105,3.644611 -2.453732,4.746371 -2.56261,6.35 l -0.131734,1.940278 2.239133,2.38125 c 1.231523,1.309688 2.404248,2.38125 2.606054,2.38125 0.201807,0 0.304991,-0.436562 0.229295,-0.970139 -0.143961,-1.0148 0.716316,-2.57152 1.170231,-2.117601 0.144396,0.144395 0.078,0.667551 -0.147545,1.162572 -0.676007,1.48367 -0.48157,2.119164 1.032524,3.374725 0.793432,0.657952 1.62687,1.358833 1.852083,1.55751 0.22521,0.198681 2.122456,1.467337 4.216101,2.819238 2.093644,1.351905 4.395519,2.968417 5.115278,3.592255 1.185227,1.027271 1.325291,1.071305 1.485042,0.466859 0.09701,-0.367065 0.518171,-1.058062 0.935909,-1.53555 z m -4.283805,-5.603307 c -1.208155,-0.700359 -4.553278,-3.467297 -5.381601,-4.451427 -0.435599,-0.517532 -0.792787,-1.255741 -0.79375,-1.640463 -0.0014,-0.533298 0.368565,-0.276168 1.556833,1.082199 0.857219,0.979932 2.524094,2.387057 3.704167,3.126944 1.18007,0.739888 2.145581,1.562584 2.145581,1.828218 0,0.581696 -0.299001,0.594939 -1.23123,0.05453 z M 58.717188,29.376686 c 0.140607,-0.443015 -0.0032,-0.797133 -0.418577,-1.03027 -0.605219,-0.339739 -0.604341,-0.366208 0.02014,-0.606756 0.60513,-0.233091 1.056302,0.1085 1.387281,1.050343 0.188623,0.536744 2.577758,-0.109316 3.829361,-1.035516 0.652272,-0.482692 2.088914,-1.305708 3.192533,-1.828927 1.10362,-0.523219 2.080945,-1.235675 2.171834,-1.583235 0.111986,-0.428233 0.502585,-0.631927 1.211767,-0.631927 0.575585,0 1.787825,-0.327914 2.693864,-0.728702 0.906043,-0.400783 1.979842,-0.79273 2.386218,-0.870994 0.406379,-0.07826 1.035597,-0.410831 1.39827,-0.739041 0.362669,-0.328214 0.777243,-0.478914 0.921268,-0.334885 0.574757,0.574756 -4.432215,3.240871 -6.811458,3.626968 -0.729326,0.118354 -1.579062,0.439413 -1.888307,0.713469 -0.309241,0.274052 -1.554448,1.143631 -2.767122,1.932393 -1.212673,0.788762 -2.204861,1.561888 -2.204861,1.718059 0,0.156172 -0.754062,0.379237 -1.675694,0.495699 -0.921632,0.116466 -2.122336,0.282991 -2.668228,0.370053 -0.848131,0.135269 -0.961366,0.06009 -0.778289,-0.516731 z m 15.97972,-9.386648 c -0.532328,-0.539869 0.181938,-0.878335 1.379467,-0.653679 0.685211,0.128549 1.347519,0.09098 1.471796,-0.08347 0.202949,-0.284904 1.929846,-0.868914 4.240742,-1.434153 1.334752,-0.326477 0.746555,0.665054 -0.865244,1.458558 -1.405245,0.691811 -5.756321,1.189859 -6.226761,0.712748 z M 101.9394,45.062513 c 0,-0.277714 -2.168824,-1.309215 -2.357028,-1.121015 -0.09614,0.09614 0.275805,0.418987 0.826538,0.717444 1.03692,0.56194 1.53049,0.69209 1.53049,0.403571 z m 1.60827,-1.441733 c -0.37663,-0.279181 -0.50507,-0.507605 -0.28541,-0.507605 0.21967,0 0.50227,0.166459 0.62801,0.369909 0.15628,0.252871 0.3861,0.239205 0.72637,-0.0432 0.58739,-0.487489 0.65292,-1.032266 0.12416,-1.032266 -0.20548,0 -0.28698,0.140151 -0.18111,0.31145 0.10587,0.171298 -0.55797,0.260858 -1.4752,0.199019 l -1.66768,-0.11243 0.87865,0.675079 c 0.48327,0.371295 0.71991,0.673562 0.52589,0.671707 -0.19403,-0.0018 -0.66094,-0.236453 -1.03757,-0.521321 -0.37663,-0.284872 -1.01163,-0.516654 -1.41111,-0.51507 -0.497856,0.0021 -0.17149,0.325473 1.03756,1.028439 1.55766,0.905648 1.82576,0.964664 2.29306,0.504726 0.46988,-0.462481 0.45245,-0.577702 -0.15562,-1.028439 z M 78.202002,40.643731 c 0.493854,-1.649236 1.43752,-3.983235 2.097038,-5.186662 0.732198,-1.336051 1.471631,-3.463241 1.898957,-5.462898 0.384909,-1.801164 1.010871,-3.903501 1.391024,-4.671865 0.815718,-1.648707 0.661484,-2.008113 -0.436428,-1.016994 -1.175304,1.060986 -4.920471,3.494937 -5.731249,3.724687 -3.778102,1.07061 -11.465279,4.310204 -11.465279,4.831789 0,0.15439 0.674688,0.368981 1.499306,0.476864 1.225204,0.160295 1.767653,0.499078 2.967126,1.853092 0.8073,0.911317 1.973926,2.629885 2.592504,3.819046 0.618582,1.189157 1.780554,3.035233 2.582168,4.102385 1.183202,1.575143 1.48095,1.807503 1.582197,1.234723 0.06859,-0.388056 0.528783,-2.054931 1.022636,-3.704167 z M 28.77974,38.999226 c -0.628712,-1.160135 -0.732464,-0.943042 -0.208251,0.435744 0.199456,0.524608 0.450005,0.866478 0.556775,0.75971 0.106769,-0.106772 -0.05007,-0.644726 -0.348524,-1.195454 z m 1.826695,-0.10334 c -0.236834,-0.379232 -0.498926,-0.621192 -0.582427,-0.537693 -0.151199,0.151201 0.617619,1.227205 0.876852,1.227205 0.0749,0 -0.05759,-0.310279 -0.294425,-0.689512 z m -0.986483,-1.427155 c 0,-0.194028 -0.168119,-0.352778 -0.373597,-0.352778 -0.205479,0 -0.275485,0.15875 -0.155569,0.352778 0.119915,0.194028 0.288034,0.352778 0.373597,0.352778 0.08556,0 0.155569,-0.15875 0.155569,-0.352778 z m 35.806947,-4.938889 c 0.121577,-0.196719 -0.142314,-0.350389 -0.596541,-0.347377 -0.655334,0.0043 -0.711126,0.07225 -0.285404,0.347377 0.656428,0.424215 0.619764,0.424215 0.881945,0 z M 85.888011,23.35762 c -0.119916,-0.194028 -0.376777,-0.352778 -0.570805,-0.352778 -0.194028,0 -0.254667,0.15875 -0.134751,0.352778 0.119916,0.194028 0.376778,0.352778 0.570805,0.352778 0.194028,0 0.254667,-0.15875 0.134751,-0.352778 z m 8.290278,-1.978022 c 0,-0.07625 -0.238125,-0.138645 -0.529167,-0.138645 -0.291041,0 -0.529166,0.153769 -0.529166,0.341708 0,0.187935 0.238125,0.250327 0.529166,0.138645 0.291042,-0.111686 0.529167,-0.265451 0.529167,-0.341708 z m -2.722813,-0.138645 c 0.287165,0 0.285485,-0.108994 -0.0062,-0.400653 -0.299021,-0.299022 -0.563015,-0.236915 -1.040694,0.244842 -0.618233,0.623506 -0.618025,0.637155 0.0062,0.400657 0.355417,-0.134666 0.82373,-0.244846 1.040694,-0.244846 z m 3.781146,0 c 0,-0.194028 -0.168119,-0.352778 -0.373598,-0.352778 -0.205479,0 -0.275484,0.15875 -0.155568,0.352778 0.119916,0.194028 0.288036,0.352778 0.373599,0.352778 0.08556,0 0.155567,-0.15875 0.155567,-0.352778 z m -6.879167,-0.352778 c 0.119917,-0.194027 0.04991,-0.352777 -0.155568,-0.352777 -0.205478,0 -0.373598,0.15875 -0.373598,0.352777 0,0.194028 0.07001,0.352778 0.155568,0.352778 0.08556,0 0.253682,-0.15875 0.373598,-0.352778 z m 8.959357,-0.32114 c 0.427369,-0.370657 0.640193,-0.758494 0.472945,-0.861861 -0.400477,-0.247505 -2.27631,0.989457 -1.968014,1.297749 0.372544,0.372544 0.659349,0.288925 1.495069,-0.435888 z m -3.154976,-0.675802 c 0.493186,-0.498123 0.477819,-0.523703 -0.159936,-0.26621 -0.388055,0.156676 -0.983368,0.364747 -1.322917,0.462375 -0.339548,0.09763 -0.617361,0.328443 -0.617361,0.512918 0,0.454628 1.424065,-0.02618 2.100214,-0.709083 z m 6.006594,0.459249 c -0.24543,-0.29573 -0.518889,-0.465042 -0.607683,-0.376248 -0.244648,0.244651 0.25243,0.913941 0.678783,0.913941 0.23392,0 0.20716,-0.202416 -0.0711,-0.537693 z m -10.752641,-0.52064 c 0.119916,-0.194028 0.04991,-0.352778 -0.155568,-0.352778 -0.205479,0 -0.373599,0.15875 -0.373599,0.352778 0,0.194028 0.07,0.352778 0.155568,0.352778 0.08556,0 0.253683,-0.15875 0.373599,-0.352778 z m 9.341535,-0.537693 c -0.245435,-0.29573 -0.518894,-0.465042 -0.607688,-0.376248 -0.244648,0.244651 0.25243,0.913941 0.678779,0.913941 0.233927,0 0.207162,-0.202417 -0.07109,-0.537693 z m 2.083206,-1.451433 c -0.52785,-0.636012 -0.67396,-1.844265 -0.25439,-2.103575 0.5186,-0.320511 0.32186,-0.693589 -0.805172,-1.526839 -0.875668,-0.647411 -1.159753,-0.716808 -1.39253,-0.340171 -0.231461,0.374514 -0.466538,0.309601 -1.127499,-0.311339 -0.459288,-0.431478 -0.983587,-0.778796 -1.165109,-0.771818 -0.181521,0.007 0.146209,0.403064 0.728293,0.880192 0.582083,0.477127 0.891645,0.868293 0.687916,0.869257 -0.203729,9.53e-4 -0.558271,-0.186102 -0.787869,-0.415701 -0.447379,-0.447377 -0.978793,-0.186381 -0.66251,0.325378 0.104574,0.169204 1.077973,0.756849 2.163107,1.305877 1.085134,0.549027 1.894193,1.077003 1.797923,1.173278 -0.09627,0.09628 0.0575,0.507017 0.34167,0.912757 0.28419,0.40574 0.53833,1.059573 0.56475,1.452966 0.0414,0.616218 0.0696,0.60266 0.20347,-0.09791 0.0855,-0.447243 -0.0459,-1.055799 -0.29205,-1.352348 z m -2.027362,-2.461423 c -0.573539,-0.401722 -0.703319,-0.680455 -0.43961,-0.944164 0.263708,-0.263709 0.584923,-0.183443 1.088062,0.271892 1.28595,1.163764 0.78892,1.679047 -0.648452,0.672272 z m -6.056207,3.758773 c 0.285422,-0.180506 0.412045,-0.435099 0.281383,-0.565762 -0.130662,-0.130662 -0.494591,0.01946 -0.808732,0.333595 -0.620717,0.62072 -0.306074,0.759242 0.527349,0.232167 z m 7.336679,-0.366557 c -0.242342,-0.388056 -0.680252,-0.702026 -0.973128,-0.697711 -0.359611,0.0053 -0.246154,0.231826 0.349444,0.697711 1.109204,0.867632 1.165534,0.867632 0.623684,0 z M 89.915559,18.669044 c -0.08085,-0.05635 -0.752733,-0.548636 -1.49308,-1.093959 -1.840568,-1.355718 -1.993187,-0.980276 -0.170857,0.420313 0.804531,0.618339 1.541117,1.045922 1.636854,0.950182 0.09574,-0.09574 0.107925,-0.22018 0.02709,-0.276536 z m 5.875983,-0.0815 c -0.373892,-0.282866 -0.573303,-0.620802 -0.443135,-0.750969 0.130168,-0.130167 0.53938,0.03728 0.909363,0.372114 0.369982,0.334829 0.755318,0.475096 0.856301,0.311703 0.100982,-0.163392 -0.280134,-0.563225 -0.846925,-0.888517 -0.566787,-0.325292 -1.030524,-0.440074 -1.030524,-0.255071 0,0.185004 -0.143887,0.33637 -0.31975,0.33637 -0.175864,0 -0.278024,-0.277812 -0.22702,-0.617361 0.051,-0.339548 0.02286,-0.410493 -0.0625,-0.157655 -0.11949,0.353856 -0.269396,0.36496 -0.651041,0.04822 -0.628996,-0.522021 -0.32439,-1.037095 0.613322,-1.037095 0.497265,0 0.659179,-0.164953 0.519415,-0.529167 -0.279001,-0.727067 0.138335,-0.650677 1.185909,0.217072 0.695279,0.575928 0.736797,0.683054 0.196169,0.506141 -0.678007,-0.221867 -0.678053,-0.215872 -0.004,0.529003 0.375006,0.414377 1.001106,0.919004 1.391331,1.121393 0.64207,0.333007 0.633758,0.285504 -0.08747,-0.499819 -0.438337,-0.47729 -0.709443,-0.955332 -0.60246,-1.062315 0.106984,-0.106983 -0.306341,-0.615957 -0.918499,-1.131053 L 95.157017,14.164 94.190576,15.17529 c -0.531545,0.556209 -1.22802,1.111666 -1.547721,1.234347 -0.856869,0.328811 -0.721237,1.069646 0.153931,0.840785 0.505351,-0.132153 1.073182,0.130719 1.816213,0.840799 0.594547,0.568184 1.255892,1.028013 1.469647,1.021843 0.213759,-0.0062 0.08274,-0.242658 -0.291151,-0.525523 z m -4.085647,-0.159526 c 0.396304,-0.250552 0.426145,-0.432757 0.120876,-0.738028 -0.305269,-0.30527 -0.503569,-0.221802 -0.803211,0.338088 -0.424667,0.793492 -0.173246,0.940858 0.682335,0.39994 z m -2.123934,-1.109912 c -0.39406,-0.270862 -0.327928,-0.302974 0.2748,-0.133435 0.466838,0.131316 0.79375,0.06819 0.79375,-0.153279 0,-0.207103 -0.253305,-0.376551 -0.562903,-0.376551 -0.309598,0 -0.984285,-0.29934 -1.499305,-0.6652 -1.690081,-1.200597 -3.668935,-1.880377 -3.992002,-1.371339 -0.218631,0.344488 -0.290961,0.325832 -0.310642,-0.08013 -0.02872,-0.592479 -4.796484,-4.053849 -6.05457,-4.395589 -0.808743,-0.2196819 -0.808705,-0.2193433 0.03168,0.273653 0.557114,0.326828 0.703672,0.578736 0.433751,0.745555 -0.224211,0.138571 -0.892842,-0.156305 -1.48584,-0.65528 -1.10864,-0.9328589 -1.454937,-1.0642954 -1.826133,-0.6931009 -0.233606,0.2336069 3.344132,2.2418719 4.333272,2.4323619 0.90103,0.173523 4.327716,1.95943 4.133081,2.154065 -0.09186,0.09185 -0.74942,-0.176625 -1.461255,-0.596618 -0.711835,-0.419993 -1.382628,-0.675243 -1.490649,-0.56722 -0.347214,0.347213 3.53512,2.111345 4.812641,2.186864 1.187238,0.07018 4.235916,1.580737 3.195768,1.583435 -0.360532,9.53e-4 -0.309389,0.146837 0.175835,0.501642 0.376326,0.275178 0.759259,0.425296 0.85096,0.333596 0.0917,-0.0917 -0.0668,-0.327244 -0.352224,-0.523432 z m -10.53943,-5.581334 c -0.350852,-0.216838 -0.36061,-0.347938 -0.04061,-0.545707 0.231648,-0.143166 0.579928,-0.101553 0.773955,0.09248 0.459748,0.459746 -0.131526,0.825175 -0.733343,0.453232 z m 20.252207,5.625522 c -0.11927,-0.192985 -0.565199,-0.519448 -0.990956,-0.725475 -0.73339,-0.354892 -0.730303,-0.336438 0.05873,0.350881 0.898807,0.782945 1.279031,0.935728 0.932229,0.374594 z m -7.938671,-1.413008 c 0,-0.194028 0.238125,-0.352778 0.529166,-0.352778 0.291042,0 0.529167,-0.15875 0.529167,-0.352778 0,-0.194028 -0.119062,-0.319051 -0.264583,-0.277829 -0.145521,0.04122 -0.661459,-0.140629 -1.146528,-0.404111 L 90.121344,14.082733 90.8269,14.89944 c 0.646723,0.748605 0.651672,0.79701 0.05934,0.580499 -0.355417,-0.129915 -0.808966,-0.236208 -1.007883,-0.236208 -0.198917,0 -0.273092,-0.230824 -0.164832,-0.512942 0.136985,-0.356975 -0.664653,-1.027395 -2.63641,-2.204861 C 84.03465,10.709069 80.707564,8.5570671 80.418967,8.2193522 80.095699,7.8410657 77.288999,6.4242866 76.862865,6.4242866 c -0.230283,0 0.515546,0.6346214 1.657392,1.4102704 1.141847,0.7756486 2.274524,1.4106486 2.517059,1.4111111 0.242535,4.586e-4 0.440972,0.2483348 0.440972,0.5508272 0,0.3024927 0.145193,0.4602537 0.322647,0.3505797 0.177455,-0.109674 0.375892,-0.07935 0.440973,0.06738 0.06508,0.146729 1.189887,0.814165 2.499575,1.483191 1.309688,0.669025 2.38125,1.339783 2.38125,1.490574 0,0.46131 -4.588256,-1.681119 -6.967361,-3.2533232 -0.630591,-0.416718 -1.145138,-0.6230175 -1.143441,-0.4584428 0.0036,0.3487173 4.273483,3.158434 4.627308,3.044911 0.131205,-0.0421 1.802102,0.789634 3.713107,1.848288 3.630916,2.011446 4.003721,2.158533 4.003721,1.579639 z m -9.925915,-1.576842 c -0.09115,-0.09115 -1.4273,-0.813319 -2.969214,-1.604816 -1.541915,-0.791497 -2.565358,-1.202944 -2.274317,-0.914327 0.627807,0.622578 4.494129,2.684873 5.033508,2.684873 0.206664,0 0.301174,-0.07458 0.210023,-0.16573 z M 93.119956,13.65623 c 0,-0.3175 -0.352778,-0.546806 -0.881945,-0.573264 -1.555164,-0.07776 -1.765787,-0.15553 -1.666953,-0.615521 0.05331,-0.248137 -0.06109,-0.353496 -0.254225,-0.234131 -0.193136,0.119365 -0.846822,-0.03929 -1.452633,-0.352569 -0.605815,-0.313277 -1.182236,-0.488838 -1.28094,-0.390135 -0.208771,0.208772 4.440555,2.651657 5.095723,2.677436 0.242535,0.0095 0.440973,-0.220774 0.440973,-0.511816 z m 7.053884,-0.780459 c -0.384387,-0.599471 -0.394343,-0.598702 -0.201356,0.01556 0.111666,0.355418 0.215566,0.831668 0.230876,1.058334 0.0201,0.297448 0.0761,0.293118 0.20136,-0.01556 0.0954,-0.235225 -0.008,-0.711475 -0.23088,-1.058334 z m -1.40944,0.24589 c 0.47037,-0.308778 0.47037,-0.385973 0,-0.694751 -0.839805,-0.551298 -1.18879,-0.414367 -0.660555,0.259181 0.440253,0.561369 0.427401,0.572808 -0.141721,0.126118 -0.344237,-0.270184 -0.736516,-0.380615 -0.871728,-0.245402 -0.135213,0.135213 -0.01231,0.393529 0.27311,0.574036 0.648532,0.410145 0.748986,0.40877 1.400894,-0.01918 z M 93.704441,12.22817 c 0.266538,-0.694585 -0.283457,-1.090953 -4.64143,-3.3449824 -3.94437,-2.0401051 -4.963492,-2.6272857 -8.359698,-4.816554 -1.299362,-0.8375971 -2.569362,-1.5228821 -2.822222,-1.522856 -0.252861,2.61e-5 0.800474,0.8074939 2.34074,1.7943728 2.52559,1.6181917 4.244337,2.5864259 10.865359,6.1208646 1.113296,0.594302 2.105484,1.291972 2.204861,1.550378 0.263483,0.685125 -9.137636,-4.4386869 -13.737499,-7.487232 -1.349096,-0.8941092 -2.579409,-1.6256532 -2.734028,-1.6256532 -0.826868,0 0.0039,0.7273307 2.365379,2.0709244 2.424324,1.3793364 3.607763,2.4933275 3.14276,2.958331 C 82.227938,8.0264886 81.221318,7.4917367 80.091731,6.7374262 78.962143,5.9831161 77.899199,5.3700165 77.72964,5.3749829 c -0.169563,0.00497 0.557473,0.5605914 1.615634,1.2347222 1.058164,0.6741309 1.772539,1.2267386 1.5875,1.228017 -0.357463,0.00247 1.629325,1.4025111 1.9959,1.4064622 0.118615,0.00127 0.14345,-0.3754384 0.05519,-0.8371483 -0.150322,-0.7863586 0.126199,-0.6959029 4.370448,1.4296587 2.492008,1.2480223 4.681735,2.4195353 4.866061,2.6033613 0.507764,0.506387 1.249056,0.40055 1.484069,-0.211885 z m 3.577351,-0.107788 c 0.375045,-0.237906 0.375045,-0.354396 0,-0.645226 -1.068539,-0.828608 -1.489308,-0.9084 -0.830228,-0.15744 0.648381,0.738767 0.650036,0.767661 0.03034,0.529856 -0.454444,-0.174387 -0.577229,-0.124949 -0.400374,0.161207 0.299039,0.483857 0.573253,0.509354 1.200277,0.111603 z M 98.7644,11.539564 c -0.241543,-0.291041 -0.31575,-0.529166 -0.164909,-0.529166 0.150844,0 -0.01309,-0.3175 -0.364257,-0.705556 -0.769649,-0.8504497 -0.318562,-0.9435714 0.589583,-0.121712 0.354828,0.321113 0.645139,0.413828 0.645139,0.206032 0,-0.207796 -0.595313,-0.8407605 -1.322917,-1.4065885 -2.135794,-1.6609191 -2.189681,-1.6676744 -2.137057,-0.2679044 0.03907,1.0392908 0.297681,1.4451369 1.47041,2.3075739 1.582483,1.16377 1.940087,1.307847 1.284008,0.517321 z M 97.108377,10.126868 C 96.346585,9.4468732 96.281102,9.2981173 96.824123,9.481131 L 97.529678,9.7189244 96.824123,8.8653553 96.118567,8.0117866 96.91448,8.6857812 c 0.437751,0.3706971 0.715218,0.754689 0.616592,0.8533158 -0.09863,0.098627 0.08375,0.470017 0.405292,0.825311 0.852276,0.941756 0.323088,0.789937 -0.827987,-0.23754 z m -9.985644,1.090079 c 0,-0.08042 -0.714375,-0.5455 -1.5875,-1.033499 -0.873125,-0.4879988 -1.5875,-0.7698079 -1.5875,-0.6262422 0,0.1435657 0.674688,0.6064382 1.499306,1.0286052 1.619585,0.829154 1.675694,0.850287 1.675694,0.631136 z m 6.702778,-0.529166 c 0,-0.3625 -3.04577,-2.1476303 -3.660405,-2.1453687 -0.218097,8.114e-4 0.476586,0.5438115 1.543738,1.206687 2.280607,1.4166267 2.116667,1.3439247 2.116667,0.9386817 z M 73.717177,10.304842 c -0.291042,-0.188085 -0.767292,-0.3419735 -1.058334,-0.3419735 -0.470369,0 -0.470369,0.037996 0,0.3419735 0.291042,0.188086 0.767292,0.341974 1.058334,0.341974 0.470369,0 0.470369,-0.038 0,-0.341974 z M 71.071343,9.9520643 C 70.951427,9.7580366 70.694566,9.5992866 70.500538,9.5992866 c -0.194027,0 -0.254666,0.15875 -0.13475,0.3527777 0.119916,0.1940277 0.376777,0.3527777 0.570805,0.3527777 0.194028,0 0.254667,-0.15875 0.13475,-0.3527777 z m 23.106244,-0.79375 C 94.176881,8.5425912 93.957605,8.3493758 93.1992,8.2968444 92.283541,8.2334203 86.663882,5.3776182 85.888011,4.5814375 85.413853,4.0948663 85.674443,4.2051916 89.2394,6.0002953 90.888636,6.8307543 91.931722,7.2672501 91.557372,6.970286 90.76673,6.3430909 84.850386,3.2492866 84.441629,3.2492866 c -0.151783,0 0.03217,0.233076 0.408816,0.5179472 0.908019,0.6867913 0.388095,0.6787208 -0.953015,-0.014792 -0.590479,-0.3053486 -1.14331,-0.4854667 -1.228517,-0.4002624 -0.0852,0.085204 0.326426,0.3542944 0.914732,0.5979781 1.230732,0.5097864 1.467901,1.2369669 0.280522,0.8601075 -0.836316,-0.2654378 -3.444212,-1.9015537 -3.444212,-2.1607974 0,-0.084305 0.357188,-0.046791 0.79375,0.083366 0.784179,0.2337947 0.785241,0.2296068 0.08819,-0.3472716 -0.691758,-0.5725023 -0.688311,-0.5797843 0.176389,-0.3724198 0.710911,0.1704848 0.7681,0.1397117 0.294901,-0.1586847 -0.651654,-0.410929 -1.81357,-0.1229427 -1.506777,0.3734611 0.30534,0.4940484 -0.31617,0.3710411 -1.179072,-0.2333586 -0.431228,-0.3020437 -0.784052,-0.4199502 -0.784052,-0.2620144 0,0.1579358 0.674688,0.7014849 1.499306,1.2078864 0.824618,0.506402 2.585343,1.5873459 3.912725,2.4020978 2.832718,1.738733 3.946007,2.213434 2.701859,1.1520565 -0.691145,-0.5896134 -0.754747,-0.7549215 -0.293981,-0.7641191 0.323378,-0.00646 0.640878,0.1424224 0.705556,0.3308392 0.06467,0.1884168 0.447262,0.3924173 0.850191,0.4533343 0.886439,0.1340174 5.6821,2.6185265 5.97777,3.0969309 0.340963,0.5516884 0.521624,0.3944804 0.520873,-0.4532577 z M 71.403353,9.0813393 C 71.026721,8.7964684 70.559816,8.5633924 70.365788,8.5633924 c -0.194028,0 -0.04462,0.233076 0.33201,0.5179469 0.376632,0.2848712 0.843537,0.5179473 1.037565,0.5179473 0.194028,0 0.04462,-0.2330761 -0.33201,-0.5179473 z m 4.077011,-0.4397795 c 3.53e-4,-0.04168 -0.335954,-0.2559562 -0.747427,-0.4761682 -0.448924,-0.2402575 -0.65883,-0.2558997 -0.524845,-0.039111 0.122802,0.198701 -0.05648,0.4325285 -0.398403,0.5196159 -0.341923,0.087088 -0.106055,0.1387898 0.524147,0.1148934 0.630206,-0.023897 1.146143,-0.07755 1.146528,-0.1192301 z M 77.510579,7.8286949 C 75.853257,6.7879486 74.90039,6.4756905 75.286054,7.0997114 c 0.109675,0.1774556 0.07936,0.3895622 -0.06737,0.4713481 -0.146731,0.081786 -0.08192,0.1055363 0.144022,0.052779 0.225943,-0.052757 1.013573,0.2113866 1.750289,0.5869855 2.037945,1.0390033 2.284021,0.8024929 0.397588,-0.3821292 z M 71.442744,8.2183062 C 71.333069,8.0408505 71.442762,7.8148113 71.686507,7.7159969 72.022732,7.5796899 72.001982,7.439146 71.600507,7.13359 71.1722,6.8076092 71.228489,6.7752609 71.895828,6.9638722 c 0.582754,0.1647052 1.016109,0.027344 1.478061,-0.4685045 0.624149,-0.6699447 0.587897,-1.1294145 -0.08911,-1.1294145 -0.173143,0 -0.21669,0.15875 -0.09677,0.3527778 0.119916,0.1940278 0.05928,0.3527778 -0.13475,0.3527778 -0.194028,0 -0.450889,-0.15875 -0.570805,-0.3527778 -0.119917,-0.1940278 -0.04054,-0.3527778 0.176388,-0.3527778 0.216931,0 0.296306,-0.15875 0.176389,-0.3527778 -0.32283,-0.5223517 0.295184,-0.4277571 1.079102,0.1651695 0.78897,0.5967455 1.213954,0.6758126 1.213954,0.2258523 0,-0.1729938 -0.403366,-0.4157726 -0.896373,-0.5395091 C 73.738911,4.740952 73.424,4.4965864 73.532112,4.3216537 c 0.495727,-0.8021013 -0.545645,-0.6225095 -1.1978,0.2065691 -0.923065,1.1734902 -0.917286,1.3482443 0.05995,1.8127899 0.749667,0.3563665 0.73497,0.3740552 -0.264583,0.3184927 -0.811181,-0.045091 -1.046893,0.085342 -1.009336,0.5585312 0.02695,0.3395486 -0.131802,0.6197921 -0.352778,0.6227632 -0.220977,0.00297 -0.16365,0.1592901 0.127391,0.3473756 0.66656,0.4307636 0.799928,0.4380992 0.54779,0.030131 z M 98.188826,8.099981 C 97.877408,7.4155858 95.236622,5.2364813 95.236622,5.663904 c 0,0.2088829 0.198438,0.5402841 0.440973,0.7364473 0.242534,0.1961631 0.900716,0.7580471 1.462624,1.2486312 1.150845,1.0047647 1.33702,1.0848365 1.048607,0.4509985 z M 88.758102,7.6568353 c -1.286595,-0.671007 -1.613179,-0.6750392 -0.732656,-0.00905 0.376632,0.2848709 0.922912,0.5220176 1.213954,0.5269932 0.291042,0.00497 0.07446,-0.2281008 -0.481298,-0.5179473 z m 5.41582,-0.2624099 C 94.171452,7.1518907 93.576207,6.5654739 92.851005,6.0912767 89.185079,3.6941937 87.006172,2.5129734 86.56363,2.6827928 86.293709,2.7863712 86.110645,2.7099779 86.156828,2.5130266 86.203006,2.3160768 85.53566,1.7320666 84.673831,1.2152267 83.812005,0.69838643 83.238791,0.48896061 83.400021,0.74983519 83.601161,1.0752847 83.53935,1.1728814 83.20309,1.060794 82.933546,0.97094642 82.713011,0.73537236 82.713011,0.5372961 c 0,-0.53947554 -2.284212,-2.3562596 -2.572537,-2.0461093 -0.137329,0.1477204 -0.05337,0.3387453 0.186566,0.4244992 0.239939,0.0857543 0.795564,0.4677964 1.234723,0.84898232 0.64806,0.56251122 0.4531,0.52470402 -1.034962,-0.20070516 -1.102388,-0.53739732 -1.919503,-0.75450626 -2.049293,-0.54450121 -0.118721,0.19209773 0.02026,0.34926905 0.308842,0.34926905 0.288587,0 1.479977,0.56905349 2.647534,1.26456369 1.399202,0.83349991 2.359738,1.18937231 2.817816,1.04398301 0.382246,-0.1213188 0.797091,-0.055373 0.921886,0.1465478 0.124796,0.2019201 0.02703,0.3671277 -0.217254,0.3671277 -0.576206,0 -0.141616,0.376978 1.637234,1.4201969 L 88.004678,4.4387054 87.299122,3.6085265 86.593566,2.778348 88.092872,3.6079448 c 0.824618,0.4562782 1.499306,0.9631489 1.499306,1.1263796 0,0.2334715 4.139117,3.0840867 4.497917,3.0977219 0.04851,0.00183 0.08623,-0.1950861 0.08383,-0.4376209 z M 56.078287,7.1298421 C 55.787245,6.9417565 55.23162,6.7878685 54.843565,6.7878685 c -0.58425,0 -0.614574,0.058796 -0.176389,0.3419736 0.291042,0.1880856 0.846667,0.3419736 1.234722,0.3419736 0.58425,0 0.614574,-0.058796 0.176389,-0.3419736 z M 92.4144,4.8367866 C 92.137462,4.503099 92.113816,4.3076199 92.350385,4.3076199 c 0.206333,0 0.473266,0.15875 0.593182,0.3527778 0.119916,0.1940277 0.376385,0.3527777 0.56993,0.3527777 0.193548,0 0.07413,-0.4702319 -0.26537,-1.0449598 C 92.880229,3.3454107 92.480243,3.035251 92.258045,3.2004776 92.052746,3.3531376 91.118086,3.0523134 90.177888,2.530971 88.701456,1.712286 88.572682,1.5575316 89.225758,1.3867487 89.69049,1.2652181 90.721596,1.5788446 91.906481,2.2021303 93.571998,3.078243 93.782497,3.1225271 93.465438,2.5301018 93.263836,2.1534043 92.984567,1.8753737 92.844838,1.9122563 92.70511,1.9491385 91.719975,1.5290691 90.655648,0.97876891 89.192562,0.22229588 88.848335,0.13513684 89.244536,0.62147205 89.717544,1.2020914 89.708457,1.2421944 89.151205,1.0333539 88.811657,0.90610128 88.533844,0.95320558 88.533844,1.1380294 c 0,0.1848241 -0.641854,0.00148 -1.426347,-0.40741002 -0.78449,-0.40889943 -1.345072,-0.82473024 -1.245733,-0.92406893 0.09934,-0.0993383 0.596219,0.0916986 1.104181,0.42452607 1.019023,0.66769015 1.545082,0.55622155 0.696937,-0.1476763 -0.294379,-0.24431378 -1.05228,-0.48765743 -1.684221,-0.54076389 -1.851914,-0.15562968 -1.878941,-0.1671574 -1.325372,-0.56536343 0.441529,-0.3176139 0.423224,-0.3463445 -0.110543,-0.1734834 -0.35184,0.1139437 -1.098018,-0.029831 -1.658176,-0.3194996 -1.506777,-0.7791848 -1.722321,-0.6376345 -0.524337,0.3443397 0.582083,0.4771281 1.345516,0.87321429 1.696515,0.88019223 0.351,0.006978 0.544989,0.16347193 0.431091,0.34776481 -0.113901,0.18429252 0.134014,0.51763083 0.550919,0.74075148 0.600019,0.32112088 0.70031,0.31231488 0.481175,-0.0422508 -0.201397,-0.32587 -0.100182,-0.38013781 0.371447,-0.19915681 1.185111,0.45476969 6.162382,3.52436469 5.991596,3.69515109 -0.176858,0.1768563 0.491359,1.1148716 0.794205,1.1148716 0.09701,0 -0.02124,-0.238125 -0.262781,-0.5291666 z M 76.36301,4.3539446 c -0.582083,-0.360534 -1.137458,-0.5848435 -1.234168,-0.4984659 -0.267653,0.239062 1.117681,1.15795 1.742567,1.1558394 0.31726,-0.00106 0.102161,-0.2792021 -0.508399,-0.6573735 z m 19.579168,0.1508841 c 0,-0.085563 -0.15875,-0.2536818 -0.352778,-0.3735977 -0.194028,-0.1199159 -0.352778,-0.04991 -0.352778,0.155569 0,0.2054786 0.15875,0.3735977 0.352778,0.3735977 0.194028,0 0.352778,-0.070006 0.352778,-0.155569 z M 74.77551,3.6020643 c 0,-0.1940277 -0.277812,-0.3503468 -0.617361,-0.3473757 -0.527597,0.00462 -0.54042,0.055125 -0.08819,0.3473757 0.665765,0.4302513 0.705555,0.4302513 0.705555,0 z m 0.705556,-1.7638889 c 0.279696,-0.3880555 0.711616,-0.7055555 0.959824,-0.7055555 0.248207,0 0.451287,-0.15376773 0.451287,-0.34170586 0,-0.18793848 0.277813,-0.24394865 0.617361,-0.12446776 0.477453,0.1680076 0.52601,0.11811882 0.214263,-0.22014215 C 77.438898,0.13717237 77.128573,0.1124497 76.665468,0.36198989 75.801794,0.82737116 74.205333,2.543731 74.636138,2.543731 c 0.185015,0 0.565231,-0.3175 0.844928,-0.7055556 z M 56.960232,1.4853977 c 0.119916,-0.1940278 0.05928,-0.3527778 -0.134751,-0.3527778 -0.194028,0 -0.450889,0.15875 -0.570805,0.3527778 -0.119916,0.1940277 -0.05928,0.3527777 0.13475,0.3527777 0.194028,0 0.450889,-0.15875 0.570806,-0.3527777 z m -7.945345,-2.24805702 c 0.0043,-0.1692783 -0.260004,-0.0899033 -0.587374,0.17638889 -0.528047,0.42953023 -0.565754,0.40576006 -0.334132,-0.21063444 0.143597,-0.38214163 0.135923,-0.56964053 -0.01705,-0.41666473 -0.152976,0.152976 -0.302999,0.77246652 -0.333385,1.37664574 l -0.05525,1.09850806 0.659673,-0.85823218 c 0.36282,-0.4720276 0.663203,-0.99673269 0.667518,-1.16601134 z M 80.390558,1.017493 c -0.670683,-0.52529601 -2.792825,-1.66200845 -2.792825,-1.49596019 0,0.265448 2.18211,1.60799709 2.616436,1.60976839 0.177857,7.408e-4 0.257232,-0.050488 0.176389,-0.1138082 z M 91.14634,-0.10210233 c -0.523398,-0.48506945 -1.126892,-0.87623545 -1.341092,-0.8692575 -0.431517,0.0140582 1.559088,1.74665534 2.009966,1.74944969 0.155519,9.525e-4 -0.145475,-0.39512275 -0.668874,-0.88019219 z M 88.342388,-0.60689276 C 88.631045,-1.073949 87.999838,-1.3805108 87.30138,-1.1124865 c -0.470683,0.18061767 -0.495053,0.28718408 -0.120033,0.52490938 0.613093,0.38863905 0.911987,0.38366629 1.161041,-0.0193146 z M 47.543489,-2.2281039 c -0.108616,-0.108616 -0.305876,0.087176 -0.438355,0.4350925 -0.191447,0.5027782 -0.150925,0.5432997 0.197484,0.1974833 0.241094,-0.2393012 0.349486,-0.5239601 0.240871,-0.6325758 z m 4.055492,-2.2837207 c -0.0966,-0.097014 -0.636394,0.3732396 -1.199551,1.0450076 -0.859761,1.0255761 -1.030619,1.1104146 -1.065697,0.5291666 -0.02298,-0.3807262 -0.02298,-0.8112922 0,-0.956813 0.02298,-0.1455209 -0.135489,-0.2645834 -0.352147,-0.2645834 -0.247924,0 -0.300612,0.2941856 -0.142159,0.79375 0.138471,0.4365625 0.270379,1.053646 0.293129,1.3712963 0.02849,0.3978077 0.446046,0.1233374 1.34171,-0.8819445 0.71519,-0.8027197 1.221311,-1.5388657 1.124715,-1.6358796 z m -3.987361,1.0583334 c 0,-0.1940278 -0.07001,-0.3527778 -0.155569,-0.3527778 -0.08556,0 -0.253682,0.15875 -0.373598,0.3527778 -0.119916,0.1940278 -0.04991,0.3527778 0.155569,0.3527778 0.205479,0 0.373598,-0.15875 0.373598,-0.3527778 z m 6.754354,-2.612353 c 0.128746,-0.1756135 0.666285,-0.3653772 1.194527,-0.4216971 1.38225,-0.1473719 2.558972,-1.3824839 2.507894,-2.6323357 -0.04641,-1.135636 -0.591965,-1.341741 -1.298409,-0.4905269 -0.324803,0.3913607 -0.524253,0.4306263 -0.704656,0.1387256 -0.182013,-0.2945014 -0.318386,-0.299121 -0.492933,-0.0167 -0.132719,0.2147446 -0.07817,0.3904431 0.121221,0.3904431 0.19939,0 0.262714,0.2778125 0.14072,0.6173611 -0.176781,0.4920309 -0.04458,0.4562221 0.651168,-0.1763888 0.872317,-0.7931503 1.850414,-1.1463821 1.102014,-0.3979845 -0.217671,0.2176709 -0.31181,0.6145459 -0.209201,0.8819444 0.102613,0.2673985 0.0015,0.4861789 -0.224776,0.4861789 -0.235183,0 -0.297885,-0.1888486 -0.146413,-0.4409722 0.170896,-0.2844532 0.04714,-0.2642023 -0.348658,0.057054 -0.488089,0.396167 -0.519976,0.5653158 -0.15591,0.8270283 0.334398,0.2403873 0.294432,0.276679 -0.148392,0.1347417 -0.333336,-0.106843 -0.701495,-0.039854 -0.818127,0.1488651 -0.116636,0.1887189 -0.364458,0.2489394 -0.550722,0.1338242 -0.38354,-0.2370406 -1.914086,1.0734936 -2.497009,2.1380697 -0.320264,0.5848889 -0.212755,0.5547226 0.628622,-0.1763889 0.558227,-0.4850695 1.120297,-1.0256284 1.24904,-1.201242 z m -2.873798,0.056517 c 0,-0.1967889 -0.233984,-0.1585891 -0.529167,0.086391 -0.291042,0.2415431 -0.529167,0.5979192 -0.529167,0.791947 0,0.196789 0.233984,0.1585891 0.529167,-0.086391 0.291042,-0.2415431 0.529167,-0.5979192 0.529167,-0.791947 z M 50.883372,-7.854187 c -0.239969,-0.4288007 -0.376899,-0.3823385 -0.779761,0.2645833 -0.458905,0.7369182 -0.449886,0.7526553 0.148053,0.2583233 0.590167,-0.4879058 0.618877,-0.4621078 0.392609,0.3527778 -0.202942,0.7308786 -0.178816,0.7750418 0.143032,0.2618168 0.221461,-0.3531471 0.262576,-0.839967 0.09607,-1.1375012 z m 3.960193,-0.1854154 c 0.616317,-0.6810224 0.616172,-0.7055556 -0.0041,-0.7055556 -0.353451,0 -0.538183,0.1044561 -0.410513,0.2321246 0.127667,0.1276685 0.05531,0.4451685 -0.160789,0.7055556 -0.620374,0.7475132 -0.133322,0.5510371 0.57543,-0.2321246 z m 0.881944,0.3527777 c 0,-0.1940277 -0.15875,-0.3527777 -0.352778,-0.3527777 -0.194027,0 -0.352777,0.15875 -0.352777,0.3527777 0,0.1940278 0.15875,0.3527778 0.352777,0.3527778 0.194028,0 0.352778,-0.15875 0.352778,-0.3527778 z m -2.844661,-1.9402777 c 0,-0.1940278 -0.233076,-0.044624 -0.517947,0.3320097 -0.284871,0.376633 -0.517948,0.8435372 -0.517948,1.037565 0,0.1940277 0.233077,0.044624 0.517948,-0.3320094 0.284871,-0.3766333 0.517947,-0.8435376 0.517947,-1.0375653 z m -3.35839,0.6550631 c 0.336101,-0.8758639 -0.03435,-0.9954595 -0.483557,-0.1561105 -0.216711,0.4049293 -0.246535,0.7357696 -0.06633,0.7357696 0.180096,0 0.427543,-0.2608467 0.549882,-0.5796591 z m 5.110495,-1.1842297 c 0.818032,-0.970139 1.279444,-1.761924 1.025363,-1.759522 -0.391834,0.0037 -1.157023,0.942682 -2.507975,3.0775886 -0.608516,0.9616352 0.0659,0.3620664 1.482612,-1.3180666 z m -3.498957,0.6381809 c 0.003,0.2539855 0.162571,0.3646562 0.354667,0.2459341 0.219823,-0.1358579 0.187137,-0.3905949 -0.08819,-0.6873353 -0.444748,-0.4793327 -0.955823,-0.1129777 -0.955823,0.6851646 0,0.1940278 0.153888,0.1146528 0.341974,-0.1763888 0.248493,-0.3845158 0.34345,-0.4029329 0.347376,-0.067375 z m -3.169598,-0.6381809 c 0,-0.194028 -0.07001,-0.352778 -0.155569,-0.352778 -0.08556,0 -0.253682,0.15875 -0.373598,0.352778 -0.119916,0.1940277 -0.04991,0.3527777 0.155569,0.3527777 0.205479,0 0.373598,-0.15875 0.373598,-0.3527777 z m 1.422741,-1.234722 c 0.478723,-0.652641 0.471236,-0.669245 -0.09982,-0.221388 -0.339548,0.266293 -0.617361,0.649938 -0.617361,0.852546 0,0.202608 0.04492,0.302233 0.09983,0.221388 0.0549,-0.08085 0.332716,-0.464491 0.617361,-0.852546 z m 8.102259,0.176389 c 0,-0.194028 -0.16812,-0.352778 -0.373599,-0.352778 -0.205478,0 -0.275484,0.15875 -0.155567,0.352778 0.119916,0.194027 0.288036,0.352777 0.373598,0.352777 0.08556,0 0.155568,-0.15875 0.155568,-0.352777 z m 1.411111,0.197208 c 0,-0.08556 -0.15875,-0.253681 -0.352777,-0.373597 -0.194028,-0.119916 -0.352778,-0.04991 -0.352778,0.155569 0,0.205478 0.15875,0.373597 0.352778,0.373597 0.194027,0 0.352777,-0.07001 0.352777,-0.155569 z m -3.67919,-1.877325 c -0.08566,-0.08566 -0.482494,0.07313 -0.881863,0.352859 -0.399369,0.279729 -0.620956,0.613768 -0.492414,0.742309 0.128541,0.12854 0.525377,-0.03025 0.881863,-0.35286 0.356482,-0.322613 0.578069,-0.656652 0.492414,-0.742308 z m 29.323967,60.368411 c -0.530374,-0.530376 0.289461,-0.832739 2.257901,-0.832739 2.191396,0 3.471933,-0.529974 4.633228,-1.917552 0.670292,-0.800893 0.827314,-1.423994 0.272429,-1.081059 -0.194027,0.119916 -0.352777,0.05928 -0.352777,-0.13475 0,-0.555812 0.628999,-0.800005 0.794445,-0.30842 0.118607,0.352425 0.262823,0.349367 0.704278,-0.01492 1.212173,-1.000309 0.87962,0.285877 -0.470496,1.819687 -1.068074,1.213397 -1.885738,1.759582 -3.23323,2.159745 -1.855159,0.550922 -4.206596,0.709199 -4.605778,0.310021 z m 1.624333,-9.959297 c 0.245773,-2.075145 1.76082,-5.706717 2.756811,-6.608075 1.043714,-0.944552 0.835078,0.120019 -0.372784,1.90215 -0.898642,1.32589 -1.783691,4.074167 -1.783691,5.538748 0,0.270041 -0.183807,0.604584 -0.408456,0.743426 -0.299258,0.184948 -0.350556,-0.236466 -0.19188,-1.576249 z M 44.789398,10.488401 c 0,-0.09307 0.663716,-0.5078223 1.474925,-0.9216702 0.811209,-0.4138482 1.750045,-1.0917618 2.0863,-1.5064754 0.336256,-0.4147136 0.729899,-0.6359352 0.874763,-0.4916039 0.144865,0.1443312 -0.03991,0.5977865 -0.410605,1.0076779 -1.015955,1.1233743 -4.025383,2.5528636 -4.025383,1.9120716 z M 64.766209,8.099981 C 64.490898,7.6634185 64.171186,6.9873111 64.05574,6.5975198 63.940289,6.207729 63.553673,5.731479 63.196592,5.5391865 62.839506,5.3468944 62.004622,4.8963055 61.341291,4.5378776 60.174531,3.9074256 58.331355,1.5841807 58.703049,1.212486 c 0.100499,-0.1004958 0.802559,0.475422 1.560139,1.2798181 0.757576,0.8043958 1.542464,1.462538 1.74419,1.462538 0.689514,0 2.468068,1.7672096 3.208803,3.1883361 0.841442,1.6143432 0.872194,1.7505528 0.395238,1.7505528 -0.189554,0 -0.569898,-0.3571875 -0.84521,-0.79375 z M 49.728287,6.7587128 c 0,-0.2041207 0.463522,-0.5327135 1.030049,-0.7302062 0.566527,-0.1974924 1.113985,-0.5778091 1.216573,-0.845148 0.102587,-0.2673389 0.688566,-0.7456879 1.302174,-1.0629974 1.558251,-0.8058026 1.179442,-0.1452972 -0.896496,1.5631576 -1.734383,1.4273626 -2.6523,1.7994694 -2.6523,1.075194 z M 68.946238,6.3977009 c -0.212714,-0.6702076 0.0028,-1.3510856 0.317391,-1.0023496 0.373736,0.4144066 0.577522,1.7344908 0.267762,1.7344908 -0.194028,0 -0.457348,-0.3294634 -0.585153,-0.7321412 z M 67.102427,4.924981 c 0.222261,-0.6675226 1.323083,-0.7624233 1.323083,-0.1140615 0,0.327249 -0.301625,0.5550337 -0.734953,0.5550337 -0.431087,0 -0.67425,-0.1823212 -0.58813,-0.4409722 z M 65.80169,3.7089454 C 65.613222,2.8565994 65.170052,2.5540688 62.590819,1.5170429 60.945093,0.85535067 59.422088,0.10128817 59.206357,-0.15865155 c -0.631303,-0.76067038 0.351201,-0.58375868 2.32821,0.41922241 0.963662,0.48888791 1.982844,0.80034664 2.264851,0.6921306 0.282007,-0.108216 0.626438,-0.0127847 0.765405,0.21206704 0.138966,0.2248532 0.667596,0.4088236 1.174732,0.4088236 0.768153,0 0.930899,0.1692981 0.974983,1.0142361 0.0291,0.5578299 0.06879,1.1994445 0.08819,1.4258103 0.07631,0.8902161 -0.795503,0.6248591 -1.001042,-0.3046931 z m 3.152867,-1.6061866 c 0.515972,-1.82988093 0.996823,-2.7340278 1.45403,-2.7340278 0.644546,0 0.618253,0.21035398 -0.250659,2.0052863 -0.773254,1.5973333 -1.587292,2.0903 -1.203371,0.7287415 z M 64.45676,-0.83335987 c -0.873062,-0.88525703 0.227238,-5.08957583 1.331976,-5.08957583 0.683486,0 0.656639,0.2285104 -0.161901,1.3780407 -0.375105,0.5267851 -0.732292,1.6377461 -0.79375,2.4688024 -0.06146,0.8310566 -0.230804,1.39028627 -0.376325,1.24273273 z M 57.317588,-2.7851805 c -0.39322,-1.0247207 1.382865,-4.1960885 2.34997,-4.1960885 0.507015,0 0.317923,0.4971895 -0.59109,1.5541763 -0.484833,0.5637554 -0.883945,1.2781304 -0.886915,1.5875 -0.0028,0.3093698 -0.153183,0.7961665 -0.333802,1.0817704 -0.286438,0.45293 -0.355198,0.4494347 -0.538163,-0.027358 z"
       style="fill:#000000;stroke-width:0.35277778" />
  </g>
</svg>
