<?xml version="1.0" encoding="UTF-8" standalone="no"?>
<svg
   xmlns:dc="http://purl.org/dc/elements/1.1/"
   xmlns:cc="http://creativecommons.org/ns#"
   xmlns:rdf="http://www.w3.org/1999/02/22-rdf-syntax-ns#"
   xmlns:svg="http://www.w3.org/2000/svg"
   xmlns="http://www.w3.org/2000/svg"
   id="svg8"
   version="1.1"
   viewBox="0 0 72.851152 181.19563"
   height="181.19565mm"
   width="72.851151mm">
  <defs
     id="defs2" />
  <metadata
     id="metadata5">
    <rdf:RDF>
      <cc:Work
         rdf:about="">
        <dc:format>image/svg+xml</dc:format>
        <dc:type
           rdf:resource="http://purl.org/dc/dcmitype/StillImage" />
        <dc:title></dc:title>
      </cc:Work>
    </rdf:RDF>
  </metadata>
  <g
     transform="translate(2.7976408,-19.555486)"
     id="layer1">
    <path
       id="path2680"
       d="m 60.613001,200.24261 c -0.444913,-0.53609 -0.402262,-1.7524 0.302701,-8.63284 0.129222,-1.26118 0.112617,-3.16618 -0.0369,-4.23333 -0.149514,-1.06715 -0.28617,-2.97215 -0.303681,-4.23333 -0.106017,-7.63612 -2.410443,-13.02629 -9.618769,-22.4988 -1.96022,-2.57593 -4.233581,-5.59218 -5.051916,-6.70277 -1.964736,-2.66643 -3.268408,-4.02105 -4.486652,-4.662 -0.549942,-0.28935 -1.252605,-0.92435 -1.561476,-1.41112 -0.308871,-0.48677 -0.658343,-0.96441 -0.776605,-1.06142 -0.821655,-0.67404 -3.152666,-4.90282 -3.152666,-5.71938 0,-0.96 0.582856,-2.35048 1.165151,-2.77962 0.155762,-0.11479 0.243276,-0.35292 0.194476,-0.52916 -0.0488,-0.17625 0.111824,-1.64088 0.356944,-3.25473 0.245124,-1.61385 0.343433,-3.39978 0.218468,-3.96875 -0.124964,-0.56896 -0.09553,-1.03451 0.0654,-1.03456 0.160941,-4e-5 0.321285,-0.59536 0.35633,-1.32291 0.03503,-0.72756 0.164754,-1.95784 0.288251,-2.73395 0.488996,-3.07314 0.299502,-3.51391 -2.012802,-4.68181 -0.832788,-0.42062 -1.955126,-1.14904 -2.494079,-1.6187 -0.538949,-0.46966 -1.451761,-1.04938 -2.028472,-1.28826 -0.576707,-0.23888 -1.048558,-0.58208 -1.048558,-0.76266 0,-0.18058 -0.436562,-0.48853 -0.970139,-0.68435 -0.533576,-0.1958 -1.605139,-1.15092 -2.38125,-2.12246 -0.776111,-0.97155 -2.284236,-2.48895 -3.351389,-3.37201 -3.465225,-2.86744 -4.586111,-3.97852 -4.586111,-4.54596 0,-0.40449 0.274636,-0.28386 1.001903,0.44005 0.551046,0.5485 1.766614,1.63227 2.701262,2.40839 0.934648,0.77611 2.826007,2.52236 4.203023,3.88055 2.422648,2.38954 3.931179,3.70417 4.250503,3.70417 0.0848,0 0.590747,0.40459 1.124331,0.8991 1.023627,0.94867 6.076054,3.49752 6.36337,3.21021 0.09258,-0.0926 -0.0028,-0.48793 -0.211765,-0.87854 -0.209053,-0.39062 -0.290375,-0.94402 -0.180721,-1.22978 0.129042,-0.33628 -0.0045,-0.50086 -0.378446,-0.46653 -0.5643,0.0518 -0.61879,-0.17467 -0.978337,-4.0662 -0.03006,-0.3253 -0.164275,-0.52371 -0.298264,-0.4409 -0.43386,0.26814 -2.180473,-3.12153 -2.274813,-4.41476 -0.17634,-2.41725 -2.218309,-7.32922 -3.749199,-9.01872 -0.528412,-0.583159 -1.721284,-2.160449 -2.650825,-3.505069 -1.810406,-2.61884 -2.983064,-3.4771 -9.541395,-6.983242 -1.795863,-0.960084 -3.780238,-2.295676 -4.409722,-2.967979 -0.629484,-0.672306 -2.236494,-1.944497 -3.571133,-2.82709 -2.1535971,-1.424168 -2.6546151,-1.606861 -4.4530961,-1.623801 -2.392704,-0.02254 -3.847739,0.733781 -5.595333,2.90843 l -1.15249701,1.434126 0.541903,1.8444 c 0.417287,1.420259 0.80030001,1.989889 1.66555201,2.477065 0.850537,0.478888 1.024473,0.731837 0.715618,1.040694 -0.606886,0.606887 -0.497087,1.837077 0.331163,3.710347 1.606892,3.63434 3.483466,7.378759 4.303551,8.587089 3.0956981,4.56128 5.1878111,9.40704 5.1878111,12.01602 0,0.6168 0.334798,1.19162 0.970139,1.66564 l 0.970139,0.7238 -1.058333,0.0649 c -0.582084,0.0357 -1.217084,0.10179 -1.411112,0.14687 -0.194027,0.0451 -0.511527,0.10744 -0.705555,0.13857 -0.194028,0.0311 0.123472,0.27468 0.705555,0.54121 1.0397,0.47607 1.021066,0.48498 -1.058333,0.5059 -1.1641671,0.0117 -3.0691671,-0.17833 -4.2333331,-0.42232 -2.102319,-0.44061 -4.911013,-0.23983 -5.547402,0.39656 -0.173253,0.17325 1.271668,0.40861 3.326092,0.54178 4.298304,0.27861 5.9839201,0.9756 9.3832801,3.87992 1.222695,1.04464 2.88957,2.175 3.704167,2.51191 2.58475,1.06903 3.56735,1.66709 4.756198,2.89483 2.798864,2.89043 2.252979,-1.20751 -1.18353,-8.88473 -1.580196,-3.53019 -2.128782,-5.85378 -3.123324,-13.22917 -0.845311,-6.26871 -0.943801,-6.65301 -2.49449,-9.733579 -1.34958,-2.68105 -1.985591,-3.51423 -3.876883,-5.078765 -2.1501301,-1.778649 -2.8904051,-2.704779 -2.4855761,-3.109609 0.19464,-0.194641 4.2427531,3.513198 5.1261901,4.695294 1.341847,1.79548 3.303429,5.875519 3.814948,7.934999 0.216861,0.87312 0.645263,4.04812 0.952005,7.05555 0.610001,5.98072 0.990256,7.60099 2.600118,11.0791 0.589371,1.27334 1.554429,3.75636 2.144573,5.51782 1.178454,3.51745 1.173085,5.46049 -0.01808,6.53847 -1.123997,1.0172 -4.678292,-0.17129 -7.564611,-2.52947 -1.927914,-1.57514 -2.955406,-1.9087 -5.879554,-1.9087 -2.1639121,0 -2.8254451,-0.16808 -5.0041181,-1.27143 -1.38081,-0.69929 -2.748688,-1.47426 -3.03973,-1.72216 -0.291042,-0.2479 -0.926042,-0.57162 -1.411111,-0.71937 -0.48506901,-0.14776 -1.56433901,-0.82698 -2.398378,-1.50937 -1.715449,-1.40356 -1.854843,-2.42801 -0.423844,-3.11497 3.646521,-1.75052 6.114838,-2.02681 9.137629,-1.0228 1.935076,0.64273 2.7730121,0.42983 3.9770001,-1.01044 0.813419,-0.97306 0.801177,-1.18114 -0.257341,-4.37405 -0.879387,-2.65257 -1.5100231,-3.83805 -5.4018551,-10.15449 -1.896215,-3.07756 -3.384436,-6.346299 -4.24345,-9.320359 -0.25219,-0.873124 -0.63188301,-1.904999 -0.84376301,-2.293055 -1.08032,-1.9786 -1.60187399,-3.308085 -1.79911699,-4.586111 -0.190664,-1.235392 -0.06429,-1.618707 1.01484799,-3.078198 1.60198601,-2.166623 3.42882001,-3.096432 6.07491201,-3.091966 2.658828,0.0045 4.8366561,1.022607 8.1834281,3.825705 1.423719,1.192439 2.742208,2.16807 2.929976,2.16807 0.187768,0 0.723536,-0.436562 1.190597,-0.970139 0.875811,-1.000537 6.142692,-9.506489 6.142692,-9.920375 0,-0.12784 0.324334,-0.837572 0.720743,-1.577181 0.856269,-1.597614 0.723406,-2.158033 -1.008504,-4.253886 -1.044379,-1.263841 -1.435755,-2.174875 -1.939017,-4.513573 -0.346791,-1.611566 -0.696266,-4.004747 -0.77661,-5.318174 -0.116282,-1.900911 -0.337023,-2.63839 -1.082115,-3.615256 -2.569114,-3.368283 -2.491438,-7.982237 0.160757,-9.548927 1.007727,-0.595279 1.044265,-0.684362 0.51884,-1.26495 -0.327723,-0.36213 -0.601287,-1.37447 -0.651038,-2.409204 -0.05039,-1.047935 -0.322944,-2.046663 -0.660265,-2.419398 -0.315952,-0.349123 -0.574458,-0.900081 -0.574458,-1.224352 0,-0.385607 -0.29018,-0.589583 -0.838748,-0.589583 -1.321544,0 -1.669414,-0.755389 -1.57765,-3.42582 0.07227,-2.103241 -0.02207,-2.540425 -0.693005,-3.21136 -0.687859,-0.68786 -0.749713,-1.0083 -0.540938,-2.802383 0.326995,-2.809985 0.595514,-3.677247 1.270333,-4.102912 0.863344,-0.544583 1.051414,-0.102085 0.448213,1.054572 -0.719141,1.378976 -0.698999,4.69222 0.03489,5.74 0.41115,0.586999 0.514664,1.239694 0.367218,2.315436 -0.127442,0.929786 -0.05023,1.653116 0.203567,1.906907 0.310007,0.310006 0.306514,0.408893 -0.01444,0.408893 -0.560921,0 -0.546153,0.942919 0.01764,1.126208 0.768055,0.249696 2.953602,-0.221096 2.469444,-0.531946 -0.870189,-0.5587 -0.418495,-0.856068 0.705556,-0.464497 1.313311,0.457502 2.268043,1.12409 3.229676,2.25494 0.649087,0.763306 0.65023,0.81439 0.03352,1.495851 -0.407263,0.450021 -1.097843,0.709806 -1.906759,0.717292 l -1.268241,0.01174 0.79375,0.662172 c 0.979759,0.817346 0.985269,0.94587 0.05103,1.19018 -0.903968,0.236393 -0.746071,0.856949 0.444151,1.745578 0.876102,0.654104 0.930606,0.65294 3.122827,-0.06673 1.227137,-0.402849 2.513072,-0.732453 2.857634,-0.732453 0.829754,0 1.215323,0.663334 0.514082,0.884437 -0.30334,0.09564 -0.793253,0.249671 -1.088694,0.342284 -0.4592,0.143947 -0.442358,0.263199 0.116046,0.821601 0.673421,0.673421 2.006544,4.244959 1.699208,4.552298 -0.293265,0.293264 -0.925308,-0.263201 -0.925308,-0.81466 0,-0.854076 -1.335868,-3.212154 -1.954104,-3.449394 -1.308505,-0.502121 -3.925716,-0.228795 -4.564135,0.476651 -0.346702,0.383101 -0.913663,0.786463 -1.259913,0.896358 -1.34829,0.427931 -1.791106,3.750525 -0.822482,6.171357 0.964436,2.410361 2.872771,2.694181 2.470848,0.367478 -0.196983,-1.140319 0.336414,-2.487299 0.984956,-2.487299 0.951305,0 0.965441,0.699834 0.05309,2.628385 -0.75726,1.600715 -0.900921,2.394031 -0.877614,4.846295 0.03641,3.830638 0.76377,7.907814 1.385147,7.764335 0.595005,-0.137385 1.090856,0.649651 0.865819,1.374267 -0.09598,0.309041 0.202354,1.261541 0.662955,2.116667 0.460604,0.855123 1.037646,2.507273 1.282319,3.671439 0.244676,1.164167 0.806608,2.751667 1.248745,3.527778 0.442133,0.776111 0.916996,1.807986 1.055246,2.293055 0.13825,0.48507 0.821955,1.477257 1.51934,2.204862 0.697385,0.727604 1.077006,1.322916 0.843601,1.322916 -0.596551,0 -0.528761,1.494 0.10499,2.313824 1.091872,1.412455 1.946103,3.736227 1.59469,4.338051 -0.301932,0.517081 -0.339873,0.507693 -0.349437,-0.08647 -0.0059,-0.366596 -0.482469,-1.43322 -1.059046,-2.370275 -0.576576,-0.937052 -1.174993,-2.462735 -1.329817,-3.390402 -0.228773,-1.370743 -0.428882,-1.707787 -1.068349,-1.799403 -0.432766,-0.062 -0.786849,0.04712 -0.786849,0.242492 0,0.195372 -1.071563,1.251585 -2.38125,2.347147 -2.171898,1.816798 -3.968751,3.832129 -3.968751,4.451307 0,0.476787 4.228646,3.066165 4.442411,2.72028 0.118287,-0.191392 0.476822,-0.245046 0.796745,-0.119232 0.319924,0.125815 1.296053,0.299174 2.169178,0.385244 2.346156,0.231271 2.734599,0.420377 3.33478,1.623472 0.300175,0.60172 0.545776,1.13497 0.545776,1.185 0,0.2456 -1.053924,-0.10932 -1.551912,-0.52261 -0.340311,-0.28244 -0.564755,-0.31962 -0.564755,-0.0936 0,0.20633 0.15875,0.47326 0.352778,0.59318 0.194028,0.11991 0.352778,0.52616 0.352778,0.90276 0,0.83141 0.552326,0.89589 0.989072,0.11547 0.270337,-0.48306 0.445414,-0.50138 1.15619,-0.12098 0.806962,0.43187 0.812081,0.45937 0.139926,0.75146 -0.469042,0.20383 -0.213092,0.24319 0.781001,0.12012 1.248209,-0.15454 1.56483,-0.0601 2.03133,0.60593 0.507513,0.72457 0.501995,0.81165 -0.06758,1.06644 -0.493939,0.22096 -0.463254,0.248 0.15071,0.13281 0.956592,-0.17946 2.339753,0.740379 2.090399,1.390179 -0.101576,0.2647 -0.03288,0.5751 0.152689,0.68977 0.185554,0.11468 0.337372,0.031 0.337372,-0.18591 0,-0.21693 0.15875,-0.2963 0.352778,-0.17639 0.896652,0.55417 0.210979,-0.74934 -1.025254,-1.949059 -1.298564,-1.26021 -1.334166,-1.3491 -0.617361,-1.5414 1.47677,-0.39618 2.271282,-0.2072 2.851425,0.67821 0.576736,0.8802 0.463177,1.780399 -0.174854,1.386079 -0.180619,-0.111629 -0.328401,-0.0179 -0.328401,0.20838 0,0.22623 0.226519,0.32441 0.503375,0.21817 0.276853,-0.10623 0.685338,0.0261 0.907737,0.29407 0.464862,0.56012 1.411111,0.32191 1.411111,-0.35524 0,-0.25088 -0.555625,-1.011769 -1.234723,-1.690869 -0.679097,-0.6791 -1.234722,-1.5681 -1.234722,-1.97556 0,-0.61806 0.214627,-0.74083 1.295139,-0.74083 0.71609,0 1.586939,-0.26408 1.947799,-0.59065 0.358962,-0.32486 1.326928,-0.62871 2.151035,-0.67523 0.824106,-0.0465 2.447911,-0.24516 3.608451,-0.4414 1.160543,-0.19625 3.037924,-0.461322 4.171964,-0.589049 1.904827,-0.214545 2.044816,-0.290445 1.837775,-0.996424 -0.123261,-0.420307 -0.404266,-1.716691 -0.624452,-2.880857 -0.220187,-1.164167 -0.442733,-2.173672 -0.494549,-2.243346 -0.05181,-0.06967 -0.539909,0.18778 -1.084654,0.572117 -0.544749,0.384341 -1.82959,1.121594 -2.8552,1.638346 -1.025613,0.516752 -2.517511,1.529299 -3.315325,2.250105 -1.316242,1.189193 -1.647324,1.314566 -3.575219,1.353869 -1.517901,0.03094 -2.244524,0.20725 -2.544403,0.617359 -0.559978,0.76581 -0.84498,0.72661 -0.632223,-0.08697 0.193911,-0.741521 2.230529,-2.39226 2.230529,-1.807911 0,0.713845 1.014793,0.758659 2.004268,0.0885 3.200799,-2.167837 4.991936,-3.206273 5.893252,-3.416695 1.442752,-0.336825 3.172396,-1.751319 4.640795,-3.795218 1.162354,-1.617913 1.197942,-1.73742 0.447633,-1.503165 -0.448314,0.139972 -0.894489,0.353642 -0.991503,0.474828 -0.09701,0.121187 -0.851077,0.657666 -1.675695,1.192181 -0.824618,0.534511 -1.499305,1.114721 -1.499305,1.289353 0,0.174632 -0.754063,0.80409 -1.675695,1.398792 -0.921632,0.594703 -2.072569,1.362382 -2.557639,1.705953 l -0.881944,0.624677 0.881944,-1.122793 c 0.48507,-0.617537 1.27882,-1.284178 1.763889,-1.481426 1.00911,-0.410341 2.822222,-1.973171 2.822222,-2.432643 0,-0.616941 1.639443,-1.775601 3.880556,-2.74254 1.261181,-0.544142 2.54368,-1.199194 2.85,-1.455671 0.306321,-0.256472 0.733513,-0.466315 0.949318,-0.466315 0.716368,0 0.815277,-0.660044 0.288008,-1.921976 -0.286674,-0.68611 -0.682442,-2.399661 -0.879482,-3.80789 -0.197041,-1.408225 -0.65991,-3.433537 -1.028598,-4.500689 -1.055412,-3.054827 -3.82718,-8.908599 -4.672775,-9.868546 -0.67159,-0.762412 -0.743105,-1.14736 -0.565827,-3.045766 0.267063,-2.859928 -0.131674,-4.13173 -2.065415,-6.587829 -1.170743,-1.48699 -1.817155,-2.02175 -2.385681,-1.973607 -1.59839,0.135351 -3.072882,-0.05489 -3.072882,-0.396474 0,-0.194028 0.264584,-0.352778 0.587965,-0.352778 2.009567,0 -2.448134,-1.599806 -6.34165,-2.275928 -0.807466,-0.140219 -1.890808,-0.727423 -2.713832,-1.470976 -1.092863,-0.987334 -1.456898,-1.643164 -1.80025,-3.24326 -0.622081,-2.89901 -0.906533,-3.345639 -1.962054,-3.08072 -1.003378,0.251832 -2.234068,-0.0443 -2.234068,-0.537564 0,-0.181691 0.5019,-0.290056 1.115332,-0.240811 1.004418,0.08063 1.147907,-0.03325 1.44291,-1.145185 0.180171,-0.679097 0.491342,-1.433016 0.691491,-1.675375 0.252412,-0.305646 0.228832,-0.766753 -0.07697,-1.505018 -0.363622,-0.877856 -0.531121,-0.989466 -0.95589,-0.636939 -0.43996,0.365134 -0.400205,0.469895 0.272771,0.718846 0.433282,0.160282 0.70738,0.371828 0.609106,0.470102 -0.09827,0.09827 -0.637258,0.0029 -1.197744,-0.21203 -0.560486,-0.21489 -1.601763,-0.298848 -2.313947,-0.186573 -1.611083,0.253986 -2.479199,-0.0545 -2.271402,-0.807151 0.0874,-0.316571 0.261581,-0.932771 0.387064,-1.369334 0.309573,-1.077011 -0.313404,-1.009475 -0.813537,0.0882 -0.480321,1.054194 -1.271556,1.201704 -0.946133,0.176389 0.155533,-0.490042 0.06339,-0.705556 -0.301646,-0.705556 -0.289069,0 -0.70855,-0.5544 -0.932176,-1.232 -0.22363,-0.677601 -0.642814,-1.364194 -0.931521,-1.525762 -0.757165,-0.423731 -0.268224,-2.007914 0.844804,-2.737199 0.497946,-0.326265 1.713146,-0.71169 2.700447,-0.856501 l 1.795093,-0.263293 -2.104874,-0.04401 c -1.210455,-0.02531 -2.752728,0.203407 -3.629505,0.538252 -1.332688,0.508958 -1.767759,0.523939 -3.455746,0.118997 -1.827613,-0.438437 -1.974635,-0.422376 -2.74323,0.299681 -0.91153,0.856339 -1.65613,0.967075 -2.28359,0.339614 -0.557615,-0.557614 -0.543547,-1.693333 0.02097,-1.693333 0.244369,0 0.641412,-0.315615 0.882317,-0.701365 0.623467,-0.998329 2.87788,-2.342139 4.322402,-2.576497 0.676577,-0.109768 1.656734,-0.306879 2.178125,-0.438026 0.598231,-0.150475 1.366619,-0.02961 2.082674,0.327608 1.280386,0.638743 2.207697,0.713611 3.077951,0.248506 0.824381,-0.440589 3.518986,0.504913 4.772205,1.674505 0.551667,0.514856 1.372722,1.660449 1.824563,2.545761 0.451841,0.885313 1.061833,1.809095 1.355538,2.052849 0.293705,0.243754 0.633003,0.893899 0.753995,1.444767 0.22423,1.02091 -0.905114,6.497345 -1.612409,7.818943 -0.478335,0.893772 0.412009,5.234181 1.410469,6.876015 0.54882,0.902462 0.972284,1.142226 2.37605,1.34531 2.197044,0.317847 4.129751,0.966868 6.273437,2.106677 0.942403,0.501081 2.033058,0.911057 2.423675,0.911057 0.390617,0 1.4008,0.40471 2.244845,0.899354 2.271702,1.331306 4.004734,4.904641 4.354442,8.978423 0.227475,2.649838 0.545606,3.658927 2.735164,8.675751 2.758839,6.321182 4.607317,13.386795 3.867729,14.783971 -0.205416,0.388055 -1.704714,2.02953 -3.331768,3.647725 -2.012315,2.001351 -2.855493,3.073026 -2.636827,3.351389 0.176805,0.225069 0.426269,1.095682 0.554366,1.934693 0.296383,1.941255 1.997505,5.680288 2.980214,6.550448 1.382158,1.22388 2.807416,4.78935 3.39962,8.50464 0.309277,1.94027 0.745706,4.51771 0.969843,5.72764 0.393735,2.12543 0.36787,2.29853 -0.764353,5.11528 -1.689982,4.20435 -3.144915,7.1979 -3.737296,7.68953 -0.283341,0.23515 -0.515165,0.62483 -0.515165,0.86595 0,0.24111 -0.334335,0.86343 -0.742964,1.38292 -0.40863,0.51949 -0.970474,1.85058 -1.248544,2.95799 -0.639022,2.5449 -1.547485,4.42348 -3.946413,8.16066 -1.836455,2.86092 -2.528746,4.4373 -2.528746,5.75808 0,0.4415 0.476419,0.74813 1.647984,1.06066 3.375413,0.90043 6.632536,5.89036 8.231325,12.61045 0.253891,1.06715 1.160974,3.7659 2.015744,5.99722 0.854767,2.23132 1.873254,4.89049 2.263306,5.90927 0.846924,2.2121 1.475775,2.91018 2.621573,2.91018 1.053606,0 2.851796,2.33258 3.19066,4.13887 0.127257,0.67835 -0.02611,2.76304 -0.34078,4.63266 -0.371161,2.20516 -0.542519,5.01036 -0.487789,7.98541 0.08397,4.56461 0.07864,4.59852 -1.136562,7.23195 -1.281106,2.77623 -3.048177,5.16812 -4.354724,5.89449 -1.076851,0.59868 -2.542583,0.55871 -3.075884,-0.0839 z m 3.958142,-1.90933 c 1.170679,-1.03047 1.88044,-2.10346 2.741919,-4.14513 1.01007,-2.39384 1.147728,-3.07831 1.050668,-5.22421 -0.209014,-4.62093 -0.148773,-6.34692 0.348798,-9.9939 0.410722,-3.01038 0.417714,-3.86906 0.04023,-4.93889 -0.520365,-1.47477 -1.339064,-2.52971 -1.963202,-2.52971 -0.454974,0 -0.868154,2.54559 -0.87334,5.38063 -0.0028,1.47693 -0.160524,1.82596 -1.325982,2.93241 -0.727604,0.69076 -1.782114,1.34979 -2.343351,1.46449 l -1.020438,0.20856 0.246941,3.56182 c 0.135819,1.959 0.277516,4.03806 0.314882,4.62015 0.03737,0.58208 -0.06621,2.9144 -0.230163,5.18292 -0.163957,2.26853 -0.194275,4.29259 -0.06737,4.49792 0.442753,0.71639 1.512284,0.36327 3.080413,-1.01706 z m 0.871891,-8.55415 c -0.980052,-2.73549 -1.367645,-4.2103 -1.160847,-4.4171 0.111785,-0.11178 0.273932,0.0179 0.360331,0.28822 0.08639,0.27031 0.503326,1.57317 0.926507,2.89525 0.847147,2.6466 0.743571,3.66072 -0.125991,1.23363 z m -2.0008,-10.46083 c 1.191965,-1.19197 2.061736,-3.88788 1.388554,-4.30393 -0.275466,-0.17025 -0.351331,-0.66599 -0.210033,-1.37249 0.176181,-0.88089 0.0071,-1.4015 -0.830703,-2.55808 -1.182755,-1.63275 -1.28952,-2.0518 -0.522736,-2.0518 0.674684,0 0.666443,-0.41232 -0.04078,-2.03981 -0.895187,-2.06004 -2.880134,-7.58493 -4.553137,-12.67319 -0.842497,-2.56235 -1.958611,-5.3871 -2.48026,-6.27722 -1.128861,-1.92627 -2.832182,-3.70423 -3.548709,-3.70423 -0.282941,0 -0.934205,-0.27504 -1.447249,-0.6112 -0.513049,-0.33616 -1.299704,-0.56312 -1.748131,-0.50436 -0.778503,0.10202 -0.805624,0.0301 -0.600674,-1.59366 0.118053,-0.93527 0.437832,-2.018 0.710614,-2.40605 1.891612,-2.69098 3.242215,-4.90365 4.229972,-6.92992 1.216861,-2.49624 2.951963,-7.79128 2.951963,-9.00855 0,-1.10653 -4.737023,-5.15135 -8.643056,-7.38007 -1.08161,-0.61715 -4.145834,-1.54058 -5.137129,-1.54811 -1.464599,-0.0111 -2.837681,3.71215 -3.288443,8.91702 -0.08047,0.92909 -0.31423,2.67534 -0.519483,3.88055 -0.880297,5.16901 -1.109112,6.9649 -1.109112,8.70505 0,1.01545 -0.221128,2.34653 -0.491398,2.95793 -1.269775,2.87251 -1.270699,3.49749 -0.0072,4.83512 0.468232,0.49569 0.851331,1.06178 0.851331,1.25799 0,0.53427 3.572806,4.18015 4.586111,4.67991 0.485069,0.23923 1.91382,1.88141 3.175,3.64929 1.261181,1.76787 2.782563,3.78244 3.38085,4.47683 1.765042,2.04855 6.863987,8.85984 7.932625,10.5966 1.276177,2.07405 3.024053,6.82475 3.326108,9.0403 0.462009,3.38882 0.898137,3.713 2.645058,1.96608 z m -3.108855,-14.94885 c -0.494168,-0.49417 -0.545042,-0.9819 -0.102419,-0.9819 0.323307,0 0.855402,1.06383 0.63989,1.27934 -0.06601,0.066 -0.30787,-0.0678 -0.537471,-0.29744 z m -1.475786,-3.27495 c 0,-0.64046 -0.581286,-0.70358 -0.812306,-0.0882 -0.106931,0.28485 -0.27432,0.19117 -0.472769,-0.26458 -0.16897,-0.38806 -0.914752,-1.63153 -1.65729,-2.76327 -0.742537,-1.13175 -1.284742,-2.12305 -1.204902,-2.20289 0.190197,-0.1902 3.088933,3.37559 3.088933,3.79975 0,0.17936 0.151818,0.23228 0.337372,0.1176 0.36539,-0.22583 0.328772,-0.37476 -0.869756,-3.5373 -1.115966,-2.94469 -1.391045,-3.96024 -0.955562,-3.52778 0.195383,0.19403 0.755654,1.46403 1.245052,2.82222 0.489394,1.3582 1.141127,3.05966 1.448294,3.78103 0.639646,1.50218 0.716202,2.39258 0.205711,2.39258 -0.194027,0 -0.352777,-0.23812 -0.352777,-0.52916 z m -7.697961,-8.33037 c -1.433798,-2.19224 -1.296607,-2.65466 0.17109,-0.57669 1.42252,2.01402 1.621695,2.38179 1.285886,2.37433 -0.156972,-0.004 -0.812613,-0.81242 -1.456976,-1.79764 z m 2.408523,-3.13074 c -0.206456,-0.38577 -0.761153,-0.79822 -1.232665,-0.91656 -1.052971,-0.26428 -1.955716,-1.20428 -1.156547,-1.20428 0.491564,0 3.798094,2.31747 3.798094,2.662 0,0.47592 -1.088267,0.0579 -1.408882,-0.54116 z m -10.31918,-10.2038 c -1.504661,-0.6379 -1.710789,-1.08926 -0.497449,-1.08926 0.738999,0 2.326598,1.23909 1.963396,1.53239 -0.07966,0.0643 -0.739335,-0.13509 -1.465947,-0.44313 z m 3.994802,-2.0006 c 0.01693,-0.41097 0.100521,-0.49456 0.213135,-0.21314 0.101907,0.25466 0.08938,0.55894 -0.02784,0.67616 -0.117228,0.11723 -0.200603,-0.0911 -0.185286,-0.46302 z m -4.96674,-4.71228 c 0,-1.92883 0.147782,-3.59829 0.3284,-3.70992 0.180623,-0.11164 0.388049,-0.0813 0.460954,0.0674 0.270584,0.55185 -0.163721,7.1495 -0.47063,7.1495 -0.175299,0 -0.318724,-1.57813 -0.318724,-3.50695 z m 6.009724,1.89869 c 0.02226,-0.59157 1.020766,-2.1221 1.022111,-1.56674 7.05e-4,0.29105 -0.231797,0.83733 -0.516665,1.21396 -0.284871,0.37663 -0.512321,0.53538 -0.505446,0.35278 z m 1.398609,-3.15093 c 0,-0.32184 1.053687,-2.29636 1.22543,-2.29636 0.254692,0 -0.571256,2.10678 -0.90739,2.31452 -0.174921,0.10811 -0.31804,0.0999 -0.31804,-0.0182 z m 1.477645,-3.35469 c 0.0093,-0.48507 0.13813,-1.3582 0.286244,-1.94028 l 0.2693,-1.05833 0.01693,1.23472 c 0.0093,0.67909 -0.119489,1.55222 -0.286244,1.94027 -0.275106,0.64022 -0.301617,0.62388 -0.286243,-0.17638 z m -8.817204,-0.52917 c 0.0072,-0.58208 0.08625,-0.7775 0.175697,-0.43426 0.08944,0.34324 0.08356,0.81949 -0.01309,1.05833 -0.09664,0.23884 -0.169817,-0.042 -0.162627,-0.62407 z m 0.131875,-2.78999 c 0.220024,-1.79597 0.769694,-3.5892 1.022646,-3.33625 0.07987,0.0799 -0.165283,1.25282 -0.544784,2.60656 -0.628703,2.24266 -0.67116,2.30749 -0.477862,0.72969 z m -20.111805,7.16607 c 0.550178,-0.89021 -0.757502,-2.12195 -3.871858,-3.64702 -1.763198,-0.86343 -3.840516,-2.11192 -4.616262,-2.77444 -1.899257,-1.62203 -5.0144121,-3.32725 -6.5257261,-3.57215 -2.26425,-0.3669 -7.05555601,-0.48492 -7.05555601,-0.17378 0,0.16885 0.436563,0.58074 0.97013901,0.91532 0.533577,0.33458 1.947718,1.37216 3.142537,2.30573 1.97916,1.54642 2.413719,1.728 4.885352,2.04137 3.9489411,0.50068 5.1069931,0.8886 7.3562471,2.46421 2.265211,1.58679 4.425735,2.78819 5.056156,2.81159 0.231084,0.009 0.527621,-0.1583 0.658971,-0.37083 z M 58.633565,121.9331 c 0.112328,-0.29272 0.05387,-0.92772 -0.129914,-1.41111 -0.183783,-0.48338 -0.239268,-0.87888 -0.123296,-0.87888 0.115969,0 0.01005,-0.24196 -0.235395,-0.53769 -0.614256,-0.74014 -0.207676,-1.03778 0.479256,-0.35084 0.305897,0.30589 0.466563,0.7897 0.357032,1.07513 -0.109527,0.28542 -0.04039,0.51896 0.153635,0.51896 0.194028,0 0.439459,-0.22589 0.545402,-0.50198 0.119743,-0.31203 -0.76696,-1.41541 -2.343507,-2.91617 -2.517881,-2.39683 -4.12363,-4.16698 -4.12363,-4.54581 0,-0.10861 0.357188,-0.0877 0.79375,0.0465 l 0.79375,0.24398 -0.855243,-0.92576 c -0.894242,-0.96798 -1.848806,-1.31689 -1.085035,-0.3966 0.921089,1.10985 -0.721363,0.53308 -2.511502,-0.88194 -1.909463,-1.50935 -2.28672,-1.65673 -2.511863,-0.98129 -0.09283,0.27849 -0.37919,0.15429 -0.813357,-0.35278 -0.650805,-0.76008 -2.185314,-1.13741 -1.748,-0.42982 0.119916,0.19403 0.05928,0.35278 -0.134751,0.35278 -0.669597,0 -0.765171,-0.67104 -0.139714,-0.98094 0.844988,-0.41866 3.943089,-0.25405 4.43266,0.23552 0.215949,0.21595 0.653997,0.39264 0.973437,0.39264 0.319441,0 1.063745,0.24092 1.65401,0.53539 0.808595,0.40338 1.305641,0.44701 2.015895,0.17697 0.815072,-0.30989 1.130819,-0.20722 2.33238,0.75838 1.528421,1.22827 1.768821,1.57921 0.684139,0.9987 -0.911631,-0.48789 -0.910142,0.0583 0.0025,0.88413 0.389379,0.35238 0.667191,0.85271 0.617361,1.11184 -0.124558,0.64772 3.054657,4.48536 3.192438,3.85361 0.05943,-0.27247 -0.574625,-1.13218 -1.408998,-1.91048 -1.915001,-1.78629 -1.617885,-2.24937 0.358045,-0.55805 1.950604,1.66964 1.864794,1.24877 -0.203616,-0.99869 l -1.675695,-1.82075 1.854024,1.53994 c 1.019711,0.84697 1.972211,1.41325 2.116667,1.2584 0.144452,-0.15485 0.02452,-0.36446 -0.266524,-0.4658 -0.291042,-0.10134 -2.040163,-1.70679 -3.886941,-3.56767 -5.731133,-5.77491 -8.073881,-7.85556 -8.528629,-7.57451 -0.282003,0.17428 0.507295,1.13037 2.348925,2.84528 1.525507,1.42053 2.689846,2.66659 2.587421,2.76901 -0.102422,0.10243 -1.313533,-0.92995 -2.691356,-2.29418 -1.377883,-1.36422 -2.580619,-2.48041 -2.672804,-2.48041 -0.512836,0 1.086556,2.16016 2.692228,3.63616 1.02345,0.9408 1.384568,1.39569 0.802485,1.01087 -1.598419,-1.05673 -5.1329,-4.68589 -4.911902,-5.04347 0.106765,-0.17276 -0.05407,-0.40934 -0.357406,-0.52574 -0.779191,-0.299 -0.715733,-1.22786 0.06583,-0.96362 0.416754,0.1409 0.359435,0.0162 -0.176389,-0.38385 -0.436562,-0.32592 -0.79375,-0.80472 -0.79375,-1.064 0,-0.25928 -0.238125,-0.562789 -0.529166,-0.674479 -0.681613,-0.26156 -0.684079,0.265399 -0.0039,0.829909 0.288904,0.23977 0.455778,0.5484 0.370833,0.68585 -0.08495,0.13744 0.07471,0.69161 0.354789,1.23146 0.610704,1.17714 0.275586,2.02565 -0.422808,1.07054 -0.440828,-0.60286 -0.475322,-0.57945 -0.475322,0.32252 0,0.53491 0.171612,1.29323 0.381359,1.68515 0.452265,0.84506 0.09161,1.39154 -0.42365,0.64193 -0.275513,-0.40083 -0.308864,-0.34767 -0.14653,0.23353 0.178922,0.64061 0.02501,0.78723 -1.035227,0.98613 -0.70558,0.13237 -1.245397,0.44311 -1.245397,0.71692 0,0.2658 0.957672,1.20317 2.128157,2.08304 1.828165,1.37425 2.344561,1.5915 3.663354,1.54114 1.694106,-0.0647 3.466373,0.93099 5.349564,3.00546 0.566368,0.6239 0.69976,0.85902 0.296426,0.52251 -0.403335,-0.33652 -1.038335,-0.60657 -1.411112,-0.60011 -0.610457,0.0106 -0.59219,0.083 0.183921,0.72893 0.473936,0.39446 1.141247,0.64409 1.482912,0.55475 0.341665,-0.0893 0.906399,0.0538 1.254965,0.31818 0.604502,0.45844 0.602213,0.48115 -0.0496,0.49185 -0.610408,0.01 -0.579074,0.12007 0.293511,1.03085 0.664422,0.69351 0.8463,1.10034 0.568635,1.27194 -0.28261,0.17467 -0.158658,0.51797 0.402802,1.11562 0.644031,0.68553 0.71283,0.924 0.334112,1.15806 -0.54859,0.33905 -0.220426,1.07919 0.47849,1.07919 0.258834,0 0.562508,-0.2395 0.67484,-0.53223 z M 46.51037,107.13057 c 0,-0.31559 0.20683,-0.43873 0.529167,-0.31503 0.291041,0.11168 0.529166,0.34482 0.529166,0.51809 0,0.17327 -0.238125,0.31504 -0.529166,0.31504 -0.291042,0 -0.529167,-0.23315 -0.529167,-0.5181 z m 2.052154,-0.69048 c -0.520548,-0.45843 -1.155548,-0.90793 -1.411111,-0.99889 -0.255559,-0.091 -0.3403,-0.29824 -0.188313,-0.46063 0.151991,-0.16238 0.86372,0.29214 1.581623,1.01004 1.459922,1.45993 1.470575,1.72887 0.01782,0.44948 z m 10.981634,10.8791 c -3.142939,-3.27181 -4.35253,-4.39159 -4.640227,-4.29569 -0.404954,0.13498 4.910744,5.56128 5.44793,5.56128 0.224416,0 -0.139051,-0.56952 -0.807703,-1.26559 z m -7.565732,-0.4983 c -0.119916,-0.19403 -0.407099,-0.35035 -0.638182,-0.34738 -0.252452,0.003 -0.20894,0.1419 0.109015,0.34738 0.677729,0.43798 0.799853,0.43798 0.529167,0 z m -12.120115,-0.98263 c -0.224342,-0.0748 -0.32494,-0.27019 -0.223552,-0.43424 0.101388,-0.16405 -0.0014,-0.41314 -0.228699,-0.55354 -0.257958,-0.15943 -0.31853,-0.10236 -0.161321,0.15201 0.149154,0.24134 0.02762,0.40729 -0.298271,0.40729 -0.860527,0 -0.644214,0.99585 0.243763,1.12222 0.82732,0.11774 1.380194,-0.45637 0.66808,-0.69374 z m 10.179837,-0.25209 c -0.241544,-0.29105 -0.618169,-0.52412 -0.836944,-0.51795 -0.218779,0.006 -0.08962,0.2443 0.287009,0.52916 0.879712,0.66538 1.107603,0.66074 0.549935,-0.0112 z m 2.822222,0.28137 c 0,-0.13628 -0.515937,-0.80759 -1.146528,-1.49178 -0.63059,-0.6842 -0.78934,-0.94496 -0.352777,-0.57948 0.436562,0.36548 0.79375,0.49815 0.79375,0.29481 0,-0.37936 -0.824488,-0.85398 -1.763889,-1.0154 -0.291042,-0.05 -0.926042,-0.20783 -1.411111,-0.35071 -0.807516,-0.23786 -0.83922,-0.20771 -0.375677,0.35719 0.428939,0.52274 0.321172,0.50825 -0.705556,-0.0949 -0.666503,-0.39151 -2.040032,-0.7877 -3.052286,-0.88043 -1.012257,-0.0927 -2.181419,-0.40741 -2.598141,-0.69929 -1.0097,-0.70722 -2.033641,-0.37508 -1.128014,0.3659 0.345249,0.28248 0.467405,0.43665 0.271455,0.34259 -0.195947,-0.0941 -0.868878,0.0445 -1.495397,0.30794 -0.848903,0.35694 -1.087847,0.64102 -0.937845,1.115 0.179948,0.56863 0.142148,0.56346 -0.356684,-0.0487 -0.306881,-0.37664 -0.557967,-0.51514 -0.557967,-0.30778 0,0.49838 0.887638,1.22205 1.162188,0.94751 0.118427,-0.11843 0.472348,0.0417 0.78649,0.35583 0.674687,0.67469 1.091325,0.72222 1.436398,0.16388 0.147048,-0.23792 0.09764,-0.31206 -0.118823,-0.17828 -0.203796,0.12596 -0.744262,-0.0824 -1.201035,-0.46292 l -0.830496,-0.69193 1.5875,-0.007 c 0.873125,-0.004 2.2225,0.2112 2.998612,0.47742 2.443275,0.83806 3.830267,1.05348 3.516746,0.54619 -0.208026,-0.33659 -0.06734,-0.37935 0.573229,-0.17422 0.466901,0.14952 1.194862,0.2714 1.617691,0.27083 0.422825,-7e-4 1.125184,0.37837 1.560798,0.84206 0.749339,0.79763 1.727369,1.13468 1.727369,0.59528 z m 3.055246,-3.57018 c -0.322192,-0.35602 -0.585801,-0.8192 -0.585801,-1.02929 0,-0.30716 -0.514079,-0.35307 -1.328484,-0.11862 -0.05156,0.0149 0.424575,0.49012 1.05809,1.05617 1.232676,1.10139 1.827608,1.16514 0.856195,0.0917 z m 6.469755,0.75882 c 0,-0.28587 -3.045983,-3.22996 -5.560075,-5.37407 -1.00222,-0.85474 -1.739335,-1.68817 -1.638032,-1.85209 0.101304,-0.16391 0.05576,-0.3005 -0.101212,-0.30353 -0.156972,-0.003 -0.999779,-0.63555 -1.872904,-1.4056 -2.867473,-2.52896 -2.710381,-1.45513 0.194839,1.33187 7.70266,7.38921 8.977384,8.46884 8.977384,7.60342 z M 39.983981,111.882 c 0.119916,-0.19403 0.06125,-0.35278 -0.130369,-0.35278 -0.191622,0 -0.605423,-0.25702 -0.919565,-0.57116 -0.807455,-0.80746 -1.138862,-0.28817 -0.363135,0.569 0.712043,0.7868 1.087829,0.88119 1.413069,0.35494 z m -2.871036,-0.52917 c -0.111686,-0.29104 -0.265451,-0.52916 -0.341708,-0.52916 -0.07625,0 -0.138645,0.23812 -0.138645,0.52916 0,0.29104 0.153769,0.52917 0.341707,0.52917 0.187936,0 0.250328,-0.23813 0.138646,-0.52917 z m 8.60516,0.0882 c -0.203288,-0.61609 -3.028057,-2.55908 -3.31023,-2.27691 -0.127258,0.12726 -0.02755,0.47698 0.221565,0.77715 0.38153,0.45971 0.361643,0.51073 -0.126118,0.32356 -0.318484,-0.12221 -0.579063,-0.0659 -0.579063,0.12512 0,0.51862 0.977833,1.23066 1.363077,0.99257 0.184608,-0.1141 0.707499,-0.0584 1.161983,0.12365 1.149643,0.46065 1.437407,0.44588 1.268786,-0.0651 z m -8.909124,-1.32292 c -0.119916,-0.19403 -0.376778,-0.35278 -0.570805,-0.35278 -0.194028,0 -0.254667,0.15875 -0.134751,0.35278 0.119916,0.19403 0.376777,0.35278 0.570805,0.35278 0.194028,0 0.254667,-0.15875 0.134751,-0.35278 z m 25.351187,-0.52917 c -0.111686,-0.29104 -0.313129,-0.52916 -0.447654,-0.52916 -0.37006,0 -4.163706,-3.74921 -4.843611,-4.78688 -0.3856,-0.5885 -0.820247,-0.85108 -1.230993,-0.74367 -0.349211,0.0913 -0.804718,-0.0385 -1.012236,-0.28858 -0.513793,-0.61909 -1.845977,-0.95027 -1.668974,-0.41492 0.204382,0.61817 2.839452,2.35443 3.319078,2.18695 0.253686,-0.0886 0.364448,0.1263 0.283026,0.54909 -0.07357,0.38205 -0.0014,0.61276 0.160592,0.5127 0.338007,-0.2089 1.167006,0.66391 0.891889,0.93902 -0.100019,0.10002 0.09058,0.40291 0.423556,0.6731 0.518287,0.42055 0.562437,0.41994 0.306797,-0.004 -0.198406,-0.32921 -0.167111,-0.41421 0.09326,-0.25329 0.215533,0.13321 0.291875,0.5028 0.169651,0.82131 -0.162084,0.42239 -0.07408,0.52226 0.325198,0.36905 0.301082,-0.11554 0.712152,-0.0453 0.91349,0.156 0.40852,0.40852 1.874513,1.25462 2.266477,1.30809 0.139428,0.019 0.162133,-0.20353 0.05045,-0.49457 z M 37.018834,108.8115 c 0.466665,0.08 0.650043,0.0775 0.407508,-0.005 -1.00639,-0.34421 -0.09428,-1.67165 0.926094,-1.34779 0.532818,0.16911 0.7496,0.0875 0.7496,-0.282 0,-0.34669 -0.235701,-0.45828 -0.707435,-0.33492 -0.38909,0.10176 -0.948348,-0.0149 -1.242798,-0.25931 -0.443329,-0.36793 -0.499519,-0.3509 -0.326848,0.0991 0.239215,0.62338 -0.383551,1.16161 -0.717974,0.6205 -0.12187,-0.1972 -0.36963,-0.35854 -0.550573,-0.35854 -0.266421,0 -0.266615,0.86284 -7.06e-4,2.46944 0.01605,0.097 0.160902,-0.0312 0.321857,-0.28504 0.160955,-0.25378 0.674462,-0.39599 1.141127,-0.31601 z m 4.552647,-0.63367 c 0,-0.29104 -0.15875,-0.52916 -0.352778,-0.52916 -0.194028,0 -0.352778,-0.21189 -0.352778,-0.47086 0,-0.25897 -0.460974,-0.88158 -1.024385,-1.38358 -0.983277,-0.87611 -1.031794,-0.88441 -1.208984,-0.20684 -0.126446,0.48353 -0.03984,0.65035 0.274927,0.52956 0.252737,-0.097 0.613953,0.16829 0.802703,0.5895 0.376171,0.83944 0.212327,1.76043 -0.261126,1.46783 -0.164048,-0.10139 -0.397986,-0.023 -0.519857,0.17419 -0.136193,0.22036 0.330236,0.35853 1.210346,0.35853 1.037643,0 1.431932,-0.14571 1.431932,-0.52917 z m 1.411111,-1.28899 c 0,-0.37039 0.238125,-0.76481 0.529167,-0.87649 0.291041,-0.11168 0.531597,-0.46389 0.534567,-0.78268 0.0042,-0.45586 0.06961,-0.4783 0.306123,-0.10512 0.222833,0.3516 0.359044,0.2421 0.525918,-0.42278 0.234202,-0.93314 -0.554055,-1.99534 -2.200413,-2.96512 -1.140922,-0.67206 -0.907062,0.13306 0.297286,1.02347 0.802012,0.59296 0.959803,0.88689 0.666087,1.24079 -0.211691,0.25507 -0.292739,0.70392 -0.180107,0.99743 0.112631,0.29351 0.06171,0.53366 -0.11315,0.53366 -0.174861,0 -0.426043,-0.34063 -0.558183,-0.75696 -0.236467,-0.74505 -1.847942,-2.38511 -2.364934,-2.40689 -0.543687,-0.0229 -0.228424,0.596 0.970139,1.90453 0.679097,0.7414 1.234722,1.4868 1.234722,1.65644 0,0.82474 -1.081952,0.0802 -3.051905,-2.10006 -1.902534,-2.10567 -2.098178,-2.4505 -1.5875,-2.79805 0.535481,-0.36443 0.532666,-0.39808 -0.03489,-0.41715 -0.339548,-0.0114 -0.617361,0.15521 -0.617361,0.37027 0,0.24094 -0.338526,0.30606 -0.881944,0.16967 -0.508583,-0.12764 -0.881945,-0.0692 -0.881945,0.13815 0,0.19772 0.249463,0.35949 0.554366,0.35949 0.304898,0 0.796914,0.24256 1.093367,0.53901 0.430029,0.43003 0.451863,0.64399 0.107993,1.05833 -0.359989,0.43376 -0.285334,0.51933 0.453083,0.51933 0.577427,0 1.308026,0.46924 2.106263,1.3528 0.672197,0.74404 1.502431,1.46035 1.844965,1.59179 0.417226,0.1601 0.560518,0.47711 0.434131,0.96041 -0.154721,0.59166 -0.09846,0.64658 0.312752,0.3053 0.275766,-0.22887 0.501403,-0.71918 0.501403,-1.08957 z m -6.702778,-0.65129 c 0,-0.19402 -0.234156,-0.35277 -0.520347,-0.35277 -0.384189,0 -0.467618,-0.26365 -0.318834,-1.00757 0.145705,-0.72852 0.04556,-1.0674 -0.361597,-1.22365 -0.309711,-0.11884 -0.563111,-0.50681 -0.563111,-0.86216 0,-0.74808 -0.64619,-1.49273 -1.295354,-1.49273 -0.301819,0 -0.160863,0.54132 0.430639,1.65378 0.48363,0.90958 0.824177,1.81922 0.756772,2.02143 -0.0674,0.20221 0.207123,0.64335 0.610059,0.98032 0.835603,0.69879 1.261773,0.7945 1.261773,0.28335 z m 1.763889,-0.70555 c 0,-0.19403 -0.07001,-0.35278 -0.155568,-0.35278 -0.08556,0 -0.253682,0.15875 -0.373599,0.35278 -0.119916,0.19403 -0.04991,0.35278 0.155568,0.35278 0.205479,0 0.373599,-0.15875 0.373599,-0.35278 z m 23.636112,-0.17639 c 0,-0.29104 -0.257563,-0.52917 -0.572361,-0.52917 -0.468771,0 -0.492876,0.0958 -0.133195,0.52917 0.241544,0.29104 0.499107,0.52917 0.572361,0.52917 0.07326,0 0.133195,-0.23813 0.133195,-0.52917 z m -24.694445,0.0208 c 0,-0.0856 -0.15875,-0.25368 -0.352778,-0.37359 -0.194028,-0.11992 -0.352778,-0.0499 -0.352778,0.15556 0,0.20548 0.15875,0.3736 0.352778,0.3736 0.194028,0 0.352778,-0.07 0.352778,-0.15557 z m 0.705555,-0.90275 c 0,-0.19403 -0.16812,-0.35278 -0.373599,-0.35278 -0.205478,0 -0.275484,0.15875 -0.155567,0.35278 0.119916,0.19402 0.288036,0.35277 0.373598,0.35277 0.08556,0 0.155568,-0.15875 0.155568,-0.35277 z m -1.411111,-1.5875 c 0,-0.29105 -0.15875,-0.52917 -0.352778,-0.52917 -0.194028,0 -0.352778,0.23812 -0.352778,0.52917 0,0.29104 0.15875,0.52916 0.352778,0.52916 0.194028,0 0.352778,-0.23812 0.352778,-0.52916 z m 24.870834,0.17638 c 0.119917,-0.19402 0.05928,-0.35277 -0.13475,-0.35277 -0.194028,0 -0.450889,0.15875 -0.570805,0.35277 -0.119917,0.19403 -0.05928,0.35278 0.13475,0.35278 0.194028,0 0.450889,-0.15875 0.570805,-0.35278 z m -4.454722,-0.58821 c -0.957284,-1.16299 -5.69002,-4.689109 -6.019988,-4.485179 -0.491726,0.3039 -2.031336,-1.26467 -1.809288,-1.84332 0.141863,-0.36969 -0.160492,-0.49162 -1.219058,-0.49162 -1.079268,0 -1.44803,0.15419 -1.580523,0.66084 -0.130097,0.4975 -0.01838,0.62044 0.452011,0.49743 0.805589,-0.21066 2.177475,0.66765 4.492682,2.87632 1.97981,1.888699 3.612497,2.940259 3.612497,2.326679 0,-0.20023 -0.122523,-0.36405 -0.272274,-0.36405 -0.349528,0 -3.608282,-2.984269 -3.608282,-3.304359 0,-0.13287 1.309688,0.87375 2.910417,2.236909 2.754027,2.34531 4.10983,3.18788 3.041806,1.89035 z m -8.068889,-0.11734 c 0,-0.19403 -0.16812,-0.35278 -0.373599,-0.35278 -0.205479,0 -0.275484,0.15875 -0.155568,0.35278 0.119916,0.19403 0.288036,0.35278 0.373599,0.35278 0.08556,0 0.155568,-0.15875 0.155568,-0.35278 z m 11.428254,-0.44097 c -0.140279,-0.24254 -0.580009,-0.91723 -0.977177,-1.49931 -0.450765,-0.660639 -0.516255,-0.893779 -0.174279,-0.620419 0.301314,0.240849 0.653242,0.332509 0.782066,0.20369 0.12882,-0.12883 -0.663476,-1.04026 -1.760661,-2.02541 -2.482963,-2.22943 -3.021609,-2.57233 -2.697914,-1.71743 0.182823,0.48285 -0.06798,0.39885 -1.063869,-0.3563 -0.716696,-0.54345 -1.303087,-0.90277 -1.303087,-0.7985 0,0.41193 2.652053,2.5911 2.820896,2.31791 0.223121,-0.36102 1.898308,1.04486 2.430988,2.04019 0.215911,0.40342 0.392561,1.053549 0.392561,1.444719 0,0.39117 0.277812,0.87303 0.617361,1.07079 0.847094,0.49339 1.238606,0.46824 0.933115,-0.0599 z m -9.311588,-0.25352 c 0,-0.18793 0.277813,-0.24039 0.617362,-0.11656 0.549991,0.20056 0.5432,0.1407 -0.06222,-0.54858 -0.463511,-0.52771 -0.794395,-0.65889 -1.040694,-0.4126 -0.198614,0.19862 -0.666302,0.36112 -1.039308,0.36112 -0.562843,0 -0.603501,0.09 -0.239028,0.52916 0.487461,0.58736 1.763888,0.72301 1.763888,0.18746 z m -15.675765,-0.32688 c -0.107351,-0.17369 0.04203,-0.40684 0.331957,-0.51809 0.289926,-0.11126 0.527141,-0.44173 0.527141,-0.73439 0,-0.656929 -1.597117,-1.751419 -2.101151,-1.439909 -0.202562,0.12519 -0.368293,0.0425 -0.368293,-0.18372 0,-0.23637 -0.246193,-0.31687 -0.578782,-0.18924 -0.542847,0.20831 -2.367915,-1.40198 -2.692453,-2.3756 -0.07617,-0.22852 -0.381162,-0.25327 -0.806866,-0.0655 -0.671019,0.29602 -0.670606,0.30443 0.02117,0.42999 0.388055,0.0704 0.889148,0.51895 1.113539,0.9967 0.308797,0.65745 0.308797,0.8182 0,0.6612 -0.224391,-0.11409 -0.01111,0.12031 0.473961,0.52089 0.485069,0.40057 0.770096,0.73185 0.633395,0.73616 -0.136702,0.004 0.15471,0.41111 0.64758,0.903979 0.605331,0.60533 1.11815,0.82565 1.580328,0.67897 0.376308,-0.11944 0.661412,-0.0861 0.633561,0.074 -0.09657,0.55527 0.03478,0.82033 0.406512,0.82033 0.205479,0 0.285765,-0.14211 0.178414,-0.31581 z m -1.610346,-1.575539 c 0,-0.32204 0.290544,-0.42471 0.881944,-0.31166 0.48507,0.0927 0.881945,0.30884 0.881945,0.48025 0,0.171409 -0.396875,0.311649 -0.881945,0.311649 -0.508836,0 -0.881944,-0.20317 -0.881944,-0.480239 z m 11.388298,1.538579 c 0.287165,0 0.285486,-0.109 -0.0062,-0.40066 -0.299022,-0.29902 -0.563016,-0.23691 -1.040695,0.24484 -0.618232,0.62351 -0.618024,0.63716 0.0062,0.40066 0.355416,-0.13466 0.823729,-0.24484 1.040695,-0.24484 z m 12.538485,-0.69563 c 0.105622,-0.31686 -0.03076,-0.40256 -0.40937,-0.25727 -0.340625,0.13071 -0.994957,-0.1416 -1.635637,-0.680699 -0.67479,-0.5678 -1.065643,-0.7247 -1.061791,-0.42623 0.007,0.54427 2.114974,2.117159 2.61431,1.950709 0.183758,-0.0613 0.40538,-0.32518 0.492488,-0.58651 z m -8.74637,-0.5293 c -0.0097,-0.301939 -0.49063,-0.362309 -1.795678,-0.225379 -0.205479,0.0216 -0.269861,0.207039 -0.143073,0.412189 0.280857,0.45443 1.9541,0.29321 1.938751,-0.18681 z m 7.873958,-0.372369 c -0.24044,-0.62658 -1.534926,-1.40886 -1.534926,-0.92759 0,0.17719 0.357187,0.57132 0.79375,0.87585 0.999444,0.697179 0.988565,0.696419 0.741176,0.0517 z M 40.16037,99.181991 c 0,-0.19403 -0.07001,-0.35278 -0.155568,-0.35278 -0.08556,0 -0.253683,0.15875 -0.373599,0.35278 -0.119916,0.19403 -0.04991,0.35278 0.155568,0.35278 0.205479,0 0.373599,-0.15875 0.373599,-0.35278 z m 3.631889,-1.85208 c -0.189328,-0.98557 -0.623919,-1.18915 -1.43704,-0.67315 -0.327152,0.20761 -0.206072,0.39777 0.440972,0.69259 0.490577,0.22352 0.891957,0.59501 0.891957,0.82554 0,0.23053 0.06535,0.35299 0.145238,0.27215 0.07988,-0.0808 0.06137,-0.58356 -0.04113,-1.11713 z m 2.074048,0.33004 c -0.421876,-0.44907 -0.767048,-1.03645 -0.767048,-1.30528 0,-0.35263 -0.107072,-0.38172 -0.384345,-0.10445 -0.277276,0.27728 -0.161275,0.6409 0.416395,1.30528 0.440407,0.50652 0.958536,0.92093 1.151396,0.92093 0.19286,0 0.0055,-0.36741 -0.416398,-0.81648 z m 12.259028,-0.80551 c -0.470383,-0.50404 -1.331492,-1.24133 -1.913576,-1.63843 -0.584129,-0.39851 -0.28013,0.0121 0.678473,0.91643 1.878866,1.77245 2.619414,2.20536 1.235103,0.722 z m -5.441354,-0.84745 c -0.672066,-0.74263 -2.998611,-1.00775 -2.998611,-0.34171 0,0.55337 1.094387,0.85418 1.386724,0.38117 0.277819,-0.44952 1.435498,-0.1664 1.435498,0.35106 0,0.17327 0.183353,0.31503 0.407455,0.31503 0.231066,0 0.131036,-0.30543 -0.231066,-0.70555 z m -21.857716,-0.68209 c -0.127897,-0.20693 -0.401356,-0.37624 -0.607688,-0.37624 -0.233927,0 -0.207162,0.20241 0.07109,0.53769 0.483849,0.583 0.916281,0.4529 0.536598,-0.16145 z m -0.991994,-0.94216 c -0.117228,-0.11722 -0.421499,-0.12975 -0.676159,-0.0278 -0.281421,0.11261 -0.19783,0.1962 0.213138,0.21313 0.371884,0.0153 0.580246,-0.0681 0.463021,-0.18529 z m -7.175799,-6.059123 c 0.27339,-0.527826 1.610955,-1.832808 2.972367,-2.899961 3.520133,-2.759283 3.513557,-2.74073 2.040583,-5.757297 -0.680261,-1.393141 -1.340749,-2.969543 -1.467746,-3.503119 -0.127,-0.533576 -0.35101,-0.970139 -0.497805,-0.970139 -0.146794,0 -0.774615,1.16447 -1.39516,2.587713 -0.620545,1.42324 -1.751153,3.447302 -2.512461,4.497917 -0.761308,1.050611 -1.813732,2.545203 -2.338718,3.321314 -0.524986,0.776111 -1.177962,1.598987 -1.451057,1.828613 -0.683167,0.574421 -0.252732,1.120973 1.466551,1.862177 1.678692,0.723702 2.425082,0.496929 3.183446,-0.967218 z m 0.902634,-47.939514 c 0.08672,-0.07556 -0.288761,-0.569133 -0.834411,-1.09683 -0.666686,-0.644749 -1.046254,-0.814809 -1.157218,-0.518476 -0.09082,0.242535 -0.628147,0.440972 -1.194062,0.440972 -1.136336,0 -1.193439,0.09178 -0.667958,1.073653 0.306022,0.571808 0.614833,0.64127 2.028472,0.456276 0.917123,-0.120018 1.738452,-0.280036 1.825177,-0.355595 z m 8.124751,-8.84725 c -0.0043,-0.145521 -0.331368,-0.661458 -0.726789,-1.146528 l -0.718947,-0.881944 0.559463,1.146527 c 0.531633,1.089503 0.903397,1.459449 0.886273,0.881945 z M 29.224258,29.10275 c 0,-0.511575 -1.843119,-3.651313 -2.143428,-3.651313 -0.202212,0 -0.256202,0.180338 -0.11998,0.40075 0.251972,0.407698 0.373765,1.161644 0.454498,2.813524 0.03834,0.784546 0.175867,0.896206 0.926966,0.752624 0.485069,-0.09273 0.881944,-0.23474 0.881944,-0.315585 z M 27.97503,28.250189 c -0.127893,-0.206937 -0.156873,-0.451908 -0.0644,-0.544381 0.09247,-0.09247 0.262135,0.07684 0.377031,0.376248 0.238542,0.621632 0.03524,0.730976 -0.312631,0.168133 z m 2.395086,-0.639813 c -0.184073,-0.120263 -0.522778,-0.575848 -0.75268,-1.012411 -0.326683,-0.620345 -0.322809,-0.79375 0.01774,-0.79375 0.319871,0 0.331382,-0.104363 0.04328,-0.392465 -0.922602,-0.9226 -1.009502,0.0075 -0.168508,1.803576 0.646183,1.380014 0.949861,1.748752 1.051683,1.276995 0.07874,-0.364806 -0.0074,-0.761681 -0.191519,-0.881945 z m 5.05738,0.222311 c -0.113058,-0.242534 -0.298492,-0.699433 -0.412076,-1.01533 -0.242228,-0.673685 -1.804529,-1.47018 -2.063098,-1.051811 -0.09773,0.158127 0.05234,0.588703 0.333478,0.956836 0.432689,0.566578 0.562627,0.590921 0.846405,0.158566 0.265536,-0.404567 0.384909,-0.312879 0.574114,0.440972 0.131378,0.523457 0.39364,0.951739 0.582803,0.951739 0.189163,0 0.251432,-0.198437 0.138374,-0.440972 z m -1.470177,-3.565469 c -0.12234,-0.318813 -0.37084,-0.579659 -0.552221,-0.579659 -0.181384,0 -0.670581,-0.3175 -1.087109,-0.705556 -0.416532,-0.388056 -0.92583,-0.698787 -1.131778,-0.690514 -0.205948,0.0083 0.333449,0.636519 1.198658,1.396102 1.639337,1.439201 1.945626,1.552102 1.57245,0.579627 z M 19.286064,23.334781 c 0.227256,0 0.413194,-0.15875 0.413194,-0.352778 0,-0.194028 -0.185938,-0.352778 -0.413194,-0.352778 -0.523311,0 -1.703473,1.053374 -1.703473,1.520464 0,0.194027 0.290313,0.09005 0.645139,-0.231065 0.354827,-0.321114 0.831077,-0.583843 1.058334,-0.583843 z m 5.152848,0.03697 c 0.10735,-0.173697 -0.03695,-0.404889 -0.32066,-0.51376 -0.551276,-0.211544 -1.022082,0.228335 -0.64644,0.603977 0.318915,0.318915 0.738429,0.27978 0.9671,-0.09022 z m -2.799376,-0.389744 c -0.969816,-0.416744 -1.526811,-0.416744 -0.881945,0 0.291042,0.188086 0.767292,0.333247 1.058334,0.322581 0.348916,-0.01279 0.288833,-0.122668 -0.176389,-0.322581 z m 9.001908,-0.169069 c -0.581039,-0.700111 -2.475519,-1.625967 -2.475519,-1.209818 0,0.348484 2.073642,1.728087 2.600833,1.730346 0.16928,7.41e-4 0.112889,-0.233512 -0.125314,-0.520528 z m -2.828297,-0.183709 c 0,-0.449328 -1.42138,-0.449328 -2.116667,0 -0.393611,0.254372 -0.190281,0.343358 0.79375,0.347376 0.727605,0.003 1.322917,-0.153348 1.322917,-0.347376 z m -5.09451,-0.893164 c -0.671887,-0.508189 -1.608268,-0.700436 -1.608268,-0.33019 0,0.213478 1.406311,0.820131 1.940278,0.836996 0.194028,0.0061 0.04462,-0.221935 -0.33201,-0.506806 z m 3.123354,-0.02575 c 0.840726,-0.322618 0.30173,-0.84498 -0.871887,-0.84498 -0.687048,0 -1.037513,0.178749 -1.037513,0.529167 0,0.542779 0.920973,0.695106 1.9094,0.315813 z M 20.544605,124.08467 c -0.104964,-0.27353 -0.576232,-0.59406 -1.047262,-0.71228 -0.825996,-0.20731 -1.218821,-0.90706 -0.509206,-0.90706 0.529592,0 2.716592,2.0945 2.199355,2.10633 -0.248624,0.006 -0.537924,-0.21346 -0.642887,-0.48699 z m -4.020347,-2.17068 c -1.158161,-0.4382 -1.176356,-0.4684 -0.293436,-0.48708 1.143525,-0.0242 2.057325,0.29712 2.057325,0.72339 0,0.38435 -0.19118,0.35873 -1.763889,-0.23631 z m 18.417851,-4.79027 c -0.638725,-0.409 -1.076262,-0.82868 -0.972302,-0.93264 0.103957,-0.10396 0.471065,0.0662 0.815792,0.37821 0.344727,0.31198 1.020389,0.72427 1.501468,0.91622 0.48108,0.19194 0.636567,0.35638 0.345525,0.36541 -0.291042,0.009 -1.051758,-0.31822 -1.690483,-0.7272 z m -3.745234,-2.61527 c -1.08494,-0.88379 -1.972617,-1.75813 -1.972617,-1.943 0,-0.31324 0.572541,0.12898 3.326578,2.5694 1.771485,1.56975 0.777551,1.10992 -1.353961,-0.6264 z m -2.40695,-4.68638 c -0.723953,-0.51628 -1.40197,-1.17681 -1.506707,-1.46785 -0.104736,-0.29104 -0.752235,-0.92604 -1.438885,-1.41111 -3.84068,-2.71316 -4.982821,-4.03863 -7.693448,-8.928329 -0.73234,-1.32107 -2.032925,-3.19169 -2.890188,-4.156917 -1.614235,-1.817543 -1.773711,-2.084197 -1.246482,-2.084197 0.790787,0 3.352144,3.278044 5.049637,6.462554 1.240054,2.326359 2.373987,3.938399 3.365636,4.784719 2.337377,1.99483 7.952051,7.46882 7.807094,7.61148 -0.07171,0.0706 -0.722704,-0.29408 -1.446657,-0.81035 z m -15.784,-3.7609 c -1.323446,-2.88244 -3.1844451,-8.697569 -3.1844451,-9.950569 0,-1.66621 0.8801021,-0.5937 1.0957281,1.33528 0.257317,2.30196 0.999749,4.694319 2.448093,7.888569 0.593533,1.30901 1.010594,2.56365 0.9268,2.78809 -0.08379,0.22444 -0.662572,-0.70318 -1.286176,-2.06137 z m 9.005987,-0.37238 c -0.332827,-0.50796 -0.534586,-0.99412 -0.448351,-1.08035 0.08623,-0.0862 0.429104,0.25881 0.761931,0.76677 0.332828,0.50796 0.534586,0.99412 0.448352,1.08035 -0.08624,0.0862 -0.429104,-0.25881 -0.761932,-0.76677 z m 15.568266,-8.276529 c -0.545984,-0.16388 -1.205234,-0.47436 -1.465002,-0.68995 -0.34647,-0.28755 -0.50722,-0.28724 -0.603352,10e-4 -0.234573,0.70372 -2.284935,-2.26712 -2.503138,-3.626889 -0.215276,-1.341519 0.219734,-1.836971 0.619484,-0.705556 0.11997,0.339549 0.695636,0.994361 1.279257,1.455138 l 1.061131,0.837777 -0.108955,-1.366944 c -0.100179,-1.256824 -0.04115,-1.359489 0.732804,-1.274403 0.92311,0.101488 3.891538,-1.910587 3.909833,-2.650179 0.01094,-0.441484 1.069241,-0.64722 1.069241,-0.207857 0,0.296849 -2.161074,2.236329 -2.491839,2.236329 -0.624847,0 -0.553007,1.419274 0.101664,2.008427 0.686135,0.617467 0.703805,0.615337 0.564924,-0.06815 -0.0933,-0.459172 0.228579,-1.036645 0.921752,-1.653681 1.342771,-1.195282 1.70833,-0.96284 0.397016,0.252444 -0.533418,0.494355 -0.884717,1.120673 -0.780666,1.391821 0.104049,0.271149 -3.38e-4,0.561887 -0.231976,0.646093 -0.323081,0.11744 -0.318466,0.327 0.01983,0.89995 0.515098,0.8724 0.592575,1.5369 0.08819,0.75643 -0.266481,-0.41235 -0.343165,-0.31501 -0.347377,0.44097 -0.0058,1.04257 -0.320982,1.219 -0.987298,0.55269 -0.588514,-0.58852 -0.977441,-0.0667 -0.436291,0.58531 0.245435,0.29574 0.387121,0.52405 0.314854,0.50737 -0.07226,-0.0167 -0.5781,-0.16441 -1.12408,-0.3283 z m 0.863727,-2.2045 c -0.194028,-0.19403 -0.63681,-0.24379 -0.983965,-0.11057 -0.510465,0.19588 -0.537986,0.29981 -0.143898,0.54337 0.65319,0.40369 1.600747,0.0401 1.127863,-0.4328 z m -2.869647,0.20966 c 0,-0.44302 -1.165775,-1.527087 -1.642177,-1.527087 -0.631285,0 -0.598371,0.336727 0.109354,1.118747 0.567976,0.62761 1.532823,0.88464 1.532823,0.40834 z m 1.745887,-1.31706 c 0.526316,-0.983429 0.184852,-1.929029 -0.462788,-1.281579 -0.42201,0.421887 -0.59248,2.129889 -0.212577,2.129889 0.121751,0 0.425666,-0.38174 0.675365,-0.84831 z m 1.701045,-0.14388 c 0.0768,-0.230411 -0.11171,-0.418925 -0.418923,-0.418925 -0.30721,0 -0.558564,0.251354 -0.558564,0.558565 0,0.62298 0.759446,0.51449 0.977487,-0.13964 z m -4.846824,-3.152953 c 0.01062,-0.919208 0.03782,-0.935002 0.517867,-0.300806 0.51024,0.674081 0.417664,1.270945 -0.197129,1.270945 -0.182576,0 -0.326908,-0.436562 -0.320738,-0.970139 z M 7.0874519,90.979917 c 0.08085,-0.242534 0.438032,-0.440972 0.79375,-0.440972 0.355717,0 0.712905,0.198438 0.79375,0.440972 0.09309,0.279284 -0.197948,0.440972 -0.79375,0.440972 -0.595803,0 -0.886844,-0.161688 -0.79375,-0.440972 z M 35.927036,90.770942 c 0,-0.210961 0.3175,-0.553483 0.705556,-0.761164 0.388055,-0.20768 0.705555,-0.585537 0.705555,-0.839681 0,-0.598223 1.145463,-1.633005 1.791667,-1.618545 0.378065,0.0085 0.349539,0.126492 -0.115972,0.479866 -0.339549,0.257754 -0.617361,0.614299 -0.617361,0.792322 0,0.178025 -0.282847,0.557399 -0.628551,0.843054 -1.633097,1.349428 -1.840894,1.474064 -1.840894,1.104148 z M 2.9675109,89.808191 c -0.587832,-0.58783 -0.751926,-1.562301 -0.263081,-1.562301 0.342678,0 1.825383,1.52286 1.825383,1.874819 0,0.447435 -1.002982,0.246804 -1.562302,-0.312518 z M 34.163147,89.565412 c 0,-0.05038 0.754063,-0.902359 1.675695,-1.893298 l 1.675694,-1.801706 1.940278,0.536091 c 2.784101,0.769232 3.69085,0.630968 5.480763,-0.835734 0.866136,-0.709732 1.574793,-1.415796 1.574793,-1.569025 0,-0.153232 0.602252,-1.046921 1.338337,-1.985976 0.736088,-0.939056 1.67997,-2.370416 2.097518,-3.1808 0.417547,-0.810383 0.949766,-1.77861 1.182712,-2.151616 0.605857,-0.970132 0.211614,-2.077142 -1.598115,-4.487404 -1.537187,-2.047282 -2.246144,-3.662577 -3.561835,-8.115331 l -0.62543,-2.116667 -0.848271,1.914701 c -0.466549,1.053088 -1.167324,2.362775 -1.557281,2.910417 -0.389958,0.547645 -0.574774,0.995715 -0.410708,0.995715 0.413371,0 1.952787,-1.088122 2.472549,-1.7477 0.387188,-0.491341 0.430862,-0.490798 0.440972,0.0055 0.01803,0.885681 -1.293689,2.039201 -2.771344,2.437091 -0.752719,0.202685 -1.565261,0.605505 -1.805651,0.895156 -0.298351,0.359492 -1.106202,0.526634 -2.545387,0.526634 -1.899296,0 -2.20883,-0.10759 -3.122041,-1.085187 -0.557544,-0.596854 -1.17716,-0.984175 -1.37692,-0.860717 -0.199764,0.123458 -0.511637,-0.165936 -0.693053,-0.6431 -0.18142,-0.477167 -0.624375,-1.08203 -0.984346,-1.344147 -1.071541,-0.780249 -3.600418,-9.964233 -2.932465,-10.649669 0.444045,-0.455669 0.664679,0.147637 1.088884,2.977458 0.378022,2.521754 1.988136,6.415691 2.98002,7.206943 0.251015,0.200244 0.989309,1.052431 1.640653,1.893746 1.120634,1.44749 1.288496,1.533868 3.124535,1.607785 1.83956,0.07406 2.00786,0.0067 3.242176,-1.297979 0.716044,-0.756849 1.636624,-2.120437 2.045734,-3.030195 0.409109,-0.909757 0.95843,-2.076069 1.220713,-2.591802 0.438789,-0.862799 0.402188,-1.008934 -0.458233,-1.829639 -0.514312,-0.490569 -1.411362,-1.07714 -1.993445,-1.303493 -1.035389,-0.402629 -1.041118,-0.418169 -0.264192,-0.716777 0.436781,-0.167873 1.032094,-0.213918 1.322917,-0.102316 0.706561,0.27113 0.674574,-0.370738 -0.04837,-0.970732 -1.656472,-1.374747 -2.808591,-4.509156 -1.870538,-5.088905 0.205998,-0.127312 0.519568,-0.612931 0.696825,-1.079153 0.177257,-0.466204 0.484967,-0.847658 0.683796,-0.847658 0.48049,0 0.457087,0.920317 -0.05975,2.349609 -0.515688,1.426104 0.07127,2.863984 2.19935,5.387753 0.768301,0.911161 1.396912,1.973283 1.396912,2.360277 0,0.38699 0.233077,1.011774 0.517949,1.388406 0.496111,0.655916 0.518417,0.643887 0.529166,-0.285351 0.0062,-0.533576 0.130281,-0.969395 0.275802,-0.968484 0.145521,0.0011 0.280331,1.668166 0.299579,3.705009 0.03849,4.072763 0.761788,6.523891 1.925133,6.523891 0.416726,0 0.880378,0.632439 1.422446,1.940278 0.442313,1.067153 0.914481,1.940278 1.049263,1.940278 0.415036,0 1.020964,-1.861848 1.11923,-3.439065 0.115059,-1.84682 0.473678,-1.918864 0.950761,-0.191004 0.273322,0.989883 0.247978,1.484185 -0.103999,2.028472 -0.255961,0.395809 -0.572897,1.156215 -0.7043,1.689791 -0.131406,0.533577 -0.386327,0.970139 -0.566497,0.970139 -0.180171,0 -1.077634,1.389062 -1.994362,3.086805 -0.916729,1.697743 -2.155356,3.659946 -2.752503,4.36045 -4.48412,5.260255 -4.055992,4.899967 -5.822569,4.899967 -0.897905,0 -1.94569,-0.216743 -2.328408,-0.481648 -1.690698,-1.170241 -2.240086,-1.077958 -3.742267,0.628608 -1.171744,1.331175 -2.068869,1.992605 -2.068869,1.52534 z m 1.984174,-5.917801 c -0.918979,-1.092147 -1.169144,-1.753937 -0.661257,-1.749312 0.372883,0.0035 1.993209,2.443501 1.770482,2.666228 -0.100859,0.100862 -0.600011,-0.31175 -1.109225,-0.916916 z m 5.997008,-3.502631 c -2.292372,-1.578995 -3.329757,-2.665328 -2.928455,-3.06663 0.09818,-0.09818 0.537503,0.01362 0.97627,0.248436 0.948817,0.507789 4.740565,4.152343 4.526683,4.350953 -0.08181,0.07596 -1.240328,-0.61378 -2.574498,-1.532759 z M 30.493747,75.627032 c 0.06573,-3.618914 0.06458,-3.60868 0.406206,-3.609742 0.330658,-0.0011 0.130418,6.079921 -0.211801,6.431965 -0.137689,0.14164 -0.225171,-1.12836 -0.194405,-2.822223 z m 6.652246,-1.055712 c -0.36926,-0.725166 -0.72844,-1.437548 -0.798181,-1.583069 -0.06974,-0.145521 0.02106,-0.264583 0.201803,-0.264583 0.376932,0 1.69097,2.742932 1.436127,2.997778 -0.0926,0.0926 -0.470486,-0.424956 -0.839749,-1.150126 z m -9.672299,-5.361093 c 0.67177,-0.574199 1.34046,-1.050449 1.485981,-1.058333 0.145521,-0.0079 0.275742,-0.60965 0.28938,-1.337254 0.0224,-1.19502 0.519525,-2.992592 0.70733,-2.557638 0.04189,0.09701 0.109118,1.025711 0.149398,2.063774 0.07094,1.828193 0.02893,1.919467 -1.339021,2.910417 -1.889464,1.368721 -2.899731,1.352342 -1.293068,-0.02096 z m 10.09964,-2.718967 c -0.129353,-0.12935 -0.235187,-0.526225 -0.235187,-0.881945 0,-0.82344 1.250132,-0.869551 1.561705,-0.0576 0.296041,0.771468 -0.752171,1.513892 -1.326518,0.939545 z m 14.396653,-0.849733 c -0.127804,-0.402678 -0.129871,-0.834644 -0.0046,-0.959922 0.264393,-0.264393 0.881641,0.603701 0.889572,1.251091 0.0087,0.714971 -0.632619,0.50395 -0.884982,-0.291169 z m -4.344941,-7.000441 c -2.083665,-2.205347 -2.641332,-3.033278 -2.443301,-3.627373 0.07283,-0.218497 0.468694,0.172674 0.879694,0.869269 0.411,0.696591 1.196083,1.545801 1.744631,1.887131 1.183061,0.736159 2.213282,1.90251 2.224232,2.518139 0.01319,0.74157 -0.444419,0.428191 -2.405256,-1.647166 z M 29.753425,54.379224 c 0.119916,-0.194028 0.376777,-0.352778 0.570805,-0.352778 0.194028,0 0.254667,0.15875 0.134751,0.352778 -0.119917,0.194028 -0.376778,0.352778 -0.570806,0.352778 -0.194027,0 -0.254666,-0.15875 -0.13475,-0.352778 z m 2.448676,-1.949136 c 0.770654,-0.58555 3.271863,-0.688312 4.077713,-0.16753 0.291042,0.188087 0.449792,0.349288 0.352778,0.358228 -0.09701,0.0089 -1.287639,0.08676 -2.645834,0.172931 -2.233072,0.141686 -2.403898,0.106878 -1.784657,-0.363629 z m -6.787843,-0.943642 c -0.802002,-0.802002 -0.506857,-1.438006 0.544834,-1.174049 1.182761,0.296854 1.912782,0.86418 1.652961,1.284577 -0.281019,0.454699 -1.704139,0.38313 -2.197795,-0.110528 z m 8.494766,-1.12996 c -1.976953,-1.084121 -3.97921,-2.629684 -3.97921,-3.07159 0,-0.195605 0.176498,-0.246562 0.392218,-0.11324 0.215724,0.133323 0.548196,0.02363 0.738837,-0.243763 0.268333,-0.376374 0.301762,-0.346746 0.148018,0.131192 -0.135396,0.420892 -0.01101,0.617362 0.390899,0.617362 0.324221,0 1.110446,0.504927 1.747168,1.12206 0.786969,0.762762 1.630383,1.186377 2.633913,1.322917 0.811932,0.110471 1.54208,0.399293 1.622548,0.641828 0.245886,0.741108 -2.065207,0.486648 -3.694391,-0.406766 z m 4.70947,0.216008 c -0.255795,-0.413891 0.750144,-1.335927 1.088429,-0.997641 0.129283,0.129282 -0.01453,0.484638 -0.31956,0.789679 -0.329914,0.329914 -0.641424,0.414171 -0.768869,0.207962 z m -1.779795,-3.525998 c -2.490686,-1.697844 -3.920515,-3.219884 -3.685928,-3.923638 0.07212,-0.216356 1.003642,0.406985 2.070054,1.385202 1.066415,0.978217 2.453788,2.130972 3.083052,2.561676 0.629264,0.430705 1.145201,0.981537 1.146528,1.224072 0.0032,0.573695 0.184922,0.660448 -2.613706,-1.247312 z m -7.261663,-0.957549 c 0.403246,-0.49068 0.424233,-0.679224 0.08819,-0.792323 -0.772745,-0.260083 -0.467275,-0.939171 0.952772,-2.118094 0.759562,-0.63059 1.471076,-1.146528 1.58114,-1.146528 0.505946,0 0.120389,1.071706 -0.593634,1.65009 -0.436562,0.353631 -0.9525,1.106244 -1.146527,1.672472 -0.194028,0.566229 -0.590903,1.107982 -0.881945,1.203897 -0.470369,0.155014 -0.470369,0.102846 0,-0.469514 z m -5.904828,-2.53664 c 0.327999,-0.328 0.695413,-0.497312 0.816476,-0.376249 0.347198,0.347198 -0.185803,0.972611 -0.828897,0.972611 -0.538506,0 -0.537539,-0.0464 0.01242,-0.596362 z m 7.807362,-2.431102 c 0.117775,-0.306911 0.214133,-0.862536 0.214133,-1.234722 0,-0.372186 0.15875,-0.676703 0.352778,-0.676703 0.194027,0 0.352777,0.555625 0.352777,1.234722 0,0.898881 -0.154199,1.234723 -0.56691,1.234723 -0.372011,0 -0.493293,-0.191842 -0.352778,-0.55802 z m -6.309078,-2.73901 c -0.370448,-0.565376 -1.027111,-0.925244 -1.96074,-1.074537 -0.772064,-0.123458 -1.732249,-0.552966 -2.133743,-0.95446 -0.883264,-0.883264 -0.590933,-1.379948 0.324559,-0.55144 0.356016,0.32219 1.115416,0.5858 1.687556,0.5858 1.15891,0 2.418015,0.749063 2.95936,1.760571 0.547267,1.022583 -0.225242,1.228763 -0.876992,0.234066 z m 1.754181,-0.946868 c -0.13722,-0.222029 -0.08969,-0.563495 0.105628,-0.758813 0.50116,-0.501158 1.664791,-0.206593 1.664791,0.421431 0,0.634235 -1.419741,0.90479 -1.770419,0.337382 z m -8.838308,-2.547074 c 0.133042,-1.018646 0.449152,-2.062698 0.702468,-2.320115 0.795666,-0.808547 3.161291,-0.926174 4.252129,-0.21143 0.958292,0.627897 0.960577,0.638382 0.200428,0.91958 -0.568348,0.210246 -0.710314,0.469084 -0.544252,0.9923 0.257451,0.811158 -0.548078,0.95118 -2.09297,0.363813 -1.219772,-0.463756 -1.138849,-0.999445 0.241618,-1.599453 0.63059,-0.274081 0.940207,-0.504542 0.688036,-0.512137 -0.25217,-0.0076 -0.916975,0.223283 -1.477345,0.513062 -0.817395,0.422691 -1.065994,0.841223 -1.257259,2.116666 -0.34393,2.293486 -1.014431,2.046782 -0.712853,-0.262286 z m 13.607338,0.08819 c 0,-0.194028 0.15875,-0.352778 0.352778,-0.352778 0.194027,0 0.352777,0.15875 0.352777,0.352778 0,0.194028 -0.15875,0.352778 -0.352777,0.352778 -0.194028,0 -0.352778,-0.15875 -0.352778,-0.352778 z"
       style="fill:#000000;stroke-width:0.35277778" />
  </g>
</svg>
