<?xml version="1.0" encoding="UTF-8" standalone="no"?>
<svg
   xmlns:dc="http://purl.org/dc/elements/1.1/"
   xmlns:cc="http://creativecommons.org/ns#"
   xmlns:rdf="http://www.w3.org/1999/02/22-rdf-syntax-ns#"
   xmlns:svg="http://www.w3.org/2000/svg"
   xmlns="http://www.w3.org/2000/svg"
   id="svg8"
   version="1.1"
   viewBox="0 0 51.217915 157.64213"
   height="157.64215mm"
   width="51.217915mm">
  <defs
     id="defs2" />
  <metadata
     id="metadata5">
    <rdf:RDF>
      <cc:Work
         rdf:about="">
        <dc:format>image/svg+xml</dc:format>
        <dc:type
           rdf:resource="http://purl.org/dc/dcmitype/StillImage" />
        <dc:title></dc:title>
      </cc:Work>
    </rdf:RDF>
  </metadata>
  <g
     transform="translate(28.625952,-35.613928)"
     id="layer1">
    <path
       id="path2348"
       d="m -10.254152,193.00775 c -0.276295,-0.1755 0.11647,-0.4233 1.0790091,-0.68074 1.935196,-0.51758 3.013567,-1.6149 4.652976,-4.7347 1.57658,-3.00023 3.201426,-4.87569 5.27903901,-6.09325 1.72520999,-1.01104 4.07133899,-3.56497 4.04899799,-4.40763 -0.0081,-0.30462 -0.527018,-1.10948 -1.153206,-1.78858 -0.626188,-0.6791 -1.108791,-1.18154 -1.072454,-1.11654 0.320106,0.57262 -1.046788,2.53605 -2.75550099,3.95806 -2.16820801,1.8044 -3.32631301,2.3097 -4.55639401,1.98803 -0.399822,-0.10456 -0.771622,-0.004 -0.833956,0.22491 -1.062473,3.90666 -2.313803,6.68176 -2.313803,5.13137 0,-0.30178 0.236406,-1.32799 0.525348,-2.28046 0.667637,-2.20081 0.664323,-2.26093 -0.124643,-2.26093 -0.460299,0 -0.828337,0.47729 -1.226541,1.59063 -0.312901,0.87484 -0.808952,2.26459 -1.102335,3.08832 -0.2933821,0.82373 -0.9717521,1.81451 -1.5074871,2.20173 -0.535736,0.38723 -1.422131,1.1399 -1.969768,1.67261 -0.702477,0.68333 -0.962202,0.79591 -0.881945,0.38228 0.06257,-0.32246 0.821623,-1.08461 1.686791,-1.69367 1.349887,-0.9503 1.706253,-1.47995 2.5121601,-3.73367 0.51652,-1.44446 1.196741,-3.10253 1.5116,-3.68462 0.619323,-1.14494 0.753476,-2.65564 0.283512,-3.19263 -0.161319,-0.18433 -0.48966,-1.02475 -0.729648,-1.8676 -0.729855,-2.56329 -3.6649911,-7.06394 -6.8537811,-10.50939 -2.252621,-2.43392 -4.243209,-5.09259 -6.487402,-8.66469 -1.012289,-1.61127 -2.450157,-3.51577 -3.195261,-4.23224 -2.791067,-2.68379 -3.709521,-5.74373 -2.909916,-9.69473 0.189516,-0.93643 0.430861,-2.27674 0.536322,-2.97845 0.209283,-1.39253 2.39882,-4.92591 3.465075,-5.5918 0.710399,-0.44365 5.567663,-1.00381 11.344125,-1.30825 3.6860221,-0.19427 7.8409461,0.28848 9.9047441,1.15078 0.656486,0.2743 1.278788,0.49873 1.382893,0.49873 0.368184,0 -0.201754,-5.48822 -0.714384,-6.87917 -0.286034,-0.77611 -0.743003,-2.99861 -1.015486,-4.93889 -0.272483,-1.94028 -0.746598,-4.11799 -1.053587,-4.83936 -0.306991,-0.72138 -0.554556,-1.912 -0.550146,-2.64584 0.0097,-1.61508 1.692537,-8.47013 2.955569,-12.03956 1.32501501,-3.74461 1.23958401,-4.43268 -0.854053,-6.87863 -3.098731,-3.62017 -4.606682,-6.51722 -6.363673,-12.225776 -0.447887,-1.455208 -1.0066731,-2.883958 -1.2417461,-3.175 -1.130582,-1.399762 -1.801484,-13.932791 -1.576851,-29.456944 0.01965,-1.358195 0.04411,-4.160775 0.05435,-6.227956 0.01685,-3.401703 0.08295,-3.775334 0.69628,-3.935723 0.372712,-0.09747 0.677659,-0.452385 0.677659,-0.788709 0,-0.645593 0.9482511,-1.54108 1.6519221,-1.560004 0.229459,-0.0062 0.524627,0.327256 0.655928,0.740948 0.186966,0.589078 0.30468,0.646446 0.542897,0.264583 0.488013,-0.782287 1.502907,0.09281 1.86031,1.604064 0.273816,1.157812 0.411708,1.290079 1.151396,1.104429 0.822896,-0.206533 0.840438,-0.161378 0.845727,2.177063 0.0038,1.672001 0.107934,2.229315 0.347376,1.858805 0.315702,-0.488513 0.547173,1.593541 0.451028,4.056944 -0.29474,7.551798 -0.559913,12.0442 -0.812112,13.758334 -0.897536,6.100335 -0.652264,15.042811 0.448287,16.344243 0.273988,0.323999 1.339119,2.732215 2.366958,5.35159 2.03432701,5.184339 2.793339,6.701479 3.35454,6.705189 0.200701,10e-4 0.750211,0.56812 1.221134,1.25953 0.470923,0.69141 1.960365,2.27939 3.309871,3.52882 1.826722,1.69127 2.485859,2.54833 2.579705,3.35436 0.06933,0.59545 0.216443,1.2289 0.326919,1.40765 0.110476,0.17876 0.110151,0.32501 -7.06e-4,0.32501 -0.110878,0 -0.751381,-0.83344 -1.423349,-1.85209 -0.671964,-1.01864 -2.091919,-2.80458 -3.155456,-3.96875 -1.508114,-1.65081 -1.887001,-1.92256 -1.72152,-1.23472 0.116699,0.48507 0.352524,1.06241 0.524055,1.28298 0.747204,0.96081 2.00346,3.80775 1.814876,4.11289 -0.113732,0.18402 -0.463268,-0.2007 -0.77675,-0.85495 -0.313478,-0.65424 -0.797994,-1.18953 -1.076702,-1.18953 -0.278709,0 -0.641901,-0.5216 -0.807096,-1.1591 -0.265585,-1.02486 -0.979237,-1.31002 -0.979237,-0.39127 0,0.19155 -0.532692,1.49187 -1.18375899,2.8896 -0.651068,1.39773 -1.377754,3.13664 -1.614859,3.86424 -0.24239001,0.74382 -0.66116801,1.32292 -0.95668101,1.32292 -0.369982,0 -0.45736,0.21494 -0.295146,0.72603 0.306596,0.966 -0.464691,4.09148 -1.188217,4.81501 -0.316729,0.31673 -0.41854,0.62808 -0.226244,0.69188 0.194315,0.0645 0.296401,0.97032 0.229808,2.03917 -0.09851,1.58102 0.05839,2.25579 0.881944,3.79289 0.55097,1.02836 1.23989,2.06313 1.53093101,2.29949 0.291042,0.23637 0.355334,0.4348 0.142871,0.44098 -0.212463,0.006 -0.67363001,-0.30628 -1.02481501,-0.69434 -0.351185,-0.38806 -0.759942,-0.70556 -0.908347,-0.70556 -0.345481,0 0.02686,6.60973 0.434248,7.70878 0.197447,0.53267 0.495166,0.75761 0.83178,0.62844 0.35312501,-0.13551 0.52426301,0.0229 0.52426301,0.48517 0,0.37749 0.396875,0.94639 0.881945,1.26422 0.485069,0.31783 0.881944,0.74297 0.881944,0.94476 0,0.20178 -0.281438,0.11218 -0.625418,-0.19912 -1.027231,-0.92963 -1.65183201,-0.21615 -1.53805701,1.75691 0.05386,0.93409 0.28486801,1.87974 0.51334301,2.10146 0.59381,0.57622 2.00290999,0.94802 2.00290999,0.52847 0,-0.19288 -0.277812,-0.42329 -0.61736099,-0.51202 -0.339549,-0.0887 -0.111758,-0.17975 0.50620099,-0.20225 0.617959,-0.0225 1.553348,0.12248 2.078644,0.32219 2.374117,0.90264 7.0673039,1.71024 8.3099629,1.42998 1.546885,-0.34888 4.217974,0.74998 6.434159,2.64696 0.781499,0.66893 1.587652,1.16096 1.791455,1.0934 0.768128,-0.25462 0.840751,-3.20742 0.161336,-6.55979 -0.37,-1.82567 -0.672729,-4.35491 -0.672729,-5.62055 0,-2.7797 -0.714538,-8.62955 -1.017729,-8.33206 -0.119348,0.1171 -0.385283,0.70372 -0.59097,1.3036 -0.205687,0.59989 -0.635268,1.12904 -0.95462,1.17591 -0.469177,0.0689 -0.539189,-0.12205 -0.364705,-0.99447 0.153747,-0.76875 0.09848,-1.0071 -0.191908,-0.82763 -0.470002,0.29048 -0.539672,-0.44668 -0.106722,-1.12919 0.237906,-0.37505 0.355762,-0.37505 0.652787,0 0.199355,0.25172 0.437349,0.69579 0.528881,0.98683 0.173824,0.55273 0.872381,-3.58335 1.222918,-7.24075 0.16335,-1.70436 0.09023,-2.21967 -0.369055,-2.60084 -0.366702,-0.30433 -0.572766,-1.02346 -0.572766,-1.99884 0,-0.83791 -0.156933,-1.62047 -0.348739,-1.73901 -0.199975,-0.12359 -0.259115,0.018 -0.138645,0.33195 0.115552,0.30112 0.04336,0.54749 -0.160429,0.54749 -0.214253,0 -0.353766,-0.73575 -0.330789,-1.74446 0.03059,-1.34344 -0.176742,-2.07159 -0.901944,-3.16744 -0.994449,-1.50271 -1.170527,-2.14365 -0.588899,-2.14365 0.194028,0 0.352778,0.16433 0.352778,0.36519 0,0.20085 0.277813,0.78551 0.617361,1.29924 0.339549,0.51373 0.884672,1.73846 1.211386,2.72162 0.579522,1.74391 0.59447,1.75741 0.612161,0.55284 0.01,-0.6791 -0.206061,-1.6316 -0.480081,-2.11667 C 17.090699,101.44 16.61152,100.56688 16.29988,99.98479 15.418179,98.33796 14.775538,97.60238 14.413799,97.82595 14.231484,97.93863 13.731256,97.04171 13.302179,95.8328 12.873099,94.6239 11.996757,92.84104 11.354743,91.8709 10.712734,90.90077 9.9079311,89.55139 9.5662941,88.87229 9.2246531,88.1932 8.2949151,86.764446 7.5002051,85.697293 5.3001381,82.743001 4.2580081,81.023446 3.9684511,79.869764 3.8238261,79.293533 3.5345241,78.616059 3.3255521,78.364267 3.1165811,78.112472 2.8951811,76.047833 2.8335511,73.776181 2.6839001,68.260109 2.5126751,66.3539 1.8287861,62.590349 c -0.317318,-1.74625 -0.663264,-5.23875 -0.768769,-7.761111 -0.18843499,-4.504992 -0.17472099,-4.617312 0.775363,-6.35 0.740298,-1.350099 1.017683,-2.442441 1.182434,-4.656393 l 0.21524,-2.892503 0.844487,0.639236 c 0.52306,0.395932 0.741253,0.806269 0.573264,1.078083 -0.207885,0.336367 -0.331883,0.340696 -0.530987,0.01854 -0.142872,-0.23117 -0.183163,0.376909 -0.08954,1.351288 0.149952,1.560575 0.01199,2.054511 -1.158032,4.146745 l -1.328257,2.375148 0.222596,4.261595 c 0.122428,2.343877 0.368228,4.896595 0.546224,5.672706 0.177996,0.776111 0.51395,2.800174 0.746568,4.497917 l 0.422942,3.086805 h 1.35769 c 1.063964,0 1.609411,0.250987 2.5212,1.160128 0.639932,0.638069 1.600074,1.349043 2.13365,1.579936 1.0229109,0.442648 1.2343549,1.087942 0.5731399,1.749157 -0.2941419,0.294143 -0.2005109,0.80288 0.361407,1.963646 0.622819,1.286573 0.716644,1.921958 0.524814,3.554112 -0.131685,1.120454 -0.409643,1.987466 -0.637167,1.987466 -0.221967,0 -0.6145069,0.714375 -0.8723099,1.5875 -0.257803,0.873125 -0.60996,1.5875 -0.782574,1.5875 -0.17261,0 -0.308137,0.515937 -0.30117,1.146527 0.0082,0.740132 0.628188,2.14689 1.7491709,3.968753 0.955076,1.55222 2.241103,3.77472 2.857836,4.93889 0.616733,1.16416 1.712905,2.98979 2.435937,4.05694 2.58717,3.8185 3.099838,5.18229 3.504121,9.32169 0.20701,2.11949 0.376379,6.03158 0.376379,8.69351 0,3.07664 0.206918,5.84044 0.567965,7.58627 0.312381,1.51052 0.488865,3.44817 0.392187,4.30589 -0.09668,0.85773 0.05997,2.53602 0.348107,3.72954 0.288134,1.19352 0.560997,3.92051 0.606365,6.05997 0.06213,2.92998 0.227538,4.11131 0.67027,4.787 0.871203,1.32963 0.960498,4.74789 0.236153,9.04016 -0.883228,5.23379 -1.017675,5.67481 -2.341841,7.68183 -1.751302,2.65443 -1.87518,2.7695 -4.536151,4.21361 -1.358194,0.7371 -2.707569,1.54048 -2.998611,1.78529 -0.291042,0.24482 -0.924102,0.56595 -1.4068,0.71363 -1.0902499,0.33357 -6.1190159,0.35478 -6.6476779,0.0281 -0.219248,-0.1355 -0.301981,-0.67596 -0.189541,-1.23816 0.170466,-0.85232 0.06786,-1.03075 -0.704109,-1.2245 -1.63145,-0.40947 -5.304235,-2.7458 -7.191456,-4.57463 -1.027371,-0.99558 -1.848387,-1.56451 -1.843781,-1.27765 0.0275,1.7125 1.696816,6.28096 3.769953,10.3173 1.99643401,3.88701 2.59557101,4.76365 3.597566,5.26384 0.661216,0.33007 1.812153,1.19573 2.557639,1.92368 1.750124,1.70895 1.89049,3.58186 0.386129,5.15208 -0.533117,0.55645 -1.131065,1.58829 -1.328776,2.29296 -0.317352,1.13108 -0.606849,1.38042 -2.47028399,2.12757 -2.66000401,1.06654 -2.79373801,1.18147 -4.60250501,3.95496 -1.891202,2.8999 -3.120407,4.18212 -4.603082,4.80162 -1.363329,0.56964 -1.249709,0.55685 -1.8063171,0.20328 z m 9.93471411,-9.55102 c 0.106321,-0.17203 0.745122,-0.41631 1.41955599,-0.54283 1.227453,-0.23027 1.872969,-0.75667 1.448461,-1.18118 -0.124279,-0.12428 -0.946894,0.1641 -1.82803299,0.64084 -1.635792,0.88503 -2.21629601,1.39596 -1.586074,1.39596 0.194027,0 0.439768,-0.14076 0.54609,-0.31279 z m -5.82981401,-3.70356 c 0.45116,-0.54361 -0.02933,-4.82024 -0.757632,-6.74338 -0.688819,-1.81887 -4.1452201,-7.19625 -5.7385651,-8.92792 -3.259752,-3.54274 -6.537098,-7.72635 -8.065569,-10.29588 -0.878963,-1.47764 -2.24701,-3.4238 -3.040104,-4.3248 -0.793095,-0.90101 -1.908334,-2.66669 -2.478309,-3.92374 -1.393694,-3.07373 -1.758348,-3.20591 -1.758348,-0.63739 0,2.88702 0.641772,4.14149 3.343602,6.53574 1.767769,1.56652 2.276227,2.22219 2.11564,2.72815 -0.142657,0.44948 0.109314,0.9834 0.774929,1.64205 0.542476,0.53681 0.948522,1.09714 0.902323,1.24518 -0.2269,0.72712 5.010472,7.48096 5.545029,7.15059 0.412207,-0.25476 2.912606,2.58544 2.650079,3.01022 -0.11803,0.19098 -0.02421,0.30361 0.208497,0.25029 0.232703,-0.0533 0.503223,0.1236 0.601155,0.39315 0.116677,0.32113 0.02735,0.39693 -0.259133,0.21987 -0.240455,-0.1486 0.364782,0.90662 1.344969,2.34496 2.0279811,2.97587 4.1346001,8.00368 3.5841341,8.55414 -0.509623,0.50963 -0.428395,1.26734 0.135859,1.26734 0.267284,0 0.668434,-0.21986 0.891444,-0.48857 z M -16.234405,163.21882 c -1.148763,-1.27444 -3.714232,-4.89215 -3.57088,-5.0355 0.07225,-0.0723 1.136207,1.13921 2.364346,2.69213 1.228139,1.55293 2.16273,2.89376 2.076868,2.97962 -0.08586,0.0859 -0.477511,-0.20045 -0.870334,-0.63625 z m 13.9994051,15.30175 c 2.38353601,-1.48972 3.533978,-2.64244 3.317606,-3.32416 -0.14388499,-0.45335 -0.08518,-0.60527 0.172378,-0.44609 0.724377,0.44769 0.407487,-1.08699 -0.36631599,-1.77404 -0.75283,-0.66844 -0.754655,-0.66779 -0.340366,0.12171 0.66536299,1.26795 -0.145856,0.92579 -1.468472,-0.61939 -1.28217901,-1.49794 -4.71961101,-7.99968 -4.39892701,-8.32036 0.104207,-0.1042 0.575927,0.65467 1.048266,1.6864 1.07463,2.3473 2.732896,4.99818 2.97511,4.75597 0.100535,-0.10054 -0.446671,-1.42523 -1.216013,-2.94375 -2.199703,-4.34177 -2.833489,-5.8836 -3.610695,-8.78382 -0.398919,-1.48862 -0.932888,-3.20308 -1.186598,-3.80991 -0.688556,-1.64692 -3.5321701,-5.93734 -4.4924351,-6.77815 -1.066468,-0.9338 -4.438411,-2.96824 -4.919648,-2.96824 -0.375601,0 -2.06345,-1.75958 -2.083298,-2.17184 -0.0061,-0.12735 0.306352,-0.14853 0.694408,-0.0471 0.388055,0.10148 0.705555,0.0888 0.705555,-0.0283 0,-0.30509 -2.435537,-1.2806 -3.197263,-1.2806 -0.352909,0 -0.754183,-0.18208 -0.891719,-0.40462 -0.180648,-0.29229 0.223732,-0.35121 1.456706,-0.21223 1.345476,0.15165 1.860736,0.40373 2.434107,1.19085 0.400035,0.54916 0.729767,1.08123 0.732738,1.18237 0.01506,0.51285 0.637365,1.06585 1.19941,1.06585 1.034424,0 3.757212,2.31474 5.9273721,5.03908 3.997294,5.01804 7.145421,7.65624 12.143394,10.1764 3.591496,1.81096 4.60527,2.00229 5.558507,1.04905 0.40827,-0.40827 0.605413,-0.74231 0.438098,-0.74231 -0.167312,0 -0.404672,-0.85478 -0.52746,-1.89952 -0.122788,-1.04475 -0.711284,-3.06881 -1.307765,-4.49792 -1.820023,-4.3606 -2.846211,-7.10051 -3.35147,-8.94839 -1.22719,-4.48821 -1.547253,-5.46205 -2.24402399,-6.82784 -0.992268,-1.945 -2.79033901,-3.06719 -6.36153301,-3.97027 -2.524532,-0.6384 -3.598955,-0.71812 -7.3932501,-0.54853 -4.176354,0.18665 -10.115384,0.94291 -11.339502,1.44394 -0.79078,0.32367 -2.795319,3.77138 -3.028629,5.2091 -0.135539,0.83522 0.03635,1.73619 0.54371,2.84992 0.408048,0.89572 0.741906,1.8482 0.741906,2.11662 0,0.73416 1.887257,3.42679 3.505977,5.00213 0.788102,0.76698 1.433982,1.56073 1.435289,1.76389 0.0074,1.15439 4.949801,7.55578 8.905263,11.53415 0.727604,0.73182 1.322916,1.48066 1.322916,1.6641 0,0.18345 0.515938,0.95368 1.1465281,1.71163 0.63059,0.75795 1.819536,2.71766 2.6421,4.3549 1.240698,2.46951 1.531386,3.44261 1.705718,5.71003 l 0.210144,2.73321 0.940117,-0.23138 c 0.517064,-0.12726 1.336991,-0.47943 1.82206,-0.7826 z m -3.681485,-15.46153 c -0.191448,-0.50278 -0.150926,-0.5433 0.197483,-0.19749 0.241095,0.2393 0.349487,0.52396 0.240871,0.63258 -0.108616,0.10861 -0.305875,-0.0872 -0.438354,-0.43509 z m -6.4566271,-8.1088 c -0.722568,-1.03707 -1.602924,-3.30173 -1.372917,-3.53173 0.0736,-0.0736 0.405132,0.54745 0.736738,1.38012 0.331605,0.83267 0.853213,1.79273 1.159127,2.13346 0.305915,0.34074 0.468667,0.70707 0.361671,0.81407 -0.106995,0.10699 -0.505074,-0.25117 -0.884619,-0.79592 z m 11.80715511,-2.47491 c -0.73126301,-0.50209 -1.25763601,-0.98482 -1.16971801,-1.07273 0.223583,-0.22358 3.028453,1.38815 3.028453,1.74021 0,0.46344 -0.44363199,0.30413 -1.85873499,-0.66748 z M -15.434749,149.359 c -1.402951,-1.23881 -1.360632,-1.67186 0.06575,-0.67278 0.644351,0.45132 1.763333,1.95812 1.416554,1.9075 -0.05533,-0.008 -0.722368,-0.5637 -1.4823,-1.23472 z m -4.791918,-4.21865 c -0.476707,-0.5744 -0.362679,-0.6462 0.500314,-0.31504 0.306911,0.11778 0.558019,0.3559 0.558019,0.52917 0,0.48797 -0.571623,0.37232 -1.058333,-0.21413 z m 6.777317,-1.96586 c -1.122064,-1.03331 -2.457911,-1.8865 -3.351389,-2.14049 -1.753031,-0.49832 -2.712032,-1.18231 -1.132873,-0.80799 2.527138,0.59901 7.495849,3.96646 6.631714,4.4945 -0.154942,0.0947 -1.121296,-0.60102 -2.147452,-1.54602 z m -11.213401,0.18552 c -0.129097,-0.68814 -0.13629,-1.3496 -0.01598,-1.46991 0.120303,-0.1203 0.218734,0.13566 0.218734,0.56881 0,0.43315 0.164336,1.09461 0.36519,1.46991 0.235207,0.43949 0.240897,0.68236 0.01599,0.68236 -0.192063,0 -0.454829,-0.56302 -0.583926,-1.25117 z m 30.0124741,20.65395 c 0.119916,-0.19403 0.04991,-0.35278 -0.155568,-0.35278 -0.205479,0 -0.373599,0.15875 -0.373599,0.35278 0,0.19403 0.07,0.35278 0.155568,0.35278 0.08556,0 0.253683,-0.15875 0.373599,-0.35278 z m 1.411111,-1.67941 c -1.860843,-0.33483 -6.75779699,-2.51761 -8.347559,-3.72085 -0.978839,-0.74086 -1.870733,-1.25599 -1.981988,-1.14473 -0.378,0.378 3.38575201,3.02968 5.955265,4.19567 2.258367,1.02479 3.017799,1.20016 4.197893,0.96936 0.753544,-0.14738 0.779223,-0.19098 0.176389,-0.29945 z m 7.7858519,-1.99075 c 0.355293,-0.50724 0.381511,-0.81537 0.09841,-1.15649 -0.216926,-0.26138 -0.238347,-0.46502 -0.04891,-0.46502 0.363421,0 0.375246,-1.2556 0.0152,-1.61563 -0.120396,-0.1204 -0.395923,-0.1095 -0.612281,0.0242 -0.286967,0.17736 -0.28163,0.37777 0.01972,0.74088 0.286773,0.34554 0.294707,0.49776 0.02593,0.49776 -0.240136,0 -0.308497,0.39327 -0.180022,1.03566 0.173986,0.86993 0.102012,1.01915 -0.449792,0.93257 -0.361308,-0.0567 -0.458484,-0.0349 -0.215949,0.0486 0.242534,0.0834 0.46259,0.65592 0.489013,1.27228 0.04093,0.95485 0.07218,0.99164 0.211176,0.24869 0.08973,-0.47959 0.381085,-1.18314 0.647468,-1.56346 z m -5.4981969,0.91531 c -0.0047,-0.51409 -0.05267,-0.5234 -0.347377,-0.0674 -0.446476,0.69087 -0.446476,1.15788 0,0.88194 0.194028,-0.11991 0.350347,-0.48647 0.347377,-0.81457 z m 2.6197099,-0.94932 c -0.185113,-0.73755 -0.09617,-0.88194 0.543267,-0.88194 0.523434,0 0.677722,-0.1391 0.489137,-0.44097 -0.151518,-0.24254 -0.308839,-0.66155 -0.349603,-0.93114 -0.08038,-0.53158 0.7225,-1.49255 1.181908,-1.41464 1.344274,0.22798 1.337582,-0.98833 -0.01379,-2.50501 -0.527244,-0.59174 -1.060196,-1.58375 -1.184339,-2.20446 -0.124142,-0.6207 -0.516255,-1.44042 -0.871361,-1.82158 -0.635124,-0.68174 -0.839971,-1.26553 -0.444049,-1.26553 0.32669,0 0.996178,0.81035 1.54032,1.86441 0.278952,0.54037 0.707023,0.90579 0.951269,0.81206 0.297699,-0.11423 0.521868,0.34829 0.68005,1.40312 0.277262,1.84892 0.735326,2.28896 1.193507,1.14654 0.180089,-0.44903 0.337495,-0.61797 0.349793,-0.37544 0.03309,0.65235 0.632524,0.53637 1.44931,-0.28042 l 0.721388,-0.72139 -0.950842,0.10403 c -0.845982,0.0926 -1.094027,-0.15869 -2.249134,-2.27818 -0.714058,-1.31022 -1.378765,-2.30174 -1.477127,-2.20337 -0.09837,0.0984 -0.359978,-0.21871 -0.581364,-0.70459 -0.244679,-0.53702 -0.267151,-0.88344 -0.0573,-0.88344 0.189869,0 0.345214,0.16944 0.345214,0.37655 0,0.2071 0.277813,0.2901 0.617362,0.18444 0.933231,-0.2904 1.429279,0.19699 1.558801,1.53159 0.190116,1.95895 0.881599,1.6897 0.905598,-0.35262 0.02043,-1.73848 -0.01256,-1.80199 -0.852505,-1.64142 -0.5429,0.10378 -0.944308,-0.0168 -1.060083,-0.31854 -0.102478,-0.26705 -0.321042,-0.48556 -0.485694,-0.48556 -0.299187,0 -2.580679,-1.41996 -3.421959,-2.12976 -0.2449829,-0.2067 -0.5963809,-0.28252 -0.7808839,-0.16849 -0.184499,0.11403 -0.619058,-0.0763 -0.965687,-0.42291 -0.346625,-0.34662 -0.934497,-0.63023 -1.306385,-0.63023 -0.371884,0 -0.750736,-0.22373 -0.841887,-0.49718 -0.109809,-0.32943 0.01457,-0.42801 0.36859,-0.29215 0.597799,0.22939 1.325844,-0.34449 1.325844,-1.04511 0,-0.25224 -0.247494,-0.45861 -0.549987,-0.45861 -0.302493,0 -0.471717,-0.12665 -0.376054,-0.28143 0.09566,-0.15478 0.01358,-0.51197 -0.182425,-0.79375 -0.258632,-0.37182 -0.4038,-0.39628 -0.52935,-0.0892 -0.108409,0.26517 -0.690835,-0.0641 -1.560065,-0.88195 -1.444727,-1.35935 -1.763303,-1.95605 -0.859063,-1.60906 0.588239,0.22573 0.73382,-0.40986 0.173231,-0.75632 -0.660985,-0.40852 -1.681724,0.19531 -1.854049,1.09676 -0.09483,0.49606 0.130011,1.51905 0.503979,2.29308 0.371352,0.7686 0.584909,1.54353 0.474571,1.72206 -0.110335,0.17853 0.192507,0.53058 0.672984,0.78232 0.480479,0.25175 0.901082,0.61648 0.934677,0.8105 0.03359,0.19403 0.196356,0.70859 0.361696,1.14347 0.341211,0.89745 0.06122,1.95463 -0.436252,1.64717 -0.195008,-0.12052 -0.232826,0.20493 -0.09247,0.79578 0.403222,1.6974 1.147756,3.29275 1.536686,3.29275 0.470891,0 0.483027,-0.59454 0.01799,-0.88194 -0.194028,-0.11992 -0.352778,-0.44679 -0.352778,-0.72638 0,-0.27959 0.15875,-0.50835 0.352778,-0.50835 0.194028,0 0.352778,0.3175 0.352778,0.70556 0,0.39197 0.235186,0.70556 0.529166,0.70556 0.291042,0 0.529167,0.16812 0.529167,0.37359 0,0.20548 0.154097,0.27836 0.342434,0.16196 0.341955,-0.21133 0.487109,0.23456 0.887949,2.72764 0.131942,0.82064 0.07269,1.32292 -0.156065,1.32292 -0.202819,0 -0.368762,0.48562 -0.368762,1.07915 0,0.76943 0.126559,1.00312 0.440972,0.81423 0.348826,-0.20957 0.351225,-0.15397 0.0115,0.26606 -0.266686,0.32972 -0.347906,1.03371 -0.214266,1.85723 0.191516,1.18018 0.306796,1.30324 1.046847,1.1175 0.6679769,-0.16765 0.8316269,-0.0686 0.8316269,0.50355 0,0.49572 -0.241328,0.72023 -0.7937499,0.73844 -0.62249,0.0205 -0.489288,0.1671 0.6173619,0.67939 0.776111,0.35928 1.453821,0.66501 1.506026,0.6794 0.0522,0.0144 -0.0047,-0.37072 -0.12644,-0.85579 z m -0.85042,-1.59857 c 0,-0.18794 0.238125,-0.3417 0.529166,-0.3417 0.291042,0 0.529167,0.0624 0.529167,0.13864 0,0.0763 -0.238125,0.23002 -0.529167,0.34171 -0.291041,0.11168 -0.529166,0.0493 -0.529166,-0.13865 z m -0.519748,-1.52592 c -0.5711399,-0.41763 -0.4967319,-0.54942 0.883119,-1.56417 0.828746,-0.60946 1.661824,-1.01231 1.851283,-0.89522 0.189463,0.11709 -0.07258,0.46595 -0.582313,0.77524 -0.509732,0.30929 -0.926786,0.8337 -0.926786,1.16537 0,0.84601 -0.492576,1.05457 -1.225303,0.51878 z m -1.7388169,-9.65861 c -0.424663,-0.42466 -0.192955,-0.79884 0.494676,-0.79884 0.388055,0 0.705555,0.14177 0.705555,0.31503 0,0.39654 -0.917617,0.76643 -1.200231,0.48381 z m -1.092824,-0.44606 c -0.119917,-0.19403 -0.04991,-0.35278 0.155568,-0.35278 0.205479,0 0.373598,0.15875 0.373598,0.35278 0,0.19402 -0.07,0.35277 -0.155568,0.35277 -0.08556,0 -0.253682,-0.15875 -0.373598,-0.35277 z m -2.028473,-0.23364 c 0.242535,-0.0979 0.440973,-0.37823 0.440973,-0.62303 0,-0.2448 0.338599,-0.74751 0.752439,-1.11713 0.749008,-0.66897 0.751258,-0.66801 0.493547,0.20991 -0.274197,0.93406 -1.13157,1.78247 -1.754385,1.73603 -0.205451,-0.0153 -0.175108,-0.10792 0.06743,-0.20578 z m -1.121329,-7.02351 c -0.373588,-0.27317 -0.567993,-0.60793 -0.432018,-0.7439 0.135978,-0.13598 0.511813,0.0173 0.835194,0.34073 0.76157,0.76157 0.476631,1.04651 -0.403176,0.40317 z m 14.4597479,17.63475 c -0.706995,-0.70699 -0.746933,-0.669 -1.048117,0.99702 l -0.23871,1.32046 0.935323,-0.86683 c 0.870317,-0.80658 0.894747,-0.90741 0.351504,-1.45065 z m -2.028588,-2.09405 c -0.55928,-1.22749 -0.920525,-1.08895 -0.920525,0.35304 0,1.09044 0.07401,1.18864 0.659652,0.87521 0.557827,-0.29854 0.598096,-0.48813 0.260873,-1.22825 z m 1.831142,0.53589 c 0,-0.19403 -0.238125,-0.35278 -0.529167,-0.35278 -0.291041,0 -0.529166,0.15875 -0.529166,0.35278 0,0.19403 0.238125,0.35278 0.529166,0.35278 0.291042,0 0.529167,-0.15875 0.529167,-0.35278 z m 1.763889,0 c 0,-0.19403 -0.15875,-0.35278 -0.352778,-0.35278 -0.194027,0 -0.352777,0.15875 -0.352777,0.35278 0,0.19403 0.15875,0.35278 0.352777,0.35278 0.194028,0 0.352778,-0.15875 0.352778,-0.35278 z m 0.0971,-3.26319 c 0.24534,-2.0757 0.06846,-4.84589 -0.380499,-5.95937 -0.468986,-1.16312 -0.180544,-2.43962 0.492877,-2.1812 0.410425,0.15749 0.405733,0.0214 -0.02808,-0.81479 -0.286448,-0.55213 -0.787964,-1.00539 -1.114485,-1.00724 -0.32652,-0.002 -0.651524,-0.17562 -0.722227,-0.38613 -0.194452,-0.57894 1.241492,-0.35548 2.024637,0.31507 1.067442,0.91397 0.897111,-0.19476 -0.216912,-1.41195 -0.633621,-0.69229 -0.962442,-0.85164 -1.093964,-0.53014 -0.141524,0.34595 -0.314653,0.30232 -0.699844,-0.17639 -0.476885,-0.59266 -0.496147,-0.57953 -0.282321,0.19252 l 0.229482,0.82857 -0.740382,-0.74038 c -0.407212,-0.40721 -0.93882,-0.75253 -1.181354,-0.76737 -0.242535,-0.0148 -0.753068,-0.0852 -1.13452,-0.15635 -0.381451,-0.0712 -0.883687,0.0284 -1.116083,0.2213 -0.293924,0.24394 -0.626462,0.13179 -1.092517,-0.36847 -0.51398,-0.55169 -1.00947,-0.69036 -2.127956,-0.59553 -0.919092,0.0779 -1.5187149,-0.0347 -1.6223119,-0.30465 -0.09039,-0.23555 -0.969328,-0.80906 -1.953204,-1.27448 -0.983872,-0.46542 -1.791666,-0.98226 -1.795092,-1.14855 -0.0035,-0.16627 0.226808,-0.2129 0.511634,-0.1036 0.284829,0.1093 0.602142,0.0624 0.705139,-0.10428 0.102997,-0.16665 -0.312483,-0.47722 -0.92329,-0.69015 -1.321269,-0.46059 -1.711643,-0.48865 -1.060951,-0.0762 0.389058,0.24659 0.392395,0.42995 0.0187,1.02832 -0.398677,0.63838 -0.348294,0.81683 0.408457,1.44665 0.474782,0.39514 1.141049,0.72372 1.480598,0.73017 0.339548,0.006 0.617361,0.16747 0.617361,0.3578 0,0.19033 0.396875,0.44566 0.881944,0.56741 0.938622,0.23558 1.217553,0.85042 0.385805,0.85042 -0.321521,0 -0.431567,0.24693 -0.31267,0.70159 0.100908,0.38587 0.313203,0.62141 0.471762,0.52341 0.158564,-0.098 0.383724,-0.0238 0.500359,0.16495 0.116632,0.18872 0.4451039,0.2537 0.7299329,0.1444 0.359872,-0.1381 0.517867,0.0412 0.517867,0.58777 0,0.66465 0.0833,0.71736 0.537693,0.34025 0.650653,-0.54 1.124903,-0.19185 0.600079,0.44052 -0.266513,0.32113 -0.244454,0.6275 0.07682,1.06686 0.547984,0.74941 1.053137,0.81329 0.778838,0.0985 -0.109297,-0.28483 -0.05019,-0.60967 0.131357,-0.72187 0.566731,-0.35026 1.736962,0.5128 1.973573,1.45554 0.162624,0.64794 0.405095,0.85419 0.863329,0.73435 0.376915,-0.0986 0.726302,0.0656 0.855341,0.40186 0.184231,0.4801 0.266436,0.49037 0.528673,0.0661 0.170787,-0.27634 0.221534,-0.66877 0.112773,-0.87206 -0.108765,-0.20329 0.225636,0.0669 0.743108,0.60052 0.517472,0.53357 1.093188,0.97014 1.279363,0.97014 0.186175,0 0.338501,0.24712 0.338501,0.54917 0,0.49704 -0.07442,0.49704 -0.784052,0 -1.001261,-0.70132 -1.685393,-0.70098 -1.685393,7e-4 0,0.30249 -0.15875,0.45187 -0.352777,0.33196 -0.733694,-0.45345 -0.311253,0.53108 0.705555,1.64434 0.582084,0.6373 1.063382,1.40116 1.069552,1.69747 0.0087,0.41995 0.125434,0.38774 0.529167,-0.14604 0.284871,-0.37664 0.517948,-0.54789 0.517948,-0.38056 0,0.16733 -0.262728,0.59454 -0.583844,0.94937 -0.549335,0.60701 -0.53648,0.64514 0.217516,0.64514 0.664556,0 0.772576,0.15056 0.632763,0.88194 -0.09273,0.48507 -0.04988,0.88195 0.09521,0.88195 0.14509,0 0.343546,-0.67469 0.441015,-1.49931 z m -1.155435,-3.08681 c 0,-0.38805 0.15875,-0.70555 0.352778,-0.70555 0.194027,0 0.352777,0.3175 0.352777,0.70555 0,0.38806 -0.15875,0.70556 -0.352777,0.70556 -0.194028,0 -0.352778,-0.3175 -0.352778,-0.70556 z m -1.411111,-0.70555 c 0,-0.19403 0.168119,-0.35278 0.373598,-0.35278 0.205479,0 0.275484,0.15875 0.155568,0.35278 -0.119916,0.19402 -0.288036,0.35277 -0.373598,0.35277 -0.08556,0 -0.155568,-0.15875 -0.155568,-0.35277 z m 0.25056,-3.52778 c -0.106017,-0.40542 -0.481192,-0.70556 -0.881944,-0.70556 -0.400163,0 -0.775882,-0.29998 -0.881479,-0.70377 -0.101223,-0.38708 -0.476924,-0.81425 -0.834895,-0.94928 -0.357971,-0.13502 -1.269986,-0.69145 -2.026701,-1.2365 -1.080555,-0.77831 -1.222329,-0.991 -0.660555,-0.991 0.393407,0 0.922076,0.24916 1.174813,0.55369 0.252737,0.30453 0.748425,0.47814 1.101528,0.3858 0.455023,-0.11899 0.642006,0.028 0.642006,0.50464 0,1.09711 0.598159,0.76534 0.85459,-0.47399 0.229923,-1.11121 0.253887,-1.12479 0.777794,-0.44098 0.29731,0.38806 0.927449,1.45962 1.400309,2.38125 0.716672,1.39683 0.767232,1.6757 0.303819,1.6757 -0.305763,0 -0.457817,0.15875 -0.337901,0.35278 0.119916,0.19402 0.06843,0.35277 -0.114423,0.35277 -0.182849,0 -0.415481,-0.3175 -0.516961,-0.70555 z m 0.278035,-1.45768 c -0.116216,-0.45946 -0.529971,-1.23225 -0.919459,-1.71732 l -0.708159,-0.88195 0.232653,1.18245 c 0.200882,1.02099 1.188696,2.55325 1.5009,2.32816 0.05795,-0.0418 0.01027,-0.45188 -0.105935,-0.91134 z m -8.030214,-2.63376 c -0.115983,-0.11598 -0.12035,-0.44679 -0.0097,-0.73513 0.163982,-0.42732 0.256329,-0.43725 0.49946,-0.0537 0.519966,0.82027 0.145238,1.42384 -0.489755,0.78884 z m -2.8177669,10.70602 c -0.143595,-1.00893 -0.851838,-2.26373 -1.124063,-1.9915 -0.222564,0.22256 0.74658,2.78525 1.053306,2.78525 0.10105,0 0.132888,-0.35719 0.07076,-0.79375 z m 9.6138299,-0.83149 c 0,-0.68909 -0.263652,-0.61157 -0.701308,0.20619 -0.304599,0.56915 -0.274405,0.65965 0.163978,0.49143 0.295533,-0.11341 0.53733,-0.42734 0.53733,-0.69762 z m 0.0188,-12.92684 c -0.380072,-0.35278 -0.425295,-0.35278 -0.226127,0 0.551279,0.97644 -0.371267,0.33524 -1.03469,-0.71915 -0.392067,-0.62311 -0.868317,-1.14624 -1.058334,-1.1625 -0.190016,-0.0163 -0.792381,-0.21469 -1.33859,-0.44097 -1.318581,-0.54625 -1.38665,-0.52703 -0.959584,0.27095 0.481496,0.89969 0.474299,0.92316 -0.300828,0.98155 -0.461807,0.0348 -0.618448,-0.13173 -0.510875,-0.5431 0.133322,-0.50982 -0.131272,-0.58514 -1.8812089,-0.5355 -2.27209,0.0645 -2.700362,0.42977 -1.278283,1.09038 1.247839,0.57967 1.5141609,0.55656 1.5141609,-0.13138 0,-0.46689 0.0968,-0.49203 0.525283,-0.13642 0.288904,0.23977 0.446193,0.56391 0.349528,0.72032 -0.232709,0.37653 1.704739,0.97036 3.826031,1.17269 0.936226,0.0893 1.798768,0.2589 1.916762,0.37689 0.11799,0.11799 0.375923,0.0531 0.573182,-0.14413 0.243025,-0.24303 0.20549,-0.50083 -0.116427,-0.79963 z M 3.1850131,134.91182 c -0.111255,-0.28993 -0.346988,-0.43771 -0.523849,-0.3284 -0.369917,0.22862 -0.07296,0.85554 0.405245,0.85554 0.176488,0 0.22986,-0.23722 0.118604,-0.52714 z m -3.50789499,-33.44343 c 0.852044,-2.5587 0.908066,-3.48544 0.313602,-5.18776 -0.146684,-0.42005 -0.244613,-0.38368 -0.474906,0.17639 -0.249995,0.60798 -0.299174,0.55919 -0.355605,-0.35278 -0.03602,-0.58209 -0.102372,-1.21709 -0.147451,-1.41111 -0.04508,-0.19403 -0.10614301,-0.78934 -0.13569601,-1.32292 -0.05022,-0.90665 -0.157626,-0.97014 -1.641233,-0.97014 -0.873125,0 -1.5875,0.0917 -1.5875,0.20367 0,0.55234 3.41507401,5.08468 3.83241701,5.08622 0.373651,0.001 0.42509,0.37479 0.230439,1.67283 -0.137824,0.91907 -0.45107,2.07001 -0.696103,2.55763 -0.62017701,1.23418 -1.04300601,3.10068 -0.60042901,2.65048 0.190743,-0.19402 0.75885201,-1.59015 1.26246501,-3.10251 z M -2.1298059,95.14263 c -0.641955,-0.82891 -0.854703,-1.33145 -0.563656,-1.33145 0.350115,0 1.274325,1.41839 1.062338,1.63038 -0.08281,0.0828 -0.307215,-0.0517 -0.498682,-0.29893 z m 3.10010801,0.36774 c -0.212446,-0.60943 -0.284441,-1.20136 -0.159989,-1.31542 0.124452,-0.11406 0.29714699,-0.009 0.38376599,0.23359 0.08662,0.24254 0.327616,0.44098 0.535546,0.44098 0.207931,0 0.135583,-0.27782 -0.160772,-0.61737 -0.296355,-0.33954 -0.81529799,-1.21267 -1.15320499,-1.94027 -0.337908,-0.72761 -0.764767,-1.32292 -0.948575,-1.32292 -0.50107101,0 0.03122,3.10685 0.846174,4.93889 0.76578499,1.72151 1.28721599,1.3902 0.657055,-0.41748 z M -3.4520879,91.01411 c 0.184326,-0.18019 0.890764,-0.37863 1.569861,-0.44097 0.85002,-0.078 1.21437301,-0.27822 1.16940901,-0.64251 -0.08998,-0.72905 -1.06086501,-3.398428 -1.89116101,-5.199631 -0.379147,-0.822504 -0.689359,-1.699937 -0.689359,-1.949852 0,-0.249914 -0.486729,-0.987291 -1.08162,-1.638614 -0.765732,-0.838369 -0.97179,-1.294052 -0.705556,-1.560286 0.461479,-0.46148 0.48682,-3.04135 0.03686,-3.752843 -0.445325,-0.704173 -0.565712,-0.273156 -0.985493,3.528307 -0.182752,1.654965 -0.61524,3.605329 -0.961084,4.334143 -0.757524,1.596362 -0.578148,1.859199 0.913865,1.339081 1.395688,-0.486541 1.684472,-0.263737 0.85136,0.65684 -0.665132,0.734963 -0.544756,0.874406 0.98016,1.135391 0.916748,0.156901 0.913124,0.794784 -0.0053,0.925384 -0.652233,0.0928 -0.747771,0.27399 -0.581821,1.10374 0.111382,0.55691 0.02807,1.09813 -0.189765,1.23276 -0.249613,0.15427 -0.38832,-0.13804 -0.38832,-0.81834 0,-0.58208 -0.15875,-1.15645 -0.352778,-1.27636 -0.194027,-0.11992 -0.352777,-0.60554 -0.352777,-1.079156 0,-0.686533 -0.181328,-0.861123 -0.894357,-0.861123 -0.815759,0 -0.857737,0.06976 -0.477666,0.79375 0.229179,0.436559 0.631639,0.920699 0.894356,1.075859 0.262717,0.15517 0.477667,0.6711 0.477667,1.14653 0,1.53093 1.767625,2.82367 2.663472,1.9479 z m -0.899583,-8.491817 c -0.225469,-0.421291 -0.330568,-0.845358 -0.233554,-0.942372 0.09701,-0.09701 0.360863,0.168304 0.586331,0.589594 0.225468,0.421291 0.330568,0.845358 0.233554,0.942372 -0.09701,0.09701 -0.360863,-0.168303 -0.586331,-0.589594 z m -2.322696,-1.940278 c -0.07975,-0.388055 0.103545,-2.21368 0.407322,-4.056944 0.78386,-4.756323 1.10754,-9.143583 0.780811,-10.583333 -0.241164,-1.062697 -1.288185,-8.244338 -1.359677,-9.326182 -0.01364,-0.206364 -0.152891,-0.05771 -0.309454,0.330348 -0.224216,0.555742 -0.342086,0.334614 -0.555116,-1.041418 -0.187756,-1.212778 -0.147067,-1.788104 0.133065,-1.881482 0.221937,-0.07398 0.403522,-0.737045 0.403522,-1.47348 0,-0.904505 0.40064,-2.004301 1.234722,-3.389431 1.067445,-1.772668 1.230412,-2.340032 1.202906,-4.18788 -0.0298,-2.00211 -0.05292,-2.059256 -0.365154,-0.902698 -0.478214,1.77136 -1.065683,2.822223 -1.577721,2.822223 -0.485296,0 -1.100372,0.547903 -2.23648,1.99223 -1.023514,1.301187 -1.3395371,0.773533 -0.360331,-0.601635 0.794657,-1.115993 0.794777,-1.11821 0.03849,-0.713455 -0.417257,0.22331 -0.758649,0.279868 -0.758649,0.125687 0,-0.395301 1.383816,-1.214114 1.710582,-1.012162 0.427882,0.264446 2.309688,-1.395866 2.052935,-1.811301 -0.148426,-0.240158 -1.025751,0.0224 -2.457171,0.735362 l -2.2263221,1.108885 -0.334157,2.151053 c -0.183787,1.183079 -0.226025,2.770579 -0.09386,3.527777 0.132162,0.757199 0.260225,5.948775 0.284585,11.536837 0.04552,10.442798 0.433558,14.586089 1.5722671,16.78811 0.302213,0.584415 0.549478,1.298247 0.549478,1.586293 0,0.288047 0.178627,0.970619 0.396949,1.516825 l 0.396949,0.993105 0.807259,-1.763889 c 0.443992,-0.970139 0.742008,-2.081389 0.662259,-2.469445 z m -2.754834,-20.137186 c -0.330046,-0.860085 -0.253786,-1.911425 0.138645,-1.911425 0.194028,0 0.352778,0.555625 0.352778,1.234722 0,1.338651 -0.155331,1.552546 -0.491423,0.676703 z m -0.5756421,-3.521891 c -0.43048,-1.132249 -0.459351,-3.595282 -0.03674,-3.134395 0.3298491,0.359723 0.8302181,4.039306 0.5492871,4.039306 -0.09267,0 -0.32332,-0.40721 -0.5125471,-0.904911 z M 7.1289891,81.458114 c 0.782525,-0.297515 0.869245,-0.447798 0.508939,-0.881944 -0.494817,-0.596216 -1.216187,-0.719212 -0.862588,-0.147073 0.127896,0.206939 -0.06117,0.598766 -0.420151,0.870726 -0.78062,0.591397 -0.510621,0.646627 0.7738,0.158291 z m -0.436403,-3.217548 c -0.35052,-0.608697 -0.91512,-1.182839 -1.254669,-1.275867 -0.835074,-0.228787 -0.784814,-0.792406 0.07066,-0.792406 0.378414,0 0.849838,0.277813 1.047606,0.617361 0.199559,0.342622 0.364356,0.421118 0.370307,0.176389 0.01517,-0.623344 1.304533,-0.549952 1.549414,0.08819 0.111683,0.291041 0.370868,0.529166 0.57597,0.529166 0.57108,0 -0.646236,-2.124029 -1.339353,-2.336959 -0.329403,-0.101194 -1.082364,-0.392468 -1.673246,-0.647269 -0.810292,-0.349419 -1.207767,-0.364765 -1.617257,-0.06244 -1.289978,0.952373 -1.033649,3.752226 0.343517,3.752226 0.344146,0 0.933874,0.233077 1.310506,0.517948 1.089502,0.824057 1.303825,0.627183 0.61654,-0.566342 z m 2.060046,-3.953708 c -0.513599,-0.546703 -0.69396,-1.043555 -0.532018,-1.465576 0.218472,-0.569324 0.09537,-0.614684 -1.136554,-0.418804 -1.971834,0.313524 -2.57773,-0.165139 -1.39082,-1.098762 0.926631,-0.728888 0.941458,-0.729255 2.499184,-0.06153 0.861861,0.36944 1.566425,0.558285 1.565698,0.419658 -7.05e-4,-0.138624 -0.724552,-0.54949 -1.608501,-0.913039 -1.120478,-0.460823 -1.547505,-0.81649 -1.410134,-1.174481 0.157375,-0.410108 -0.03373,-0.468041 -0.949138,-0.287744 -0.852579,0.167923 -1.01063,0.131283 -0.617015,-0.14303 0.718866,-0.500983 -0.150703,-0.512557 -1.081525,-0.01439 -0.733298,0.392451 -0.939331,1.3987 -0.286392,1.3987 0.289112,0 0.287066,0.131226 -0.0076,0.486255 -0.590472,0.711479 0.106356,2.335967 1.00202,2.335967 0.641096,0 2.587081,0.71488 3.901256,1.433171 0.861752,0.471007 0.871559,0.376505 0.05152,-0.496383 z m -3.998222,-3.999995 c 0.25466,-0.101907 0.558931,-0.08938 0.676159,0.02783 0.117224,0.117228 -0.09114,0.200603 -0.463021,0.185286 -0.410968,-0.01693 -0.494559,-0.100521 -0.213138,-0.213134 z m 2.440048,1.438959 c -0.117228,-0.117224 -0.421499,-0.129755 -0.676159,-0.02783 -0.281421,0.112614 -0.19783,0.196208 0.213138,0.213134 0.371884,0.01531 0.580245,-0.06806 0.463021,-0.185286 z m -11.387981,-14.42714 c 0.365382,-8.652529 0.392567,-10.054321 0.194952,-10.052862 -0.09719,7.06e-4 -0.692644,0.999181 -1.323234,2.218808 -0.847144,1.638463 -1.144841,2.674453 -1.140065,3.967445 0.0061,1.665139 0.790746,7.959765 1.273453,10.216609 0.416805,1.948722 0.728448,-0.04037 0.994894,-6.35 z m -4.744255,-12.876389 c 0,-0.388055 -0.15875,-0.705555 -0.352778,-0.705555 -0.194027,0 -0.352777,0.3175 -0.352777,0.705555 0,0.388056 0.15875,0.705556 0.352777,0.705556 0.194028,0 0.352778,-0.3175 0.352778,-0.705556 z m 1.058334,-0.700493 c 0,-1.089988 -0.81893,-3.885618 -1.138223,-3.885618 -0.304306,0 -0.01451,1.563929 0.463355,2.500604 0.157227,0.30818 0.196126,0.903492 0.08644,1.322917 -0.116467,0.445371 -0.03556,0.76259 0.194501,0.76259 0.216657,0 0.393923,-0.315222 0.393923,-0.700493 z M -11.01138,43.125836 c -0.41587,-0.715157 -0.516295,-0.486254 -0.175872,0.400875 0.120984,0.315278 0.294286,0.498919 0.385115,0.408089 0.09083,-0.09083 -0.0033,-0.454863 -0.209243,-0.808964 z m 4.7369251,-0.329997 c -0.11133,-0.700523 -0.369816,-1.53396 -0.574411,-1.852084 -0.286333,-0.445216 -0.325967,-0.304241 -0.172119,0.612219 0.109931,0.654843 0.199874,1.488281 0.199874,1.852083 0,0.363802 0.168542,0.661458 0.374538,0.661458 0.232417,0 0.297729,-0.483305 0.172118,-1.273676 z m -3.368878,-1.195768 c -0.225468,-0.421291 -0.4893181,-0.686609 -0.5863321,-0.589595 -0.09701,0.09701 0.0081,0.521082 0.2335541,0.942373 0.225468,0.421291 0.489317,0.686609 0.586331,0.589595 0.09701,-0.09701 -0.0081,-0.521082 -0.233553,-0.942373 z M -12.724753,191.42627 c 0.07401,-0.22201 0.818811,-0.57026 1.655123,-0.77389 1.4452371,-0.35189 1.5490181,-0.46462 2.0948661,-2.27559 0.524051,-1.73866 1.459011,-2.8592 1.44035,-1.72625 -0.01333,0.80899 -1.272599,3.26675 -1.970902,3.84665 -0.9124871,0.75777 -3.4017921,1.47615 -3.2194371,0.92908 z m -15.329172,-19.18663 c 0.254662,-0.10191 0.558933,-0.0894 0.676158,0.0278 0.117225,0.11723 -0.09113,0.20061 -0.463021,0.18529 -0.410966,-0.0169 -0.494559,-0.10052 -0.213137,-0.21313 z m 44.415159,-37.86572 c 1.764908,-0.70874 1.830444,-0.78282 1.620626,-1.83192 -0.141993,-0.70997 -0.09112,-1.01448 0.145087,-0.86849 0.578612,0.3576 0.421908,1.91939 -0.253955,2.53104 -0.339739,0.30745 -1.232708,0.63753 -1.984375,0.7335 -1.338241,0.17085 -1.328409,0.15911 0.472617,-0.56413 z m 0.85556,-5.28496 c 0.01517,-0.87313 0.133586,-2.54 0.263176,-3.70417 l 0.235613,-2.11666 0.281298,1.70514 c 0.285796,1.73243 0.04349,4.21343 -0.505319,5.17402 -0.199418,0.34904 -0.292947,-0.0112 -0.274768,-1.05833 z m -18.8691759,-5.05942 c -0.155522,-0.93941 -0.19921,-1.79158 -0.09708,-1.89371 0.29514,-0.29514 0.640039,1.47701 0.503872,2.58898 -0.100839,0.82347 -0.17687,0.69352 -0.406788,-0.69527 z M 10.64139,123.91666 c 0.582083,-0.30686 1.375833,-0.83252 1.763889,-1.16812 1.796637,-1.55376 2.062173,-1.28031 0.492622,0.50731 -0.827366,0.94232 -1.366082,1.24355 -2.204861,1.23287 l -1.1099839,-0.0141 1.0583339,-0.55793 z m -3.7041669,-1.15393 c 0,-0.18095 0.319804,-0.43051 0.710678,-0.55456 0.390874,-0.12406 0.624551,-0.36492 0.519285,-0.53524 -0.242683,-0.39267 0.917402,-1.00754 1.504065,-0.79718 0.7386069,0.26484 0.4984999,0.78017 -0.705556,1.5143 -1.235794,0.75348 -2.028472,0.89911 -2.028472,0.37268 z m -3.880556,-1.80984 c 0,-0.18183 0.409088,-0.3306 0.90908,-0.3306 0.5427,0 1.341999,-0.43292 1.983247,-1.07416 1.04667,-1.04667 1.85729,-1.20771 1.023775,-0.20339 -0.32439,0.39087 -0.315916,0.54108 0.03792,0.67203 0.27807,0.10291 0.111923,0.30233 -0.426247,0.51161 -1.370362,0.5329 -3.527778,0.79251 -3.527778,0.42451 z m -3.51756099,-2.08071 c -0.285423,-0.1805 -0.43724,-0.4099 -0.337372,-0.50977 0.273335,-0.27333 1.738266,0.17934 1.738266,0.53714 0,0.40463 -0.740678,0.39017 -1.400894,-0.0274 z M 10.465001,94.84869 c 0,-0.20547 0.15875,-0.27548 0.352778,-0.15556 0.194027,0.11991 0.352777,0.28803 0.352777,0.3736 0,0.0856 -0.15875,0.15556 -0.352777,0.15556 -0.194028,0 -0.352778,-0.16812 -0.352778,-0.3736 z M 7.4919481,89.03818 c -0.329551,-0.50296 -0.535393,-1.10322 -0.457432,-1.33393 0.07796,-0.2307 0.41717,0.11123 0.753797,0.75985 0.74458,1.43468 0.534349,1.84191 -0.296365,0.57408 z m -9.734023,-7.759136 c -0.681699,-0.821397 -0.195283,-0.976189 0.534285,-0.170025 0.352262,0.389245 0.47656,0.707719 0.276218,0.707719 -0.200342,0 -0.565068,-0.24196 -0.810503,-0.537694 z m 2.30565401,-0.655948 c 0.332634,-0.507665 0.764645,-0.923025 0.96002299,-0.923025 0.458179,0 -0.53176999,1.501704 -1.11898199,1.697443 -0.290162,0.09672 -0.234659,-0.173679 0.158959,-0.774418 z m 1.03205699,-5.25962 c -0.09625,-0.250818 -0.02784,-1.084255 0.152024,-1.852083 l 0.327022,-1.396044 0.03544,1.852083 c 0.03447,1.801315 -0.158274,2.324312 -0.514483,1.396044 z m 0.108948,-4.33361 C 1.0590631,70.88311 0.94000011,70.440243 0.94000011,70.045718 c 0,-0.519211 0.10656499,-0.61075 0.38586199,-0.331452 0.212223,0.212224 0.331286,0.65509 0.264583,0.984147 -0.0667,0.329057 -0.24034,0.478212 -0.385861,0.331453 z M 0.96785111,66.794284 c 0.01693,-0.410966 0.10052099,-0.494559 0.21313699,-0.213137 0.101907,0.254662 0.08937,0.558933 -0.02785,0.676158 -0.117225,0.117225 -0.20060399,-0.09114 -0.18528699,-0.463021 z m -0.324927,-1.91088 c 0,-0.485069 0.08007,-0.683507 0.177937,-0.440972 0.09786,0.242535 0.09786,0.63941 0,0.881944 -0.09786,0.242535 -0.177937,0.0441 -0.177937,-0.440972 z M -3.0789859,44.334099 c 0.152,-0.824618 0.285016,-2.531181 0.295591,-3.792361 0.01799,-2.145671 0.07025,-2.291256 0.812979,-2.265045 0.689839,0.02435 0.79375,-0.148841 0.79375,-1.322917 0,-1.241399 0.07865,-1.349976 0.97013901,-1.339191 1.52737099,0.01848 2.76968999,1.383341 3.44118499,3.780625 0.162489,0.580104 0.0735,0.79375 -0.330606,0.79375 -0.304118,0 -0.56727,0.277812 -0.584785,0.617361 -0.01752,0.339549 -0.320541,-0.466187 -0.673392,-1.790523 -0.352853,-1.324336 -0.73539799,-2.501732 -0.85010099,-2.616435 -0.453469,-0.453469 -0.45529,0.165721 -0.0054,1.849319 0.25921799,0.970139 0.47831099,2.52732 0.48687399,3.460403 0.0095,1.037742 0.152556,1.611852 0.368347,1.478486 0.194028,-0.119916 0.352778,-0.52616 0.352778,-0.902764 0,-0.376605 0.157292,-0.684736 0.349538,-0.684736 0.204988,0 0.272477,0.613334 0.163196,1.483101 -0.193393,1.539214 -0.512734,2.276499 -0.512734,1.183785 0,-0.411247 -0.181371,-0.556108 -0.529167,-0.422646 -0.56314099,0.216098 -0.56869199,0.197934 -0.68580599,-2.24424 -0.103978,-2.168263 -0.881223,-5.291667 -1.316808,-5.291667 -0.224273,0 -0.271256,0.68743 -0.12658,1.852084 0.165544,1.332654 0.126874,1.703675 -0.137883,1.322916 -0.30578801,-0.439766 -0.36886501,-0.401443 -0.37335401,0.22684 -0.003,0.415804 0.22402701,0.844047 0.50444101,0.951652 0.396063,0.151984 0.437708,0.447162 0.18661,1.322691 -0.177778,0.619876 -0.22636,1.28379 -0.10796,1.475365 0.1184,0.191575 -0.0053,0.275153 -0.274805,0.185729 -0.30449201,-0.10102 -0.51844401,-0.76107 -0.56498501,-1.743007 -0.0412,-0.869229 -0.225269,-1.967596 -0.409045,-2.440815 -0.268266,-0.690779 -0.334861,-0.436466 -0.337802,1.289996 -0.0035,2.073861 -0.587568,5.081549 -0.98674,5.081549 -0.10659,0 -0.06944,-0.674687 0.08256,-1.499305 z m 5.671085,-5.269618 c -0.112616,-0.281423 -0.196209,-0.19783 -0.213137,0.213136 -0.01532,0.371887 0.06806,0.580246 0.185286,0.463021 0.117225,-0.117225 0.129758,-0.421496 0.027851,-0.676157 z"
       style="fill:#000000;stroke-width:0.35277778" />
  </g>
</svg>
