<?xml version="1.0" encoding="UTF-8" standalone="no"?>
<svg
   xmlns:dc="http://purl.org/dc/elements/1.1/"
   xmlns:cc="http://creativecommons.org/ns#"
   xmlns:rdf="http://www.w3.org/1999/02/22-rdf-syntax-ns#"
   xmlns:svg="http://www.w3.org/2000/svg"
   xmlns="http://www.w3.org/2000/svg"
   id="svg8"
   version="1.1"
   viewBox="0 0 180.2218 63.649429"
   height="63.649429mm"
   width="180.2218mm">
  <defs
     id="defs2" />
  <metadata
     id="metadata5">
    <rdf:RDF>
      <cc:Work
         rdf:about="">
        <dc:format>image/svg+xml</dc:format>
        <dc:type
           rdf:resource="http://purl.org/dc/dcmitype/StillImage" />
        <dc:title></dc:title>
      </cc:Work>
    </rdf:RDF>
  </metadata>
  <g
     transform="translate(-13.203454,-79.685985)"
     id="layer1">
    <path
       id="path877"
       d="m 14.824069,142.93873 c -0.239676,-0.31976 -0.6739,-0.58138 -0.964942,-0.58138 -0.291041,0 -0.579057,-0.3508 -0.640035,-0.77954 -0.08489,-0.5969 0.163081,-0.89534 1.058333,-1.27375 0.643061,-0.27182 1.883577,-0.81504 2.756702,-1.20717 0.873125,-0.39213 2.143125,-0.9093 2.822222,-1.14927 1.270921,-0.44909 3.128784,-1.31496 5.291667,-2.46624 0.679097,-0.36148 1.574986,-0.57649 1.990863,-0.4778 0.415878,0.0987 1.685878,-0.0635 2.822222,-0.3605 1.136345,-0.29697 3.769864,-0.94902 5.852266,-1.449 3.402973,-0.81706 5.68688,-1.50846 5.209648,-1.57711 -0.09701,-0.014 -2.037578,-0.0699 -4.312366,-0.12427 -3.035481,-0.0726 -4.180518,0.0172 -4.303377,0.33735 -0.290661,0.75745 -2.101865,1.46756 -4.000139,1.56831 -1.007348,0.0535 -1.94108,-0.0123 -2.074959,-0.14621 -0.13388,-0.13388 -0.931334,-0.24341 -1.772121,-0.24341 -0.899444,0 -1.528704,-0.16378 -1.528704,-0.39787 0,-0.26653 -0.465318,-0.32346 -1.409607,-0.17246 -1.542223,0.24661 -2.82578,-0.295 -2.820711,-1.19023 0.0028,-0.49736 2.133576,-1.32516 5.112263,-1.9861 0.582083,-0.12916 1.804002,-0.60742 2.715376,-1.0628 1.080031,-0.53966 1.73726,-0.69818 1.887409,-0.45523 0.126701,0.20501 0.174781,0.41799 0.106846,0.4733 -0.506009,0.41197 -4.391953,1.95816 -5.879429,2.33939 -1.005847,0.2578 -1.828813,0.59745 -1.828813,0.7548 0,0.44452 1.177661,0.33707 1.949976,-0.17792 0.841709,-0.56126 3.315045,-1.29988 4.352758,-1.29988 1.285018,0 0.826746,0.63104 -0.637982,0.87851 -0.764941,0.12923 -1.560572,0.43953 -1.768069,0.68955 -0.294788,0.3552 -0.04895,0.49862 1.124491,0.65601 1.100293,0.14758 1.577638,0.0658 1.785599,-0.30577 0.371701,-0.66419 0.954337,-0.65077 0.954337,0.022 0,0.82328 1.199657,0.62334 2.116667,-0.35277 0.782653,-0.8331 1.035188,-0.88188 4.559411,-0.88074 2.051976,7e-4 5.51493,0.16833 7.695452,0.37259 l 3.964585,0.37138 1.509289,-0.98995 c 3.259642,-2.13802 2.856893,-1.94679 5.368428,-2.54893 0.964759,-0.23129 1.779382,-0.4514 1.810268,-0.48911 0.0309,-0.0377 -0.0224,-0.58452 -0.118452,-1.21511 -0.116392,-0.76421 -0.370364,-1.14652 -0.761637,-1.14652 -0.322862,0 -0.93708,-0.24519 -1.364929,-0.54487 -0.604474,-0.42339 -0.940957,-0.4576 -1.509257,-0.15346 -0.453457,0.24268 -1.455409,0.30094 -2.636908,0.15332 -1.572338,-0.19645 -2.190397,-0.10019 -3.534463,0.55046 -1.195041,0.57851 -1.733363,0.68408 -2.021085,0.39636 -0.287722,-0.28772 -0.539107,-0.2649 -0.943802,0.0857 -0.67538,0.58507 -5.796255,1.62918 -7.990312,1.62918 -0.88194,0 -1.910591,0.16434 -2.285891,0.36519 -0.539083,0.28851 -0.682364,0.24964 -0.682364,-0.18512 0,-0.75506 1.095888,-1.10223 4.409722,-1.39697 2.828788,-0.2516 3.477519,-0.37524 7.408333,-1.41184 1.164167,-0.30701 2.422515,-0.63117 2.796325,-0.72036 0.373814,-0.0892 0.834693,-0.31719 1.024184,-0.50668 0.22418,-0.22418 0.572442,-0.22255 0.997021,0.005 0.598812,0.32047 3.751269,0.1624 4.120271,-0.20661 0.08722,-0.0872 -0.04852,-0.40811 -0.301646,-0.7131 -0.253121,-0.30499 -0.43597,-1.1735 -0.406326,-1.93001 0.02963,-0.75651 -0.103378,-1.47268 -0.295606,-1.59148 -0.600234,-0.37097 -0.390617,-1.1007 0.842581,-2.93322 0.789983,-1.17391 1.310369,-1.65314 1.542768,-1.42074 0.391904,0.39191 1.851261,-1.68532 1.851261,-2.63506 0,-1.12173 4.118878,-3.42353 6.173611,-3.45008 0.582083,-0.008 2.090208,0.20774 3.351389,0.47836 2.084451,0.44727 2.284381,0.56758 2.19771,1.32248 -0.08184,0.71287 0.736346,3.82132 1.235675,4.69452 0.09044,0.15816 0.453316,0.0261 0.806393,-0.2934 0.67304,-0.6091 4.763237,-2.64001 5.316897,-2.64001 0.176605,0 0.321102,0.24153 0.321102,0.53673 0,0.54791 -0.32719,0.72638 -3.263194,1.78 -1.742793,0.62543 -2.05697,1.161 -1.131577,1.92901 0.412136,0.34204 0.643177,0.35252 0.9525,0.0432 0.22461,-0.22461 0.631204,-0.40839 0.903538,-0.40839 0.312353,0 0.09283,0.45823 -0.594625,1.2412 -0.59938,0.68265 -1.18866,1.63515 -1.309511,2.11666 -0.120851,0.48151 -0.440644,0.87548 -0.710653,0.87548 -0.539972,0 -0.674666,-0.90313 -0.180266,-1.20869 0.412912,-0.2552 0.729245,-1.96631 0.363509,-1.96631 -0.15748,0 -0.44106,0.27649 -0.630177,0.61442 -0.48036,0.85836 -0.89341,0.31357 -0.425348,-0.56101 0.463275,-0.86564 0.490601,-1.46452 0.06683,-1.46452 -0.172995,0 -0.415555,0.40249 -0.53902,0.89442 -0.126132,0.50254 -0.609353,1.04075 -1.102903,1.2284 -0.483129,0.18368 -1.034447,0.74435 -1.225144,1.24593 -0.279848,0.73606 -0.49977,0.86491 -1.140203,0.66805 -1.01413,-0.31172 -1.087684,-0.38576 -0.817502,-0.82292 0.122657,-0.19847 0.439995,-0.27758 0.705196,-0.17581 0.265204,0.10176 0.587681,0.0143 0.716618,-0.19429 0.247943,-0.40118 -0.187808,-0.64651 -1.47689,-0.83151 -0.431563,-0.0619 -0.907813,-0.24597 -1.058333,-0.40897 -0.15052,-0.163 0.07251,-0.21129 0.495617,-0.10731 0.527608,0.12966 1.025853,-0.0841 1.585948,-0.68024 0.630132,-0.67074 1.047736,-0.82307 1.828387,-0.66694 1.001723,0.20034 1.00614,0.1938 0.446504,-0.66031 -0.310875,-0.47445 -0.475195,-1.09727 -0.365153,-1.38404 0.121927,-0.31773 -0.155226,-0.75419 -0.709535,-1.11739 -0.556772,-0.36481 -0.909609,-0.92237 -0.909609,-1.43737 0,-0.46275 -0.15875,-0.84137 -0.352778,-0.84137 -0.194028,0 -0.352778,0.21961 -0.352778,0.48802 0,0.60273 -1.449885,1.02543 -1.916553,0.55876 -0.627211,-0.62721 -1.964002,-0.39924 -1.964002,0.33493 0,0.37189 -0.180379,0.73629 -0.40084,0.80977 -0.289384,0.0965 -0.273904,0.33688 0.05568,0.86462 0.652381,1.04462 0.21675,2.02769 -0.684742,1.54522 -0.378177,-0.20239 -1.049916,-0.36799 -1.492747,-0.36799 -1.132177,0 -3.864762,1.05255 -4.732027,1.8227 -0.400561,0.35571 -0.916499,0.64675 -1.146528,0.64675 -0.491564,0 -0.548238,1.36498 -0.08694,2.09398 0.25992,0.41076 0.421616,0.42255 0.855571,0.0624 0.294298,-0.24424 0.447386,-0.67262 0.340198,-0.95195 -0.281034,-0.73236 0.572664,-1.61013 1.331676,-1.36923 0.401493,0.12743 0.875323,-0.0681 1.263318,-0.5212 0.590624,-0.6898 2.064293,-1.04438 1.816368,-0.43705 -0.184464,0.45189 -4.041143,3.84906 -4.878355,4.29712 -0.621528,0.33263 -0.709856,0.59726 -0.507253,1.51972 0.134931,0.61433 0.486873,1.29358 0.782095,1.50946 0.295222,0.21587 0.430551,0.56435 0.300729,0.77441 -0.568897,0.9205 0.527579,0.67043 2.004257,-0.45709 0.885194,-0.6759 1.698339,-1.22891 1.806995,-1.22891 0.397263,0 0.184376,1.00397 -0.24342,1.14796 -0.348841,0.11741 -0.350594,0.25798 -0.0084,0.67279 0.480776,0.5828 -0.0068,1.35425 -0.85591,1.35425 -0.502401,0 -0.573204,0.34923 -0.244478,1.20587 0.373337,0.97291 1.704001,0.6147 3.125935,-0.8415 0.751625,-0.76973 1.931638,-1.66764 2.622254,-1.99536 1.095339,-0.51978 1.167472,-0.62679 0.564956,-0.83814 -0.664122,-0.23296 -0.660305,-0.25856 0.09917,-0.66501 0.434428,-0.2325 0.986514,-0.39737 1.226851,-0.36638 1.354589,0.17466 2.420789,-0.088 2.616803,-0.64461 0.739888,-2.10109 1.200175,-2.93438 1.513802,-2.74055 0.23108,0.14282 0.169834,0.66865 -0.173627,1.49067 -0.291857,0.69851 -0.457292,1.34337 -0.367633,1.43302 0.08966,0.0897 0.671054,-0.0141 1.291995,-0.23055 1.360876,-0.47441 2.082031,-0.50245 2.082031,-0.081 0,0.53404 -2.212283,1.39448 -4.55573,1.77188 -1.920871,0.30935 -2.524103,0.60448 -4.22251,2.06587 -2.636784,2.26881 -4.086489,3.258 -4.774755,3.258 -0.312229,0 -0.843347,0.14797 -1.180264,0.32882 -0.336917,0.18086 -1.723824,0.58913 -3.082018,0.90726 -1.413178,0.33101 -3.22392,1.07481 -4.233333,1.73893 -1.589776,1.04596 -1.972825,1.14821 -3.880556,1.03587 -1.164166,-0.0686 -2.434166,0.0106 -2.822222,0.17587 -0.677916,0.28875 -2.362973,0.80559 -6.526388,2.00178 -1.898176,0.54536 -2.540335,0.68705 -7.584722,1.67354 -2.401604,0.46966 -5.193906,1.63949 -5.641329,2.36344 -0.121629,0.1968 -0.51076,0.35782 -0.864735,0.35782 -0.353975,0 -0.720758,0.29509 -0.815074,0.65575 -0.09432,0.36067 -0.628769,0.76642 -1.187673,0.90168 -1.701026,0.41166 -2.956467,1.06022 -2.956467,1.5273 0,0.58424 0.382515,0.55935 1.302029,-0.0847 0.414405,-0.29026 1.124415,-0.53268 1.577801,-0.53871 0.453385,-0.006 1.657774,-0.0662 2.67642,-0.13371 1.018646,-0.0675 2.242534,-0.14259 2.719751,-0.16685 0.477218,-0.0242 1.288093,-0.48066 1.801946,-1.01423 0.62206,-0.64594 0.99033,-0.82278 1.102008,-0.52917 0.107184,0.28179 0.895714,0.44097 2.184443,0.44097 1.109192,0 2.190169,0.17346 2.402172,0.38546 0.263842,0.26384 0.593753,0.27399 1.045634,0.0321 0.412654,-0.22085 1.253526,-0.23886 2.242735,-0.0481 2.53257,0.48852 6.077107,0.38282 6.853459,-0.20438 0.376633,-0.28488 1.011633,-0.51986 1.411111,-0.5222 0.399479,-0.002 1.386632,-0.38184 2.193678,-0.84334 1.013248,-0.57942 1.580579,-0.72587 1.833227,-0.47322 0.252646,0.25265 1.054047,0.23216 2.58959,-0.0662 1.223045,-0.23764 2.699967,-0.46997 3.282051,-0.51629 2.068692,-0.16463 5.304243,-1.055 6.132992,-1.68771 0.462728,-0.35327 0.997002,-0.64232 1.18728,-0.64232 0.190274,0 1.420527,-0.71437 2.733894,-1.5875 1.313367,-0.87312 2.700136,-1.5875 3.081704,-1.5875 0.381572,0 1.441732,-0.39769 2.355914,-0.88377 1.134286,-0.60311 2.411363,-0.93284 4.021292,-1.03829 1.297531,-0.085 2.716332,-0.26143 3.152895,-0.39209 0.583815,-0.17475 0.79375,-0.093 0.79375,0.30896 0,0.68953 -0.913352,0.98034 -3.562946,1.13441 -4.107134,0.23883 -4.375012,0.79869 -0.846776,1.76972 3.340809,0.91945 3.437646,0.92679 5.185057,0.39301 1.540034,-0.47044 1.699884,-0.45917 2.259538,0.15923 0.77319,0.85437 1.013255,0.84201 4.477773,-0.23049 1.591864,-0.49279 3.767423,-1.15003 4.834576,-1.46053 2.438378,-0.70947 3.429215,-1.14093 4.7625,-2.07383 0.582083,-0.40728 1.314975,-0.68075 1.628651,-0.60772 0.313676,0.073 1.045707,-0.26722 1.626736,-0.75613 0.581028,-0.4889 1.1352,-0.81013 1.231494,-0.71384 0.09629,0.0963 0.375885,-0.0669 0.621319,-0.36261 0.245435,-0.29573 0.336624,-0.53769 0.202639,-0.53769 -0.440065,0 1.322694,-2.25347 3.449474,-4.40972 1.14825,-1.16417 2.22474,-2.07761 2.39219,-2.02986 0.57481,0.16389 1.77402,-3.52724 2.66432,-8.2007 0.11089,-0.58208 0.4746,-1.37583 0.80825,-1.76389 0.33364,-0.38805 0.96275,-1.30087 1.39802,-2.02847 0.80627,-1.34779 1.22647,-1.60008 1.61579,-0.97014 0.32015,0.51802 0.88195,0.4297 0.88195,-0.13864 0,-0.63767 -0.90004,-0.97286 -1.92294,-0.71613 -0.6596,0.16555 -0.95708,-0.0457 -1.61487,-1.14684 -0.44348,-0.74237 -1.24014,-1.82602 -1.77034,-2.4081 -0.53021,-0.58209 -1.07947,-1.44031 -1.22058,-1.90716 -0.14111,-0.46686 -0.63337,-1.198053 -1.09391,-1.624873 -0.46055,-0.42682 -1.10549,-1.63235 -1.4332,-2.67895 -0.3277,-1.0466 -0.64836,-1.97071 -0.71256,-2.05358 -0.23163,-0.29896 -2.22604,1.88377 -2.22604,2.43622 0,0.74443 -4.595842,5.230933 -7.057917,6.890003 -1.065858,0.71823 -2.731671,1.70828 -3.70181,2.2001 -0.970138,0.49183 -2.374236,1.41598 -3.120213,2.05367 -1.209209,1.03368 -2.539153,1.77348 -6.5131,3.62298 -0.641657,0.29864 -1.527503,0.8774 -1.968552,1.28615 -1.028129,0.95284 -4.735866,2.83585 -5.021496,2.55022 -0.119747,-0.11975 0.526669,-0.66181 1.436483,-1.20459 0.909811,-0.54277 2.695593,-1.74092 3.968404,-2.66255 1.272808,-0.92164 2.539609,-1.6757 2.815107,-1.6757 0.789033,0 2.41712,-0.93074 7.337509,-4.19471 2.518223,-1.67048 4.834696,-3.19598 5.147716,-3.39001 2.042978,-1.26636 3.586691,-2.734453 4.736532,-4.504513 0.727092,-1.11929 1.528977,-2.15116 1.781957,-2.29306 0.72869,-0.4087 2.27355,-2.86372 1.93407,-3.07353 -0.2901,-0.17929 -1.77469,1.4144 -1.77469,1.90511 0,0.12603 -0.46123,0.50159 -1.024944,0.83459 -0.563718,0.333 -1.423808,1.28004 -1.911311,2.10453 -0.487504,0.8245 -1.49472,2.08309 -2.238255,2.796873 -1.508355,1.44799 -10.63831,7.07202 -11.184844,6.88984 -0.519377,-0.17312 1.628009,-1.69834 5.599627,-3.97724 4.241493,-2.43374 5.302363,-3.281813 6.53324,-5.222703 0.516611,-0.81461 1.840445,-2.49105 2.941856,-3.72542 1.101411,-1.23437 2.094051,-2.65773 2.205861,-3.16301 0.42505,-1.92081 1.21552,-3.21175 1.96661,-3.21175 0.40594,0 1.70818,-0.83739 2.89387,-1.86086 4.42251,-3.81749 9.84631,-6.53381 12.56273,-6.2916 2.60431,0.23221 5.79066,1.72906 7.57882,3.5603 0.7611,0.77944 1.58972,1.41716 1.84139,1.41716 0.25166,0 0.45757,0.15875 0.45757,0.35278 0,0.34084 0.26865,0.67143 2.29498,2.82415 0.51847,0.55081 1.09651,1.68617 1.28454,2.52303 0.18803,0.83686 0.54533,1.76203 0.79401,2.05594 0.42349,0.50054 1.03299,1.9886 2.5177,6.14683 0.34011,0.95254 1.07404,2.208703 1.63096,2.791473 0.89683,0.93844 0.95891,1.14041 0.54308,1.76668 -0.25823,0.38892 -0.96052,0.97045 -1.56065,1.29231 -2.31777,1.24303 -2.91851,1.78552 -2.91851,2.63551 0,0.46915 0.17258,0.95965 0.38351,1.09002 0.21696,0.13409 0.27804,0.56442 0.14063,0.99096 -0.13359,0.41466 -0.36175,1.70643 -0.50704,2.8706 -0.14529,1.16416 -0.68482,3.03418 -1.19896,4.15559 -0.64972,1.41711 -0.93481,2.62893 -0.93481,3.97354 0,1.06403 -0.19446,2.24599 -0.43214,2.62657 -0.88686,1.42009 0.19755,1.4121 2.31981,-0.0171 2.19397,-1.47749 2.7003,-1.65576 2.69535,-0.94903 -0.003,0.47649 -3.44587,2.81372 -5.01742,3.40647 -0.85529,0.32259 -0.9389,0.49353 -0.74411,1.52119 0.31921,1.68402 0.78342,2.17689 1.49368,1.58587 0.31172,-0.2594 1.99553,-0.93 3.74178,-1.49023 1.74625,-0.56023 3.25437,-1.12435 3.35138,-1.25361 0.2793,-0.37212 1.82892,-0.80885 3.175,-0.89481 0.6791,-0.0434 2.46593,-0.17647 3.97073,-0.29579 2.18645,-0.17337 3.2139,-0.0734 5.11528,0.49758 1.88267,0.56539 3.5889,0.73561 8.17479,0.81554 4.15845,0.0725 5.83588,0.22212 5.93842,0.52975 0.0786,0.2358 -0.0687,0.43281 -0.32746,0.4378 -0.2587,0.005 -2.37537,0.0949 -4.7037,0.19972 -3.64418,0.16412 -4.6752,0.0794 -7.40833,-0.60901 -2.38092,-0.59966 -4.1328,-0.79382 -7.00454,-0.77631 -3.61395,0.022 -7.63574,0.64351 -7.63574,1.17994 0,0.27422 -3.92559,1.97134 -5.31309,2.29698 -1.03183,0.24216 -2.86722,2.03597 -2.77729,2.71437 0.12506,0.94339 -0.041,1.33523 -0.56573,1.33523 -0.43418,0 -0.50496,-0.31052 -0.35518,-1.55824 0.10288,-0.85703 0.34069,-1.96234 0.52848,-2.45624 0.2287,-0.60154 0.21272,-1.26721 -0.0484,-2.01629 -0.65639,-1.8829 0.17568,-6.95945 1.81589,-11.07896 1.23301,-3.0968 1.40576,-3.88332 1.41413,-6.43819 0.005,-1.60073 -0.0851,-2.91042 -0.20085,-2.91042 -0.30778,0 -4.27543,2.51378 -5.42891,3.43959 -0.54392,0.43656 -1.15131,0.79375 -1.34975,0.79375 -0.19844,0 -1.12802,0.33225 -2.06574,0.73834 -0.93772,0.40608 -2.65744,0.89628 -3.82161,1.08931 -1.16416,0.19304 -2.74897,0.4561 -3.52179,0.58458 l -1.40513,0.2336 -0.0635,1.94028 c -0.0639,1.95187 0.62064,7.87571 1.27848,11.06341 0.19464,0.94314 0.28035,1.83379 0.19047,1.97921 -0.27992,0.45293 0.75035,5.42302 1.35499,6.53654 0.31607,0.58209 0.57564,1.22563 0.57684,1.4301 0.004,0.58234 2.18241,2.47357 3.35356,2.91066 1.5059,0.56204 8.11117,1.24822 9.26317,0.96231 0.53206,-0.13205 1.30647,-0.55649 1.72091,-0.9432 0.56608,-0.52821 1.53135,-0.77759 3.88055,-1.00255 1.71987,-0.1647 4.79391,-0.7233 6.8312,-1.24133 2.0373,-0.51803 4.35992,-0.99791 5.16139,-1.0664 0.80148,-0.0685 2.70207,-0.53109 4.22355,-1.02802 1.52148,-0.49693 3.29225,-0.90351 3.93505,-0.90351 0.6428,0 1.52033,-0.22092 1.95006,-0.49093 1.59298,-1.00088 11.33542,-1.61253 17.04932,-1.07037 3.95384,0.37515 3.99706,-0.90222 0.1596,-4.71692 -2.89633,-2.87914 -5.28806,-4.05262 -6.33281,-3.10714 -0.34393,0.31125 -0.85095,0.57096 -1.12671,0.57713 -0.27576,0.006 -0.80955,0.2443 -1.18618,0.52917 -1.0322,0.78072 -1.5346,0.64443 -1.34183,-0.364 0.10875,-0.56888 0.40444,-0.88194 0.83302,-0.88194 0.76067,0 0.85356,-0.37532 0.24379,-0.98509 -0.32568,-0.32568 -0.10972,-0.40135 0.95653,-0.33514 1.04511,0.0649 1.40656,-0.0561 1.49904,-0.50171 0.0711,-0.34243 -0.16379,-0.67789 -0.56337,-0.80471 -0.37687,-0.11961 -1.12187,-0.84755 -1.65554,-1.61764 -0.53367,-0.77008 -1.10444,-1.40016 -1.26839,-1.40016 -0.63417,0 -0.74956,1.85912 -0.18842,3.03584 0.58518,1.22715 0.30937,1.6145 -0.47587,0.66833 -0.4419,-0.53245 -1.41111,-0.73326 -1.41111,-0.29236 0,0.13024 0.2715,0.53681 0.60333,0.90348 0.52048,0.57512 0.53259,0.71142 0.0882,0.99252 -0.74684,0.47239 -1.0443,0.41078 -1.0443,-0.2163 0,-0.3924 -0.20485,-0.48792 -0.70556,-0.32901 -0.47424,0.15052 -0.70555,0.0634 -0.70555,-0.26575 0,-0.71269 -4.71888,-1.41665 -9.03482,-1.34781 -2.23958,0.0357 -4.51556,-0.15891 -6.11663,-0.52307 -2.74673,-0.62472 -4.5298,-0.52249 -7.70785,0.44196 -1.39453,0.4232 -1.9707,0.46551 -2.26954,0.16667 -0.50987,-0.50987 -0.26041,-0.75102 1.00847,-0.97482 0.55738,-0.0983 1.99031,-0.403 3.18429,-0.67709 2.09054,-0.47989 4.78662,-0.32855 6.56323,0.36844 0.34112,0.13382 3.03987,0.27833 5.99722,0.32112 2.95736,0.0428 6.19549,0.20441 7.19584,0.35915 l 1.81883,0.28133 1.50126,-2.33826 c 0.9569,-1.49038 1.73648,-2.33825 2.14993,-2.33825 0.36044,0 0.64866,0.25175 0.64866,0.56659 0,0.88188 2.09712,3.31396 2.85755,3.31396 0.37488,0 1.26972,-0.61342 1.98853,-1.36316 l 1.30693,-1.36315 1.42467,0.48543 c 1.56286,0.53252 2.56017,1.42582 4.86492,4.35755 0.89753,1.1417 2.31706,2.3943 3.449,3.04342 2.23666,1.28262 3.72283,2.65542 7.45395,6.8853 1.96369,2.22618 2.65827,3.26047 2.52691,3.7628 -0.0996,0.381 -0.024,0.78985 0.16803,0.90855 0.41814,0.25842 -1.22422,3.71977 -1.88534,3.97346 -0.80978,0.31074 -3.84507,-1.54749 -5.19977,-3.18334 -1.15158,-1.39056 -1.70742,-1.72465 -4.1565,-2.49832 -1.55493,-0.4912 -3.26325,-1.21551 -3.79625,-1.60958 -1.48081,-1.09481 -7.6366,-1.32888 -13.98185,-0.53165 -2.70572,0.33995 -5.5435,0.83825 -6.30616,1.10734 -0.76267,0.26908 -1.8221,0.48924 -2.35431,0.48924 -0.5322,0 -2.29818,0.46198 -3.92439,1.02662 -1.62622,0.56465 -3.75051,1.13408 -4.72065,1.26542 -2.04292,0.27656 -7.04333,1.43031 -7.54629,1.74115 -0.18835,0.11641 -0.44237,0.05 -0.56448,-0.1476 -0.40991,-0.66324 -3.59165,-0.008 -5.11839,1.05376 -0.89901,0.62532 -4.40818,1.18945 -7.58472,1.21931 -0.97014,0.009 -1.94351,0.13301 -2.16304,0.27532 -0.21954,0.14231 -0.95723,-0.11997 -1.63932,-0.58285 -0.68209,-0.46288 -1.54249,-0.93756 -1.91199,-1.05483 -0.3695,-0.11728 -1.22936,-0.80786 -1.91079,-1.53463 -0.98481,-1.05031 -1.40182,-1.96426 -2.03278,-4.45508 -1.15411,-4.55605 -2.18239,-13.21404 -2.19408,-18.47395 -0.007,-2.9928 -0.064,-3.2632 -0.69221,-3.2632 -0.37673,0 -0.68496,-0.1477 -0.68496,-0.32824 0,-0.18053 -0.35719,-0.37897 -0.79375,-0.44097 -0.61194,-0.0869 -0.81944,-0.38024 -0.9059,-1.28067 -0.0617,-0.64237 -0.27834,-1.11255 -0.48147,-1.04483 -0.46722,0.15573 -1.69877,3.36113 -1.69915,4.42242 -1.6e-4,0.43919 -0.14474,1.07419 -0.3213,1.41111 -0.54037,1.03117 -1.79565,4.38706 -1.79565,4.80055 0,0.21434 -1.30969,1.66161 -2.91042,3.21614 -1.60073,1.55454 -3.16196,3.30946 -3.46939,3.89983 -0.44132,0.84746 -1.480886,1.51948 -4.938891,3.19273 -2.408954,1.16564 -5.094287,2.32589 -5.967412,2.57835 -0.873125,0.25246 -2.499445,0.76863 -3.614043,1.14705 -1.595031,0.54153 -2.992977,0.68803 -6.565289,0.68803 -4.092166,0 -4.769531,-0.0924 -6.88424,-0.93897 -1.29002,-0.51643 -2.432822,-1.08026 -2.539558,-1.25297 -0.381491,-0.61726 -1.806297,-0.29614 -3.522942,0.79398 -2.910092,1.84801 -8.459981,4.53646 -9.364824,4.53646 -0.468192,0 -1.394368,0.15577 -2.058169,0.34614 -0.663797,0.19038 -2.805874,0.50909 -4.760171,0.70826 -2.543309,0.2592 -3.819889,0.55816 -4.49132,1.05182 -2.091507,1.53775 -3.911869,1.64033 -15.413405,0.86856 -2.394653,-0.16068 -3.061934,-0.0927 -3.565958,0.36347 -0.605856,0.54829 -0.985271,0.59728 -4.25182,0.54892 -0.875305,-0.013 -2.38343,0.22969 -3.351389,0.53921 -3.525191,1.12726 -4.030009,1.19063 -4.49915,0.56473 z m 2.25917,-2.50993 c 0.476342,-0.39683 0.634149,-0.69884 0.368668,-0.70555 -0.664263,-0.0168 -1.828891,0.65757 -1.828891,1.05901 0,0.53532 0.554487,0.4011 1.460223,-0.35346 z m 174.223101,-1.57546 c 0,-0.27797 -0.3175,-0.60616 -0.70555,-0.72933 -0.82378,-0.26146 -0.94787,-0.88194 -0.17639,-0.88194 0.6782,0 0.66906,-0.0823 -0.17639,-1.5875 -0.38806,-0.6909 -0.70556,-1.43055 -0.70556,-1.64367 0,-0.35833 -0.61027,-1.11312 -3.71447,-4.5941 -0.63706,-0.71438 -1.84785,-1.65011 -2.69065,-2.07938 -1.77474,-0.90396 -5.58932,-4.56495 -5.58932,-5.36428 0,-0.78823 -2.10258,-2.45086 -2.7737,-2.19332 -1.1846,0.45457 -3.55501,2.49818 -3.56539,3.07384 -0.0127,0.70121 2.31005,2.39396 3.28486,2.39396 0.36441,0 1.35474,0.67469 2.20076,1.49931 0.84602,0.82462 2.01974,1.94643 2.60828,2.49293 0.94652,0.87889 1.05247,1.17337 0.91761,2.55045 -0.0838,0.85626 -0.2455,1.70739 -0.35922,1.89139 -0.18604,0.30102 0.83904,0.8301 1.74374,0.90001 0.84287,0.0651 4.77187,2.37121 5.81182,3.41118 0.97157,0.97156 1.23661,1.07708 1.80844,0.71997 0.54699,-0.3416 0.67002,-0.32072 0.67002,0.11372 0,0.29697 0.31182,0.53215 0.70556,0.53215 0.38805,0 0.70555,-0.22742 0.70555,-0.50539 z M 24.089682,131.59762 c 0,-0.19402 -0.15875,-0.35277 -0.352777,-0.35277 -0.194028,0 -0.352778,0.15875 -0.352778,0.35277 0,0.19403 0.15875,0.35278 0.352778,0.35278 0.194027,0 0.352777,-0.15875 0.352777,-0.35278 z m 42.333332,-14.97223 c 0,-0.37235 -0.677019,-0.52878 -0.878388,-0.20296 -0.121871,0.19719 0.02589,0.35853 0.328401,0.35853 0.302492,0 0.549987,-0.07 0.549987,-0.15557 z m -9.82661,-2.83695 c 0.456928,-0.48172 1.021037,-0.87859 1.253574,-0.88194 0.232537,-0.003 0.861385,-0.41257 1.397434,-0.90936 0.805484,-0.7465 0.885173,-0.95985 0.459147,-1.22932 -0.75233,-0.47586 -0.988652,-0.41696 -1.479303,0.36869 -0.242344,0.38806 -0.723871,0.70556 -1.070056,0.70556 -0.346184,0 -0.774456,0.38145 -0.951713,0.84768 -0.177257,0.46622 -0.490827,0.95184 -0.696824,1.07915 -0.455524,0.28153 -0.495829,0.89539 -0.05879,0.89539 0.173662,0 0.689599,-0.39413 1.146528,-0.87585 z m 60.450216,-3.0047 c 0.11992,-0.19403 0.0593,-0.35278 -0.13475,-0.35278 -0.19402,0 -0.45089,0.15875 -0.5708,0.35278 -0.11992,0.19402 -0.0593,0.35277 0.13475,0.35277 0.19403,0 0.45089,-0.15875 0.5708,-0.35277 z m -52.832199,-0.84882 c 0.40447,-0.40447 -1.568496,-0.82082 -2.879672,-0.6077 -2.331731,0.37901 -1.9509,1.04901 0.520135,0.91508 1.193366,-0.0647 2.255157,-0.203 2.359537,-0.30738 z m 54.243309,-0.20952 c 0.11992,-0.19402 0.0499,-0.35277 -0.15556,-0.35277 -0.20548,0 -0.3736,0.15875 -0.3736,0.35277 0,0.19403 0.07,0.35278 0.15557,0.35278 0.0856,0 0.25368,-0.15875 0.37359,-0.35278 z m 6.07675,-0.61736 c 0.36521,-0.96445 1.08086,-1.54374 1.76464,-1.42839 0.44478,0.075 0.592,-0.0874 0.51,-0.56252 -0.137,-0.7938 0.57973,-1.33117 1.42487,-1.0683 0.81045,0.25208 2.0418,-0.44327 2.0418,-1.15301 0,-0.5222 -0.0556,-0.52113 -0.64514,0.0124 -0.66773,0.60428 -1.48158,0.78247 -1.45814,0.31926 0.007,-0.14553 0.66407,-0.71509 1.45934,-1.26571 1.14274,-0.79119 1.50981,-0.90215 1.7505,-0.52917 0.25189,0.39035 0.3603,0.38535 0.62698,-0.0289 0.29345,-0.45586 1.22843,-0.69228 2.97097,-0.75123 0.38717,-0.0131 0.57557,-0.20951 0.46854,-0.48844 -0.0985,-0.25659 -0.004,-0.64198 0.21086,-0.85642 0.21444,-0.21443 0.26774,-0.51159 0.11845,-0.66035 -0.14928,-0.14875 -0.56231,0.0883 -0.91783,0.52683 -0.81154,1.00096 -2.82064,1.32983 -2.82064,0.46172 0,-0.88759 0.73642,-1.49618 1.27228,-1.05145 0.32304,0.2681 0.54757,0.17065 0.83219,-0.36117 0.31518,-0.588913 0.28612,-0.728333 -0.15178,-0.728333 -0.73002,0 -0.68622,-0.58889 0.0758,-1.01884 0.45702,-0.25786 0.51462,-0.4522 0.22179,-0.74824 -0.29395,-0.29716 -0.59228,-0.14419 -1.16117,0.59539 -3.30917,4.302103 -5.49383,6.518493 -7.3509,7.457673 -1.22005,0.61702 -1.4993,0.66074 -1.4993,0.23474 0,-0.36139 -0.3759,-0.5235 -1.2139,-0.5235 -1.35772,0 -1.87122,0.49287 -1.26923,1.21823 0.31755,0.38263 0.10603,0.64688 -1.02797,1.28423 -0.78528,0.44135 -1.42779,0.93198 -1.42779,1.09028 0,0.438 0.27878,0.36211 2.18261,-0.59413 0.96575,-0.48507 1.82225,-0.88194 1.90332,-0.88194 0.43088,0 0.045,0.85423 -0.64635,1.43102 l -0.79375,0.66217 1.1576,0.0117 c 0.78562,0.008 1.23272,-0.18665 1.39137,-0.60563 z m -1.73317,-2.44585 c 0.25466,-0.1019 0.55893,-0.0894 0.67616,0.0279 0.11722,0.11722 -0.0911,0.2006 -0.46302,0.18528 -0.41097,-0.0169 -0.49456,-0.10052 -0.21314,-0.21314 z m -7.2489,2.49956 c 0.28262,-0.28262 -0.0873,-1.20024 -0.48381,-1.20024 -0.17326,0 -0.31503,0.3175 -0.31503,0.70556 0,0.68763 0.37418,0.91934 0.79884,0.49468 z m 2.18458,-1.87641 c 0.36009,-0.69634 0.9047,-1.10667 1.68475,-1.26936 0.63396,-0.13221 1.54622,-0.49042 2.02723,-0.79601 0.481,-0.30559 1.34226,-0.65128 1.9139,-0.76819 1.22512,-0.25056 1.67418,-1.07638 0.58531,-1.07638 -0.40808,0 -1.72104,0.39784 -2.91768,0.88408 -2.23031,0.90625 -2.71274,0.81321 -2.75497,-0.5313 -0.0328,-1.04492 -1.05234,0.80491 -1.05792,1.91951 -0.003,0.59351 -0.15125,1.30965 -0.3295,1.59142 -0.29376,0.46437 -0.19703,1.07518 0.17028,1.07518 0.0806,0 0.38594,-0.46303 0.6786,-1.02895 z m 15.15795,-2.04087 c 0.48609,-0.52423 0.82502,-1.01194 0.75316,-1.08379 -0.15473,-0.15474 -3.01953,1.61468 -3.01953,1.86498 0,0.55016 1.51659,0.0274 2.26637,-0.78119 z m -20.08165,-0.0464 c 0,-0.63806 -0.69049,-0.52157 -0.82744,0.13959 -0.0762,0.36784 0.056,0.52911 0.35278,0.4302 0.26106,-0.087 0.47466,-0.34343 0.47466,-0.56979 z m 3.70417,-1.11713 c 0,-0.19403 -0.07,-0.35278 -0.15557,-0.35278 -0.0856,0 -0.25368,0.15875 -0.3736,0.35278 -0.11992,0.19403 -0.0499,0.35278 0.15557,0.35278 0.20548,0 0.3736,-0.15875 0.3736,-0.35278 z m 10.06475,-1.07546 c 0.15628,-0.25288 0.3861,-0.23921 0.72638,0.0432 0.27376,0.22721 0.5176,0.31429 0.54185,0.19352 0.0243,-0.12077 0.0639,-0.36562 0.0882,-0.54411 0.0243,-0.1785 0.99659,-1.20321 2.16076,-2.27716 1.73897,-1.604193 1.98028,-1.955453 1.35234,-1.968523 -0.43982,-0.009 -1.06416,0.39571 -1.47055,0.95359 -0.38843,0.53322 -0.81586,0.859863 -0.94986,0.725863 -0.35338,-0.353383 1.14007,-2.320233 1.95918,-2.580213 0.38301,-0.12156 0.69639,-0.36409 0.69639,-0.53896 0,-0.17486 -0.23812,-0.22655 -0.52917,-0.11487 -0.29104,0.11168 -0.52916,0.0443 -0.52916,-0.14972 0,-0.19403 0.22982,-0.44097 0.51072,-0.54876 0.74526,-0.28598 1.69574,-2.25181 1.2284,-2.54064 -0.20622,-0.12745 -0.41651,-0.17615 -0.4673,-0.10822 -0.0508,0.0679 -0.55617,0.75801 -1.12306,1.53348 -1.12543,1.53954 -2.25698,2.61686 -2.76789,2.63525 -0.17935,0.006 0.0468,-0.38514 0.50246,-0.87021 1.19862,-1.27587 0.42945,-1.07626 -1.37256,0.35621 -1.94069,1.54269 -2.12666,1.54658 -0.96237,0.0201 0.5081,-0.66615 0.92382,-1.42458 0.92382,-1.68539 0,-0.26082 0.23809,-0.81414 0.52909,-1.2296 0.29101,-0.41546 0.44253,-0.98098 0.33673,-1.2567 -0.10581,-0.27572 0.053,-0.70493 0.35285,-0.9538 0.29987,-0.24887 0.54522,-0.64084 0.54522,-0.87104 0,-0.2302 0.24951,-0.7267 0.55448,-1.10333 0.5241,-0.64728 0.54379,-0.61716 0.35938,0.54993 l -0.19509,1.23473 0.69895,-0.83284 c 0.71479,-0.85171 0.8647,-1.67611 0.48481,-2.66609 -0.29099,-0.75831 -0.95795,-0.7013 -1.72614,0.14754 -0.39943,0.44136 -0.47738,0.70555 -0.20819,0.70555 0.49392,0 -1.32153,2.70625 -1.99667,2.97641 -0.52299,0.20926 -0.59756,-0.36855 -0.0882,-0.68335 0.55828,-0.34504 0.40996,-0.97937 -0.17639,-0.75437 -0.67889,0.26051 -0.67202,-0.1194 0.02,-1.10741 0.47748,-0.68171 0.48082,-0.78405 0.0256,-0.78405 -0.84357,0 -1.98588,1.75221 -1.98588,3.04618 0,1.31555 -0.23782,1.47922 -0.87773,0.60409 -0.23449,-0.32069 -0.60225,-0.47435 -0.81724,-0.34148 -0.40599,0.25091 -0.17526,1.29754 0.36673,1.66353 0.1709,0.1154 -0.0486,0.81889 -0.48784,1.5633 -0.52676,0.89279 -0.66053,1.39949 -0.39301,1.48866 0.22306,0.0743 0.30812,0.3891 0.18904,0.69943 -0.14932,0.38913 -0.081,0.48047 0.22025,0.29431 0.24024,-0.14847 0.35019,-0.49561 0.24435,-0.77142 -0.17736,-0.46221 3.65291,-4.50284 3.96889,-4.18686 0.0707,0.0707 -0.3157,1.05149 -0.85868,2.17954 -0.64453,1.33905 -1.03347,1.83669 -1.12047,1.43363 -0.18595,-0.86149 -0.69339,-0.77009 -0.97932,0.17639 -0.34418,1.13927 -1.91928,2.71386 -2.49409,2.49328 -0.31109,-0.11937 -0.48866,0.057 -0.48866,0.48523 0,0.370013 -0.1905,0.863243 -0.42334,1.096073 -0.32925,0.32926 -0.28543,0.42334 0.19721,0.42334 0.35702,0 0.51989,0.16286 0.38352,0.38351 -0.13036,0.21093 -0.52923,0.3071 -0.88637,0.2137 -0.69061,-0.1806 -2.06473,0.60723 -1.69827,0.97368 0.30009,0.3001 3.12816,-0.3668 3.61346,-0.85211 0.292,-0.292 0.2634,-0.47696 -0.10938,-0.70735 -0.38831,-0.23999 -0.21082,-0.45214 0.76921,-0.91949 0.70069,-0.33413 1.34852,-0.892523 1.43961,-1.240853 0.11915,-0.45567 0.44377,-0.60368 1.15711,-0.52763 0.54532,0.0581 1.05065,0.28316 1.12295,0.50004 0.0883,0.26484 0.41604,0.20786 0.99804,-0.17348 1.33724,-0.87619 1.42752,-0.26845 0.12422,0.83617 -1.36846,1.159853 -2.8607,1.710363 -2.5679,0.947343 0.30561,-0.796403 -0.40216,-0.56455 -1.32455,0.4339 -0.85373,0.92412 -0.85384,0.92533 -0.0644,0.68269 0.62933,-0.19342 0.87511,-0.0582 1.20315,0.66173 0.42563,0.93414 1.14383,1.18291 1.54432,0.53491 z m -0.0106,-1.39399 c 0.11992,-0.19402 0.37678,-0.35277 0.57081,-0.35277 0.19403,0 0.25466,0.15875 0.13475,0.35277 -0.11992,0.19403 -0.37678,0.35278 -0.57081,0.35278 -0.19402,0 -0.25466,-0.15875 -0.13475,-0.35278 z m -14.2875,0.55155 c 0,-0.52702 -0.98167,-1.45135 -1.25311,-1.17991 -0.0978,0.0977 -0.0148,0.60618 0.18425,1.12983 0.35496,0.93362 1.06886,0.96707 1.06886,0.0501 z m -2.11666,-1.20737 c 0,-0.53182 0.19711,-1.164063 0.43802,-1.404983 0.32196,-0.32196 0.33182,-0.50423 0.0372,-0.68791 -0.22045,-0.13744 -0.54075,-0.96427 -0.71178,-1.8374 -0.28469,-1.45342 -0.40701,-1.59683 -1.4483,-1.69804 -0.8401,-0.0817 -1.13736,0.0325 -1.13736,0.43681 0,0.35715 0.27544,0.51816 0.79262,0.46332 0.61142,-0.0648 0.8154,0.11758 0.89231,0.79791 0.0915,0.80947 0.0594,0.83122 -0.39053,0.26459 -0.63968,-0.80557 -0.94162,-0.78127 -0.94162,0.0758 0,0.38123 0.29586,0.85148 0.65745,1.045 0.46944,0.25124 0.65745,0.74657 0.65745,1.732153 0,0.75916 0.11199,1.5615 0.24887,1.78298 0.39375,0.6371 0.90568,0.0887 0.90568,-0.97021 z m 8.46666,-0.40251 c 0,-0.19403 -0.07,-0.35278 -0.15556,-0.35278 -0.0856,0 -0.25369,0.15875 -0.3736,0.35278 -0.11992,0.19403 -0.0499,0.35278 0.15556,0.35278 0.20548,0 0.3736,-0.15875 0.3736,-0.35278 z m -12.42806,-2.403303 c 0.0768,-0.23041 -0.11172,-0.41892 -0.41893,-0.41892 -0.30721,0 -0.55856,0.25135 -0.55856,0.55856 0,0.62298 0.75944,0.51449 0.97749,-0.13964 z m 8.04902,-1.38906 c 0.40388,-2.35669 0.39813,-2.39437 -0.34589,-2.26596 -0.3674,0.0634 -0.79533,-0.0907 -0.95096,-0.34256 -0.40988,-0.66321 -0.77925,-0.1306 -0.50616,0.72985 0.12781,0.40268 0.4705,0.73214 0.76155,0.73214 0.38118,0 0.46536,0.22198 0.30101,0.79375 -0.12549,0.43656 -0.30563,1.07156 -0.40032,1.41111 -0.10704,0.38382 0.0218,0.61736 0.34071,0.61736 0.33637,0 0.61171,-0.5767 0.80006,-1.67569 z m 3.07174,0.35551 c -0.0399,-0.19252 0.31726,-0.71629 0.79375,-1.16392 0.84981,-0.79836 1.18419,-2.10201 0.53916,-2.10201 -0.53326,0 -1.83047,1.85382 -1.64161,2.34599 0.0957,0.2495 0.0223,0.54747 -0.16329,0.66215 -0.49793,0.30773 -0.41038,0.95799 0.1036,0.76953 0.24253,-0.0889 0.40831,-0.31921 0.36839,-0.51174 z m 4.17671,-0.64442 c 0.71966,-1.22632 0.78363,-1.56317 0.29686,-1.56317 -0.19883,0 -0.50654,0.38145 -0.68379,0.84767 -0.17726,0.46622 -0.49083,0.95184 -0.69683,1.07916 -0.20599,0.12731 -0.37454,0.39408 -0.37454,0.59283 0,0.64988 0.83826,0.10008 1.4583,-0.95649 z m -15.56941,-0.32845 c 0,-0.29104 -0.15875,-0.52917 -0.35277,-0.52917 -0.19403,0 -0.35278,0.23813 -0.35278,0.52917 0,0.29104 0.15875,0.52917 0.35278,0.52917 0.19402,0 0.35277,-0.23813 0.35277,-0.52917 z m 5.64445,0.20524 c 0,-0.61041 -0.42821,-1.43996 -0.7433,-1.43996 -0.36558,0 -0.42728,1.18127 -0.0798,1.5287 0.34056,0.34056 0.82315,0.28853 0.82315,-0.0887 z m 4.58611,-2.38933 c 0,-0.25396 -0.14177,-0.46174 -0.31503,-0.46174 -0.37232,0 -0.74791,0.8745 -0.73209,1.70454 0.01,0.50767 0.0824,0.49444 0.52917,-0.0963 0.28487,-0.37663 0.51795,-0.89257 0.51795,-1.14652 z m 13.58277,1.21701 c 0.15877,0.14384 0.18674,0.0829 0.0622,-0.13538 -0.12459,-0.21829 0.24683,-1.05036 0.82538,-1.84903 1.08313,-1.49521 1.30375,-2.16379 0.71401,-2.16379 -0.18584,0 -0.74866,0.70091 -1.2507,1.55757 -0.50203,0.85666 -1.14198,1.74777 -1.42209,1.98025 -0.28012,0.23247 -0.41755,0.57115 -0.3054,0.75262 0.12347,0.19977 0.3783,0.18521 0.64594,-0.0369 0.24311,-0.20177 0.57193,-0.24917 0.73071,-0.10533 z m -24.51888,-0.84611 c 0,-0.83692 0.8084,-1.85046 1.4993,-1.87976 0.49403,-0.0209 0.26756,1.06812 -0.26458,1.27232 -0.83453,0.32024 -0.61736,0.83313 0.35278,0.83313 0.69987,0 0.88194,-0.17778 0.88194,-0.86113 0,-0.47361 -0.1652,-0.96322 -0.36713,-1.08802 -0.20192,-0.12479 -0.28491,-0.49135 -0.18444,-0.81457 0.10048,-0.32322 0.0276,-0.82579 -0.16204,-1.11684 -0.30642,-0.47037 -0.38332,-0.47037 -0.6921,0 -0.19105,0.29105 -0.3498,0.71062 -0.35278,0.9324 -0.003,0.22178 -0.24352,0.49461 -0.53456,0.60629 -0.83458,0.32025 -0.64768,-0.97994 0.35278,-2.45419 0.48506,-0.71479 0.88194,-1.11872 0.88194,-0.89761 0,0.92756 0.65908,0.30216 0.94191,-0.89379 0.16855,-0.71268 0.50874,-1.36322 0.75599,-1.44564 0.32939,-0.10979 0.38417,0.11867 0.20494,0.85482 l -0.2446,1.00467 0.75838,-0.67204 c 0.41711,-0.36962 0.75838,-0.83337 0.75838,-1.03055 0,-0.19719 0.26361,-0.64981 0.5858,-1.00582 0.63115,-0.69742 0.4389,-1.23089 -0.306,-0.84911 -2.21542,1.13545 -3.10202,1.90935 -3.10202,2.7077 0,0.41839 -0.17956,0.58238 -0.50211,0.45861 -0.28757,-0.11035 -0.66971,0.12048 -0.89436,0.54024 -0.21573,0.4031 -0.62819,0.73291 -0.91656,0.73291 -0.8027,0 -1.37075,1.51878 -0.89827,2.40163 0.21399,0.39984 0.38908,1.26659 0.38908,1.92611 0,0.65951 0.10583,1.30495 0.23518,1.4343 0.48748,0.48748 0.82315,0.20364 0.82315,-0.69606 z m 4.94797,-0.68014 c 0.64748,-1.703 -0.60625,-5.70283 -1.39003,-4.43465 -0.20888,0.33798 -0.36608,0.3615 -0.53961,0.0807 -0.35366,-0.57223 -0.96157,-0.0799 -0.7596,0.61514 0.0939,0.32322 0.42915,1.50049 0.74494,2.61615 0.62617,2.21217 1.36735,2.64013 1.9443,1.12264 z m -1.51502,-2.59367 c -0.15344,-0.58679 -0.10753,-0.72453 0.15425,-0.46274 0.205,0.205 0.30332,0.58096 0.21848,0.83547 -0.0881,0.26421 -0.24798,0.1043 -0.37273,-0.37273 z m 25.00241,2.53671 c -0.35861,-0.3586 -0.65449,0.18129 -0.36027,0.65736 0.22226,0.35963 0.30536,0.35991 0.42485,0.001 0.0817,-0.2451 0.0526,-0.54156 -0.0646,-0.65878 z m -14.8525,-1.15591 c 0.35048,-0.77722 0.85442,-1.59339 1.11987,-1.81369 0.26546,-0.22031 0.3961,-0.67323 0.29032,-1.0065 -0.10577,-0.33327 0.0494,-0.80654 0.34482,-1.05172 0.56244,-0.46679 0.74603,-1.7705 0.24931,-1.7705 -0.37479,0 -1.82885,2.58917 -1.82885,3.25655 0,0.28306 -0.3175,0.80199 -0.70555,1.15317 -0.69033,0.62473 -1.00074,2.64583 -0.40636,2.64583 0.16456,0 0.58596,-0.63591 0.93644,-1.41314 z m 2.97666,-0.55707 c 0.84598,-0.96353 1.0806,-1.50463 0.9236,-2.13015 -0.21194,-0.84446 -0.1336,-0.90027 1.37405,-0.97895 0.37902,-0.0198 1.06324,-0.59159 1.5205,-1.27069 0.88646,-1.31651 1.77136,-1.91535 1.37438,-0.93008 -0.74803,1.85655 -0.74536,1.83466 -0.16698,1.36497 0.30277,-0.24588 0.80875,-0.34796 1.12438,-0.22684 0.31563,0.12112 0.57388,0.0575 0.57388,-0.14145 0,-0.19892 0.0955,-0.61057 0.21225,-0.91478 0.14505,-0.37799 -0.0783,-0.6636 -0.70555,-0.90207 -0.5048,-0.19192 -0.91781,-0.51163 -0.91781,-0.71046 0,-0.74786 -1.05392,-0.32552 -1.26261,0.50597 -0.33297,1.32662 -0.96487,1.69709 -2.05078,1.20231 -1.02141,-0.46538 -1.63421,-0.1735 -0.98944,0.47127 0.315,0.315 0.27227,0.56776 -0.18061,1.06817 -0.32628,0.36055 -0.63677,0.94072 -0.68996,1.28927 -0.0532,0.34855 -0.65719,1.24563 -1.34221,1.9935 -1.37921,1.50575 -1.69191,2.54396 -0.58833,1.95334 0.36145,-0.19344 1.1675,-0.93294 1.79124,-1.64333 z m -5.03283,-0.88154 c 0.77638,-1.17319 0.87863,-1.56031 0.55078,-2.08529 -0.31169,-0.49909 -0.29671,-0.68529 0.0664,-0.82461 0.2862,-0.10983 0.40351,-0.52232 0.30102,-1.05848 -0.11991,-0.62728 0.0323,-0.98568 0.53219,-1.25322 0.38507,-0.20609 0.80079,-0.77576 0.92382,-1.26595 0.21714,-0.86514 0.71108,-1.16518 1.03168,-0.62667 0.0866,0.14552 -0.21584,1.05834 -0.67216,2.02847 -0.97283,2.06823 -1.05261,2.5436 -0.32566,1.94028 0.29104,-0.24154 0.52917,-0.72915 0.52917,-1.08357 0,-0.35443 0.53092,-1.04936 1.17982,-1.54431 1.41036,-1.07573 2.00375,-1.17835 1.11127,-0.19218 -1.16627,1.28872 -0.28431,1.11282 1.10604,-0.22059 0.7985,-0.7658 1.08415,-1.20702 0.68802,-1.06273 -0.38685,0.14091 -0.78389,0.0743 -0.92577,-0.15521 -0.17711,-0.28658 -0.51427,-0.22774 -1.17473,0.20501 -1.05407,0.69066 -1.21905,0.37566 -0.32225,-0.61529 0.58512,-0.64656 0.55746,-0.66187 -0.88195,-0.48838 -1.14295,0.13777 -1.48601,0.0615 -1.48601,-0.33042 0,-0.58309 -0.55725,-0.68214 -0.88194,-0.15677 -0.25732,0.41635 -1.23473,0.47656 -1.23473,0.0761 0,-0.15219 0.48725,-0.56454 1.08276,-0.91632 0.59552,-0.35178 0.99807,-0.72429 0.89456,-0.8278 -0.42558,-0.42558 -2.72852,1.08541 -4.29256,2.8164 -1.50495,1.66559 -1.65377,1.75344 -1.49109,0.88013 0.21712,-1.16554 -0.38368,-1.28699 -1.30894,-0.26458 -0.56475,0.62403 -0.57235,0.70555 -0.0657,0.70555 0.36419,0 0.49882,0.1927 0.36971,0.52917 -0.11168,0.29104 -0.0313,0.52917 0.17864,0.52917 0.23502,0 0.30758,0.44059 0.18882,1.14652 -0.18302,1.0879 -0.16452,1.11151 0.3616,0.46174 0.30496,-0.37663 0.55448,-0.81457 0.55448,-0.97319 0,-0.43453 2.09702,-3.24144 2.65519,-3.55403 0.3451,-0.19327 0.274,0.21931 -0.24315,1.41111 -0.40197,0.92633 -0.87099,1.83505 -1.04228,2.01937 -0.42327,0.4555 -0.39434,1.86504 0.0438,2.13585 0.1954,0.12076 0.44644,-0.0683 0.55787,-0.42015 0.50157,-1.58377 0.87707,-2.25259 1.16484,-2.07475 0.38992,0.24099 -0.45376,2.7751 -0.9826,2.95138 -0.69604,0.23201 -0.41168,1.0771 0.40393,1.20044 0.74718,0.113 0.73191,0.15081 -0.26027,0.64459 -1.27678,0.6354 -1.63668,1.75389 -0.56436,1.75389 0.45915,0 1.0772,-0.53005 1.67979,-1.44064 z m -2.70725,0.1851 c 0,-0.51201 -0.15269,-0.80839 -0.35278,-0.68474 -0.19402,0.11992 -0.35277,0.52616 -0.35277,0.90277 0,0.3766 0.15875,0.68473 0.35277,0.68473 0.19403,0 0.35278,-0.40624 0.35278,-0.90276 z m -1.52564,0.31786 c -0.12767,-0.12767 -0.0814,-0.41374 0.10283,-0.63572 0.40149,-0.48377 0.0655,-2.02925 -0.38118,-1.7532 -0.46874,0.2897 -0.38077,2.62105 0.0989,2.62105 0.22636,0 0.30712,-0.10446 0.17945,-0.23213 z m -1.55053,-3.37528 c 0.10666,-0.6353 0.30379,-1.43291 0.43807,-1.77245 0.38589,-0.9758 -0.37778,-0.71803 -0.83305,0.28118 -0.47625,1.04526 -0.55219,3.1119 -0.10417,2.83501 0.16787,-0.10375 0.39249,-0.70844 0.49915,-1.34374 z m 13.90135,-2.45131 c 0.92066,-0.86491 1.07184,-1.70239 0.30732,-1.70239 -0.56292,0 -1.6075,1.31183 -1.6075,2.01877 0,0.64806 0.36922,0.55821 1.30018,-0.31638 z m -10.53855,-3.44423 c 0.0882,-0.26459 -0.0441,-0.39688 -0.30868,-0.30868 -0.25466,0.0849 -0.53247,0.3627 -0.61736,0.61736 -0.0882,0.26458 0.0441,0.39687 0.30868,0.30868 0.25466,-0.0849 0.53248,-0.3627 0.61736,-0.61736 z M 28.146617,138.30038 c 0.119916,-0.19403 0.535528,-0.35278 0.923584,-0.35278 0.388055,0 0.607443,0.15875 0.487527,0.35278 -0.119916,0.19403 -0.535529,0.35278 -0.923584,0.35278 -0.388056,0 -0.607443,-0.15875 -0.487527,-0.35278 z m 19.226388,-1.89913 c 0,-0.47423 1.389521,-1.06228 1.72273,-0.72906 0.182273,0.18227 -1.033702,1.18786 -1.458147,1.20586 -0.145521,0.006 -0.264583,-0.20839 -0.264583,-0.4768 z m -3.728543,-1.66809 c -0.133323,-0.21572 -0.03995,-0.51735 0.207503,-0.67027 0.618522,-0.38227 2.815484,-0.35149 2.815484,0.0394 0,0.17462 -0.387505,0.3175 -0.861123,0.3175 -0.473618,0 -0.959238,0.15875 -1.079154,0.35277 -0.287959,0.46593 -0.781486,0.44795 -1.08271,-0.0394 z m 34.302617,-4.0763 c -0.437123,-0.43712 -0.238852,-0.82314 0.422794,-0.82314 0.36189,0 1.036577,-0.29214 1.499305,-0.64919 0.462728,-0.35705 1.952576,-1.26053 3.31077,-2.00772 1.358194,-0.74719 2.579874,-1.52202 2.714847,-1.72184 0.134969,-0.19983 0.357643,-0.25108 0.494827,-0.11389 0.247432,0.24743 -1.062937,1.45218 -2.474743,2.27527 -0.404212,0.23566 -0.543542,0.4341 -0.309626,0.44097 0.23392,0.007 1.010134,-0.38437 1.724925,-0.86944 1.398654,-0.94915 1.906714,-1.08913 1.906714,-0.52533 0,0.56858 -5.052261,2.85298 -5.326912,2.40858 -0.155476,-0.25156 -0.33867,-0.20303 -0.5409,0.1433 -0.305118,0.52253 -2.284854,1.67762 -2.875315,1.67762 -0.171327,0 -0.417336,-0.10583 -0.546686,-0.23519 z m 50.808951,-1.17592 c -0.42495,-1.25407 -1.02299,-6.00293 -0.82195,-6.52683 0.40115,-1.04537 0.93059,-0.16005 0.93059,1.55611 0,0.92974 0.16426,2.16164 0.36503,2.73756 0.23369,0.67037 0.24641,1.35568 0.0353,1.90472 -0.24177,0.62889 -0.37752,0.71648 -0.509,0.32844 z m -39.402471,-0.37078 c 0,-0.20393 0.536462,-0.59493 1.192135,-0.86889 0.655673,-0.27395 1.686796,-0.91433 2.291383,-1.42306 1.483738,-1.24848 2.305551,-0.94028 0.921367,0.34554 -1.073079,0.99682 -3.374019,2.31719 -4.038053,2.31719 -0.201757,0 -0.366832,-0.16685 -0.366832,-0.37078 z m 83.994381,-1.42356 c -0.74612,-1.00917 -0.9385,-1.08011 -2.63115,-0.97014 -1.03102,0.067 -1.85853,-0.035 -1.90049,-0.23413 -0.11071,-0.52549 1.6224,-0.88422 2.90316,-0.60092 1.19113,0.26347 3.3591,1.88887 3.3591,2.51842 0,0.74232 -0.94129,0.3544 -1.73062,-0.71323 z M 49.315251,127.36213 c 0.352262,-0.38925 0.715239,-0.63296 0.806615,-0.54158 0.09138,0.0914 0.453133,0.0126 0.8039,-0.17518 0.965612,-0.51678 1.182038,0.222 0.25521,0.87117 -0.434474,0.30432 -1.176108,0.55331 -1.648076,0.55331 -0.836655,0 -0.842101,-0.0177 -0.217649,-0.70772 z m -20.28668,0.0259 c 0,-0.37923 1.37239,-0.88564 1.649411,-0.60862 0.101821,0.10182 0.08049,0.35444 -0.04741,0.56138 -0.285965,0.4627 -1.602006,0.50151 -1.602006,0.0472 z m 61.030553,-5.60221 c 0,-0.77692 1.953775,-2.73164 2.250476,-2.25157 0.116159,0.18796 -0.04172,0.55163 -0.350834,0.80818 -0.309118,0.25654 -0.700314,0.83016 -0.869326,1.27469 -0.366352,0.96358 -1.030316,1.07229 -1.030316,0.1687 z m -28.032543,-0.44798 c -0.102425,-0.27498 -0.255665,-1.05559 -0.340533,-1.73469 -0.08487,-0.6791 -0.165018,-1.30616 -0.178114,-1.39347 -0.01309,-0.0873 -0.214308,0.0318 -0.447142,0.26458 -0.573094,0.5731 -2.219011,0.53598 -2.714639,-0.0612 -0.314963,-0.37951 -0.213116,-0.6084 0.469815,-1.05588 0.807819,-0.5293 0.896603,-0.52728 1.20704,0.0275 0.28465,0.50864 0.475421,0.53482 1.267478,0.17393 1.381724,-0.62955 1.667369,-0.52852 1.541804,0.54532 -0.09305,0.79569 0.01002,0.94864 0.573141,0.85058 0.60719,-0.10573 0.629377,-0.0506 0.191851,0.47656 -0.272101,0.32786 -0.530377,0.83897 -0.573941,1.1358 -0.125317,0.85386 -0.777886,1.35865 -0.99676,0.77105 z m 34.382543,0.0768 c 0,-0.16786 0.29537,-0.6838 0.656379,-1.14652 0.85037,-1.08998 2.457185,-4.32428 3.965537,-7.98208 0.6594,-1.59908 1.39735,-2.90877 1.63989,-2.91042 0.50868,-0.003 0.59831,0.91646 0.11821,1.21318 -0.17752,0.10971 -0.8201,1.50814 -1.42795,3.10762 -1.34863,3.54876 -3.850373,8.02343 -4.485813,8.02343 -0.256438,0 -0.466253,-0.13734 -0.466253,-0.30521 z m 31.546196,-0.48854 c 0.12719,-0.43657 0.32523,-1.30969 0.44008,-1.94028 0.12199,-0.66977 0.42132,-1.14653 0.71986,-1.14653 0.39252,0 0.4532,0.26589 0.26167,1.14653 -0.39469,1.8147 -0.81508,2.73403 -1.25022,2.73403 -0.25091,0 -0.3155,-0.29914 -0.17139,-0.79375 z m -53.436765,-0.81586 c -0.380369,-0.45832 -0.381854,-0.6125 -0.0081,-0.84349 0.251538,-0.15545 0.757266,-0.20422 1.123844,-0.10835 0.428985,0.11218 0.666503,-0.009 0.666503,-0.34134 0,-0.6516 1.329993,-1.88203 1.668463,-1.54357 0.402385,0.40239 -0.685102,1.96743 -1.885883,2.71404 -0.999028,0.62116 -1.141843,0.63236 -1.564817,0.12271 z m 95.670235,-1.92991 c -0.45806,-0.3816 -1.13275,-0.69382 -1.4993,-0.69382 -0.36657,0 -0.66648,-0.15875 -0.66648,-0.35277 0,-0.19403 0.12893,-0.35278 0.28652,-0.35278 0.4931,0 3.18542,1.38814 3.41604,1.76128 0.37735,0.61058 -0.66375,0.3654 -1.53678,-0.36191 z M 62.968195,114.59614 c -0.326052,-0.32605 -0.1738,-0.52484 0.675502,-0.88194 1.48482,-0.62432 2.426539,-0.58303 2.426539,0.10639 0,0.4225 -0.21585,0.51324 -0.845163,0.35529 -0.572185,-0.14361 -0.910442,-0.042 -1.047263,0.31453 -0.244017,0.6359 -0.644441,0.6709 -1.209615,0.10573 z m -9.456879,-1.40009 c -0.143531,-0.23224 0.09375,-0.69097 0.547427,-1.05834 1.211075,-0.98066 1.568436,-0.77794 0.722605,0.40991 -0.846265,1.18847 -0.914679,1.2234 -1.270032,0.64843 z m 22.08392,-1.51609 c 0,-0.28582 1.900446,-1.99085 3.175,-2.84853 1.762898,-1.18629 4.572787,-2.08268 5.045794,-1.60968 0.485437,0.48544 0.218095,0.72981 -1.033762,0.94495 -1.439658,0.24741 -4.449018,1.75806 -5.567891,2.795 -0.861798,0.79868 -1.619141,1.13465 -1.619141,0.71826 z"
       style="fill:#000000;stroke-width:0.35277775" />
  </g>
</svg>
