<?xml version="1.0" encoding="UTF-8" standalone="no"?>
<svg
   xmlns:dc="http://purl.org/dc/elements/1.1/"
   xmlns:cc="http://creativecommons.org/ns#"
   xmlns:rdf="http://www.w3.org/1999/02/22-rdf-syntax-ns#"
   xmlns:svg="http://www.w3.org/2000/svg"
   xmlns="http://www.w3.org/2000/svg"
   id="svg8"
   version="1.1"
   viewBox="0 0 96.864382 112.2389"
   height="112.23891mm"
   width="96.864388mm">
  <defs
     id="defs2" />
  <metadata
     id="metadata5">
    <rdf:RDF>
      <cc:Work
         rdf:about="">
        <dc:format>image/svg+xml</dc:format>
        <dc:type
           rdf:resource="http://purl.org/dc/dcmitype/StillImage" />
        <dc:title></dc:title>
      </cc:Work>
    </rdf:RDF>
  </metadata>
  <g
     transform="translate(-18.14118,13.323409)"
     id="layer1">
    <path
       id="path6264"
       d="m 108.78443,94.235684 c -0.74589,-2.570817 -1.55337,-5.388587 -1.79439,-6.261712 -0.40397,-1.463361 -0.5184,-1.578511 -1.46343,-1.472541 -0.56385,0.06323 -1.07881,0.168579 -1.14434,0.234114 -0.13655,0.136543 1.33618,5.647779 2.39436,8.960159 0.66323,2.07608 0.66385,3.31571 0.001,2.62776 -0.15642,-0.16243 -0.85652,-2.43845 -1.55576,-5.05782 -0.69924,-2.61938 -1.44565,-5.198885 -1.65868,-5.732235 l -0.38733,-0.969733 -8.742317,0.04308 -8.74231,0.04308 -0.23418,5.159982 c -0.25105,5.531486 -0.37515,6.348756 -0.88624,5.836336 -0.29278,-0.29354 -0.0609,-4.44888 0.52496,-9.407601 l 0.19798,-1.675694 h -1.90371 -1.90371 l -0.222664,2.204861 c -0.122463,1.212674 -0.319035,3.712984 -0.436831,5.556254 -0.1968,3.07961 -0.531886,4.31531 -1.034019,3.81318 -0.182817,-0.18282 0.678455,-8.434644 1.106194,-10.59841 0.188362,-0.952863 0.169235,-0.963909 -1.600013,-0.924048 l -1.790753,0.04034 -0.04502,1.27683 c -0.02477,0.702253 -0.09341,1.594326 -0.152538,1.982382 -0.05913,0.388055 -0.201584,2.289076 -0.316561,4.224496 -0.210182,3.53806 -0.614324,4.72734 -1.260754,3.71006 -0.18391,-0.28942 -0.238376,-0.76435 -0.121035,-1.05539 0.117341,-0.29104 0.289313,-1.16417 0.382165,-1.94028 0.09285,-0.77611 0.369418,-2.893213 0.614602,-4.704674 0.323271,-2.388369 0.338416,-3.331785 0.0551,-3.432633 -0.498577,-0.177476 -19.970503,-0.373021 -19.970129,-0.200544 1.52e-4,0.07085 0.718538,2.503431 1.596408,5.405745 1.923852,6.360426 1.871327,6.107106 1.266334,6.107106 -0.299314,0 -0.674948,-0.75247 -0.968586,-1.94027 -1.216339,-4.920232 -2.369697,-9.022258 -2.613551,-9.295372 -0.287468,-0.321952 -3.869161,-0.541115 -3.862338,-0.236333 0.0021,0.100697 0.637254,2.638634 1.411111,5.639855 1.557189,6.0392 1.61496,6.38762 0.935694,5.64314 -0.407247,-0.44635 -1.972222,-6.453364 -2.66203,-10.217962 -0.207507,-1.132463 -0.339361,-1.244021 -1.592051,-1.347015 -1.19834,-0.09852 -1.335007,-0.03365 -1.114628,0.529167 0.138146,0.352802 0.557518,2.070209 0.931939,3.816459 0.374421,1.746251 0.917536,3.993181 1.206927,4.993181 0.645446,2.23039 0.645495,2.23876 0.01298,2.23876 -0.317433,0 -0.599842,-0.50461 -0.740378,-1.32291 -0.124961,-0.72761 -0.436746,-2.19604 -0.692863,-3.2632 -0.256113,-1.06715 -0.671767,-3.091213 -0.923674,-4.497914 l -0.457598,-2.557637 h -2.336258 -2.336258 l -1.33749,5.55625 c -0.735619,3.055941 -1.472832,5.704421 -1.638251,5.885511 -0.701393,0.76785 -0.631769,-0.26849 0.238155,-3.54488 1.164675,-4.386502 1.889969,-7.29053 1.906201,-7.632298 0.0069,-0.145521 -0.741495,-0.263962 -1.663127,-0.2632 l -1.675695,0.0014 -1.13803,4.672926 c -0.625916,2.570102 -1.181541,5.068172 -1.234722,5.551262 -0.05882,0.53433 -0.358252,0.92823 -0.764503,1.00572 -0.510774,0.0974 -0.620456,-0.0262 -0.466429,-0.52556 0.110759,-0.35912 0.826057,-2.92319 1.58955,-5.697944 l 1.388168,-5.045005 -1.450906,0.106115 c -1.247758,0.09125 -1.466651,0.229599 -1.563362,0.988057 -0.06185,0.485069 -0.501425,2.519419 -0.976832,4.520773 -0.475407,2.001354 -0.774648,3.784014 -0.66498,3.961464 0.297134,0.48074 -0.486138,1.74829 -1.080369,1.74829 -0.649991,0 -0.655025,-0.64124 -0.01702,-2.1682 0.413434,-0.98949 1.273094,-4.302728 2.153962,-8.301648 0.141206,-0.641043 -0.259774,-1.035868 -2.418349,-2.38125 -1.423191,-0.887039 -2.764846,-1.612794 -2.981454,-1.612794 -0.216608,0 -0.520783,-0.204802 -0.675946,-0.455115 -0.155162,-0.250314 -1.607517,-1.297905 -3.227455,-2.327981 -1.619939,-1.030079 -3.241726,-2.169252 -3.603971,-2.531495 -0.362245,-0.362246 -1.261671,-1.039311 -1.998725,-1.504593 -2.217085,-1.399586 -2.33187,-1.674213 -2.310539,-5.528074 0.03404,-6.149951 0.980683,-8.225364 4.048936,-8.87686 0.834886,-0.177274 3.942564,-0.451361 6.90595,-0.609078 5.260836,-0.279996 5.419,-0.311622 6.702778,-1.340358 0.723141,-0.579476 1.694903,-1.255959 2.15947,-1.503295 0.464567,-0.247333 1.763796,-1.324811 2.887174,-2.394391 1.123378,-1.06958 2.410153,-2.128009 2.859499,-2.352065 l 0.816992,-0.40737 0.01733,-8.103416 c 0.01759,-8.227639 0.450529,-12.519449 1.367165,-13.553017 0.923237,-1.041012 1.228145,-3.064214 0.840798,-5.579082 -0.431409,-2.800943 -0.404505,-3.600373 0.21996,-6.536115 0.215514,-1.013177 0.152629,-1.483145 -0.259623,-1.94028 -0.299213,-0.331788 -0.803868,-1.714502 -1.121456,-3.072696 -0.645609,-2.761008 -0.346477,-4.5711618 1.006964,-6.0934988 l 0.712867,-0.801821 -0.828489,0.09628 c -0.672999,0.07821 -1.000458,-0.230178 -1.744781,-1.64315 C 44.203481,4.9692212 43.54286,4.2015872 43.162821,4.1511232 42.236307,4.0280962 40.949791,2.7279772 40.46064,1.4203719 40.231917,0.80894697 39.742903,-0.26854933 39.373941,-0.97406433 38.645176,-2.3675828 38.494684,-3.9305825 39.05588,-4.2774209 c 0.194028,-0.1199159 0.352778,-0.6242114 0.352778,-1.1206565 0,-0.5826955 0.500162,-1.4027899 1.411111,-2.3137391 0.776111,-0.7761111 1.411111,-1.4869908 1.411111,-1.5797329 0,-0.5016765 1.544291,-2.2319746 1.888415,-2.1158716 0.222552,0.07509 0.68012,-0.31401 1.016816,-0.864657 0.606162,-0.991341 1.028776,-1.14677 2.739213,-1.007427 1.281926,0.104434 4.193244,1.418649 4.689225,2.116792 0.234329,0.32984 0.783241,0.789238 1.219803,1.020885 0.538191,0.2855727 0.79375,0.7440152 0.79375,1.4239009 0,0.551499 0.218994,1.184474 0.486653,1.4066108 0.267656,0.2221368 0.574185,0.8415536 0.681168,1.3764822 0.106987,0.5349282 0.592332,1.4018408 1.078544,1.9264722 l 0.884019,0.9538752 2.932726,-1.3464837 c 4.465864,-2.0503851 8.932577,-3.2302533 12.210504,-3.225368 1.977312,0.00296 6.672534,1.083406 8.890277,2.0458188 0.87312,0.3789024 2.80319,1.6523043 4.28904,2.8297823 1.48585,1.1774782 3.27179,2.37913207 3.96875,2.67034167 0.69696,0.2912099 1.26721,0.7726737 1.26721,1.0699193 0,0.29724563 0.37928,0.63564143 0.84285,0.75199033 0.77259,0.1939078 6.31385,5.4371822 6.95278,6.5788952 0.15107,0.269951 0.35283,1.139212 0.44835,1.9316898 0.0955,0.792479 0.3322,2.054408 0.525947,2.804286 0.32525,1.258845 0.55582,4.081088 0.44782,5.481487 -0.0251,0.324665 -0.41147,1.03904 -0.858717,1.5875 -0.44725,0.548464 -1.03538,1.711583 -1.30695,2.584708 -0.27157,0.873125 -0.75195,2.06375 -1.06753,2.645833 -0.56124,1.035213 -0.64636,1.0625 -3.89652,1.249021 -1.82752,0.104877 -4.67213,0.557276 -6.32137,1.005335 -2.25631,0.612984 -3.86594,0.806778 -6.502339,0.782864 -1.927056,-0.0175 -3.792368,-0.123391 -4.145139,-0.235356 -0.784285,-0.248924 -0.840789,0.29766 -0.09478,0.916795 0.829024,0.68803 1.875317,3.219383 2.661627,6.439405 1.251786,5.126211 5.811351,13.211497 7.897741,14.004742 0.83104,0.315959 2.29956,2.639526 2.29956,3.638469 0,0.879659 -2.43689,3.03082 -3.87077,3.416925 -1.6659,0.448582 -2.38212,1.239291 -0.84767,0.935824 0.55785,-0.110324 2.2049,-0.297762 3.66011,-0.416528 1.45521,-0.118763 3.75708,-0.373673 5.11528,-0.566466 4.44917,-0.631546 10.359247,-0.778295 12.480227,-0.309884 4.38594,0.968612 8.68065,3.313297 9.0365,4.933443 0.11834,0.538825 0.23011,6.278594 0.24837,12.755048 l 0.0332,11.775366 -1.62391,0.190959 c -0.89315,0.105029 -1.69647,0.263779 -1.78516,0.352778 -0.0887,0.089 0.31247,1.511194 0.89145,3.16043 1.19873,3.414621 2.41514,7.899841 2.41514,8.905281 0,0.37318 -0.17501,0.62018 -0.38892,0.54888 -0.21391,-0.0713 -0.83913,-1.87048 -1.38936,-3.99816 -0.55024,-2.12767 -1.28965,-4.900376 -1.64314,-6.161557 l -0.6427,-2.293055 -1.6721,-0.107523 c -1.27141,-0.08176 -1.6721,0.01446 -1.6721,0.401507 0,0.579843 1.39307,5.486088 2.66834,9.397618 1.0086,3.09357 0.96995,2.83203 0.41846,2.83191 -0.26233,-6e-5 -0.99037,-1.89368 -1.79714,-4.6743 z M 87.029213,85.459513 c -0.002,-0.266284 -0.31795,-4.691028 -0.70111,-9.832764 -1.06553,-14.298694 -0.96904,-15.353302 1.54702,-16.908319 0.70136,-0.433465 1.2752,-0.873195 1.2752,-0.97718 0,-0.103985 -1.15094,-0.08894 -2.55764,0.03344 -1.4067,0.122365 -3.66889,0.301326 -5.02708,0.397683 -4.130666,0.293056 -9.029652,0.687751 -13.229168,1.065834 -1.26118,0.113541 -2.660569,0.387269 -3.10975,0.60828 -0.627983,0.308984 -0.879863,0.299625 -1.090073,-0.04051 -0.315369,-0.510279 -0.440228,-0.512071 -5.148788,-0.07388 -1.940278,0.180565 -4.797778,0.422324 -6.35,0.537238 -5.862755,0.434029 -6.989405,0.600597 -7.497221,1.108414 -0.287195,0.287196 -0.702185,0.461546 -0.922198,0.387448 -0.405243,-0.136496 -0.343189,-2.041772 0.07707,-2.366235 0.125655,-0.09701 0.466588,-0.483849 0.75763,-0.859632 0.490984,-0.633941 0.427345,-0.628018 -0.881944,0.08209 -0.776111,0.420934 -1.887361,0.956119 -2.469445,1.189305 l -1.058333,0.423972 1.411111,0.223503 c 1.290086,0.204332 1.167091,0.651615 -0.176389,0.641448 -1.592182,-0.01206 -7.443319,0.395669 -7.67069,0.534505 -0.318631,0.19456 -4.72252,0.562567 -8.969219,0.749504 -1.68188,0.07403 -3.369637,0.30141 -3.75057,0.50528 -0.380933,0.203867 -1.018294,1.028947 -1.416358,1.833506 -0.640704,1.294977 -0.702585,1.913446 -0.539282,5.389814 0.183586,3.908132 0.190102,3.932061 1.35764,4.985314 1.609099,1.451593 4.299382,3.351389 4.74587,3.351389 0.202185,0 0.367609,0.133269 0.367609,0.29615 0,0.162885 0.357188,0.46197 0.79375,0.664637 0.436563,0.202664 2.538059,1.617208 4.669992,3.14343 l 3.876242,2.77495 4.237647,0.176389 c 2.330706,0.09701 13.961084,0.235508 25.845286,0.307764 18.144101,0.110317 21.606921,0.05377 21.603191,-0.352778 z m 21.876667,-0.178636 c 2.61937,-0.117754 4.80217,-0.247883 4.85066,-0.289176 0.0485,-0.0413 0.19289,-5.087518 0.32088,-11.213825 0.18231,-8.726199 0.13406,-11.376904 -0.22276,-12.238338 -0.5385,-1.300064 -3.67303,-3.180119 -6.79693,-4.076721 -3.73462,-1.071884 -12.740967,-0.716672 -15.967127,0.629747 -4.1805,1.744701 -5.05078,3.060573 -4.71379,7.12724 0.12863,1.552222 0.41064,5.679723 0.6267,9.172223 0.21605,3.4925 0.4904,7.519924 0.60966,8.949831 l 0.21684,2.599828 8.15668,-0.223358 C 100.47287,85.59548 106.2865,85.398627 108.90588,85.280877 Z M 39.761436,59.928137 c 0.957238,-0.485069 1.88921,-0.881944 2.071048,-0.881944 0.181839,0 1.313617,-0.555625 2.515063,-1.234723 1.201445,-0.679097 2.251797,-1.234722 2.334115,-1.234722 0.290924,0 -1.23209,2.699569 -1.779165,3.153601 -0.305223,0.253312 -0.55495,0.630223 -0.55495,0.837575 0,0.207356 0.225145,0.06911 0.500323,-0.307223 0.275177,-0.376326 0.610333,-0.574224 0.74479,-0.439766 0.249983,0.249986 1.517631,-1.106872 2.193156,-2.347493 0.212189,-0.389689 0.291443,-1.511515 0.181821,-2.573648 -0.127175,-1.23221 0.0061,-2.578269 0.385617,-3.895305 2.234967,-7.755559 2.573644,-9.203976 2.480535,-10.608434 -0.05879,-0.886816 0.175722,-2.271656 0.552718,-3.263823 0.704769,-1.854803 0.629021,-4.945133 -0.103261,-4.212851 -0.734035,0.734035 -1.048061,0.359047 -0.351483,-0.419717 2.093955,-2.341013 2.216654,-2.868641 2.176536,-9.359714 -0.03546,-5.737463 -0.07038,-6.030063 -0.680706,-5.703425 -0.527198,0.282148 -0.661818,0.863699 -0.745719,3.221506 -0.05631,1.582463 -0.261133,2.929757 -0.455161,2.99399 -0.494735,0.163784 -0.215452,-6.276219 0.299434,-6.904685 0.222907,-0.272078 1.211951,-1.090607 2.197877,-1.818953 0.985925,-0.728346 2.330732,-1.894799 2.988461,-2.592118 0.65773,-0.697319 1.463576,-1.267852 1.790774,-1.267852 0.934911,0 0.387505,-1.3519688 -0.794995,-1.9634648 -0.902293,-0.466594 -1.013495,-0.465043 -1.013495,0.01413 0,0.702791 -0.570378,0.693779 -0.84171,-0.0133 -0.116403,-0.303339 -0.356849,-0.461781 -0.534328,-0.352094 -0.177479,0.109688 -0.688055,0.06428 -1.134608,-0.100915 -0.669829,-0.247786 -1.011036,-0.08922 -1.949711,0.906061 -0.986963,1.0464858 -1.237029,1.1532978 -1.886422,0.8057538 -0.411749,-0.220361 -0.84889,-0.6680838 -0.971427,-0.9949398 -0.217894,-0.581217 -1.119351,-1.442711 -1.532968,-1.465009 -0.114465,-0.0062 -0.415785,0.618018 -0.6696,1.387086 -0.540328,1.6372108 -0.311748,5.4487068 0.455632,7.5975278 0.357472,1.000992 0.404813,1.667436 0.162889,2.293056 -0.201242,0.520418 -0.252485,3.014959 -0.125006,6.085417 0.11882,2.86191 0.0868,5.203472 -0.07116,5.203472 -0.40733,0 -1.488742,3.158205 -1.486656,4.3417 9.52e-4,0.544671 -0.173274,1.685371 -0.387185,2.534892 -0.367203,1.458292 -0.04846,5.73114 0.612042,8.204659 0.120891,0.452723 0.05325,0.79375 -0.157432,0.79375 -0.203162,0 -0.441727,-0.357188 -0.530143,-0.79375 -0.08842,-0.436563 -0.146994,-0.15875 -0.130171,0.617361 0.01682,0.776111 -0.0013,2.718805 -0.04017,4.317104 l -0.07075,2.905989 -1.322917,0.863607 c -0.727604,0.47498 -2.037291,1.527274 -2.910416,2.33843 -0.873125,0.811152 -2.18604,1.876503 -2.917588,2.367442 -0.731549,0.490943 -1.261082,0.961627 -1.176742,1.045969 0.22404,0.224038 1.62166,-0.570661 3.02818,-1.721856 1.214636,-0.994142 2.124483,-1.291992 2.124483,-0.695469 0,0.169792 -0.436563,0.533749 -0.970139,0.808796 -1.444389,0.744544 -3.615972,2.107032 -3.615972,2.268724 0,0.27135 0.387688,0.135739 2.116667,-0.740403 z m 8.590735,-15.08125 c 0.100575,-0.242535 0.377058,-1.036285 0.614405,-1.763889 0.237347,-0.727605 0.577775,-1.322917 0.756507,-1.322917 0.354495,0 0.03196,1.912659 -0.490798,2.910417 -0.365495,0.697607 -1.162495,0.857341 -0.880114,0.176389 z m 0.934264,-7.843101 c 0,-1.440099 0.572598,-2.775853 1.060627,-2.474232 0.175817,0.108663 0.22389,0.447167 0.106821,0.752239 -0.117066,0.305068 -0.232491,1.041919 -0.256501,1.637439 -0.06463,1.602874 -0.910947,1.681427 -0.910947,0.08455 z m 0.942644,-5.847433 c -0.34646,-0.494644 -0.449178,-0.908445 -0.242595,-0.977307 0.197055,-0.06568 0.360715,-0.384013 0.363686,-0.70739 0.0047,-0.508533 0.0516,-0.516474 0.347377,-0.0588 0.478458,0.740364 0.435246,1.149519 -0.08819,0.835046 -0.310931,-0.186803 -0.301096,-0.09241 0.03334,0.320097 0.260879,0.321761 0.409733,0.778795 0.330789,1.015626 -0.0878,0.263412 -0.376841,0.09751 -0.744414,-0.427274 z m -0.955822,-3.701412 c -0.0072,-0.572382 -0.09572,-2.350382 -0.196612,-3.951111 -0.109073,-1.730601 -0.04765,-2.910417 0.151514,-2.910417 0.51076,0 0.933084,7.027415 0.451278,7.509221 -0.288816,0.288816 -0.396495,0.117115 -0.40618,-0.647693 z m 3.770378,32.086185 4.286366,-0.237995 1.585317,-1.436356 c 1.472501,-1.334149 2.820525,-2.204621 8.09741,-5.22883 2.439727,-1.39822 2.664079,-2.095771 2.042125,-6.34934 -0.319814,-2.187212 -0.602689,-3.024512 -1.186533,-3.51208 -0.421633,-0.352107 -0.951815,-0.645474 -1.178182,-0.651929 -0.226364,-0.0065 -0.464489,-0.137563 -0.529167,-0.291346 -0.217823,-0.517941 -2.747306,-1.888659 -3.092069,-1.675585 -0.187829,0.116085 -0.504077,-0.09269 -0.702765,-0.463945 -0.198691,-0.371256 -1.230475,-1.251966 -2.292851,-1.957133 -1.06238,-0.705164 -2.455591,-1.95367 -3.096031,-2.774453 -2.962239,-3.796397 -2.887567,-4.625951 0.864175,-9.600082 1.528378,-2.026352 5.145285,-5.219464 6.702644,-5.917283 1.144577,-0.512865 1.149026,-0.538445 0.288407,-1.65831 -0.557562,-0.725517 -0.921696,-0.850954 -2.235687,-0.77015 -0.863307,0.05309 -2.885197,-0.0836 -4.493091,-0.30375 -4.09255,-0.560348 -4.037527,-0.639426 -4.120123,5.921434 -0.07442,5.911123 -0.271579,7.619866 -0.999039,8.658458 -0.361413,0.515994 -0.454028,1.257092 -0.314032,2.512917 0.132232,1.186152 0.01263,2.296739 -0.358038,3.324762 -0.306126,0.849012 -0.556591,2.549698 -0.556591,3.779301 0,1.426627 -0.263395,2.903873 -0.727865,4.082246 -1.289266,3.270892 -2.475391,8.79868 -2.2367,10.42385 0.171803,1.169755 0.05457,1.749132 -0.552784,2.731848 -0.423957,0.685976 -1.036303,1.416082 -1.360769,1.622457 -0.459775,0.292438 -0.317511,0.33486 0.644785,0.19226 0.679097,-0.100633 3.163587,-0.290068 5.521088,-0.420966 z m 10.5303,-1.553267 c 0.732459,-0.582083 1.46866,-1.058333 1.636007,-1.058333 0.636327,0 0.846709,-0.07101 1.282937,-0.433049 0.74006,-0.614197 0.948933,0.02021 0.258014,0.783664 -0.352263,0.389245 -1.082752,0.707718 -1.623314,0.707718 -0.540561,0 -1.087476,0.169313 -1.215372,0.376248 -0.371055,0.600382 0.121832,0.825797 0.720062,0.329308 0.300418,-0.249326 0.646835,-0.3527 0.769817,-0.229722 0.122978,0.122982 0.448741,0.03675 0.723918,-0.191625 0.323049,-0.268111 0.584535,-0.290837 0.738014,-0.06415 0.249188,0.36806 6.738634,0.0595 8.146542,-0.387357 0.484523,-0.153783 1.254908,-1.236765 2.15923,-3.035371 1.375258,-2.735252 1.39435,-2.824039 0.874747,-4.067623 -0.292156,-0.699234 -0.443889,-1.412596 -0.337185,-1.585249 0.236527,-0.382708 -2.277836,-5.255574 -2.711838,-5.255574 -0.169993,0 -0.309079,0.624303 -0.309079,1.387337 0,1.037798 0.163707,1.439298 0.649757,1.593564 0.74646,0.236915 2.377524,1.87052 2.122374,2.125674 -0.09376,0.09376 -0.716156,-0.296041 -1.383104,-0.866218 -0.666951,-0.570177 -1.324507,-1.043136 -1.461237,-1.05102 -0.297289,-0.01714 -0.535961,1.409269 -0.794473,4.748163 -0.173433,2.240037 -0.297727,2.560846 -1.337949,3.453345 -0.630717,0.541147 -1.543632,1.080234 -2.028701,1.197974 -0.48507,0.117739 -1.303327,0.50842 -1.818347,0.868182 -1.006412,0.703012 -1.709431,0.844226 -1.709431,0.343366 0,-0.17091 1.177033,-0.892327 2.615625,-1.603149 1.438593,-0.710823 2.827655,-1.547834 3.086806,-1.860028 0.294827,-0.355173 0.482307,-1.570662 0.500909,-3.247546 0.01633,-1.473958 0.311499,-3.632422 0.655881,-4.796589 0.868221,-2.934973 0.496972,-13.145876 -0.577021,-15.870626 -0.767955,-1.948311 -0.909472,-4.167593 -0.476271,-7.468959 0.218753,-1.667093 0.151775,-2.57043 -0.287723,-3.880555 -1.459558,-4.350881 -1.586829,-4.954907 -1.306219,-6.199107 0.323723,-1.435334 0.185935,-3.6738588 -0.301749,-4.9023058 -0.233726,-0.588748 -0.273395,-0.143343 -0.133829,1.502642 0.1091,1.2866828 0.07578,2.9535588 -0.07403,3.7041668 l -0.272394,1.364743 -0.305131,-1.112422 c -0.170702,-0.622345 -0.17144,-1.473812 -0.0018,-1.932741 0.189727,-0.512879 0.128795,-1.5503278 -0.162574,-2.7681348 -0.256223,-1.071297 -0.469163,-2.185938 -0.473103,-2.47698 -0.0063,-0.47037 0.03083,-0.47037 0.33481,0 0.269734,0.417384 0.338586,0.342862 0.325935,-0.352778 -0.01101,-0.607751 -0.49621,-1.265806 -1.560622,-2.116663 -1.727232,-1.380695 -1.993939,-2.1166665 -0.767048,-2.1166665 1.056841,0 2.153574,1.2135395 2.709982,2.9986115 0.241914,0.776111 0.710766,2.19351 1.041891,3.149775 l 0.602047,1.738664 1.205173,-1.636711 c 1.190435,-1.616691 2.087122,-2.122903 2.087122,-1.178257 0,0.267284 -0.238125,0.683597 -0.529167,0.92514 -0.291042,0.241543 -0.529167,0.589821 -0.529167,0.77395 0,0.184129 0.24323,0.09155 0.540509,-0.205727 0.297279,-0.297279 1.130716,-0.63998 1.852083,-0.761558 2.301984,-0.387973 2.459006,-0.502311 3.389919,-2.468432 0.803529,-1.697076 2.500515,-3.3291101 3.466835,-3.3341368 0.39259,-0.00205 -0.14658,1.1860368 -0.74007,1.6307648 -0.29165,0.218549 -0.85711,1.086201 -1.25658,1.928117 -0.577526,1.217188 -1.123764,1.730763 -2.666585,2.507145 -1.067152,0.537014 -2.300619,0.979049 -2.741037,0.9823 -0.754645,0.0056 -3.346563,1.4125998 -3.722398,2.0207158 -0.09501,0.153728 -0.220536,0.993599 -0.278949,1.866378 -0.08201,1.225309 0.01087,1.571991 0.407674,1.521559 0.969045,-0.123164 3.688845,-1.224006 4.231054,-1.712523 0.2982,-0.268673 0.883014,-0.399357 1.299609,-0.290415 1.297827,0.339389 3.121727,-0.534672 4.907882,-2.3519878 1.43951,-1.464624 3.31456,-4.575595 2.75781,-4.575595 -0.49166,0 -2.44661,2.132003 -3.07307,3.35139 -0.39872,0.77611 -0.79011,1.219829 -0.86975,0.98604 -0.15863,-0.465672 0.90531,-2.925323 1.26651,-2.927951 0.12341,-8.82e-4 0.72249,-0.468525 1.33128,-1.039172 0.60879,-0.570647 1.18971,-0.954721 1.29093,-0.853498 0.10123,0.101223 0.87313,-0.560156 1.71533,-1.469732 1.56101,-1.685868 2.43965,-2.90918223 1.81003,-2.52005383 -0.18681,0.1154532 -0.88243,-0.2993334 -1.54582,-0.9217484 -2.46968,-2.31714157 -4.43849,-3.71061207 -6.589554,-4.66391997 -1.216706,-0.5392191 -2.286321,-0.9062689 -2.376922,-0.815666 -0.0906,0.090603 0.746132,0.5326751 1.859411,0.9823831 2.194045,0.8862805 3.476305,1.7814863 2.540715,1.7737901 -0.28411,-0.00234 -1.23094,-0.4169788 -2.104068,-0.9214257 -1.858215,-1.0735822 -3.531951,-1.344282 -8.113889,-1.3122917 -2.216383,0.015476 -4.068237,0.2458455 -5.468055,0.6802275 -1.164167,0.3612558 -2.354792,0.6772791 -2.645834,0.7022741 -1.626178,0.1396573 -1.622664,0.137988 -1.058333,0.5026872 0.291042,0.1880856 0.882696,0.3444046 1.314785,0.3473757 0.447164,0.00307 1.037678,0.3900985 1.370704,0.898356 0.691565,1.0554615 0.403006,1.55327227 -0.478465,0.8254338 -0.340738,-0.2813502 -1.233234,-0.7892896 -1.98332,-1.1287539 -1.193599,-0.5401811 -1.457756,-0.5547953 -2.116667,-0.1171017 -1.479987,0.983106 -2.743214,2.37290477 -2.543736,2.79860837 0.111601,0.2381646 0.300905,0.7108388 0.420673,1.05038743 0.119768,0.3395487 0.50376,0.6173612 0.853317,0.6173612 1.052555,0 1.751598,0.3951957 1.751598,0.9902437 0,0.437095 -0.09408,0.467904 -0.423333,0.138645 -0.232834,-0.232833 -0.647295,-0.423333 -0.921025,-0.423333 -0.313666,0 -0.193481,0.246338 0.325024,0.666198 0.756451,0.612536 0.857324,0.61964 1.252319,0.08819 0.353251,-0.475281 0.554327,-0.501903 1.131415,-0.149796 0.626964,0.382538 0.725614,0.319838 0.924987,-0.58789 0.122745,-0.558854 0.436075,-1.0977969 0.696291,-1.197651 0.820625,-0.3149032 0.882442,0.168002 0.148569,1.160616 -0.54078,0.731447 -0.642369,1.20212 -0.429207,1.988596 l 0.279259,1.030344 0.183547,-1.3346 c 0.248126,-1.804192 0.91549,-1.869662 0.779907,-0.07651 -0.105019,1.388926 -0.84992,3.417442 -1.601975,4.362509 -0.962233,1.209181 -1.243654,2.9048438 -0.725734,4.3727878 0.277287,0.785911 0.427778,1.505309 0.334423,1.598662 -0.09335,0.09335 0.112797,0.584527 0.458113,1.091498 0.345313,0.506971 1.008038,1.744539 1.47272,2.75015 0.464683,1.005614 0.948278,1.764477 1.07466,1.686369 0.126383,-0.07811 0.150005,0.275329 0.05249,0.785417 -0.166995,0.873584 -0.205,0.88953 -0.654594,0.274677 -0.448232,-0.612994 -0.475163,-0.600298 -0.44214,0.208421 0.01933,0.473646 0.162268,1.258051 0.317613,1.743121 l 0.282448,0.881944 0.03517,-0.970139 c 0.01933,-0.533576 0.193908,-0.970139 0.387936,-0.970139 0.437346,0 0.446331,0.413562 0.03263,1.501701 -0.215784,0.567553 -0.117824,1.868894 0.300485,3.991716 0.393626,1.997591 0.500193,3.304593 0.291345,3.57328 -0.528602,0.680046 -0.388122,4.046223 0.228925,5.485387 0.311961,0.727605 0.493797,1.322917 0.404082,1.322917 -0.08972,0 0.06712,0.551035 0.348516,1.224527 0.281401,0.673488 0.490199,1.983176 0.463995,2.910417 -0.02621,0.927238 0.16117,2.79714 0.416394,4.155334 0.255224,1.358195 0.438838,3.064757 0.408037,3.792362 -0.0308,0.727604 0.0991,1.322916 0.288685,1.322916 0.189579,0 0.344692,0.255108 0.344692,0.566911 0,0.367351 -0.192669,0.492975 -0.547342,0.356873 -0.647474,-0.248458 -4.294991,1.519023 -5.197612,2.518611 -0.346322,0.38353 -1.417578,1.234324 -2.380569,1.89066 -0.962988,0.656333 -1.751196,1.321767 -1.751574,1.478739 -7.05e-4,0.343443 0.479365,0.07853 2.115986,-1.167349 1.847123,-1.406126 2.116667,-1.52109 2.116667,-0.902765 0,0.302492 -0.168275,0.549987 -0.373941,0.549987 -0.20567,0 -1.101623,0.555625 -1.991007,1.234722 -0.889388,0.679098 -1.377943,1.234723 -1.085681,1.234723 0.292266,0 1.13067,-0.47625 1.863129,-1.058334 z m 2.645834,-3.047915 c 0,-0.355364 1.183541,-1.161803 1.72327,-1.1742 0.272757,-0.0063 0.09236,0.300426 -0.408422,0.694337 -0.926451,0.728748 -1.314848,0.870497 -1.314848,0.479863 z m 3.379149,-1.425864 c 0.936124,-0.684696 2.251328,-0.972965 2.64464,-0.579653 0.201729,0.201729 -0.373831,0.471389 -1.497375,0.701544 -1.597099,0.327163 -1.740401,0.311937 -1.147265,-0.121891 z m 2.618073,-2.737344 c 0,-0.690549 0.06136,-1.255544 0.136348,-1.255544 0.289694,0 0.435677,2.157554 0.157611,2.32941 -0.161678,0.09992 -0.293959,-0.383318 -0.293959,-1.073866 z m -0.705556,-3.548599 c 0,-0.679098 0.15875,-1.234723 0.352778,-1.234723 0.194028,0 0.352778,0.555625 0.352778,1.234723 0,0.679097 -0.15875,1.234722 -0.352778,1.234722 -0.194028,0 -0.352778,-0.555625 -0.352778,-1.234722 z m 1.270208,-1.116969 c 0.324704,-1.351636 0.493681,-1.479568 0.493681,-0.373757 0,0.505953 -0.165114,1.021965 -0.366917,1.146686 -0.240662,0.148738 -0.284283,-0.117228 -0.126764,-0.772929 z m -1.246416,-6.811352 c -0.04274,-3.889707 0.01009,-4.257697 0.670464,-4.670105 0.394268,-0.246224 0.716855,-0.647622 0.716855,-0.891991 0,-0.244369 0.153769,-0.444306 0.341708,-0.444306 0.457983,0 0.03806,1.031342 -0.734469,1.803873 -0.535799,0.535798 -0.604312,1.143677 -0.489243,4.340835 0.07359,2.044781 3.53e-4,3.800207 -0.162557,3.900946 -0.163001,0.10074 -0.317242,-1.716923 -0.342758,-4.039252 z m 1.387319,2.657475 c 0,-0.690549 0.15875,-1.255544 0.352778,-1.255544 0.194028,0 0.352778,0.466881 0.352778,1.037513 0,0.570632 -0.15875,1.135627 -0.352778,1.255543 -0.209945,0.129752 -0.352778,-0.290318 -0.352778,-1.037512 z m -2.78771,-0.955407 c -0.475978,-1.365391 -0.504885,-1.977228 -0.07168,-1.51722 0.354192,0.376111 0.893071,2.628195 0.628872,2.628195 -0.09345,0 -0.344187,-0.499939 -0.557195,-1.110975 z m 2.701368,-2.593192 c -0.09273,-0.48507 -0.05037,-0.881945 0.09414,-0.881945 0.144505,0 0.3386,0.396875 0.431327,0.881945 0.09273,0.485069 0.05037,0.881944 -0.09413,0.881944 -0.144505,0 -0.338599,-0.396875 -0.431327,-0.881944 z m -3.154814,0.333929 c -0.133399,-0.204396 -0.231214,-1.593459 -0.217364,-3.086806 0.0182,-1.960912 0.150897,-2.715179 0.477732,-2.715179 0.580467,0 0.843435,-0.730469 0.507992,-1.411111 -0.143432,-0.291042 -0.140169,-0.846667 0.0073,-1.234722 0.240721,-0.633653 0.295617,-0.600351 0.538705,0.326799 0.170519,0.650367 0.09903,1.433562 -0.193205,2.116667 -0.255133,0.59637 -0.557181,2.274937 -0.67122,3.730145 -0.114039,1.455208 -0.316491,2.478603 -0.44989,2.274207 z m 0.313369,-10.400902 c -0.123257,-0.471336 -0.09163,-0.989443 0.07028,-1.15135 0.415491,-0.415492 0.691434,0.499649 0.398515,1.321653 -0.225097,0.631677 -0.262636,0.618039 -0.468792,-0.170303 z m -0.09105,-3.074 c 0.129074,-0.727604 0.543616,-1.753052 0.921205,-2.278772 0.377589,-0.52572 0.686523,-1.279782 0.686523,-1.675694 0,-0.395912 0.15875,-0.71984 0.352778,-0.71984 0.676003,0 0.346519,1.717192 -0.529167,2.757886 -0.526425,0.62562 -0.881944,1.489778 -0.881944,2.143736 0,0.60258 -0.176417,1.095601 -0.392039,1.095601 -0.259559,0 -0.312734,-0.447047 -0.157356,-1.322917 z m 4.077173,-13.355105 c 0,-0.359963 0.193922,-0.492495 0.53123,-0.363058 0.354277,0.135949 0.819623,-0.252991 1.397014,-1.167638 0.632883,-1.0025518 1.045228,-1.3245648 1.532848,-1.1970498 0.366882,0.09594 0.93641,-0.09491 1.265615,-0.424116 0.329208,-0.329206 0.699477,-0.497637 0.822822,-0.37429 0.123349,0.123346 0.03641,0.41212 -0.193188,0.64172 -0.229598,0.229599 -0.417453,0.76314 -0.417453,1.1856458 0,0.422506 -0.248108,0.974104 -0.551349,1.225773 -0.481524,0.39963 -0.522884,0.344162 -0.32658,-0.437975 0.179038,-0.713348 0.07589,-0.934488 -0.506984,-1.0869128 -0.457155,-0.119548 -0.731753,-0.02303 -0.731753,0.2572068 0,0.246711 -0.329022,0.866848 -0.73116,1.378084 -0.811513,1.031673 -2.091062,1.253559 -2.091062,0.36261 z m -7.055556,-0.138646 c 0,-0.194027 0.15875,-0.352777 0.352778,-0.352777 0.194028,0 0.352778,0.15875 0.352778,0.352777 0,0.194028 -0.15875,0.352778 -0.352778,0.352778 -0.194028,0 -0.352778,-0.15875 -0.352778,-0.352778 z m 13.134647,-1.058333 c 0.445128,-0.712761 0.976464,-0.9431148 0.976464,-0.423333 0,0.366545 -0.764364,1.128889 -1.131877,1.128889 -0.156866,0 -0.08693,-0.3175 0.155413,-0.705556 z m -13.987328,0.04735 c -0.151966,-0.245887 -0.181032,-0.542339 -0.06459,-0.658782 0.315725,-0.3157218 0.659966,0.148627 0.48944,0.660204 -0.119493,0.358484 -0.20259,0.358206 -0.42485,-0.0014 z M 65.86831,8.4018122 c -0.0014,-0.838505 0.891064,-2.203055 1.223571,-1.870547 0.123331,0.123333 -0.101219,0.758083 -0.499004,1.410556 -0.581907,0.954479 -0.723505,1.044372 -0.724567,0.459991 z m 8.858395,-6.6648116 c 0.191558,-0.6937704 0.251495,-1.41801793 0.133191,-1.60943863 -0.118308,-0.1914211 -0.06397,-0.3480382 0.120752,-0.3480382 0.859039,0 0.675411,2.79299543 -0.202872,3.08575743 -0.290304,0.09677 -0.304249,-0.211342 -0.05107,-1.1282806 z m 10.607738,0.082755 c -0.2296,-0.2295994 -0.4111,-0.7428911 -0.40333,-1.14064813 0.012,-0.6149964 0.0953,-0.5733849 0.55678,0.2781328 0.58998,1.08866593 0.51185,1.52781593 -0.15345,0.86251533 z M 77.299344,1.0086665 c -0.260188,-1.03668373 -1.714945,-2.2874761 -2.660484,-2.2874761 -0.36189,0 -0.65798,-0.2335862 -0.65798,-0.5190801 0,-0.7607304 -1.937541,-1.1364356 -4.3772,-0.8487763 -1.173639,0.138383 -2.258981,0.1742926 -2.411875,0.079799 -0.550619,-0.3403008 0.118389,-0.7720972 1.587451,-1.0245874 2.486716,-0.4273959 4.303406,-0.2635938 5.561415,0.5014458 0.882628,0.5367599 1.309927,0.6246312 1.652979,0.3399243 0.726648,-0.6030651 2.815209,-0.084926 4.794546,1.1894525 0.994147,0.64007157 2.118847,1.32251667 2.499337,1.51654447 0.38049,0.1940278 0.75725,0.5512152 0.83725,0.79375 0.21647,0.65630143 -1.15791,0.53842813 -1.72224,-0.1477063 -0.67189,-0.816924 -4.671749,-2.58632157 -5.84658,-2.58632157 h -0.968184 l 0.786066,0.5505817 c 0.78087,0.54694417 1.840368,2.25082497 1.840368,2.9596772 0,0.7412315 -0.698066,0.3465732 -0.914869,-0.5172272 z m 8.766579,0.1375311 c -0.10787,-0.41249603 -0.54767,-1.44437103 -0.97733,-2.2930556 -0.42966,-0.8486847 -0.65738,-1.5430628 -0.50604,-1.5430628 0.55706,0 2.31826,2.67611557 2.37974,3.61597237 0.0746,1.14048963 -0.61162,1.30902463 -0.89637,0.22014603 z M 61.457269,-0.92603183 c 0.119916,-0.19402777 0.288036,-0.35277777 0.373598,-0.35277777 0.08556,0 0.155568,0.15875 0.155568,0.35277777 0,0.1940278 -0.16812,0.3527778 -0.373598,0.3527778 -0.205479,0 -0.275485,-0.15875 -0.155568,-0.3527778 z M 60.222546,58.340637 c 0,-0.194028 -0.07001,-0.352778 -0.155568,-0.352778 -0.08556,0 -0.253682,0.15875 -0.373598,0.352778 -0.119916,0.194028 -0.04991,0.352778 0.155568,0.352778 0.205479,0 0.373598,-0.15875 0.373598,-0.352778 z m 23.222987,-1.643472 c 0.66942,-0.454286 1.49438,-0.825972 1.83323,-0.825972 0.33885,0 1.18614,-0.586889 1.88286,-1.304195 1.13371,-1.167215 1.21204,-1.364654 0.74578,-1.879861 -0.28653,-0.316618 -0.52097,-0.743525 -0.52097,-0.948687 0,-0.205158 -0.91281,-1.321428 -2.02847,-2.480599 -2.2139,-2.300231 -5.679285,-8.046615 -6.542649,-10.849159 -0.298862,-0.970139 -0.798547,-2.867551 -1.110406,-4.216467 -0.552133,-2.38819 -1.744158,-4.61698 -3.568471,-6.672154 -0.493515,-0.555964 -0.957319,-0.950821 -1.030679,-0.877461 -0.224822,0.224822 0.580171,3.622884 0.973903,4.111058 0.203549,0.252377 0.527307,3.024773 0.719465,6.160879 0.326457,5.328 0.414423,5.806977 1.341078,7.302247 1.683664,2.716791 2.163875,3.653723 2.809095,5.480787 0.591891,1.676055 0.686351,1.763889 1.896908,1.763889 0.700696,0 1.404226,0.210616 1.563406,0.46803 0.21487,0.347483 0.6115,0.09174 1.5399,-0.992889 1.20886,-1.412275 2.0954,-1.452672 1.35089,-0.06156 -0.75124,1.403717 -2.06256,1.905864 -4.072635,1.559553 l -1.860243,-0.320495 -1.061523,1.966736 c -0.583837,1.081701 -1.16078,2.39105 -1.2821,2.909658 l -0.220581,0.942926 2.712536,-0.205148 c 2.027026,-0.153303 3.020136,-0.413889 3.929676,-1.03112 z m -3.943149,-0.624113 c 1.034952,-1.245436 1.534051,-1.535444 1.534051,-0.891381 0,0.497067 -1.630091,2.100633 -2.135378,2.100633 -0.221957,0 0.04864,-0.544164 0.601327,-1.209252 z m 2.739379,-0.819221 c 0.14552,-0.14552 0.37041,-0.274228 0.49976,-0.286018 0.85876,-0.07826 2.88673,-1.285645 3.52735,-2.100058 0.45278,-0.575624 0.76478,-0.76449 0.76478,-0.462953 0,0.79055 -0.7527,1.572577 -2.28783,2.376953 -1.34343,0.703936 -3.05943,1.027444 -2.50406,0.472076 z M 77.02333,43.538113 c -1.358857,-1.891429 -1.46626,-2.13081 -0.956042,-2.13081 0.373867,0 2.61614,3.528932 2.38753,3.757542 -0.08411,0.08411 -0.728282,-0.647919 -1.431488,-1.626732 z m -0.922411,-7.063017 c -0.605639,-1.199762 -1.045369,-2.348749 -0.977184,-2.553307 0.06819,-0.204559 0.648084,0.692686 1.288658,1.993879 0.640578,1.301196 1.080308,2.450182 0.977184,2.553306 -0.103124,0.103128 -0.68302,-0.79412 -1.288658,-1.993878 z m -8.251892,2.43332 c -1.104145,-4.838912 -1.370122,-5.806501 -1.713188,-6.232363 -0.506465,-0.628696 -0.992455,-0.545716 -0.734892,0.125476 0.163431,0.425901 -0.123797,0.351084 -1.157602,-0.301527 -0.756232,-0.477389 -1.533715,-0.905361 -1.727743,-0.951053 -0.194028,-0.04569 -0.58958,-0.215597 -0.879006,-0.377568 -0.89251,-0.499477 -0.101967,-0.803733 1.047327,-0.403087 2.043631,0.712413 2.152375,0.254543 0.6618,-2.786476 -1.6602,-3.387076 -1.580702,-4.025589 0.797268,-6.403559 0.929721,-0.929721 1.531327,-1.690401 1.336904,-1.690401 -0.717331,0 -2.451397,1.099382 -2.249452,1.426136 0.114808,0.185762 0.04062,0.337753 -0.164853,0.337753 -0.205479,0 -0.333912,0.198437 -0.285405,0.440972 0.04851,0.242535 -0.14993,0.388055 -0.440972,0.323381 -0.291042,-0.06468 -0.430671,-0.01909 -0.310286,0.101289 0.185985,0.185985 -1.04117,1.469143 -4.317195,4.514219 -1.043164,0.969624 -0.898003,3.333313 0.280236,4.563128 0.51943,0.54217 0.845721,1.08446 0.725092,1.205089 -0.355243,0.355243 -2.005277,-1.642146 -2.334549,-2.826004 -0.255648,-0.919152 -0.345447,-0.989147 -0.572544,-0.446285 -0.414112,0.989901 0.381705,3.110487 1.780649,4.74484 0.694976,0.811925 1.373032,1.446001 1.506792,1.409058 0.133755,-0.03694 0.640069,0.277435 1.125138,0.698616 1.356805,1.178102 5.448286,4.212414 6.761801,5.014666 1.462024,0.892955 1.56693,0.591308 0.86468,-2.4863 z m 1.073824,1.705137 c -0.09786,-0.242535 -0.177938,-0.0441 -0.177938,0.440972 0,0.48507 0.08007,0.683507 0.177938,0.440972 0.09786,-0.242534 0.09786,-0.639409 0,-0.881944 z M 67.10111,29.483862 c -0.09089,-0.912178 -0.533114,-3.143956 -0.982719,-4.959509 l -0.817467,-3.301006 -1.128078,1.284806 c -0.735757,0.837982 -1.128077,1.654973 -1.128077,2.349172 0,1.206543 1.120838,3.411044 2.557638,5.03045 0.533577,0.60139 0.970139,1.226174 0.970139,1.388413 0,0.162235 0.156108,0.198497 0.346908,0.08057 0.1908,-0.117919 0.272542,-0.960723 0.181656,-1.8729 z m 11.995047,-2.216256 c -0.489779,-0.230308 -0.274002,-0.253439 0.705556,-0.07563 3.26495,0.592642 6.96175,-0.07342 11.62112,-2.093793 3.64662,-1.581235 3.69797,-1.699997 1.51569,-3.505267 -1.01636,-0.840765 -2.1555,-1.925543 -2.53143,-2.410612 -1.40693,-1.815402 -3.77419,-3.891293 -5.05135,-4.42963 -3.13381,-1.320932 -7.91514,-1.169314 -11.593575,0.367634 -1.080661,0.451528 -1.187111,0.613875 -0.977381,1.490606 0.129448,0.54114 0.355374,1.222015 0.502055,1.513057 0.412761,0.818987 0.511218,3.510015 0.203031,5.5493 -0.296693,1.96324 -0.203186,2.168077 1.539642,3.372775 0.580401,0.401193 1.524681,0.594628 2.822222,0.578128 1.494949,-0.01901 1.785334,-0.102214 1.24442,-0.356566 z m -4.289516,-1.892142 c 0.07328,-0.20478 0.552464,-0.342441 1.064849,-0.305914 0.512388,0.03653 0.931612,-0.06767 0.931612,-0.231557 0,-0.163883 0.317087,-0.21505 0.704642,-0.113704 1.155809,0.302253 4.221389,-0.909422 5.539389,-2.189455 1.5929,-1.547005 3.7361,-2.597005 4.86167,-2.381839 1.16537,0.222772 1.14597,0.793196 -0.0269,0.793196 -0.50364,0 -1.33708,0.225672 -1.85208,0.501495 -0.51501,0.275823 -1.24943,0.601863 -1.63204,0.724535 -0.49709,0.159367 -0.57079,0.300217 -0.2582,0.493409 0.51656,0.319253 -3.321439,2.313273 -5.219747,2.711905 -1.981263,0.416056 -4.262346,0.414906 -4.113128,-0.0021 z m 22.810352,-3.013043 c 0,-0.17756 -0.26589,-0.471636 -0.59086,-0.653496 -0.67312,-0.3767 -0.9896,-1.608759 -0.35022,-1.363405 0.22859,0.08772 0.61949,-0.05874 0.86865,-0.325477 0.24916,-0.266728 0.33564,-0.484963 0.19217,-0.484963 -0.14347,0 -0.0924,-0.168455 0.11349,-0.374347 0.37061,-0.370607 0.001,-1.973441 -0.71239,-3.088707 -0.44025,-0.688343 -0.0398,-0.884062 0.84254,-0.411828 1.08895,0.582789 0.77907,-0.264198 -0.42576,-1.163738 -0.78038,-0.582637 -1.00097,-0.608904 -1.66156,-0.197854 -0.65295,0.406295 -0.91404,0.386807 -1.82849,-0.136478 -0.58673,-0.335748 -0.98087,-0.471445 -0.87587,-0.301549 0.29346,0.47483 -0.93041,0.81012 -1.36333,0.373498 -0.27514,-0.277483 -0.22574,-0.325811 0.17658,-0.172773 0.35565,0.135285 0.55857,0.02036 0.55857,-0.316359 0,-0.290856 -0.13136,-0.447646 -0.29191,-0.348421 -0.16055,0.09922 -0.82376,-0.22526 -1.47381,-0.721074 -1.31016,-0.999306 -1.96986,-1.189457 -1.29169,-0.372315 0.62414,0.752042 0.0949,0.655005 -0.96207,-0.176389 -0.59727,-0.469811 -1.43114,-0.705555 -2.49569,-0.705555 -1.93462,0 -1.79295,0.310968 0.23351,0.512568 0.80601,0.08019 1.8826,0.473909 2.39243,0.874944 0.97428,0.766371 1.73142,0.975756 1.36099,0.376376 -0.34759,-0.562405 0.39709,-0.407826 0.88864,0.184465 0.37859,0.456171 0.34518,0.499439 -0.22139,0.286727 -0.60952,-0.22884 -0.62147,-0.194297 -0.13809,0.399216 0.51193,0.628565 0.49075,0.62987 -0.65014,0.04004 -1.467,-0.758427 -1.80435,-0.521831 -0.60316,0.423024 0.49529,0.389593 0.90052,0.883941 0.90052,1.098551 0,0.521066 -0.20339,0.493773 -1.33532,-0.17919 l -0.95773,-0.56939 0.89349,0.833974 c 0.49142,0.458685 1.28517,1.120711 1.76388,1.471168 0.71396,0.522667 0.74359,0.601453 0.16485,0.43834 -0.52351,-0.147547 -0.4091,0.07417 0.44344,0.859347 0.63195,0.582008 1.1188,1.178506 1.08188,1.325547 -0.0369,0.147042 0.91522,0.914834 2.11585,1.706203 1.20064,0.791369 2.06317,1.566933 1.91674,1.723478 -0.14644,0.156546 0.0909,0.09879 0.52751,-0.128347 0.43656,-0.227136 0.79375,-0.55825 0.79375,-0.735811 z m -3.0345,-1.273828 c -1.33846,-0.891815 -2.05649,-1.509808 -1.59563,-1.373314 0.57258,0.16958 0.76149,0.124484 0.59654,-0.142406 -0.35158,-0.568879 0.26194,-0.477721 1.05574,0.156863 0.66552,0.532024 0.66245,0.541284 -0.10896,0.329004 -1.22258,-0.336438 -0.95621,0.0041 0.97014,1.240229 1.56523,1.0044 2.03785,1.411111 1.63981,1.411111 -0.0683,0 -1.21919,-0.729668 -2.55764,-1.621487 z m 0.87605,-0.406985 c -0.023,-0.145521 -0.024,-0.380644 -0.002,-0.522493 0.065,-0.42365 -1.65969,-1.408433 -2.04719,-1.16895 -0.19708,0.121804 -0.76916,-0.04773 -1.27128,-0.376735 -0.58107,-0.380659 -0.76947,-0.686939 -0.51819,-0.842239 0.25038,-0.154744 0.0506,-0.469597 -0.54583,-0.860422 -0.60496,-0.396385 -0.8191,-0.737984 -0.59998,-0.957103 0.21912,-0.21912 0.95656,0.0016 2.06618,0.618464 2.58445,1.436715 2.96018,1.693486 2.96018,2.022998 0,0.165792 -0.69841,-0.107858 -1.55203,-0.608109 -1.27503,-0.747221 -1.58749,-0.817125 -1.75075,-0.391681 -0.11948,0.31136 0.11256,0.68372 0.58189,0.933785 0.70661,0.376488 0.73472,0.360278 0.29645,-0.171009 -0.72114,-0.874178 -0.17946,-0.713325 1.50833,0.447905 0.82724,0.569157 1.50407,1.283532 1.50407,1.5875 0,0.546957 -0.54919,0.798202 -0.62974,0.288089 z m 0.92373,-1.146528 c -0.11992,-0.194028 -0.0593,-0.352778 0.13475,-0.352778 0.19402,0 0.45088,0.15875 0.5708,0.352778 0.11992,0.194028 0.0593,0.352778 -0.13475,0.352778 -0.19403,0 -0.45089,-0.15875 -0.5708,-0.352778 z m -1.78411,-3.322546 c -0.80769,-0.590601 -0.38823,-1.229944 0.45711,-0.696718 0.66061,0.416697 1.01385,1.197041 0.54187,1.197041 -0.17311,0 -0.62265,-0.225145 -0.99898,-0.500323 z m 3.37161,4.921116 c 0,-0.314706 -0.20694,-0.438683 -0.52715,-0.31581 -0.28992,0.111255 -0.4393,0.344399 -0.33195,0.518093 0.30784,0.498097 0.8591,0.368296 0.8591,-0.202283 z M 63.68021,15.742719 c -0.861477,-1.768117 -1.168196,-2.204862 -1.548444,-2.204862 -0.245834,0 -0.827525,-0.486258 -1.292649,-1.080574 -1.122835,-1.434718 -2.160499,-1.158231 -3.791571,1.010266 -1.596739,2.122854 -1.591983,2.105785 -0.637691,2.288122 1.427526,0.272759 7.404371,0.262111 7.270355,-0.01295 z m 24.518633,-1.611551 c -0.098,-0.158748 -0.39082,-0.207049 -0.65068,-0.107334 -0.25985,0.09971 -1.05534,-0.214258 -1.76776,-0.697718 -1.0588,-0.71852 -1.46522,-0.816729 -2.22589,-0.537878 l -0.93058,0.34114 1.05834,0.02971 c 0.58208,0.01634 1.53458,0.323638 2.11666,0.682887 1.04445,0.644605 2.74596,0.849643 2.39991,0.289195 z m -1.16519,-0.757287 c 0,-0.09019 -0.35718,-0.33707 -0.79375,-0.548628 -0.76222,-0.369373 -0.76654,-0.362859 -0.10896,0.163976 0.71976,0.576647 0.90271,0.654604 0.90271,0.384652 z m 7.93555,-0.89652 c -0.86947,-0.960753 -0.41238,-1.293223 0.73994,-0.538198 0.58106,0.380731 0.82646,0.435688 0.6467,0.14483 -0.15932,-0.257794 -0.29793,-0.869573 -0.30802,-1.359509 -0.0137,-0.662447 -0.18341,-0.8626548 -0.6623,-0.7810238 -0.35419,0.06037 -1.18829,-0.305398 -1.85356,-0.812825 -1.19109,-0.90849 -1.22574,-0.91305 -2.26644,-0.298292 -1.16152,0.686123 -1.41079,1.3068718 -0.4395,1.094458 0.33954,-0.07426 0.59097,-0.284336 0.55871,-0.46684 -0.13063,-0.739142 1.66522,-0.365728 2.7646,0.5748478 0.64603,0.552711 0.98835,1.011381 0.7607,1.019266 -0.22765,0.0079 -0.88031,-0.378111 -1.45035,-0.85777 -0.91991,-0.7740558 -1.48714,-0.8516708 -1.48714,-0.2034908 0,0.1198558 0.47905,0.5009018 1.06456,0.8467678 0.5855,0.345867 0.97972,0.766107 0.87604,0.933868 -0.10368,0.167761 0.16697,0.554008 0.60144,0.858325 1.06873,0.748566 1.22406,0.695807 0.45462,-0.154414 z M 62.786369,10.955928 c -0.151803,-1.3467808 -0.05466,-1.6231278 0.837086,-2.3812498 1.231145,-1.046671 1.217573,-2.523347 -0.0366,-3.982924 -0.943617,-1.098153 -1.114097,-0.869224 -1.216374,1.633378 -0.02992,0.731682 -0.211963,1.744838 -0.40458,2.251457 -0.192617,0.506619 -0.256815,1.257345 -0.142667,1.6682798 0.210736,0.758639 0.927255,2.334655 1.061424,2.334655 0.04039,0 -0.0038,-0.685618 -0.09829,-1.523596 z m 28.823184,0.804261 c -0.28542,-0.180507 -0.75708,-0.325 -1.04812,-0.321096 -0.30678,0.0041 -0.15875,0.212097 0.35225,0.494899 0.9472,0.524206 1.55826,0.371587 0.69587,-0.173803 z m -30.29178,-0.771126 c -0.184591,-0.485516 -0.585907,-0.978801 -0.891815,-1.0961868 -0.784673,-0.301108 -0.713803,-2.432208 0.114914,-3.455633 0.594381,-0.73403 0.616038,-0.935264 0.189438,-1.760221 -0.576047,-1.11395 -1.566097,-1.610452 -1.566097,-0.785385 0,0.43651 -0.236597,0.514872 -1.058333,0.350526 -0.582084,-0.116417 -1.058334,-0.07409 -1.058334,0.09405 0,0.168143 -0.393989,0.404599 -0.875527,0.525458 -0.801003,0.201038 -1.946695,1.767385 -1.946695,2.661447 0,0.203664 0.531936,0.370297 1.182081,0.370297 1.955821,0 3.157033,0.662012 4.579426,2.5238088 1.416339,1.85387 1.896865,2.06033 1.330942,0.571841 z m -5.32856,-3.9517558 c 0,-0.0828 0.469646,-0.384841 1.043654,-0.671195 0.827257,-0.41269 1.119213,-0.429604 1.408053,-0.08157 0.200416,0.241489 0.259937,0.543526 0.13227,0.671194 -0.252991,0.252991 -2.583977,0.326578 -2.583977,0.08158 z m 3.002167,-1.619093 c 0.121871,-0.197193 0.369366,-0.267199 0.549988,-0.155569 0.489317,0.302415 0.398078,0.514101 -0.221587,0.514101 -0.302493,0 -0.450271,-0.161339 -0.328401,-0.358532 z m 38.272833,6.3557538 c 0,-0.194027 -0.16812,-0.352777 -0.3736,-0.352777 -0.20548,0 -0.27548,0.15875 -0.15557,0.352777 0.11992,0.194028 0.28804,0.352778 0.3736,0.352778 0.0856,0 0.15557,-0.15875 0.15557,-0.352778 z M 88.444773,10.4006 c 0,-0.173268 -0.23813,-0.4064108 -0.52917,-0.5180938 -0.53773,-0.206347 -0.72249,0.1694388 -0.29398,0.5979438 0.33714,0.337148 0.82315,0.290004 0.82315,-0.07985 z m 1.23472,-0.03774 c 0.11991,-0.194028 -0.0388,-0.352778 -0.35278,-0.352778 -0.31394,0 -0.47269,0.15875 -0.35278,0.352778 0.11992,0.194028 0.27867,0.352778 0.35278,0.352778 0.0741,0 0.23286,-0.15875 0.35278,-0.352778 z m -3.85246,-0.8667578 c 0.8153,-0.42298 0.88651,-0.553964 0.40217,-0.73982 -0.51857,-0.198996 -0.52671,-0.287657 -0.0684,-0.74594 0.28605,-0.286056 0.5201,-0.777967 0.5201,-1.093136 0,-0.31517 -0.47625,0.177933 -1.05834,1.095783 -1.42106,2.2407878 -1.41004,2.3207428 0.20449,1.483113 z M 53.047322,7.4148052 c 2.239415,-3.1171 2.461394,-6.4084639 0.459218,-6.80889953 -1.018234,-0.2036466 -1.045891,-0.26113 -0.843542,-1.75318807 0.210157,-1.5496439 0.07484,-1.7308419 -1.171702,-1.5689719 -0.242534,0.031496 -0.440972,-0.198519 -0.440972,-0.5111415 0,-0.4189903 0.208651,-0.510987 0.79375,-0.349976 0.762886,0.2099349 0.767722,0.1975813 0.124418,-0.3177043 -0.880022,-0.7048917 -1.270945,-0.414606 -1.270945,0.9437529 0,1.1660143 -0.501986,0.9994093 -0.806779,-0.2677643 -0.128266,-0.5332494 -0.179705,-0.4686346 -0.210633,0.2645833 -0.02251,0.5335764 -0.167453,0.970139 -0.322103,0.970139 -0.507282,0 -2.914583,-2.6838658 -2.647164,-2.9512847 0.143553,-0.1435534 -0.01377,-0.1555652 -0.349603,-0.026695 -0.476374,0.182802 -0.566592,0.089959 -0.410386,-0.4223269 0.158591,-0.520107 0.07713,-0.4915983 -0.391806,0.1371117 -0.325616,0.4365625 -0.866621,0.79375 -1.202234,0.79375 -0.760228,0 -2.831515,1.9377033 -2.831515,2.6489019 0,0.289354 -0.247434,0.5260983 -0.549854,0.5260983 -0.433696,0 -0.311525,0.44715107 0.578318,2.11666667 0.849207,1.59327543 1.318058,2.11666643 1.8961,2.11666643 0.591719,0 1.002079,0.4899 1.788365,2.134999 0.835883,1.748871 1.066451,2.010608 1.274865,1.44721 0.139936,-0.378284 0.441253,-0.803252 0.669592,-0.944374 0.310103,-0.191654 0.296627,-0.329844 -0.05326,-0.546083 -0.607525,-0.375472 -0.155508,-0.831271 0.554267,-0.558905 0.688204,0.264088 0.699519,1.083841 0.02428,1.75908 -0.458283,0.458282 -0.4486,0.547538 0.08146,0.750943 0.330861,0.126963 0.657511,0.06301 0.725888,-0.142125 0.06838,-0.205132 0.354802,-0.372967 0.636502,-0.372967 0.398848,0 0.430545,0.152534 0.14325,0.689351 -0.316824,0.591992 -0.256297,0.684594 0.428561,0.655671 1.301263,-0.05495 1.679434,0.04472 1.679434,0.44264 0,0.21601 -0.30081,0.281077 -0.705555,0.152616 -0.476332,-0.151181 -0.705556,-0.06339 -0.705556,0.270209 0,1.5216038 1.492546,0.897303 3.055331,-1.277983 z m -3.143525,-1.177828 c -0.727605,-0.499658 -1.322917,-1.04574 -1.322917,-1.213516 0,-0.518894 0.520467,-0.338083 1.152867,0.400507 0.332264,0.388056 0.826809,0.705556 1.098991,0.705556 0.272182,0 0.586253,0.238125 0.697939,0.529167 0.280607,0.731251 -0.0865,0.636092 -1.62688,-0.421714 z m 2.204861,0.598102 c 0,-0.194027 0.01549,-0.446989 0.0344,-0.562137 0.06241,-0.379664 -1.900355,-2.238655 -2.180693,-2.065398 -0.150929,0.09328 -0.374132,0.0083 -0.496002,-0.188932 -0.121871,-0.197193 -0.01379,-0.363814 0.240206,-0.370269 0.263345,-0.0067 0.108003,-0.306569 -0.361488,-0.697821 L 48.521802,2.2644382 49.28091,1.1983699 c 0.417528,-0.58633753 0.916066,-1.06606833 1.107885,-1.06606833 0.191816,0 0.101632,0.3528229 -0.200413,0.7840507 -0.746527,1.06581993 -0.691229,1.50906193 0.244581,1.96038593 0.436563,0.210546 0.583131,0.393556 0.325709,0.406688 -0.257418,0.01313 -0.01453,0.405469 0.539736,0.871862 0.64631,0.543833 1.037629,1.239765 1.091004,1.940277 0.04578,0.600761 0.0013,1.092292 -0.09876,1.092292 -0.100094,0 -0.181991,-0.15875 -0.181991,-0.352778 z m -6.71151,-2.316021 c -0.461003,-1.212532 -0.434484,-1.373205 0.146998,-0.890618 0.59959,0.497616 0.979475,1.795528 0.525531,1.795528 -0.180665,0 -0.483303,-0.407209 -0.672529,-0.90491 z m 2.506027,-0.736274 c -0.03398,-0.495921 -1.897426,-1.181038 -3.212298,-1.181038 -0.529372,0 -1.160121,-0.238125 -1.401664,-0.529167 -0.367955,-0.443359 -0.312103,-0.5291665 0.344433,-0.5291665 0.430982,0 1.228487,-0.47625 1.772234,-1.05833343 0.945468,-1.0121265 2.469444,-1.4475485 2.469444,-0.7055555 0,0.1940278 -0.298062,0.3527778 -0.662359,0.3527778 -0.725927,0 -1.689111,0.94112253 -1.330352,1.29988103 0.123473,0.1234732 0.543943,-0.064598 0.934378,-0.4179366 0.884702,-0.80064443 1.369071,-0.40219493 0.738503,0.6075049 -0.404632,0.6479173 -0.385507,0.8132313 0.138399,1.1963213 0.334351,0.244483 0.524485,0.653013 0.422522,0.907844 -0.113747,0.284282 -0.196152,0.306257 -0.21324,0.05687 z m 40.453398,5.433545 c -0.0485,-0.242534 0.0838,-0.410104 0.29398,-0.372376 0.2102,0.03773 0.38218,-0.138929 0.38218,-0.39257 0,-0.272472 -0.26301,-0.392387 -0.64279,-0.293071 -0.35354,0.09245 -0.53916,0.335773 -0.4125,0.540714 0.14748,0.238631 -0.0125,0.287325 -0.44494,0.135416 -0.65464,-0.229969 -0.65435,-0.221036 0.01,0.292827 0.83202,0.643998 0.92759,0.654447 0.81451,0.08906 z M 61.03366,7.7973132 c 0.122488,-0.793513 0.07143,-1.248009 -0.126453,-1.125708 -0.182538,0.112813 -0.331883,0.777829 -0.331883,1.477813 0,1.561437 0.184887,1.419401 0.458336,-0.352105 z m 34.328023,0.949192 c -0.11778,-0.306911 -0.21767,-0.902224 -0.22198,-1.322917 -0.008,-0.745695 -0.0252,-0.742757 -0.69771,0.117047 -0.83534,1.067924 -0.89625,1.559773 -0.15807,1.276506 0.31395,-0.120472 0.45555,-0.06133 0.33196,0.138646 -0.11854,0.191805 0.049,0.348737 0.3722,0.348737 0.39099,0 0.51605,-0.186788 0.3736,-0.558019 z m -7.81393,-0.828716 c 0.11164,-0.180621 0.0681,-0.411763 -0.0968,-0.513648 -0.16485,-0.101886 -0.29973,0.04589 -0.29973,0.328401 0,0.594843 0.11124,0.646815 0.3965,0.185247 z m 3.29124,-0.323199 c 0.32145,-0.203956 -0.0132,-0.583286 -1.14653,-1.299669 -0.88026,-0.556408 -1.60047,-1.138743 -1.60047,-1.294079 0,-0.155336 -0.16812,-0.282429 -0.3736,-0.282429 -0.20548,0 -0.27549,0.15875 -0.15557,0.352777 0.11992,0.194028 0.0377,0.352778 -0.18264,0.352778 -0.22036,0 0.12746,0.436563 0.77293,0.970139 0.64548,0.533577 1.22652,1.089202 1.29119,1.234722 0.15341,0.345161 0.82261,0.328732 1.39469,-0.034239 z m -0.98311,-0.427553 c 0,-0.205478 0.15875,-0.275485 0.35277,-0.155569 0.19403,0.119916 0.35278,0.288035 0.35278,0.373598 0,0.08556 -0.15875,0.155569 -0.35278,0.155569 -0.19402,0 -0.35277,-0.168119 -0.35277,-0.373598 z m 2.76078,0.06625 c 0.34608,-0.219412 0.0708,-0.60403 -1.05833,-1.478793 -0.83934,-0.65024 -1.24791,-0.858671 -0.90793,-0.463181 0.33997,0.395491 0.50356,0.833644 0.36353,0.973674 -0.14003,0.14003 0.002,0.156013 0.31632,0.03552 0.31401,-0.120496 0.67573,-0.04951 0.80382,0.157744 0.12809,0.207255 0.0648,0.376828 -0.14071,0.376828 -0.20547,0 -0.37359,0.15875 -0.37359,0.352777 0,0.427384 0.36799,0.444156 0.99689,0.04544 z m 0.94338,-1.103768 c -0.11991,-0.194028 -0.37677,-0.352778 -0.5708,-0.352778 -0.19403,0 -0.25467,0.15875 -0.13475,0.352778 0.11991,0.194028 0.37677,0.352778 0.5708,0.352778 0.19403,0 0.25467,-0.15875 0.13475,-0.352778 z m -3.66997,-0.840746 c -0.60411,-0.727903 0.61233,-1.085919 1.36752,-0.402482 0.32677,0.29572 0.70621,0.537672 0.8432,0.537672 0.137,0 -0.35176,-0.515937 -1.08611,-1.146527 -0.73436,-0.630591 -1.38811,-1.265591 -1.45278,-1.411112 -0.0647,-0.14552 -0.29487,-0.264583 -0.51153,-0.264583 -0.28898,0 -0.28849,0.105449 0.002,0.395766 0.44123,0.441162 0.21755,1.368123 -0.33007,1.368123 -0.19403,0 -0.25279,-0.260579 -0.13057,-0.579065 0.18491,-0.481874 0.13293,-0.504974 -0.30969,-0.137629 -0.46017,0.381903 -0.378,0.551074 0.60928,1.254409 1.35606,0.966048 1.53964,1.03688 0.99899,0.385428 z m 2.78803,-0.923143 c 0,-0.194028 -0.17573,-0.352778 -0.39052,-0.352778 -0.21479,0 -0.30225,-0.23004 -0.19436,-0.5112 0.12758,-0.33247 0.0266,-0.446139 -0.28877,-0.325112 -0.27377,0.105056 -0.74447,-0.210004 -1.08094,-0.723522 -0.3278,-0.5002855 -0.74757,-0.9096104 -0.93282,-0.9096104 -0.38691,0 2.22136,3.1458774 2.62283,3.1634314 0.14552,0.0064 0.26458,-0.147181 0.26458,-0.341209 z M 56.169511,3.5424872 c 0.0025,-0.258297 0.482695,-0.369874 1.289522,-0.299602 l 1.285611,0.111972 -0.480286,-1.346694 c -0.26416,-0.7406824 -0.465635,-1.82294503 -0.447731,-2.40502833 0.02505,-0.81416667 0.06783,-0.87520817 0.185441,-0.2645834 0.162137,0.8417896 0.809367,1.1106239 0.809367,0.3361789 0,-0.6305734 2.381261,-2.77754127 3.880556,-3.49874817 3.982392,-1.9156515 7.383744,-2.5614529 12.22254,-2.3206457 3.910308,0.1946003 2.952972,-0.3113561 -1.11004,-0.58666 -3.629269,-0.2459143 -7.497692,0.6159278 -11.377084,2.5346898 -1.794756,0.8876937 -3.263194,1.7486013 -3.263194,1.9131284 0,0.6191586 -1.022396,0.2630075 -2.079357,-0.7243424 l -1.095643,-1.0234825 -0.0048,1.1116769 c -0.0028,0.6114225 -0.112747,1.508552 -0.244662,1.99362147 l -0.239844,0.8819445 -0.212214,-0.8819445 c -0.11672,-0.48506947 -0.409289,-0.88194447 -0.650151,-0.88194447 -0.240863,0 -0.588462,-0.2381251 -0.772443,-0.5291667 -0.258956,-0.4096509 -0.335728,-0.3128014 -0.339912,0.4288091 -0.0032,0.5937847 0.396942,1.36956777 1.052933,2.04063547 0.867794,0.88773983 1.058333,1.37686553 1.058333,2.71679263 0,0.898774 0.119062,1.515071 0.264583,1.36955 0.145521,-0.145521 0.266344,-0.449792 0.268492,-0.676157 z M 57.042145,1.2788293 C 57.038088,0.81479597 56.963952,0.77624687 56.743653,1.1236152 56.54639,1.4346651 56.441252,1.258122 56.422075,0.58363937 c -0.01566,-0.5511673 -0.07979,-1.2259553 -0.142483,-1.4995289 -0.0627,-0.27357307 0.173552,-0.56003537 0.524989,-0.63658247 0.552673,-0.1203781 0.607956,0.026197 0.409293,1.08517577 -0.139993,0.7462231 -0.07955,1.3171428 0.154767,1.4619616 0.481877,0.29781683 0.503093,0.90152513 0.03168,0.90152513 -0.194028,0 -0.355208,-0.2778125 -0.358179,-0.6173612 z m 2.915818,1.4420569 c -0.242535,-0.09787 -0.44602,-0.363145 -0.45219,-0.58951 -0.0062,-0.2263663 -0.254766,-0.7290746 -0.552429,-1.1171302 -0.514636,-0.67091173 -0.52874,-0.65359003 -0.287243,0.3527778 0.255524,1.0648034 0.727012,1.5958034 1.380057,1.5542474 0.194027,-0.01235 0.15434,-0.10252 -0.08819,-0.200385 z M 41.422027,-4.8173724 c -0.0402,-0.5753806 -0.210669,-1.046462 -0.37882,-1.0468476 -0.16815,-3.881e-4 -0.224691,0.3091875 -0.125644,0.68794 0.09905,0.3787524 0.01008,0.7453087 -0.197704,0.8145699 -0.207783,0.069261 -0.259336,0.3175871 -0.114562,0.5518358 0.428888,0.6939566 0.895399,0.1184805 0.81673,-1.0074981 z m 0.697063,0.2974168 c -0.112616,-0.2814225 -0.196209,-0.1978294 -0.213137,0.2131367 -0.01532,0.3718863 0.06806,0.5802457 0.185286,0.4630208 0.117225,-0.1172252 0.129758,-0.4214961 0.02785,-0.6761575 z m 13.517345,0.024506 c 0,-0.1940278 -0.15875,-0.254665 -0.352777,-0.1347491 -0.194028,0.1199159 -0.352778,0.3767787 -0.352778,0.5708065 0,0.1940277 0.15875,0.254665 0.352778,0.1347491 0.194027,-0.1199159 0.352777,-0.3767787 0.352777,-0.5708065 z m -6.379398,0.2676561 c -0.415624,-0.3584247 -2.124871,-0.5722624 -1.919618,-0.2401563 0.124722,0.2018047 0.640732,0.3669178 1.146688,0.3669178 0.505957,0 0.853774,-0.057043 0.77293,-0.1267615 z m 3.733565,-0.2260163 c 0.121578,-0.1967181 -0.142314,-0.3503881 -0.59654,-0.3473757 -0.655334,0.00435 -0.711126,0.072253 -0.285404,0.3473757 0.656427,0.4242153 0.619763,0.4242153 0.881944,0 z m 1.5875,0.020821 c 0,-0.5914048 -0.625665,-0.7378471 -0.833907,-0.1951824 -0.122872,0.3202009 0.0011,0.5271393 0.315811,0.5271393 0.284952,0 0.518096,-0.1493809 0.518096,-0.3319579 z m -11.518428,-1.266841 c -0.109299,-0.2848278 -0.340491,-0.517869 -0.51376,-0.517869 -0.361984,0 -0.425642,0.8301327 -0.08944,1.1663353 0.376328,0.3763282 0.815343,-0.095631 0.6032,-0.6484663 z m 6.297317,0.1171311 c -0.329259,-0.3292592 -0.517408,-0.3292592 -0.846667,0 -0.329259,0.3292591 -0.235185,0.4233333 0.423334,0.4233333 0.658519,0 0.752591,-0.094074 0.423333,-0.4233333 z m 4.162778,0.1117003 c 0,-0.3374841 -1.457657,-0.8177459 -1.711505,-0.563898 -0.118138,0.1181372 0.960783,0.6851887 1.62331,0.8531698 0.04851,0.012298 0.08819,-0.1178736 0.08819,-0.2892718 z M 44.60478,-5.7252799 c -0.117225,-0.1172249 -0.421496,-0.129758 -0.676157,-0.027852 -0.281423,0.1126158 -0.197829,0.196209 0.213137,0.2131367 0.371886,0.015318 0.580245,-0.068061 0.46302,-0.1852859 z m 3.270544,-0.31603 c 0.253136,-0.3050092 0.287422,-0.5291667 0.08094,-0.5291667 -0.197027,0 -0.449608,0.238125 -0.561291,0.5291667 -0.111684,0.2910417 -0.148106,0.5291667 -0.08094,0.5291667 0.06717,0 0.319747,-0.238125 0.561291,-0.5291667 z m -3.086805,-0.4100269 c -0.242535,-0.097865 -0.440972,-0.4915758 -0.440972,-0.8749133 0,-0.4044742 -0.158145,-0.5992386 -0.376828,-0.4640848 -0.207256,0.1280908 -0.295549,0.4447032 -0.196207,0.7035832 0.09934,0.25888 -0.0089,0.5477895 -0.240533,0.642021 -0.231635,0.094232 0.0551,0.1713301 0.637179,0.1713301 0.582083,0 0.859896,-0.080071 0.617361,-0.1779362 z m 5.107929,-0.3322765 c -0.117228,-0.1172249 -0.421499,-0.129758 -0.676158,-0.027852 -0.281423,0.1126159 -0.19783,0.196209 0.213137,0.2131367 0.371885,0.015318 0.580246,-0.068061 0.463021,-0.1852859 z m 2.917765,0.061946 c 0,-0.5808762 -1.313547,-1.2563917 -2.406449,-1.2375597 -1.201831,0.020708 -1.234254,0.047716 -0.438802,0.3655156 0.472401,0.1887347 1.056107,0.2674835 1.297121,0.1749972 0.241018,-0.092487 0.628005,0.060531 0.859977,0.34004 0.419813,0.5058438 0.688153,0.6450556 0.688153,0.3570069 z m -9.200634,-2.671032 c 0.0019,-0.3028555 -0.212208,-0.1519813 -0.500755,0.3527778 -0.27729,0.4850694 -0.496897,1.1994445 -0.488013,1.5875 0.01251,0.5462317 0.125581,0.4665695 0.500754,-0.3527777 0.266531,-0.5820834 0.486138,-1.2964584 0.488014,-1.5875001 z m 5.202486,1.5931008 c 0,-0.396306 -0.11433,-0.4286805 -0.47037,-0.1331931 -0.258704,0.2147052 -0.470371,0.4503096 -0.470371,0.523566 0,0.073256 0.211667,0.133193 0.470371,0.133193 0.258703,0 0.47037,-0.2356047 0.47037,-0.5235659 z M 45.40588,-9.0607414 c 0,-0.8647879 -0.139724,-1.3455766 -0.352778,-1.2139026 -0.597385,0.369204 -0.395018,2.6458336 0.235185,2.6458336 0.06468,0 0.117593,-0.6443691 0.117593,-1.431931 z m 2.225043,-1.2961476 c 0.280805,-0.821347 0.36889,-1.405804 0.195744,-1.298794 -0.354807,0.219283 -1.362454,2.4988075 -1.362454,3.0821775 0,0.7218214 0.6498,-0.2714354 1.16671,-1.7833835 z m 1.229826,0.9498397 c 0.247274,-0.3959482 0.362246,-0.8612287 0.255494,-1.0339567 -0.106752,-0.172729 -0.03275,-0.413765 0.164438,-0.535637 0.197193,-0.121872 0.358532,-0.404984 0.358532,-0.629138 0,-0.740142 -1.054253,0.616013 -1.390615,1.7888385 -0.36691,1.2793409 -0.05941,1.4852393 0.612151,0.4098932 z"
       style="fill:#000000;stroke-width:0.35277778" />
  </g>
</svg>
